{
  "OnInitSequece": [],
  "OnStartSequece": [
    {
      "TaskList": [
        {
          "$type": "RPG.GameCore.LevelPerformanceInitialize",
          "PerformanceType": "E",
          "HideMunicipalCrowd": false,
          "HideMunicipalPedestrian": false
        },
        {
          "$type": "RPG.GameCore.TriggerSound",
          "SoundName": "Ev_sfx_ui_feedback_rogue_randomAeon_text",
          "EmitterType": "DefaultEmitter"
        },
        {
          "$type": "RPG.GameCore.PlayAeonTalk",
          "AeonTalkId": 1,
          "AeonTalkCount": 5,
          "UseBackground": true,
          "Backgrounds": [
            {},
            {},
            {},
            {},
            {}
          ],
          "SimpleTalkList": [
            {
              "TalkSentenceID": 403051276,
              "ProtectTime": 0.3
            },
            {
              "TalkSentenceID": 403051277,
              "ProtectTime": 0.3
            },
            {
              "TalkSentenceID": 403051278,
              "ProtectTime": 0.3
            },
            {
              "TalkSentenceID": 403051279,
              "ProtectTime": 0.3
            },
            {
              "TalkSentenceID": 403051280,
              "ProtectTime": 0.3
            }
          ]
        },
        {
          "$type": "RPG.GameCore.WaitSimpleTalkFinish"
        },
        {
          "$type": "RPG.GameCore.PlayAndWaitSimpleTalk",
          "SimpleTalkList": [
            {
              "TalkSentenceID": 403050122,
              "ProtectTime": 0.3
            }
          ]
        },
        {
          "$type": "RPG.GameCore.PlayOptionTalk",
          "OptionList": [
            {
              "TalkSentenceID": 403050123,
              "OptionIconType": "ChatContinueIcon",
              "TriggerCustomString": "TalkSentence_403050124"
            },
            {
              "TalkSentenceID": 403050125,
              "OptionIconType": "ChatContinueIcon",
              "TriggerCustomString": "TalkSentence_403050126"
            },
            {
              "TalkSentenceID": 403050127,
              "OptionIconType": "ChatContinueIcon",
              "TriggerCustomString": "TalkSentence_403050128"
            }
          ]
        }
      ]
    },
    {
      "TaskList": [
        {
          "$type": "RPG.GameCore.WaitCustomString",
          "CustomString": {
            "Value": "TalkSentence_403050124"
          }
        },
        {
          "$type": "RPG.GameCore.PlayAndWaitSimpleTalk",
          "SimpleTalkList": [
            {
              "TalkSentenceID": 403050124,
              "ProtectTime": 0.3
            }
          ]
        },
        {
          "$type": "RPG.GameCore.TriggerCustomString",
          "CustomString": {
            "Value": "TalkSentence_403050129"
          }
        }
      ]
    },
    {
      "TaskList": [
        {
          "$type": "RPG.GameCore.WaitCustomString",
          "CustomString": {
            "Value": "TalkSentence_403050126"
          }
        },
        {
          "$type": "RPG.GameCore.PlayAndWaitSimpleTalk",
          "SimpleTalkList": [
            {
              "TalkSentenceID": 403050126,
              "ProtectTime": 0.3
            }
          ]
        },
        {
          "$type": "RPG.GameCore.TriggerCustomString",
          "CustomString": {
            "Value": "TalkSentence_403050129"
          }
        }
      ]
    },
    {
      "TaskList": [
        {
          "$type": "RPG.GameCore.WaitCustomString",
          "CustomString": {
            "Value": "TalkSentence_403050128"
          }
        },
        {
          "$type": "RPG.GameCore.PlayAndWaitSimpleTalk",
          "SimpleTalkList": [
            {
              "TalkSentenceID": 403050128,
              "ProtectTime": 0.3
            }
          ]
        },
        {
          "$type": "RPG.GameCore.TriggerCustomString",
          "CustomString": {
            "Value": "TalkSentence_403050129"
          }
        }
      ]
    },
    {
      "TaskList": [
        {
          "$type": "RPG.GameCore.WaitCustomString",
          "CustomString": {
            "Value": "TalkSentence_403050129"
          }
        },
        {
          "$type": "RPG.GameCore.PlayAndWaitSimpleTalk",
          "UseBackground": true,
          "Backgrounds": [
            {},
            {
              "TalkBgID": 9
            },
            {
              "TalkBgID": 8
            }
          ],
          "SimpleTalkList": [
            {
              "TalkSentenceID": 403050129,
              "ProtectTime": 0.3
            },
            {
              "TalkSentenceID": 403050130,
              "ProtectTime": 0.3
            },
            {
              "TalkSentenceID": 403050131,
              "ProtectTime": 0.3
            }
          ]
        },
        {
          "$type": "RPG.GameCore.TriggerDialogueEvent",
          "DialogueEventID": 101
        },
        {
          "$type": "RPG.GameCore.EndPerformance"
        }
      ]
    },
    {
      "TaskList": [
        {
          "$type": "RPG.GameCore.WaitPerformanceEnd"
        },
        {
          "$type": "RPG.GameCore.FinishLevelGraph"
        }
      ]
    }
  ]
}