{
  "OnInitSequece": [],
  "OnStartSequece": [
    {
      "TaskList": [
        {
          "$type": "RPG.GameCore.LevelPerformanceInitialize",
          "PerformanceType": "E",
          "HideMunicipalCrowd": false,
          "HideMunicipalPedestrian": false
        },
        {
          "$type": "RPG.GameCore.PlayAndWaitSimpleTalk",
          "UseBackground": true,
          "Backgrounds": [
            {
              "TalkBgID": 8
            },
            {
              "TalkBgID": 9
            },
            {
              "TalkBgID": 9
            },
            {
              "TalkBgID": 10
            },
            {
              "TalkBgID": 10
            },
            {
              "TalkBgID": 8
            },
            {
              "TalkBgID": 10
            },
            {
              "TalkBgID": 10
            },
            {
              "TalkBgID": 10
            }
          ],
          "SimpleTalkList": [
            {
              "TalkSentenceID": 403050141,
              "ProtectTime": 0.3
            },
            {
              "TalkSentenceID": 403050142,
              "ProtectTime": 0.3
            },
            {
              "TalkSentenceID": 403050143,
              "ProtectTime": 0.3
            },
            {
              "TalkSentenceID": 403050144,
              "ProtectTime": 0.3
            },
            {
              "TalkSentenceID": 403050145,
              "ProtectTime": 0.3
            },
            {
              "TalkSentenceID": 403050146,
              "ProtectTime": 0.3
            },
            {
              "TalkSentenceID": 403050147,
              "ProtectTime": 0.3
            },
            {
              "TalkSentenceID": 403050148,
              "ProtectTime": 0.3
            },
            {
              "TalkSentenceID": 403050149,
              "ProtectTime": 0.3
            }
          ]
        },
        {
          "$type": "RPG.GameCore.PlayOptionTalk",
          "OptionList": [
            {
              "TalkSentenceID": 403050150,
              "OptionIconType": "ChatContinueIcon",
              "TriggerCustomString": "TalkSentence_403050151"
            },
            {
              "TalkSentenceID": 403050152,
              "OptionIconType": "ChatContinueIcon",
              "TriggerCustomString": "TalkSentence_403050153"
            }
          ]
        }
      ]
    },
    {
      "TaskList": [
        {
          "$type": "RPG.GameCore.WaitCustomString",
          "CustomString": {
            "Value": "TalkSentence_403050151"
          }
        },
        {
          "$type": "RPG.GameCore.PlayAndWaitSimpleTalk",
          "UseBackground": true,
          "Backgrounds": [
            {}
          ],
          "SimpleTalkList": [
            {
              "TalkSentenceID": 403050151,
              "ProtectTime": 0.3
            }
          ]
        },
        {
          "$type": "RPG.GameCore.TriggerCustomString",
          "CustomString": {
            "Value": "ALL_TALK_END"
          }
        }
      ]
    },
    {
      "TaskList": [
        {
          "$type": "RPG.GameCore.WaitCustomString",
          "CustomString": {
            "Value": "TalkSentence_403050153"
          }
        },
        {
          "$type": "RPG.GameCore.PlayAndWaitSimpleTalk",
          "UseBackground": true,
          "Backgrounds": [
            {},
            {}
          ],
          "SimpleTalkList": [
            {
              "TalkSentenceID": 403050153,
              "ProtectTime": 0.3
            },
            {
              "TalkSentenceID": 403050154,
              "ProtectTime": 0.3
            }
          ]
        },
        {
          "$type": "RPG.GameCore.TriggerCustomString",
          "CustomString": {
            "Value": "ALL_TALK_END"
          }
        }
      ]
    },
    {
      "TaskList": [
        {
          "$type": "RPG.GameCore.WaitCustomString",
          "CustomString": {
            "Value": "ALL_TALK_END"
          }
        },
        {
          "$type": "RPG.GameCore.TriggerDialogueEvent",
          "DialogueEventID": 101
        },
        {
          "$type": "RPG.GameCore.EndPerformance"
        }
      ]
    },
    {
      "TaskList": [
        {
          "$type": "RPG.GameCore.WaitPerformanceEnd"
        },
        {
          "$type": "RPG.GameCore.FinishLevelGraph"
        }
      ]
    }
  ]
}