{
  "OnInitSequece": [],
  "OnStartSequece": [
    {
      "TaskList": [
        {
          "$type": "RPG.GameCore.PropEnableCollider",
          "OPType": "TriggerOnly",
          "TriggerSelect": "PropInteractionTrigger",
          "TargetType": {
            "$type": "RPG.GameCore.TargetFetchAdvPropEx",
            "FetchType": "SinglePropByPropKey",
            "SinglePropKey": {
              "Custom": true,
              "Key": "TargetController"
            }
          }
        }
      ]
    },
    {
      "TaskList": [
        {
          "$type": "RPG.GameCore.PropStateExecute",
          "TargetType": {
            "$type": "RPG.GameCore.TargetFetchAdvPropEx",
            "FetchType": "SinglePropByPropKey",
            "SinglePropKey": {
              "Custom": true,
              "Key": "TargetController"
            }
          },
          "State": "Open",
          "Execute": [
            {
              "$type": "RPG.GameCore.PropSetVisibility",
              "SpecifiedRelativePaths": [],
              "TargetType": {
                "$type": "RPG.GameCore.TargetFetchAdvPropEx",
                "FetchType": "SinglePropByPropKey",
                "SinglePropKey": {
                  "Custom": true,
                  "Key": "TargetController"
                }
              }
            },
            {
              "$type": "RPG.GameCore.PropEnableCollider",
              "TargetType": {
                "$type": "RPG.GameCore.TargetFetchAdvPropEx",
                "FetchType": "SinglePropByPropKey",
                "SinglePropKey": {
                  "Custom": true,
                  "Key": "TargetController"
                }
              }
            },
            {
              "$type": "RPG.GameCore.PropEnableCollider",
              "OPType": "TriggerOnly",
              "TriggerSelect": "HintTrigger",
              "TargetType": {
                "$type": "RPG.GameCore.TargetFetchAdvPropEx"
              }
            }
          ]
        }
      ]
    },
    {
      "TaskList": [
        {
          "$type": "RPG.GameCore.PropStateExecute",
          "TargetType": {
            "$type": "RPG.GameCore.TargetFetchAdvPropEx",
            "FetchType": "SinglePropByPropKey",
            "SinglePropKey": {
              "Custom": true,
              "Key": "TargetController"
            }
          },
          "Execute": [
            {
              "$type": "RPG.GameCore.PropSetupUITrigger",
              "ButtonText": {
                "Hash": -1017980449
              },
              "ButtonCallback": [
                {
                  "$type": "RPG.GameCore.PropEnableCollider",
                  "OPType": "TriggerOnly",
                  "TriggerSelect": "HintTrigger",
                  "TargetType": {
                    "$type": "RPG.GameCore.TargetFetchAdvPropEx"
                  }
                },
                {
                  "$type": "RPG.GameCore.StartPropInteractMode",
                  "TargetType": {
                    "$type": "RPG.GameCore.TargetFetchAdvPropEx"
                  },
                  "Mode": "UsePose02"
                },
                {
                  "$type": "RPG.GameCore.PropEnableCollider",
                  "SpecifiedRelativePaths": [],
                  "TargetType": {
                    "$type": "RPG.GameCore.TargetFetchAdvPropEx"
                  }
                },
                {
                  "$type": "RPG.GameCore.ShowCableUI",
                  "Visible": true,
                  "TaskEnabled": false
                },
                {
                  "$type": "RPG.GameCore.ActiveVirtualCamera",
                  "LevelAreaCameraKey": {
                    "Custom": true,
                    "Key": "Vcam"
                  },
                  "BlendConfig": {
                    "ExportToJson": true,
                    "BlendType": "Cut"
                  }
                },
                {
                  "$type": "RPG.GameCore.AnimSetParameter",
                  "TargetType": {
                    "$type": "RPG.GameCore.TargetFetchAdvPropEx",
                    "FetchType": "SinglePropByPropKey",
                    "SinglePropKey": {
                      "Custom": true,
                      "Key": "TargetController"
                    }
                  },
                  "ParameterName": "IsSelected",
                  "ParameterType": "Bool"
                },
                {
                  "$type": "RPG.GameCore.PropInitPuzzle",
                  "BoardPath": {
                    "Custom": true,
                    "Key": "LinkGamePerfab"
                  },
                  "LocalPosition": {
                    "X": 0,
                    "Y": 0,
                    "Z": 0
                  }
                },
                {
                  "$type": "RPG.GameCore.TakenMazePuzzleChallenge",
                  "TargetType": {
                    "$type": "RPG.GameCore.TargetFetchAdvPropEx"
                  },
                  "MazePuzzleChallengeID": {
                    "Value": "1018"
                  },
                  "AutoClosePuzzle": false,
                  "AutoResetPuzzle": false,
                  "AutoFinishChallenge": false,
                  "OnReset": []
                },
                {
                  "$type": "RPG.GameCore.SetLocalPlayerDitherAlpha"
                }
              ],
              "OverrideTargetTypes": [],
              "TargetType": {
                "$type": "RPG.GameCore.TargetFetchAdvPropEx"
              }
            }
          ]
        }
      ]
    },
    {
      "TaskList": [
        {
          "$type": "RPG.GameCore.PropPuzzleEventListener",
          "FinishCallback": [
            {
              "$type": "RPG.GameCore.PropEnableCollider",
              "OPType": "TriggerOnly",
              "TriggerSelect": "PropInteractionTrigger",
              "TargetType": {
                "$type": "RPG.GameCore.TargetFetchAdvPropEx"
              }
            },
            {
              "$type": "RPG.GameCore.PlayScreenTransfer",
              "Mode": "SwitchOut",
              "CustomTime": 0.2
            },
            {
              "$type": "RPG.GameCore.WaitSecond",
              "WaitTime": 1,
              "TaskEnabled": false
            },
            {
              "$type": "RPG.GameCore.TriggerCustomString",
              "CustomString": {
                "Value": "CablePuzzle_Finish"
              },
              "TaskEnabled": false
            },
            {
              "$type": "RPG.GameCore.PropClosePuzzle"
            },
            {
              "$type": "RPG.GameCore.FinishMazePuzzleChallenge",
              "MazePuzzleChallengeID": {
                "Value": "1018"
              }
            },
            {
              "$type": "RPG.GameCore.ActiveVirtualCamera",
              "LevelAreaCameraKey": {
                "Custom": true,
                "Key": "Vcam"
              },
              "IsActive": false,
              "BlendConfig": {
                "ExportToJson": true,
                "BlendType": "Cut"
              },
              "KeepMainCameraRotation": true,
              "TaskEnabled": false
            },
            {
              "$type": "RPG.GameCore.SetLocalPlayerDitherAlpha",
              "DitherAlpha": 1,
              "Duration": 0.2
            },
            {
              "$type": "RPG.GameCore.ToastPage",
              "MessageOne": {
                "Hash": 362442128
              },
              "MessageTwo": {
                "Hash": 287803311
              },
              "CanInterrupt": true
            },
            {
              "$type": "RPG.GameCore.PlayScreenTransfer",
              "Mode": "SwitchOut",
              "CustomTime": 0.5,
              "TaskEnabled": false
            },
            {
              "$type": "RPG.GameCore.TriggerSound",
              "SoundName": "Ev_sfx_belobog_robot04_repair"
            },
            {
              "$type": "RPG.GameCore.WaitSecond",
              "WaitTime": 0.5,
              "TaskEnabled": false
            },
            {
              "$type": "RPG.GameCore.PropStateExecute",
              "TargetType": {
                "$type": "RPG.GameCore.TargetFetchAdvPropEx",
                "FetchType": "SinglePropByPropKey",
                "SinglePropKey": {
                  "Custom": true,
                  "Key": "TargetController"
                }
              },
              "Execute": [
                {
                  "$type": "RPG.GameCore.PropReqInteract",
                  "TargetType": {
                    "$type": "RPG.GameCore.TargetFetchAdvPropEx",
                    "FetchType": "SinglePropByPropKey",
                    "SinglePropKey": {
                      "Custom": true,
                      "Key": "TargetController"
                    }
                  },
                  "InteractID": {
                    "IsDynamic": false,
                    "FixedValue": {
                      "Value": 1010
                    }
                  }
                }
              ]
            }
          ],
          "QuitCallback": [
            {
              "$type": "RPG.GameCore.CancelMazePuzzleChallenge",
              "MazePuzzleChallengeID": {
                "Value": "1018"
              }
            },
            {
              "$type": "RPG.GameCore.PropClosePuzzle"
            },
            {
              "$type": "RPG.GameCore.ActiveVirtualCamera",
              "LevelAreaCameraKey": {
                "Custom": true,
                "Key": "Vcam"
              },
              "IsActive": false,
              "BlendConfig": {
                "ExportToJson": true,
                "BlendType": "Cut",
                "BlendTime": 0.1
              },
              "KeepMainCameraRotation": true
            },
            {
              "$type": "RPG.GameCore.SetLocalPlayerDitherAlpha",
              "DitherAlpha": 1,
              "Duration": 0.2
            },
            {
              "$type": "RPG.GameCore.EndPropInteract"
            },
            {
              "$type": "RPG.GameCore.PropEnableCollider",
              "Enabled": true,
              "SpecifiedRelativePaths": [],
              "TargetType": {
                "$type": "RPG.GameCore.TargetFetchAdvPropEx"
              }
            },
            {
              "$type": "RPG.GameCore.AnimSetParameter",
              "TargetType": {
                "$type": "RPG.GameCore.TargetFetchAdvPropEx",
                "FetchType": "SinglePropByPropKey",
                "SinglePropKey": {
                  "Custom": true,
                  "Key": "TargetController"
                }
              },
              "ParameterName": "IsSelected",
              "ParameterType": "Bool",
              "Value": 1
            }
          ]
        }
      ]
    },
    {
      "IsLoop": true,
      "TaskList": [
        {
          "$type": "RPG.GameCore.WaitCustomString",
          "CustomString": {
            "Value": "CablePuzzle_Reset"
          },
          "WaitOwnerOnly": true
        },
        {
          "$type": "RPG.GameCore.PlayScreenTransfer",
          "Mode": "SwitchOut",
          "CustomTime": 0.5
        },
        {
          "$type": "RPG.GameCore.ToastPile",
          "DescTextID": {
            "Hash": -2026194592
          }
        },
        {
          "$type": "RPG.GameCore.WaitSecond"
        },
        {
          "$type": "RPG.GameCore.PlayScreenTransfer",
          "CustomTime": 0.5
        }
      ]
    },
    {
      "TaskList": [
        {
          "$type": "RPG.GameCore.PropStateChangeListenerConfig",
          "ToState": "Open",
          "OnChange": [
            {
              "$type": "RPG.GameCore.SetLocalPlayerDitherAlpha",
              "DitherAlpha": 1,
              "Duration": 0.2
            },
            {
              "$type": "RPG.GameCore.ActiveVirtualCamera",
              "AreaName": "Puzzle_Cameras",
              "AnchorName": "TestRobotGame",
              "LevelAreaCameraKey": {
                "Custom": true,
                "Key": "Vcam"
              },
              "IsActive": false,
              "BlendConfig": {
                "ExportToJson": true,
                "BlendType": "Cut",
                "BlendTime": 0.1
              },
              "KeepMainCameraRotation": true
            },
            {
              "$type": "RPG.GameCore.PropEnableCollider",
              "SpecifiedRelativePaths": [],
              "TriggerSelect": "PropInteractionTrigger",
              "TargetType": {
                "$type": "RPG.GameCore.TargetFetchAdvPropEx"
              }
            },
            {
              "$type": "RPG.GameCore.PropSetVisibility",
              "SpecifiedRelativePaths": [],
              "TargetType": {
                "$type": "RPG.GameCore.TargetFetchAdvPropEx",
                "FetchType": "SinglePropByPropKey",
                "SinglePropKey": {
                  "Custom": true,
                  "Key": "TargetController"
                }
              }
            },
            {
              "$type": "RPG.GameCore.PropEnableCollider",
              "TargetType": {
                "$type": "RPG.GameCore.TargetFetchAdvPropEx",
                "FetchType": "SinglePropByPropKey",
                "SinglePropKey": {
                  "Custom": true,
                  "Key": "TargetController"
                }
              }
            },
            {
              "$type": "RPG.GameCore.PlayScreenTransfer",
              "CustomTime": 0.5,
              "TaskEnabled": false
            },
            {
              "$type": "RPG.GameCore.TriggerSound",
              "SoundName": "Ev_sfx_belobog_robot04_takeoff"
            },
            {
              "$type": "RPG.GameCore.EndPropInteract"
            }
          ],
          "TargetType": {
            "$type": "RPG.GameCore.TargetFetchAdvPropEx",
            "FetchType": "SinglePropByPropKey",
            "SinglePropKey": {
              "Custom": true,
              "Key": "TargetController"
            }
          }
        }
      ]
    }
  ],
  "ValueSource": {
    "Values": [
      {
        "$type": "RPG.GameCore.SharedString",
        "Key": "Vcam"
      },
      {
        "$type": "RPG.GameCore.SharedString",
        "Key": "TargetController"
      },
      {
        "$type": "RPG.GameCore.SharedString",
        "Key": "LinkGamePerfab"
      },
      {
        "$type": "RPG.GameCore.SharedString",
        "Key": "RobotGamePlay_UP_Prop"
      }
    ]
  }
}