{
  "OnInitSequece": [],
  "OnStartSequece": [
    {
      "TaskList": [
        {
          "$type": "RPG.GameCore.WaitCustomString",
          "CustomString": {
            "Value": "RobotGamePlay_Remove"
          },
          "WaitOwnerOnly": true
        },
        {
          "$type": "RPG.GameCore.AnimSetParameter",
          "AnimatorPath": "Chap01_Prop_Robot",
          "ParameterName": "OutOFBattle",
          "ParameterType": "Bool",
          "Value": 1
        }
      ]
    },
    {
      "IsLoop": true,
      "TaskList": [
        {
          "$type": "RPG.GameCore.WaitCustomString",
          "CustomString": {
            "Value": "RobotGamePlay_Enemy"
          },
          "WaitOwnerOnly": true
        },
        {
          "$type": "RPG.GameCore.PlayMissionTalk",
          "SimpleTalkList": [
            {
              "TalkSentenceID": 701040354,
              "ProtectTime": 2
            }
          ]
        },
        {
          "$type": "RPG.GameCore.TriggerSound",
          "SoundName": "Ev_sfx_belobog_robot04_alert"
        }
      ]
    },
    {
      "TaskList": [
        {
          "$type": "RPG.GameCore.WaitCustomString",
          "CustomString": {
            "Value": "AD_Push_Begin"
          }
        },
        {
          "$type": "RPG.GameCore.WaitSecond",
          "WaitTime": 1
        },
        {
          "$type": "RPG.GameCore.DriveCurvePropGroupObject"
        }
      ]
    },
    {
      "TaskList": [
        {
          "$type": "RPG.GameCore.WaitSecond",
          "WaitTime": 0.4
        },
        {
          "$type": "RPG.GameCore.ShowWaypointByProp",
          "UseOwnerEntity": true,
          "MaxRange": 50,
          "IconPath": "SpriteOutput/MapPics/NaviIcons/IconMapPlay6.png",
          "OnNameBoard": true,
          "TaskEnabled": false
        }
      ]
    },
    {
      "IsLoop": true,
      "TaskList": [
        {
          "$type": "RPG.GameCore.WaitCustomString",
          "CustomString": {
            "Value": "RobotGamePlay_Player"
          },
          "WaitOwnerOnly": true
        },
        {
          "$type": "RPG.GameCore.PlayMissionTalk",
          "SimpleTalkList": [
            {
              "TalkSentenceID": 701040359,
              "ProtectTime": 2
            },
            {
              "TalkSentenceID": 701040360,
              "ProtectTime": 2
            }
          ]
        }
      ]
    }
  ],
  "ValueSource": {
    "Values": []
  }
}