{
  "OnInitSequece": [],
  "OnStartSequece": [
    {
      "TaskList": [
        {
          "$type": "RPG.GameCore.WaitCustomString",
          "CustomString": {
            "Value": "RobotGamePlay_Remove"
          },
          "WaitOwnerOnly": true
        },
        {
          "$type": "RPG.GameCore.AnimSetParameter",
          "AnimatorPath": "Chap01_Prop_Robot",
          "ParameterName": "OutOFBattle",
          "ParameterType": "Bool",
          "Value": 1
        }
      ]
    },
    {
      "IsLoop": true,
      "TaskList": [
        {
          "$type": "RPG.GameCore.WaitCustomString",
          "CustomString": {
            "Value": "RobotGamePlay_Enemy"
          },
          "WaitOwnerOnly": true
        },
        {
          "$type": "RPG.GameCore.PlayMissionTalk",
          "SimpleTalkList": [
            {
              "TalkSentenceID": 701040354,
              "ProtectTime": 2
            }
          ]
        },
        {
          "$type": "RPG.GameCore.TriggerSound",
          "SoundName": "Ev_sfx_belobog_robot04_alert"
        }
      ]
    },
    {
      "TaskList": [
        {
          "$type": "RPG.GameCore.WaitSecond",
          "WaitTime": 0.4
        },
        {
          "$type": "RPG.GameCore.ShowWaypointByProp",
          "UseOwnerEntity": true,
          "MaxRange": 50,
          "IconPath": "SpriteOutput/MapPics/NaviIcons/IconMapPlay6.png",
          "OnNameBoard": true
        }
      ]
    },
    {
      "IsLoop": true,
      "TaskList": [
        {
          "$type": "RPG.GameCore.WaitCustomString",
          "CustomString": {
            "Value": "RobotGamePlay_Player"
          },
          "WaitOwnerOnly": true
        },
        {
          "$type": "RPG.GameCore.PlayMissionTalk",
          "SimpleTalkList": [
            {
              "TalkSentenceID": 701040359,
              "ProtectTime": 2
            },
            {
              "TalkSentenceID": 701040360,
              "ProtectTime": 2
            }
          ]
        }
      ]
    },
    {
      "TaskList": [
        {
          "$type": "RPG.GameCore.WaitCustomString",
          "CustomString": {
            "Value": "MazePuzzle_Drone_Up"
          },
          "WaitOwnerOnly": true
        },
        {
          "$type": "RPG.GameCore.BlockInputController",
          "Enable": true,
          "ActionNameList": []
        },
        {
          "$type": "RPG.GameCore.AdvForceNpcGoBack"
        },
        {
          "$type": "RPG.GameCore.EnableNPCMonsterAI",
          "GroupMonsterIDs": [],
          "UniqueNames": []
        },
        {
          "$type": "RPG.GameCore.HideTopPage",
          "Hide": true
        },
        {
          "$type": "RPG.GameCore.EnableBillboard",
          "TargetType": {
            "$type": "RPG.GameCore.TargetFetchAdvPropEx"
          }
        },
        {
          "$type": "RPG.GameCore.GlobalShowBillboard"
        },
        {
          "$type": "RPG.GameCore.CaptureLocalPlayer",
          "CharacterUniqueName": "LocalPlayer"
        },
        {
          "$type": "RPG.GameCore.WaitSecond",
          "WaitTime": 0.1
        },
        {
          "$type": "RPG.GameCore.CharacterTriggerAnimState",
          "CharacterUniqueName": {
            "Value": "LocalPlayer"
          },
          "AnimStateName": "UseProp1",
          "NormalizedTransitionDuration": 0.1
        },
        {
          "$type": "RPG.GameCore.WaitSecond",
          "WaitTime": 0.75
        },
        {
          "$type": "RPG.GameCore.ReleaseCharacter",
          "CharacterUniqueName": "LocalPlayer"
        },
        {
          "$type": "RPG.GameCore.BlockInputController",
          "ActionNameList": []
        },
        {
          "$type": "RPG.GameCore.WaitSecond",
          "WaitTime": 1
        },
        {
          "$type": "RPG.GameCore.DriveCurvePropGroupObject"
        },
        {
          "$type": "RPG.GameCore.HideTopPage"
        },
        {
          "$type": "RPG.GameCore.WaitSecond",
          "WaitTime": 0.4
        },
        {
          "$type": "RPG.GameCore.BlockInputController",
          "ActionNameList": []
        },
        {
          "$type": "RPG.GameCore.EnableNPCMonsterAI",
          "Enable": true,
          "GroupMonsterIDs": [],
          "UniqueNames": []
        },
        {
          "$type": "RPG.GameCore.BlockInputController",
          "ActionNameList": []
        },
        {
          "$type": "RPG.GameCore.GlobalShowBillboard",
          "IsShow": true
        }
      ]
    }
  ],
  "ValueSource": {
    "Values": []
  }
}