{
  "OnInitSequece": [],
  "OnStartSequece": [
    {
      "TaskList": [
        {
          "$type": "RPG.GameCore.PropSetupTrigger",
          "TargetType": {
            "$type": "RPG.GameCore.TargetFetchAdvPropEx"
          },
          "TargetGroupID": {
            "IsDynamic": false,
            "FixedValue": {
              "Value": 0
            }
          },
          "TargetID": {
            "IsDynamic": false,
            "FixedValue": {
              "Value": 0
            }
          },
          "TargetTypes": [],
          "ColliderRelativePath": "CustomTrigger_01",
          "OnTriggerEnter": [
            {
              "$type": "RPG.GameCore.TakenMazePuzzleChallenge",
              "TargetType": {
                "$type": "RPG.GameCore.TargetFetchAdvPropEx"
              },
              "MazePuzzleChallengeID": {
                "Custom": true,
                "Key": "MazePuzzleID"
              },
              "AutoClosePuzzle": false,
              "AutoResetPuzzle": false,
              "OnReset": [
                {
                  "$type": "RPG.GameCore.PlayScreenTransfer",
                  "Mode": "SwitchOut",
                  "CustomTime": 0.1
                },
                {
                  "$type": "RPG.GameCore.TriggerCustomString",
                  "CustomString": {
                    "Custom": true,
                    "Key": "ResetSting"
                  }
                },
                {
                  "$type": "RPG.GameCore.WaitSecond",
                  "WaitTime": 0.8
                },
                {
                  "$type": "RPG.GameCore.ToastPile",
                  "DescTextID": {
                    "Hash": -2026194592
                  }
                },
                {
                  "$type": "RPG.GameCore.PlayScreenTransfer",
                  "CustomTime": 0.1
                }
              ]
            }
          ],
          "OnTriggerExit": [
            {
              "$type": "RPG.GameCore.CancelMazePuzzleChallenge",
              "MazePuzzleChallengeID": {
                "Custom": true,
                "Key": "MazePuzzleID"
              }
            }
          ]
        }
      ]
    },
    {
      "TaskList": [
        {
          "$type": "RPG.GameCore.WaitCustomString",
          "CustomString": {
            "Custom": true,
            "Key": "PuzzleFinishNotify"
          }
        },
        {
          "$type": "RPG.GameCore.FinishMazePuzzleChallenge",
          "MazePuzzleChallengeID": {
            "Custom": true,
            "Key": "MazePuzzleID"
          }
        },
        {
          "$type": "RPG.GameCore.ToastPage",
          "MessageOne": {
            "Hash": -1582373247
          },
          "MessageTwo": {
            "Hash": 2015940038
          },
          "CanInterrupt": true
        }
      ]
    }
  ],
  "ValueSource": {
    "Values": [
      {
        "$type": "RPG.GameCore.SharedString",
        "Key": "MazePuzzleID"
      },
      {
        "$type": "RPG.GameCore.SharedString",
        "Key": "PuzzleResetNofify"
      },
      {
        "$type": "RPG.GameCore.SharedString",
        "Key": "PuzzleFinishNotify"
      },
      {
        "$type": "RPG.GameCore.SharedString",
        "Key": "MainPuzzleFinishToast"
      },
      {
        "$type": "RPG.GameCore.SharedString",
        "Key": "SubPuzzleFinishToast"
      }
    ]
  }
}