{
  "OnInitSequece": [
    {
      "TaskList": [
        {
          "$type": "RPG.GameCore.PropSetupTrigger",
          "TargetType": {
            "$type": "RPG.GameCore.TargetFetchAdvPropEx"
          },
          "TargetGroupID": {
            "IsDynamic": false,
            "FixedValue": {
              "Value": 0
            }
          },
          "TargetID": {
            "IsDynamic": false,
            "FixedValue": {
              "Value": 0
            }
          },
          "TargetTypes": [],
          "OnTriggerEnter": [
            {
              "$type": "RPG.GameCore.PlayMunicipalChat",
              "MunicipalChatConfigPathDS": {
                "Custom": true,
                "Key": "PlayMunicipalChatPath"
              },
              "MunicipalChatNameDS": {
                "Custom": true,
                "Key": "PlayMunicipalChatName"
              }
            }
          ],
          "OnTriggerExit": []
        }
      ]
    }
  ],
  "OnStartSequece": [],
  "ValueSource": {
    "Values": [
      {
        "$type": "RPG.GameCore.SharedString",
        "Key": "PlayMunicipalChatPath"
      },
      {
        "$type": "RPG.GameCore.SharedString",
        "Key": "PlayMunicipalChatName"
      }
    ]
  }
}