{
  "OnInitSequece": [],
  "OnStartSequece": [
    {
      "TaskList": [
        {
          "$type": "RPG.GameCore.LevelPerformanceInitialize",
          "PerformanceType": "E",
          "HideMunicipalCrowd": false,
          "HideMunicipalPedestrian": false
        },
        {
          "$type": "RPG.GameCore.AdvEntityFaceTo",
          "SourceType": {
            "$type": "RPG.GameCore.TargetFetchAdvLocalPlayer"
          },
          "TargetType": {
            "$type": "RPG.GameCore.TargetFetchAdvPropEx",
            "FetchType": "SinglePropByPropID",
            "SinglePropID": {
              "GroupID": {
                "IsDynamic": false,
                "FixedValue": {
                  "Value": 102
                }
              },
              "ID": {
                "IsDynamic": false,
                "FixedValue": {
                  "Value": 300001
                }
              }
            }
          },
          "EnableSteer": true,
          "FinishImmediately": false,
          "ForceToStandBy": true
        },
        {
          "$type": "RPG.GameCore.PlaySimpleTalk",
          "SimpleTalkList": [
            {
              "TalkSentenceID": 100025001
            },
            {
              "TalkSentenceID": 100025002
            }
          ]
        },
        {
          "$type": "RPG.GameCore.WaitSimpleTalkFinish"
        },
        {
          "$type": "RPG.GameCore.TriggerCustomString",
          "CustomString": {
            "Value": "100010162_Get"
          }
        }
      ]
    },
    {
      "TaskList": [
        {
          "$type": "RPG.GameCore.WaitCustomString",
          "CustomString": {
            "Value": "100010162_Get"
          }
        },
        {
          "$type": "RPG.GameCore.SwitchCase",
          "TaskList": [
            {
              "Predicate": {
                "$type": "RPG.GameCore.ByLocalPlayerAvatarID",
                "AvatarIDs": [
                  1001,
                  1108,
                  1203,
                  1204
                ]
              },
              "SuccessTaskList": [
                {
                  "$type": "RPG.GameCore.PlaySimpleTalk",
                  "SimpleTalkList": [
                    {
                      "TalkSentenceID": 100025003
                    }
                  ]
                },
                {
                  "$type": "RPG.GameCore.WaitSimpleTalkFinish"
                },
                {
                  "$type": "RPG.GameCore.TriggerCustomString",
                  "CustomString": {
                    "Value": "100010162_End"
                  }
                }
              ]
            },
            {
              "Predicate": {
                "$type": "RPG.GameCore.ByLocalPlayerAvatarID",
                "AvatarIDs": [
                  1006
                ]
              },
              "SuccessTaskList": [
                {
                  "$type": "RPG.GameCore.PlaySimpleTalk",
                  "SimpleTalkList": [
                    {
                      "TalkSentenceID": 100025004
                    }
                  ]
                },
                {
                  "$type": "RPG.GameCore.WaitSimpleTalkFinish"
                },
                {
                  "$type": "RPG.GameCore.TriggerCustomString",
                  "CustomString": {
                    "Value": "100010162_End"
                  }
                }
              ]
            },
            {
              "Predicate": {
                "$type": "RPG.GameCore.ByLocalPlayerAvatarID",
                "AvatarIDs": [
                  1013
                ]
              },
              "SuccessTaskList": [
                {
                  "$type": "RPG.GameCore.PlaySimpleTalk",
                  "SimpleTalkList": [
                    {
                      "TalkSentenceID": 100025005
                    }
                  ]
                },
                {
                  "$type": "RPG.GameCore.WaitSimpleTalkFinish"
                },
                {
                  "$type": "RPG.GameCore.TriggerCustomString",
                  "CustomString": {
                    "Value": "100010162_End"
                  }
                }
              ]
            },
            {
              "Predicate": {
                "$type": "RPG.GameCore.ByLocalPlayerAvatarID",
                "AvatarIDs": [
                  1109
                ]
              },
              "SuccessTaskList": [
                {
                  "$type": "RPG.GameCore.PlaySimpleTalk",
                  "SimpleTalkList": [
                    {
                      "TalkSentenceID": 100025006
                    }
                  ]
                },
                {
                  "$type": "RPG.GameCore.WaitSimpleTalkFinish"
                },
                {
                  "$type": "RPG.GameCore.TriggerCustomString",
                  "CustomString": {
                    "Value": "100010162_End"
                  }
                }
              ]
            },
            {
              "Predicate": {
                "$type": "RPG.GameCore.ByLocalPlayerAvatarID",
                "AvatarIDs": [
                  1201
                ]
              },
              "SuccessTaskList": [
                {
                  "$type": "RPG.GameCore.PlaySimpleTalk",
                  "SimpleTalkList": [
                    {
                      "TalkSentenceID": 100025007
                    }
                  ]
                },
                {
                  "$type": "RPG.GameCore.WaitSimpleTalkFinish"
                },
                {
                  "$type": "RPG.GameCore.TriggerCustomString",
                  "CustomString": {
                    "Value": "100010162_End"
                  }
                }
              ]
            },
            {
              "Predicate": {
                "$type": "RPG.GameCore.ByLocalPlayerAvatarID",
                "AvatarIDs": [
                  1004
                ]
              },
              "SuccessTaskList": [
                {
                  "$type": "RPG.GameCore.PlaySimpleTalk",
                  "SimpleTalkList": [
                    {
                      "TalkSentenceID": 100025008
                    }
                  ]
                },
                {
                  "$type": "RPG.GameCore.WaitSimpleTalkFinish"
                },
                {
                  "$type": "RPG.GameCore.TriggerCustomString",
                  "CustomString": {
                    "Value": "100010162_End"
                  }
                }
              ]
            },
            {
              "Predicate": {
                "$type": "RPG.GameCore.ByLocalPlayerAvatarID",
                "AvatarIDs": [
                  1002
                ]
              },
              "SuccessTaskList": [
                {
                  "$type": "RPG.GameCore.PlaySimpleTalk",
                  "SimpleTalkList": [
                    {
                      "TalkSentenceID": 100025009
                    }
                  ]
                },
                {
                  "$type": "RPG.GameCore.WaitSimpleTalkFinish"
                },
                {
                  "$type": "RPG.GameCore.TriggerCustomString",
                  "CustomString": {
                    "Value": "100010162_End"
                  }
                }
              ]
            },
            {
              "Predicate": {
                "$type": "RPG.GameCore.ByLocalPlayerAvatarID",
                "AvatarIDs": [
                  1104
                ]
              },
              "SuccessTaskList": [
                {
                  "$type": "RPG.GameCore.PlaySimpleTalk",
                  "SimpleTalkList": [
                    {
                      "TalkSentenceID": 100025010
                    }
                  ]
                },
                {
                  "$type": "RPG.GameCore.WaitSimpleTalkFinish"
                },
                {
                  "$type": "RPG.GameCore.TriggerCustomString",
                  "CustomString": {
                    "Value": "100010162_End"
                  }
                }
              ]
            },
            {
              "Predicate": {
                "$type": "RPG.GameCore.ByLocalPlayerAvatarID",
                "AvatarIDs": [
                  1102
                ]
              },
              "SuccessTaskList": [
                {
                  "$type": "RPG.GameCore.PlaySimpleTalk",
                  "SimpleTalkList": [
                    {
                      "TalkSentenceID": 100025011
                    }
                  ]
                },
                {
                  "$type": "RPG.GameCore.WaitSimpleTalkFinish"
                },
                {
                  "$type": "RPG.GameCore.TriggerCustomString",
                  "CustomString": {
                    "Value": "100010162_End"
                  }
                }
              ]
            },
            {
              "Predicate": {
                "$type": "RPG.GameCore.ByLocalPlayerAvatarID",
                "AvatarIDs": [
                  1111
                ]
              },
              "SuccessTaskList": [
                {
                  "$type": "RPG.GameCore.PlaySimpleTalk",
                  "SimpleTalkList": [
                    {
                      "TalkSentenceID": 100025012
                    }
                  ]
                },
                {
                  "$type": "RPG.GameCore.WaitSimpleTalkFinish"
                },
                {
                  "$type": "RPG.GameCore.TriggerCustomString",
                  "CustomString": {
                    "Value": "100010162_End"
                  }
                }
              ]
            },
            {
              "Predicate": {
                "$type": "RPG.GameCore.ByLocalPlayerAvatarID",
                "AvatarIDs": [
                  1205
                ]
              },
              "SuccessTaskList": [
                {
                  "$type": "RPG.GameCore.PlaySimpleTalk",
                  "SimpleTalkList": [
                    {
                      "TalkSentenceID": 100025013
                    }
                  ]
                },
                {
                  "$type": "RPG.GameCore.WaitSimpleTalkFinish"
                },
                {
                  "$type": "RPG.GameCore.TriggerCustomString",
                  "CustomString": {
                    "Value": "100010162_End"
                  }
                }
              ]
            },
            {
              "Predicate": {
                "$type": "RPG.GameCore.ByLocalPlayerAvatarID",
                "AvatarIDs": [
                  1008
                ]
              },
              "SuccessTaskList": [
                {
                  "$type": "RPG.GameCore.PlaySimpleTalk",
                  "SimpleTalkList": [
                    {
                      "TalkSentenceID": 100025014
                    }
                  ]
                },
                {
                  "$type": "RPG.GameCore.WaitSimpleTalkFinish"
                },
                {
                  "$type": "RPG.GameCore.TriggerCustomString",
                  "CustomString": {
                    "Value": "100010162_End"
                  }
                }
              ]
            },
            {
              "Predicate": {
                "$type": "RPG.GameCore.ByLocalPlayerAvatarID",
                "AvatarIDs": [
                  1209
                ]
              },
              "SuccessTaskList": [
                {
                  "$type": "RPG.GameCore.PlaySimpleTalk",
                  "SimpleTalkList": [
                    {
                      "TalkSentenceID": 100025015
                    }
                  ]
                },
                {
                  "$type": "RPG.GameCore.WaitSimpleTalkFinish"
                },
                {
                  "$type": "RPG.GameCore.TriggerCustomString",
                  "CustomString": {
                    "Value": "100010162_End"
                  }
                }
              ]
            },
            {
              "Predicate": {
                "$type": "RPG.GameCore.ByLocalPlayerAvatarID",
                "AvatarIDs": [
                  8001
                ]
              },
              "SuccessTaskList": [
                {
                  "$type": "RPG.GameCore.PlaySimpleTalk",
                  "SimpleTalkList": [
                    {
                      "TalkSentenceID": 100025016
                    }
                  ]
                },
                {
                  "$type": "RPG.GameCore.WaitSimpleTalkFinish"
                },
                {
                  "$type": "RPG.GameCore.TriggerCustomString",
                  "CustomString": {
                    "Value": "100010162_End"
                  }
                }
              ]
            },
            {
              "Predicate": {
                "$type": "RPG.GameCore.ByLocalPlayerAvatarID",
                "AvatarIDs": [
                  1101
                ]
              },
              "SuccessTaskList": [
                {
                  "$type": "RPG.GameCore.PlaySimpleTalk",
                  "SimpleTalkList": [
                    {
                      "TalkSentenceID": 100025017
                    }
                  ]
                },
                {
                  "$type": "RPG.GameCore.WaitSimpleTalkFinish"
                },
                {
                  "$type": "RPG.GameCore.TriggerCustomString",
                  "CustomString": {
                    "Value": "100010162_End"
                  }
                }
              ]
            },
            {
              "Predicate": {
                "$type": "RPG.GameCore.ByLocalPlayerAvatarID",
                "AvatarIDs": [
                  1009
                ]
              },
              "SuccessTaskList": [
                {
                  "$type": "RPG.GameCore.PlaySimpleTalk",
                  "SimpleTalkList": [
                    {
                      "TalkSentenceID": 100025018
                    }
                  ]
                },
                {
                  "$type": "RPG.GameCore.WaitSimpleTalkFinish"
                },
                {
                  "$type": "RPG.GameCore.TriggerCustomString",
                  "CustomString": {
                    "Value": "100010162_End"
                  }
                }
              ]
            },
            {
              "Predicate": {
                "$type": "RPG.GameCore.ByLocalPlayerAvatarID",
                "AvatarIDs": [
                  1103
                ]
              },
              "SuccessTaskList": [
                {
                  "$type": "RPG.GameCore.PlayAndWaitSimpleTalk",
                  "SimpleTalkList": [
                    {
                      "TalkSentenceID": 100025019
                    }
                  ]
                },
                {
                  "$type": "RPG.GameCore.TriggerCustomString",
                  "CustomString": {
                    "Value": "100010162_End"
                  }
                }
              ]
            },
            {
              "Predicate": {
                "$type": "RPG.GameCore.ByLocalPlayerAvatarID",
                "AvatarIDs": [
                  1207
                ]
              },
              "SuccessTaskList": [
                {
                  "$type": "RPG.GameCore.PlayAndWaitSimpleTalk",
                  "SimpleTalkList": [
                    {
                      "TalkSentenceID": 100025020
                    }
                  ]
                },
                {
                  "$type": "RPG.GameCore.TriggerCustomString",
                  "CustomString": {
                    "Value": "100010162_End"
                  }
                }
              ]
            },
            {
              "Predicate": {
                "$type": "RPG.GameCore.ByLocalPlayerAvatarID",
                "AvatarIDs": [
                  1106
                ]
              },
              "SuccessTaskList": [
                {
                  "$type": "RPG.GameCore.PlayAndWaitSimpleTalk",
                  "SimpleTalkList": [
                    {
                      "TalkSentenceID": 100025021
                    }
                  ]
                },
                {
                  "$type": "RPG.GameCore.TriggerCustomString",
                  "CustomString": {
                    "Value": "100010162_End"
                  }
                }
              ]
            },
            {
              "Predicate": {
                "$type": "RPG.GameCore.ByLocalPlayerAvatarID",
                "AvatarIDs": [
                  1202
                ]
              },
              "SuccessTaskList": [
                {
                  "$type": "RPG.GameCore.PlaySimpleTalk",
                  "SimpleTalkList": [
                    {
                      "TalkSentenceID": 100025022
                    }
                  ]
                },
                {
                  "$type": "RPG.GameCore.WaitSimpleTalkFinish"
                },
                {
                  "$type": "RPG.GameCore.TriggerCustomString",
                  "CustomString": {
                    "Value": "100010162_End"
                  }
                }
              ]
            },
            {
              "Predicate": {
                "$type": "RPG.GameCore.ByLocalPlayerAvatarID",
                "AvatarIDs": [
                  1005
                ]
              },
              "SuccessTaskList": [
                {
                  "$type": "RPG.GameCore.PlayAndWaitSimpleTalk",
                  "SimpleTalkList": [
                    {
                      "TalkSentenceID": 100025023
                    }
                  ]
                },
                {
                  "$type": "RPG.GameCore.TriggerCustomString",
                  "CustomString": {
                    "Value": "100010162_End"
                  }
                }
              ]
            },
            {
              "Predicate": {
                "$type": "RPG.GameCore.ByLocalPlayerAvatarID",
                "AvatarIDs": [
                  1003
                ]
              },
              "SuccessTaskList": [
                {
                  "$type": "RPG.GameCore.PlayAndWaitSimpleTalk",
                  "SimpleTalkList": [
                    {
                      "TalkSentenceID": 100025024
                    }
                  ]
                },
                {
                  "$type": "RPG.GameCore.TriggerCustomString",
                  "CustomString": {
                    "Value": "100010162_End"
                  }
                }
              ]
            },
            {
              "Predicate": {
                "$type": "RPG.GameCore.ByLocalPlayerAvatarID",
                "AvatarIDs": [
                  1213
                ]
              },
              "SuccessTaskList": [
                {
                  "$type": "RPG.GameCore.PlayAndWaitSimpleTalk",
                  "SimpleTalkList": [
                    {
                      "TalkSentenceID": 100025039
                    },
                    {
                      "TalkSentenceID": 100025040
                    }
                  ]
                },
                {
                  "$type": "RPG.GameCore.TriggerCustomString",
                  "CustomString": {
                    "Value": "100010162_End"
                  }
                }
              ]
            },
            {
              "Predicate": {
                "$type": "RPG.GameCore.ByLocalPlayerAvatarID",
                "AvatarIDs": [
                  1105
                ]
              },
              "SuccessTaskList": [
                {
                  "$type": "RPG.GameCore.PlayAndWaitSimpleTalk",
                  "SimpleTalkList": [
                    {
                      "TalkSentenceID": 100025025
                    }
                  ]
                },
                {
                  "$type": "RPG.GameCore.TriggerCustomString",
                  "CustomString": {
                    "Value": "100010162_End"
                  }
                }
              ]
            },
            {
              "Predicate": {
                "$type": "RPG.GameCore.ByLocalPlayerAvatarID",
                "AvatarIDs": [
                  1217
                ]
              },
              "SuccessTaskList": [
                {
                  "$type": "RPG.GameCore.PlayAndWaitSimpleTalk",
                  "SimpleTalkList": [
                    {
                      "TalkSentenceID": 100025041
                    },
                    {
                      "TalkSentenceID": 100025042
                    }
                  ]
                },
                {
                  "$type": "RPG.GameCore.TriggerCustomString",
                  "CustomString": {
                    "Value": "100010162_End"
                  }
                }
              ]
            },
            {
              "Predicate": {
                "$type": "RPG.GameCore.ByLocalPlayerAvatarID",
                "AvatarIDs": [
                  1107
                ]
              },
              "SuccessTaskList": [
                {
                  "$type": "RPG.GameCore.PlayAndWaitSimpleTalk",
                  "SimpleTalkList": [
                    {
                      "TalkSentenceID": 100025043
                    },
                    {
                      "TalkSentenceID": 100025044
                    }
                  ]
                },
                {
                  "$type": "RPG.GameCore.TriggerCustomString",
                  "CustomString": {
                    "Value": "100010162_End"
                  }
                }
              ]
            },
            {
              "Predicate": {
                "$type": "RPG.GameCore.ByLocalPlayerAvatarID",
                "AvatarIDs": [
                  1111
                ]
              },
              "SuccessTaskList": [
                {
                  "$type": "RPG.GameCore.PlayAndWaitSimpleTalk",
                  "SimpleTalkList": [
                    {
                      "TalkSentenceID": 100025045
                    }
                  ]
                },
                {
                  "$type": "RPG.GameCore.TriggerCustomString",
                  "CustomString": {
                    "Value": "100010162_End"
                  }
                }
              ]
            },
            {
              "Predicate": {
                "$type": "RPG.GameCore.ByLocalPlayerAvatarID",
                "AvatarIDs": [
                  1110
                ]
              },
              "SuccessTaskList": [
                {
                  "$type": "RPG.GameCore.PlayAndWaitSimpleTalk",
                  "SimpleTalkList": [
                    {
                      "TalkSentenceID": 100025046
                    }
                  ]
                },
                {
                  "$type": "RPG.GameCore.TriggerCustomString",
                  "CustomString": {
                    "Value": "100010162_End"
                  }
                }
              ]
            },
            {
              "Predicate": {
                "$type": "RPG.GameCore.ByLocalPlayerAvatarID",
                "AvatarIDs": [
                  1112
                ]
              },
              "SuccessTaskList": [
                {
                  "$type": "RPG.GameCore.PlayAndWaitSimpleTalk",
                  "SimpleTalkList": [
                    {
                      "TalkSentenceID": 100025047
                    }
                  ]
                },
                {
                  "$type": "RPG.GameCore.TriggerCustomString",
                  "CustomString": {
                    "Value": "100010162_End"
                  }
                }
              ]
            },
            {
              "Predicate": {
                "$type": "RPG.GameCore.ByLocalPlayerAvatarID",
                "AvatarIDs": [
                  1208
                ]
              },
              "SuccessTaskList": [
                {
                  "$type": "RPG.GameCore.PlayAndWaitSimpleTalk",
                  "SimpleTalkList": [
                    {
                      "TalkSentenceID": 100025048
                    }
                  ]
                },
                {
                  "$type": "RPG.GameCore.TriggerCustomString",
                  "CustomString": {
                    "Value": "100010162_End"
                  }
                }
              ]
            },
            {
              "Predicate": {
                "$type": "RPG.GameCore.ByLocalPlayerAvatarID",
                "AvatarIDs": [
                  1210
                ]
              },
              "SuccessTaskList": [
                {
                  "$type": "RPG.GameCore.PlayAndWaitSimpleTalk",
                  "SimpleTalkList": [
                    {
                      "TalkSentenceID": 100025049
                    }
                  ]
                },
                {
                  "$type": "RPG.GameCore.TriggerCustomString",
                  "CustomString": {
                    "Value": "100010162_End"
                  }
                }
              ]
            },
            {
              "Predicate": {
                "$type": "RPG.GameCore.ByLocalPlayerAvatarID",
                "AvatarIDs": [
                  1214
                ]
              },
              "SuccessTaskList": [
                {
                  "$type": "RPG.GameCore.PlayAndWaitSimpleTalk",
                  "SimpleTalkList": [
                    {
                      "TalkSentenceID": 100025050
                    }
                  ]
                },
                {
                  "$type": "RPG.GameCore.TriggerCustomString",
                  "CustomString": {
                    "Value": "100010162_End"
                  }
                }
              ]
            },
            {
              "Predicate": {
                "$type": "RPG.GameCore.ByLocalPlayerAvatarID",
                "AvatarIDs": [
                  1215
                ]
              },
              "SuccessTaskList": [
                {
                  "$type": "RPG.GameCore.PlayAndWaitSimpleTalk",
                  "SimpleTalkList": [
                    {
                      "TalkSentenceID": 100025051
                    }
                  ]
                },
                {
                  "$type": "RPG.GameCore.TriggerCustomString",
                  "CustomString": {
                    "Value": "100010162_End"
                  }
                }
              ]
            },
            {
              "Predicate": {
                "$type": "RPG.GameCore.ByLocalPlayerAvatarID",
                "AvatarIDs": [
                  1206
                ]
              },
              "SuccessTaskList": [
                {
                  "$type": "RPG.GameCore.PlayAndWaitSimpleTalk",
                  "SimpleTalkList": [
                    {
                      "TalkSentenceID": 100025052
                    }
                  ]
                },
                {
                  "$type": "RPG.GameCore.TriggerCustomString",
                  "CustomString": {
                    "Value": "100010162_End"
                  }
                }
              ]
            },
            {
              "Predicate": {
                "$type": "RPG.GameCore.ByLocalPlayerAvatarID",
                "AvatarIDs": [
                  1212
                ]
              },
              "SuccessTaskList": [
                {
                  "$type": "RPG.GameCore.PlayAndWaitSimpleTalk",
                  "SimpleTalkList": [
                    {
                      "TalkSentenceID": 100025053
                    }
                  ]
                },
                {
                  "$type": "RPG.GameCore.TriggerCustomString",
                  "CustomString": {
                    "Value": "Mission_414010501"
                  }
                },
                {
                  "$type": "RPG.GameCore.TriggerCustomString",
                  "CustomString": {
                    "Value": "100010162_End"
                  }
                }
              ]
            },
            {
              "Predicate": {
                "$type": "RPG.GameCore.ByLocalPlayerAvatarID",
                "AvatarIDs": [
                  1211
                ]
              },
              "SuccessTaskList": [
                {
                  "$type": "RPG.GameCore.PlayAndWaitSimpleTalk",
                  "SimpleTalkList": [
                    {
                      "TalkSentenceID": 100025054
                    }
                  ]
                },
                {
                  "$type": "RPG.GameCore.TriggerCustomString",
                  "CustomString": {
                    "Value": "100010162_End"
                  }
                }
              ]
            },
            {
              "Predicate": {
                "$type": "RPG.GameCore.ByLocalPlayerAvatarID",
                "AvatarIDs": [
                  1302
                ]
              },
              "SuccessTaskList": [
                {
                  "$type": "RPG.GameCore.PlayAndWaitSimpleTalk",
                  "SimpleTalkList": [
                    {
                      "TalkSentenceID": 100025055
                    }
                  ]
                },
                {
                  "$type": "RPG.GameCore.TriggerCustomString",
                  "CustomString": {
                    "Value": "100010162_End"
                  }
                }
              ]
            },
            {
              "Predicate": {
                "$type": "RPG.GameCore.ByLocalPlayerAvatarID",
                "AvatarIDs": [
                  1303
                ]
              },
              "SuccessTaskList": [
                {
                  "$type": "RPG.GameCore.PlayAndWaitSimpleTalk",
                  "SimpleTalkList": [
                    {
                      "TalkSentenceID": 100025056
                    }
                  ]
                },
                {
                  "$type": "RPG.GameCore.TriggerCustomString",
                  "CustomString": {
                    "Value": "100010162_End"
                  }
                }
              ]
            },
            {
              "Predicate": {
                "$type": "RPG.GameCore.ByLocalPlayerAvatarID",
                "AvatarIDs": [
                  1305
                ]
              },
              "SuccessTaskList": [
                {
                  "$type": "RPG.GameCore.PlayAndWaitSimpleTalk",
                  "SimpleTalkList": [
                    {
                      "TalkSentenceID": 100025057
                    }
                  ]
                },
                {
                  "$type": "RPG.GameCore.TriggerCustomString",
                  "CustomString": {
                    "Value": "100010162_End"
                  }
                }
              ]
            }
          ],
          "DefaultTask": [
            {
              "$type": "RPG.GameCore.TriggerCustomString",
              "CustomString": {
                "Value": "100010162_End"
              }
            }
          ]
        }
      ]
    },
    {
      "TaskList": [
        {
          "$type": "RPG.GameCore.WaitCustomString",
          "CustomString": {
            "Value": "100010162_End"
          }
        },
        {
          "$type": "RPG.GameCore.RandomConfig",
          "OddsList": [
            {
              "IsDynamic": false,
              "FixedValue": {
                "Value": 0.0900000010151416
              }
            },
            {
              "IsDynamic": false,
              "FixedValue": {
                "Value": 0.0900000010151416
              }
            },
            {
              "IsDynamic": false,
              "FixedValue": {
                "Value": 0.0900000010151416
              }
            },
            {
              "IsDynamic": false,
              "FixedValue": {
                "Value": 0.0900000010151416
              }
            },
            {
              "IsDynamic": false,
              "FixedValue": {
                "Value": 0.0900000010151416
              }
            },
            {
              "IsDynamic": false,
              "FixedValue": {
                "Value": 0.0900000010151416
              }
            },
            {
              "IsDynamic": false,
              "FixedValue": {
                "Value": 0.0900000010151416
              }
            },
            {
              "IsDynamic": false,
              "FixedValue": {
                "Value": 0.0900000010151416
              }
            },
            {
              "IsDynamic": false,
              "FixedValue": {
                "Value": 0.0900000010151416
              }
            },
            {
              "IsDynamic": false,
              "FixedValue": {
                "Value": 0.0900000010151416
              }
            },
            {
              "IsDynamic": false,
              "FixedValue": {
                "Value": 0.10000000102445483
              }
            }
          ],
          "TaskList": [
            {
              "$type": "RPG.GameCore.PlaySimpleTalk",
              "SimpleTalkList": [
                {
                  "TalkSentenceID": 100025026
                }
              ]
            },
            {
              "$type": "RPG.GameCore.PlaySimpleTalk",
              "SimpleTalkList": [
                {
                  "TalkSentenceID": 100025027
                }
              ]
            },
            {
              "$type": "RPG.GameCore.PlaySimpleTalk",
              "SimpleTalkList": [
                {
                  "TalkSentenceID": 100025028
                }
              ]
            },
            {
              "$type": "RPG.GameCore.PlaySimpleTalk",
              "SimpleTalkList": [
                {
                  "TalkSentenceID": 100025029
                }
              ]
            },
            {
              "$type": "RPG.GameCore.PlaySimpleTalk",
              "SimpleTalkList": [
                {
                  "TalkSentenceID": 100025030
                }
              ]
            },
            {
              "$type": "RPG.GameCore.PlaySimpleTalk",
              "SimpleTalkList": [
                {
                  "TalkSentenceID": 100025036
                }
              ]
            },
            {
              "$type": "RPG.GameCore.PlaySimpleTalk",
              "SimpleTalkList": [
                {
                  "TalkSentenceID": 100025031
                }
              ]
            },
            {
              "$type": "RPG.GameCore.PlaySimpleTalk",
              "SimpleTalkList": [
                {
                  "TalkSentenceID": 100025032
                }
              ]
            },
            {
              "$type": "RPG.GameCore.PlaySimpleTalk",
              "SimpleTalkList": [
                {
                  "TalkSentenceID": 100025033
                }
              ]
            },
            {
              "$type": "RPG.GameCore.PlaySimpleTalk",
              "SimpleTalkList": [
                {
                  "TalkSentenceID": 100025034
                }
              ]
            },
            {
              "$type": "RPG.GameCore.PlaySimpleTalk",
              "SimpleTalkList": [
                {
                  "TalkSentenceID": 100025035
                }
              ]
            }
          ]
        },
        {
          "$type": "RPG.GameCore.WaitSimpleTalkFinish"
        },
        {
          "$type": "RPG.GameCore.EndPerformance"
        }
      ]
    },
    {
      "TaskList": [
        {
          "$type": "RPG.GameCore.WaitPerformanceEnd"
        },
        {
          "$type": "RPG.GameCore.FinishLevelGraph"
        }
      ]
    }
  ]
}