{
  "OnInitSequece": [
    {
      "TaskList": [
        {
          "$type": "RPG.GameCore.SyncSubPropState",
          "TaskEnabled": true
        }
      ]
    }
  ],
  "OnStartSequece": [
    {
      "TaskList": [
        {
          "$type": "RPG.GameCore.PropStateChangeListenerConfig",
          "ToState": "Open",
          "FromAnyState": true,
          "OnChange": [
            {
              "$type": "RPG.GameCore.StartPropInteractMode",
              "TargetType": {
                "$type": "RPG.GameCore.TargetFetchAdvPropEx"
              },
              "Mode": "UsePose02"
            },
            {
              "$type": "RPG.GameCore.WaitSecond",
              "WaitTime": 0.2
            },
            {
              "$type": "RPG.GameCore.AnimSetParameter",
              "TargetType": {
                "$type": "RPG.GameCore.TargetFetchAdvPropEx"
              },
              "ParameterName": "TriggerOpen",
              "ParameterType": "Trigger"
            },
            {
              "$type": "RPG.GameCore.WaitSecond",
              "WaitTime": 0.5
            },
            {
              "$type": "RPG.GameCore.AnimSetParameter",
              "TargetType": {
                "$type": "RPG.GameCore.TargetFetchAdvPropEx",
                "FetchType": "SinglePropByPropKey",
                "SinglePropKey": {
                  "Custom": true,
                  "Key": "Maze_Prop_Chap02_OpenDoor"
                }
              },
              "ParameterName": "TriggerOpen",
              "ParameterType": "Trigger"
            },
            {
              "$type": "RPG.GameCore.EndPropInteract"
            },
            {
              "$type": "RPG.GameCore.TriggerCustomString",
              "CustomString": {
                "Value": "Mission_999991607"
              }
            }
          ],
          "TargetType": {
            "$type": "RPG.GameCore.TargetFetchAdvPropEx"
          }
        }
      ]
    },
    {
      "TaskList": [
        {
          "$type": "RPG.GameCore.PropSetupTrigger",
          "TargetType": {
            "$type": "RPG.GameCore.TargetFetchAdvPropEx"
          },
          "TargetGroupID": {
            "IsDynamic": false,
            "FixedValue": {
              "Value": 0
            }
          },
          "TargetID": {
            "IsDynamic": false,
            "FixedValue": {
              "Value": 0
            }
          },
          "TargetTypes": [],
          "ColliderRelativePath": "CustomTrigger_TriggerRotate",
          "OnTriggerEnter": [
            {
              "$type": "RPG.GameCore.PropStateExecute",
              "TargetType": {
                "$type": "RPG.GameCore.TargetFetchAdvPropEx"
              },
              "Execute": [
                {
                  "$type": "RPG.GameCore.AnimSetParameter",
                  "TargetType": {
                    "$type": "RPG.GameCore.TargetFetchAdvPropEx"
                  },
                  "ParameterName": "OnEnterTrigger",
                  "ParameterType": "Bool",
                  "Value": 1
                }
              ]
            }
          ],
          "OnTriggerExit": [
            {
              "$type": "RPG.GameCore.PropStateExecute",
              "TargetType": {
                "$type": "RPG.GameCore.TargetFetchAdvPropEx"
              },
              "Execute": [
                {
                  "$type": "RPG.GameCore.AnimSetParameter",
                  "TargetType": {
                    "$type": "RPG.GameCore.TargetFetchAdvPropEx"
                  },
                  "ParameterName": "OnEnterTrigger",
                  "ParameterType": "Bool"
                }
              ]
            }
          ]
        }
      ]
    },
    {
      "TaskList": [
        {
          "$type": "RPG.GameCore.PropSetupUITrigger",
          "ButtonCallback": [
            {
              "$type": "RPG.GameCore.SelectorConfig",
              "TaskList": [
                {
                  "$type": "RPG.GameCore.PropStateExecute",
                  "TargetType": {
                    "$type": "RPG.GameCore.TargetFetchAdvPropEx"
                  },
                  "State": "Locked",
                  "Execute": [
                    {
                      "$type": "RPG.GameCore.ToastPile",
                      "DescTextID": {
                        "Hash": 1627843584
                      }
                    }
                  ]
                },
                {
                  "$type": "RPG.GameCore.PropStateExecute",
                  "TargetType": {
                    "$type": "RPG.GameCore.TargetFetchAdvPropEx"
                  },
                  "Execute": [
                    {
                      "$type": "RPG.GameCore.PropReqInteract",
                      "TargetType": {
                        "$type": "RPG.GameCore.TargetFetchAdvPropEx"
                      },
                      "InteractID": {
                        "IsDynamic": false,
                        "FixedValue": {
                          "Value": 1010
                        }
                      },
                      "OnUICancel": [
                        {
                          "$type": "RPG.GameCore.ToastPile",
                          "DescTextID": {
                            "Hash": 1627843584
                          }
                        }
                      ],
                      "OnCheckItemFail": [
                        {
                          "$type": "RPG.GameCore.ToastPile",
                          "DescTextID": {
                            "Hash": 1627843584
                          }
                        }
                      ],
                      "EnableAdvanceInteract": true
                    }
                  ]
                }
              ]
            }
          ],
          "InteractAngleRange": 220,
          "TargetType": {
            "$type": "RPG.GameCore.TargetFetchAdvPropEx"
          }
        }
      ]
    },
    {
      "TaskList": [
        {
          "$type": "RPG.GameCore.SyncAllSubPropState",
          "TaskEnabled": true
        }
      ]
    }
  ],
  "ValueSource": {
    "Values": [
      {
        "$type": "RPG.GameCore.SharedString",
        "Key": "Maze_Prop_Chap02_OpenDoor"
      },
      {
        "$type": "RPG.GameCore.SharedString",
        "Key": "Maze_Prop_Chap02_OpenOtherDoor"
      },
      {
        "$type": "RPG.GameCore.SharedString",
        "Key": "Maze_Prop_OpenrDoorCamera"
      }
    ]
  }
}