{
  "OnInitSequece": [],
  "OnStartSequece": [
    {
      "TaskList": [
        {
          "$type": "RPG.GameCore.PropSetupTrigger",
          "TargetType": {
            "$type": "RPG.GameCore.TargetFetchAdvPropEx"
          },
          "TargetGroupID": {
            "IsDynamic": false,
            "FixedValue": {
              "Value": 0
            }
          },
          "TargetID": {
            "IsDynamic": false,
            "FixedValue": {
              "Value": 0
            }
          },
          "TargetTypes": [],
          "OnTriggerEnter": [
            {
              "$type": "RPG.GameCore.StartPropInteractMode",
              "TargetType": {
                "$type": "RPG.GameCore.TargetFetchAdvPropEx"
              },
              "Mode": "LockControl"
            },
            {
              "$type": "RPG.GameCore.PropSetVisibility",
              "SpecifiedRelativePaths": [],
              "TargetType": {
                "$type": "RPG.GameCore.TargetFetchAdvPropEx"
              }
            },
            {
              "$type": "RPG.GameCore.PlayMissionTalk",
              "SimpleTalkList": [
                {
                  "TalkSentenceID": 999991604,
                  "ProtectTime": 2
                },
                {
                  "TalkSentenceID": 999991605,
                  "ProtectTime": 2
                }
              ]
            },
            {
              "$type": "RPG.GameCore.WaitSecond",
              "WaitTime": 0.5
            },
            {
              "$type": "RPG.GameCore.ActiveVirtualCamera",
              "LevelAreaCameraKey": {
                "Custom": true,
                "Key": "Maze_Prop_OpenrDoorCamera_01"
              }
            },
            {
              "$type": "RPG.GameCore.WaitSecond",
              "WaitTime": 1.5
            },
            {
              "$type": "RPG.GameCore.ActiveVirtualCamera",
              "LevelAreaCameraKey": {
                "Custom": true,
                "Key": "Maze_Prop_OpenrDoorCamera_02"
              }
            },
            {
              "$type": "RPG.GameCore.WaitSecond",
              "WaitTime": 1.5
            },
            {
              "$type": "RPG.GameCore.ActiveVirtualCamera",
              "LevelAreaCameraKey": {
                "Custom": true,
                "Key": "Maze_Prop_OpenrDoorCamera_03"
              }
            },
            {
              "$type": "RPG.GameCore.WaitSecond",
              "WaitTime": 1.5
            },
            {
              "$type": "RPG.GameCore.ActiveVirtualCamera",
              "LevelAreaCameraKey": {
                "Custom": true,
                "Key": "Maze_Prop_OpenrDoorCamera_03"
              },
              "IsActive": false
            },
            {
              "$type": "RPG.GameCore.ActiveVirtualCamera",
              "LevelAreaCameraKey": {
                "Custom": true,
                "Key": "Maze_Prop_OpenrDoorCamera_01"
              },
              "IsActive": false
            },
            {
              "$type": "RPG.GameCore.ActiveVirtualCamera",
              "LevelAreaCameraKey": {
                "Custom": true,
                "Key": "Maze_Prop_OpenrDoorCamera_02"
              },
              "IsActive": false
            },
            {
              "$type": "RPG.GameCore.PlayMissionTalk",
              "SimpleTalkList": [
                {
                  "TalkSentenceID": 999991606,
                  "ProtectTime": 2
                }
              ]
            },
            {
              "$type": "RPG.GameCore.TriggerCustomString",
              "CustomString": {
                "Value": "Mission_999991601"
              }
            },
            {
              "$type": "RPG.GameCore.PropEnableCollider",
              "TargetType": {
                "$type": "RPG.GameCore.TargetFetchAdvPropEx"
              }
            },
            {
              "$type": "RPG.GameCore.EndPropInteract"
            }
          ]
        }
      ]
    }
  ],
  "ValueSource": {
    "Values": [
      {
        "$type": "RPG.GameCore.SharedString",
        "Key": "Maze_Prop_OpenrDoorCamera_01"
      },
      {
        "$type": "RPG.GameCore.SharedString",
        "Key": "Maze_Prop_OpenrDoorCamera_02"
      },
      {
        "$type": "RPG.GameCore.SharedString",
        "Key": "Maze_Prop_OpenrDoorCamera_03"
      }
    ]
  }
}