{
  "AbilityList": [
    {
      "Modifiers": {
        "MSuiYang_NoneBreakDamageReduce": {
          "_CallbackList": [
            {
              "Event": "OnListenCharacterCreate",
              "CallbackConfig": [
                {
                  "$type": "RPG.GameCore.PredicateTaskList",
                  "Predicate": {
                    "$type": "RPG.GameCore.ByTargetTeam",
                    "TargetType": {
                      "$type": "RPG.GameCore.TargetAlias",
                      "Alias": "ParamEntity"
                    },
                    "Team": "TeamDark"
                  },
                  "SuccessTaskList": [
                    {
                      "$type": "RPG.GameCore.AddModifier",
                      "TargetType": {
                        "$type": "RPG.GameCore.TargetAlias",
                        "Alias": "ParamEntity"
                      },
                      "ModifierName": "MSuiYang_NoneBreakDamageReduce_Enemy"
                    }
                  ]
                }
              ]
            }
          ]
        },
        "MSuiYang_NoneBreakDamageReduce_Enemy": {
          "_CallbackList": [
            {
              "Event": "OnCreate",
              "CallbackConfig": [
                {
                  "$type": "RPG.GameCore.AddModifier",
                  "TargetType": {
                    "$type": "RPG.GameCore.TargetAlias",
                    "Alias": "ModifierOwnerEntity"
                  },
                  "ModifierName": "MSuiYang_NoneBreakDamageReduce_Enemy_DamageReduce"
                }
              ]
            },
            {
              "Event": "OnBeingBreak",
              "CallbackConfig": [
                {
                  "$type": "RPG.GameCore.RemoveModifier",
                  "TargetType": {
                    "$type": "RPG.GameCore.TargetAlias",
                    "Alias": "ModifierOwnerEntity"
                  },
                  "ModifierName": "MSuiYang_NoneBreakDamageReduce_Enemy_DamageReduce"
                }
              ]
            },
            {
              "Event": "OnEndBreak",
              "CallbackConfig": [
                {
                  "$type": "RPG.GameCore.AddModifier",
                  "TargetType": {
                    "$type": "RPG.GameCore.TargetAlias",
                    "Alias": "ModifierOwnerEntity"
                  },
                  "ModifierName": "MSuiYang_NoneBreakDamageReduce_Enemy_DamageReduce"
                }
              ]
            }
          ]
        },
        "MSuiYang_NoneBreakDamageReduce_Enemy_DamageReduce": {
          "_CallbackList": [
            {
              "Event": "OnStack",
              "CallbackConfig": [
                {
                  "$type": "RPG.GameCore.StackProperty",
                  "TargetType": {
                    "$type": "RPG.GameCore.TargetAlias",
                    "Alias": "ModifierOwnerEntity"
                  },
                  "Property": "AllDamageReduce",
                  "PropertyValue": {
                    "IsDynamic": false,
                    "FixedValue": {
                      "Value": 0.8500000007916242
                    }
                  }
                }
              ]
            }
          ]
        }
      },
      "Name": "SuiYang_NoneBreakDamageReduce",
      "OnAdd": [
        {
          "$type": "RPG.GameCore.AddModifier",
          "TargetType": {
            "$type": "RPG.GameCore.TargetAlias",
            "Alias": "Caster"
          },
          "ModifierName": "MSuiYang_NoneBreakDamageReduce"
        }
      ]
    },
    {
      "Modifiers": {
        "MSuiYang_CostExtraBP": {
          "_CallbackList": [
            {
              "Event": "OnListenCharacterCreate",
              "CallbackConfig": [
                {
                  "$type": "RPG.GameCore.PredicateTaskList",
                  "Predicate": {
                    "$type": "RPG.GameCore.ByTargetTeam",
                    "TargetType": {
                      "$type": "RPG.GameCore.TargetAlias",
                      "Alias": "ParamEntity"
                    },
                    "Team": "TeamLight"
                  },
                  "SuccessTaskList": [
                    {
                      "$type": "RPG.GameCore.AddModifier",
                      "TargetType": {
                        "$type": "RPG.GameCore.TargetAlias",
                        "Alias": "ParamEntity"
                      },
                      "ModifierName": "MSuiYang_CostExtraBP_Character"
                    }
                  ]
                }
              ]
            }
          ]
        },
        "MSuiYang_CostExtraBP_Character": {
          "_CallbackList": [
            {
              "Event": "OnAfterSkillUse",
              "CallbackConfig": [
                {
                  "$type": "RPG.GameCore.PredicateTaskList",
                  "Predicate": {
                    "$type": "RPG.GameCore.ByCurrentSkillType",
                    "SkillType": "Skill"
                  },
                  "SuccessTaskList": [
                    {
                      "$type": "RPG.GameCore.ModifyTeamBoostPoint",
                      "ModifyFunction": "Add",
                      "ModifyValue": {
                        "IsDynamic": false,
                        "FixedValue": {
                          "Value": -1
                        }
                      }
                    }
                  ]
                }
              ]
            }
          ]
        }
      },
      "Name": "SuiYang_CostExtraBP",
      "OnAdd": [
        {
          "$type": "RPG.GameCore.AddModifier",
          "TargetType": {
            "$type": "RPG.GameCore.TargetAlias",
            "Alias": "Caster"
          },
          "ModifierName": "MSuiYang_NoneBreakDamageReduce"
        }
      ]
    },
    {
      "Modifiers": {
        "MSuiYang_AddDamageAfterTeamateDie": {
          "_CallbackList": [
            {
              "Event": "OnListenCharacterCreate",
              "CallbackConfig": [
                {
                  "$type": "RPG.GameCore.PredicateTaskList",
                  "Predicate": {
                    "$type": "RPG.GameCore.ByTargetTeam",
                    "TargetType": {
                      "$type": "RPG.GameCore.TargetAlias",
                      "Alias": "ParamEntity"
                    },
                    "Team": "TeamDark"
                  },
                  "SuccessTaskList": [
                    {
                      "$type": "RPG.GameCore.AddModifier",
                      "TargetType": {
                        "$type": "RPG.GameCore.TargetAlias",
                        "Alias": "ParamEntity"
                      },
                      "ModifierName": "MSuiYang_AddDamageAfterTeamateDie_Enemy"
                    }
                  ]
                }
              ]
            }
          ]
        },
        "MSuiYang_AddDamageAfterTeamateDie_Enemy": {
          "BehaviorFlagList": [
            "KeepOnDeathrattle"
          ],
          "_CallbackList": [
            {
              "Event": "OnBeforeDying",
              "CallbackConfig": [
                {
                  "$type": "RPG.GameCore.AddModifier",
                  "TargetType": {
                    "$type": "RPG.GameCore.TargetAlias",
                    "Alias": "AllDarkTeam"
                  },
                  "ModifierName": "MSuiYang_AddDamageAfterTeamateDie_Enemy_Damage"
                }
              ]
            }
          ]
        },
        "MSuiYang_AddDamageAfterTeamateDie_Enemy_Damage": {
          "_CallbackList": [
            {
              "Event": "OnStack",
              "CallbackConfig": [
                {
                  "$type": "RPG.GameCore.StackProperty",
                  "TargetType": {
                    "$type": "RPG.GameCore.TargetAlias",
                    "Alias": "ModifierOwnerEntity"
                  },
                  "Property": "AllDamageTypeAddedRatio",
                  "PropertyValue": {
                    "IsDynamic": false,
                    "FixedValue": {
                      "Value": 1
                    }
                  }
                }
              ]
            }
          ],
          "Stacking": "ReplaceByCaster"
        }
      },
      "Name": "SuiYang_AddDamageAfterTeamateDie",
      "OnAdd": [
        {
          "$type": "RPG.GameCore.AddModifier",
          "TargetType": {
            "$type": "RPG.GameCore.TargetAlias",
            "Alias": "Caster"
          },
          "ModifierName": "MSuiYang_AddDamageAfterTeamateDie"
        }
      ]
    },
    {
      "Modifiers": {
        "MSuiYang_AddDamage": {
          "_CallbackList": [
            {
              "Event": "OnListenCharacterCreate",
              "CallbackConfig": [
                {
                  "$type": "RPG.GameCore.PredicateTaskList",
                  "Predicate": {
                    "$type": "RPG.GameCore.ByTargetTeam",
                    "TargetType": {
                      "$type": "RPG.GameCore.TargetAlias",
                      "Alias": "ParamEntity"
                    },
                    "Team": "TeamDark"
                  },
                  "SuccessTaskList": [
                    {
                      "$type": "RPG.GameCore.AddModifier",
                      "TargetType": {
                        "$type": "RPG.GameCore.TargetAlias",
                        "Alias": "ParamEntity"
                      },
                      "ModifierName": "MSuiYang_AddDamage_Enemy"
                    }
                  ]
                }
              ]
            }
          ]
        },
        "MSuiYang_AddDamage_Enemy": {
          "_CallbackList": [
            {
              "Event": "OnStack",
              "CallbackConfig": [
                {
                  "$type": "RPG.GameCore.StackProperty",
                  "TargetType": {
                    "$type": "RPG.GameCore.TargetAlias",
                    "Alias": "ModifierOwnerEntity"
                  },
                  "Property": "AllDamageTypeAddedRatio",
                  "PropertyValue": {
                    "IsDynamic": false,
                    "FixedValue": {
                      "Value": 0.5000000004656613
                    }
                  }
                }
              ]
            }
          ]
        }
      },
      "Name": "SuiYang_AddDamage",
      "OnAdd": [
        {
          "$type": "RPG.GameCore.AddModifier",
          "TargetType": {
            "$type": "RPG.GameCore.TargetAlias",
            "Alias": "Caster"
          },
          "ModifierName": "MSuiYang_AddDamage"
        }
      ]
    }
  ]
}