{
  "OnInitSequece": [],
  "OnStartSequece": [
    {},
    {
      "TaskList": [
        {
          "$type": "RPG.GameCore.PropStateChangeListenerConfig",
          "FromState": "Locked",
          "ToState": "Open",
          "OnChange": [
            {
              "$type": "RPG.GameCore.TriggerCustomString",
              "CustomString": {
                "Value": "TriggerUnlockContamination"
              }
            },
            {
              "$type": "RPG.GameCore.PropReqInteract",
              "TargetType": {
                "$type": "RPG.GameCore.TargetFetchAdvPropEx",
                "FetchType": "SinglePropByPropKey",
                "SinglePropKey": {
                  "Custom": true,
                  "Key": "C_Chest"
                }
              },
              "InteractID": {
                "IsDynamic": false,
                "FixedValue": {
                  "Value": 111120
                }
              }
            }
          ],
          "TargetType": {
            "$type": "RPG.GameCore.TargetFetchAdvPropEx",
            "SinglePropID": {
              "GroupID": {
                "IsDynamic": true,
                "PostfixExpr": {
                  "OpCodes": "AQAK",
                  "FixedValues": [],
                  "DynamicHashes": [
                    -354949224
                  ]
                }
              },
              "ID": {
                "IsDynamic": false,
                "FixedValue": {
                  "Value": 300001
                }
              }
            }
          }
        }
      ]
    },
    {
      "TaskList": [
        {
          "$type": "RPG.GameCore.WaitCustomString",
          "CustomString": {
            "Value": "TriggerUnlockContamination"
          },
          "WaitOwnerOnly": true
        },
        {
          "$type": "RPG.GameCore.TransitEnvProfile",
          "Path": {
            "Value": "Stages/Outputs/Chapter02/EnviroProfile/Chap02_CloseView_MAZ_X101_MainLine_01_Day.enviroProfile.asset"
          },
          "Duration": 2
        },
        {
          "$type": "RPG.GameCore.WaitSecond",
          "WaitTime": 2
        },
        {
          "$type": "RPG.GameCore.PropSetVisibility",
          "SpecifiedRelativePaths": [],
          "TargetType": {
            "$type": "RPG.GameCore.TargetFetchAdvPropEx",
            "FetchType": "SinglePropByPropKey",
            "SinglePropKey": {
              "Custom": true,
              "Key": "Locker01"
            }
          }
        },
        {
          "$type": "RPG.GameCore.PropReqInteract",
          "TargetType": {
            "$type": "RPG.GameCore.TargetFetchAdvPropEx",
            "FetchType": "SinglePropByPropKey",
            "SinglePropKey": {
              "Custom": true,
              "Key": "Locker01"
            }
          },
          "InteractID": {
            "IsDynamic": false,
            "FixedValue": {
              "Value": 1010
            }
          }
        }
      ]
    },
    {
      "TaskList": [
        {
          "$type": "RPG.GameCore.PropSetupTrigger",
          "TargetType": {
            "$type": "RPG.GameCore.TargetFetchAdvPropEx"
          },
          "TargetEntityType": "LocalPlayer",
          "TargetGroupID": {
            "IsDynamic": false,
            "FixedValue": {
              "Value": 0
            }
          },
          "TargetID": {
            "IsDynamic": false,
            "FixedValue": {
              "Value": 0
            }
          },
          "TargetTypes": [],
          "OnTriggerEnter": [
            {
              "$type": "RPG.GameCore.TransitEnvProfile",
              "Path": {
                "Value": "Stages/Outputs/Chapter01/EnviroProfile/Chap01_CloseView_ADV_Area_Snowfield_01_Foggy.enviroProfile.asset"
              },
              "Duration": 2
            }
          ],
          "OnTriggerExit": [
            {
              "$type": "RPG.GameCore.TransitEnvProfile",
              "Path": {
                "Value": "Stages/Outputs/Chapter02/EnviroProfile/Chap02_CloseView_MAZ_X101_MainLine_01_Day.enviroProfile.asset"
              },
              "Duration": 2
            }
          ],
          "DestroyAfterGraphEnd": true
        }
      ]
    }
  ],
  "ValueSource": {
    "Values": [
      {
        "$type": "RPG.GameCore.SharedString",
        "Key": "C_Chest"
      },
      {
        "$type": "RPG.GameCore.SharedString",
        "Key": "Locker01"
      }
    ]
  }
}