{
  "SomatoType": "LittleMonster",
  "CharacterHUDOffset": {
    "X": 0.2,
    "Y": 2.8,
    "Z": 0
  },
  "BuffPanelOffset": {
    "X": 0,
    "Y": 1.8,
    "Z": 0
  },
  "HitBoxWidth": 0.3,
  "HitBoxHeight": 2.8,
  "Location": {
    "Width": 1.5,
    "LocalZOffsetMin": 0.3,
    "LocalZOffsetMax": 0.5
  },
  "VisualRadius": 0.8,
  "IsSpecialVisualCharacter": "True",
  "AnimEventConfigList": [
    "Config/ConfigAnimEvents/Monster/Designer/Monster_SW_Minion01_01_Designer_AnimEvent.json",
    "Config/ConfigAnimEvents/Monster/Effect/Monster_SW_Minion01_01_Effect_AnimEvent.json",
    "Config/ConfigAnimEvents/Monster/Audio/Monster_SW_Minion01_01_Audio_AnimEvent.json"
  ],
  "SkillList": [
    {
      "Name": "Skill01",
      "SkillType": "Skill",
      "UseType": "SelectEntity",
      "TargetInfo": {
        "TargetType": "Caster"
      },
      "ReadyAnimState": "StandBy",
      "EntryAbility": "Monster_SW_Minion01_01_Skill01_Phase01"
    },
    {
      "Name": "Skill02",
      "SkillType": "Skill",
      "UseType": "SelectEntity",
      "TargetInfo": {
        "TargetType": "EnemySelect",
        "SubTargetType": "TargetAdjoinEntity"
      },
      "ReadyAnimState": "StandBy",
      "EntryAbility": "Monster_SW_Minion01_01_Skill02_Phase01"
    },
    {
      "Name": "Skill03",
      "SkillType": "Skill",
      "UseType": "SelectEntity",
      "TargetInfo": {
        "TargetType": "AllEnemy"
      },
      "ReadyAnimState": "StandBy",
      "EntryAbility": "Monster_SW_Minion01_01_Skill03_Phase01"
    },
    {
      "Name": "PassiveSkill01",
      "SkillType": "Passive",
      "UseType": "Passive",
      "TargetInfo": {
        "TargetType": "Caster"
      },
      "EntryAbility": "Monster_Common_PassiveSkill_StanceBreak_Action"
    },
    {
      "Name": "Monster_SW_Minion01_01_Passive01",
      "SkillType": "Passive",
      "UseType": "Passive",
      "TargetInfo": {
        "TargetType": "Caster"
      },
      "EntryAbility": "Monster_SW_Minion01_01_Passive01"
    },
    {
      "Name": "PassiveSkill_Suicide",
      "SkillType": "Passive",
      "UseType": "Passive",
      "TargetInfo": {
        "TargetType": "Caster"
      },
      "EntryAbility": "Monster_Common_Suicide_StanceBreak"
    }
  ],
  "AbilityList": [
    "Monster_Common_PassiveSkill_StanceBreak_Action",
    "Monster_SW_Minion01_01_Passive01",
    "Monster_SW_Minion01_01_PassiveSkill_Insert_Phase01",
    "Monster_SW_Minion01_01_PassiveSkill_Camera",
    "Monster_Common_Suicide_StanceBreak"
  ],
  "SkillAbilityList": [
    {
      "Skill": "Skill01",
      "AbilityList": [
        "Monster_SW_Minion01_01_Skill01_Camera",
        "Monster_SW_Minion01_01_Skill01_Phase01",
        "Monster_SW_Minion01_01_Skill01_Phase02"
      ]
    },
    {
      "Skill": "Skill02",
      "AbilityList": [
        "Monster_SW_Minion01_01_Skill02_Camera",
        "Monster_SW_Minion01_01_Skill02_Phase01",
        "Monster_SW_Minion01_01_Skill02_Phase02"
      ]
    },
    {
      "Skill": "Skill03",
      "AbilityList": [
        "Monster_SW_Minion01_01_Skill03_Camera",
        "Monster_SW_Minion01_01_Skill03_Phase01",
        "Monster_SW_Minion01_01_Skill03_Phase02"
      ]
    }
  ],
  "DynamicValues": {
    "Values": {
      "-1270921393": {},
      "-1847083384": {
        "ReadInfo": {
          "Type": "None",
          "Str": "Skill02"
        }
      },
      "-1055926903": {
        "ReadInfo": {
          "Type": "SkillTreeParam",
          "Str": "Skill02"
        }
      },
      "-1260133265": {
        "ReadInfo": {
          "Type": "SkillRank",
          "Str": "Skill02"
        }
      },
      "-56289053": {
        "ReadInfo": {
          "Type": "None",
          "Str": "Skill03"
        }
      },
      "799951434": {
        "ReadInfo": {
          "Type": "SkillTreeParam",
          "Str": "Skill03"
        }
      },
      "921218325": {
        "ReadInfo": {
          "Type": "SkillRank",
          "Str": "Skill03"
        }
      },
      "1379657840": {
        "ReadInfo": {
          "Type": "BattleEvent",
          "Str": "Skill03"
        }
      },
      "691791235": {
        "ReadInfo": {
          "Type": 8,
          "Str": "Skill03"
        }
      },
      "-1506619431": {
        "ReadInfo": {
          "Type": 10,
          "Str": "Skill03"
        }
      },
      "889233808": {
        "ReadInfo": {
          "Type": "None",
          "Str": "PassiveSkill01"
        }
      },
      "-1584403453": {
        "ReadInfo": {
          "Type": "SkillTreeParam",
          "Str": "PassiveSkill01"
        }
      },
      "2076150565": {
        "ReadInfo": {
          "Type": "SkillRank",
          "Str": "PassiveSkill01"
        }
      },
      "7317029": {
        "ReadInfo": {
          "Type": "BattleEvent",
          "Str": "PassiveSkill01"
        }
      },
      "1168628576": {
        "ReadInfo": {
          "Type": 8,
          "Str": "PassiveSkill01"
        }
      },
      "-376225117": {
        "ReadInfo": {
          "Type": 10,
          "Str": "PassiveSkill01"
        }
      }
    }
  },
  "CustomValues": {
    "AIFlag": 1,
    "DamageUpLayer": 0,
    "DamageUpRatio": 0
  },
  "WeaponType": "WP_Scythe",
  "ArmorType": "Armor_Metal",
  "DisableAnimEventLayers": [
    "Riboon Layer"
  ]
}