{
  "SomatoType": "LargeMonster",
  "CharacterHUDOffset": {
    "X": 0.3,
    "Y": 3,
    "Z": 0.4
  },
  "BuffPanelOffset": {
    "X": 0,
    "Y": 1.8,
    "Z": 0
  },
  "HitBoxOffset": {
    "X": 0,
    "Y": 1,
    "Z": 0.9
  },
  "HitBoxWidth": 0.8,
  "HitBoxHeight": 1.8,
  "Location": {
    "Width": 2.74
  },
  "VisualRadius": 1.3,
  "AnimEventConfigList": [
    "Config/ConfigAnimEvents/Monster/Designer/Monster_Svarog_Part_Designer_AnimEvent.json",
    "Config/ConfigAnimEvents/Monster/Effect/Monster_W1_SvarogPart_00_Effect_AnimEvent.json",
    "Config/ConfigAnimEvents/Monster/Audio/Monster_W1_SvarogPart_00_Audio_AnimEvent.json"
  ],
  "SkillList": [
    {
      "Name": "Skill02",
      "UseType": "SelectEntity",
      "TargetInfo": {
        "TargetType": "Caster"
      },
      "ReadyAnimState": "StandBy",
      "EntryAbility": "Monster_W1_SvarogPart_00_RL_Skill02_Phase01"
    },
    {
      "Name": "Skill03",
      "UseType": "SelectEntity",
      "TargetInfo": {
        "TargetType": "EnemySelect"
      },
      "ReadyAnimState": "StandBy",
      "EntryAbility": "Monster_W1_SvarogPart_00_RL_Skill03_Phase01"
    },
    {
      "Name": "Skill04",
      "UseType": "SelectEntity",
      "TargetInfo": {
        "TargetType": "Caster"
      },
      "ReadyAnimState": "StandBy",
      "EntryAbility": "Monster_W1_SvarogPart_00_RL_Skill04_Phase01"
    },
    {
      "Name": "Skill05",
      "UseType": "SelectEntity",
      "TargetInfo": {
        "TargetType": "EnemySelect"
      },
      "ReadyAnimState": "StandBy",
      "EntryAbility": "Monster_W1_SvarogPart_00_RL_Skill05_Phase01"
    },
    {
      "Name": "Skill06",
      "UseType": "SelectEntity",
      "TargetInfo": {
        "TargetType": "Caster"
      },
      "ReadyAnimState": "StandBy",
      "EntryAbility": "Monster_W1_SvarogPart_00_RL_Skill06_Phase01"
    },
    {
      "Name": "PassiveSkill01",
      "SkillType": "Passive",
      "UseType": "Passive",
      "TargetInfo": {
        "TargetType": "Caster"
      },
      "EntryAbility": "Monster_Common_PassiveSkill_StanceBreak_Action"
    },
    {
      "Name": "PassiveSkill02",
      "SkillType": "Passive",
      "UseType": "Passive",
      "TargetInfo": {
        "TargetType": "Caster"
      },
      "EntryAbility": "Monster_Common_MuteHitFly"
    },
    {
      "Name": "PassiveSkill03",
      "SkillType": "Passive",
      "UseType": "Passive",
      "TargetInfo": {
        "TargetType": "Caster"
      },
      "EntryAbility": "Monster_W1_SvarogPart_00_RL_PassiveSkill03"
    },
    {
      "Name": "PassiveSkillInitiate",
      "SkillType": "Passive",
      "UseType": "Passive",
      "TargetInfo": {
        "TargetType": "Caster"
      },
      "EntryAbility": "Monster_W1_SvarogPart_00_RL_PassiveSkillInitiate"
    }
  ],
  "AbilityList": [
    "Monster_Svarog_RL_Insert",
    "Monster_W1_SvarogPart_00_RL_PassiveSkillInitiate"
  ],
  "SkillAbilityList": [
    {
      "Skill": "Skill02",
      "AbilityList": [
        "Monster_W1_SvarogPart_00_RL_Skill02_Phase01",
        "Monster_W1_SvarogPart_00_RL_Skill02_Phase02",
        "Monster_W1_SvarogPart_00_RL_Skill02_Camera"
      ]
    },
    {
      "Skill": "Skill03",
      "AbilityList": [
        "Monster_W1_SvarogPart_00_RL_Skill03_Phase01",
        "Monster_W1_SvarogPart_00_RL_Skill03_Phase02",
        "Monster_W1_SvarogPart_00_RL_Skill03_Camera"
      ]
    },
    {
      "Skill": "Skill04",
      "AbilityList": [
        "Monster_W1_SvarogPart_00_RL_Skill04_Phase01",
        "Monster_W1_SvarogPart_00_RL_Skill04_Phase02",
        "Monster_W1_SvarogPart_00_RL_Skill04_Camera"
      ]
    },
    {
      "Skill": "Skill05",
      "AbilityList": [
        "Monster_W1_SvarogPart_00_RL_Skill05_Phase01",
        "Monster_W1_SvarogPart_00_RL_Skill05_Phase02",
        "Monster_W1_SvarogPart_00_RL_Skill05_Camera"
      ]
    },
    {
      "Skill": "Skill06",
      "AbilityList": [
        "Monster_W1_SvarogPart_00_RL_Skill06_Phase01",
        "Monster_W1_SvarogPart_00_RL_Skill06_Phase02",
        "Monster_W1_SvarogPart_00_RL_Skill06_Camera"
      ]
    },
    {
      "Skill": "PassiveSkill01",
      "AbilityList": [
        "Monster_Common_PassiveSkill_StanceBreak_Action"
      ]
    },
    {
      "Skill": "PassiveSkill02",
      "AbilityList": [
        "Monster_Common_MuteHitFly"
      ]
    },
    {
      "Skill": "PassiveSkill03",
      "AbilityList": [
        "Monster_W1_SvarogPart_00_RL_PassiveSkill03"
      ]
    }
  ],
  "DynamicValues": {
    "Values": {
      "-53809608": {},
      "1530344204": {},
      "253898717": {},
      "-56289053": {
        "ReadInfo": {
          "Type": "None",
          "Str": "Skill03"
        }
      },
      "-671589232": {
        "ReadInfo": {
          "Type": "SkillTreeParam",
          "Str": "Skill03"
        }
      },
      "-402291451": {
        "ReadInfo": {
          "Type": "None",
          "Str": "Skill05"
        }
      },
      "1545083806": {
        "ReadInfo": {
          "Type": "None",
          "Str": "Skill06"
        }
      },
      "824721043": {
        "ReadInfo": {
          "Type": "SkillTreeParam",
          "Str": "Skill06"
        }
      },
      "-1421847346": {
        "ReadInfo": {
          "Type": "None",
          "Str": "PassiveSkill02"
        }
      },
      "-165660233": {
        "ReadInfo": {
          "Type": "None",
          "Str": "PassiveSkill03"
        }
      }
    }
  },
  "CustomValues": {
    "PartCanUseSkill03": 1,
    "PartDecisionFlag": 1
  },
  "WeaponType": "WP_Sword_Long",
  "ArmorType": "Armor_Metal",
  "InitAnimStateName": "Appear",
  "DisableAnimEventLayers": [
    "New Layer"
  ]
}