{
  "SomatoType": "LittleMonster",
  "CharacterHUDOffset": {
    "X": 0.1,
    "Y": 1.8,
    "Z": 0
  },
  "BuffPanelOffset": {
    "X": 0,
    "Y": 1.5,
    "Z": 0
  },
  "HitBoxWidth": 0.7,
  "HitBoxHeight": 0.8,
  "Location": {
    "Width": 1.6,
    "LocalZOffsetMin": 0.3,
    "LocalZOffsetMax": 1
  },
  "VisualRadius": 0.8,
  "AnimEventConfigList": [
    "Config/ConfigAnimEvents/Monster/Designer/Monster_AetherDivide_W2_Mecha02_00_Designer_AnimEvent.json",
    "Config/ConfigAnimEvents/Monster/Effect/Monster_AetherDivide_W2_Mecha02_00_Effect_AnimEvent.json",
    "Config/ConfigAnimEvents/Monster/Audio/Monster_AetherDivide_W2_Mecha02_00_Audio_AnimEvent.json"
  ],
  "SkillList": [
    {
      "Name": "Skill01",
      "UseType": "SelectEntity",
      "TargetInfo": {
        "TargetType": "AllEnemy"
      },
      "ReadyAnimState": "StandBy",
      "EntryAbility": "Monster_AetherDivide_W2_Mecha02_00_Skill01_Phase01"
    },
    {
      "Name": "Skill02",
      "SkillType": "Skill",
      "UseType": "SelectEntity",
      "TargetInfo": {
        "TargetType": "Caster"
      },
      "ReadyAnimState": "StandBy",
      "EntryAbility": "Monster_AetherDivide_W2_Mecha02_00_Skill02_Phase01"
    },
    {
      "Name": "SkillP01",
      "SkillType": "Passive",
      "UseType": "Passive",
      "TargetInfo": {
        "TargetType": "Caster"
      },
      "EntryAbility": "Monster_AetherDivide_W2_Mecha02_00_SkillP01_Initiate"
    }
  ],
  "AbilityList": [
    "Monster_AetherDivide_Common_Passive",
    "Monster_AetherDivide_Common_Passive_Little",
    "Monster_AetherDivide_Common_Passive_M"
  ],
  "SkillAbilityList": [
    {
      "Skill": "Skill01",
      "AbilityList": [
        "Monster_W2_Mecha02_00_Skill01_Camera",
        "Monster_AetherDivide_W2_Mecha02_00_Skill01_Phase01",
        "Monster_AetherDivide_W2_Mecha02_00_Skill01_Phase02"
      ]
    },
    {
      "Skill": "Skill02",
      "AbilityList": [
        "Monster_AetherDivide_W2_Mecha02_00_Skill02_Phase01",
        "Monster_AetherDivide_W2_Mecha02_00_Skill02_Phase02"
      ]
    },
    {
      "Skill": "SkillP01",
      "AbilityList": [
        "Monster_AetherDivide_W2_Mecha02_00_SkillP01_Initiate",
        "Monster_AetherDivide_W2_Mecha02_00_SkillP01_Insert"
      ]
    }
  ],
  "DynamicValues": {
    "Values": {
      "-1830764872": {},
      "24444579": {},
      "1715718693": {},
      "-1126825319": {
        "ReadInfo": {
          "Type": "None",
          "Str": "Skill01"
        }
      },
      "1606680698": {
        "ReadInfo": {
          "Type": "SkillTreeParam",
          "Str": "Skill01"
        }
      },
      "567312078": {
        "ReadInfo": {
          "Type": "SkillRank",
          "Str": "Skill01"
        }
      },
      "-976308245": {
        "ReadInfo": {
          "Type": "BattleEvent",
          "Str": "Skill01"
        }
      },
      "1246667513": {
        "ReadInfo": {
          "Type": "None",
          "Str": "SkillP01"
        }
      },
      "-485907098": {
        "ReadInfo": {
          "Type": "SkillTreeParam",
          "Str": "SkillP01"
        }
      },
      "-517019090": {
        "ReadInfo": {
          "Type": "SkillRank",
          "Str": "SkillP01"
        }
      },
      "1042578431": {
        "ReadInfo": {
          "Type": "BattleEvent",
          "Str": "SkillP01"
        }
      }
    }
  },
  "WeaponType": "WP_Explode",
  "ArmorType": "Armor_Metal",
  "DisableAnimEventLayers": [
    "Riboon Layer"
  ]
}