{
  "SomatoType": "LittleMonster",
  "CharacterHUDOffset": {
    "X": 0,
    "Y": 3,
    "Z": 0
  },
  "HitBoxHeight": 0.4,
  "Location": {
    "Width": 1.26
  },
  "VisualRadius": 0.8,
  "AutoFlipModel": true,
  "IsSpecialVisualCharacter": "True",
  "AnimEventConfigList": [
    "Config/ConfigAnimEvents/Monster/Designer/Monster_W2_Xuanlu_01_Designer_AnimEvent.json",
    "Config/ConfigAnimEvents/Monster/Effect/Monster_W2_Xuanlu_01_Effect_AnimEvent.json",
    "Config/ConfigAnimEvents/Monster/Audio/Monster_W2_Xuanlu_01_Audio_AnimEvent.json"
  ],
  "SkillList": [
    {
      "Name": "Skill01",
      "UseType": "SelectEntity",
      "TargetInfo": {
        "TargetType": "EnemySelect"
      },
      "ReadyAnimState": "StandBy",
      "EntryAbility": "Monster_W2_Xuanlu_01_Skill01_Phase01"
    },
    {
      "Name": "Passive",
      "SkillType": "Passive",
      "UseType": "Passive",
      "TargetInfo": {
        "TargetType": "Caster"
      },
      "EntryAbility": "Monster_W2_Xuanlu_01_PassiveSkill_Effect"
    },
    {
      "Name": "PassiveSkill01",
      "SkillType": "Passive",
      "UseType": "Passive",
      "TargetInfo": {
        "TargetType": "Caster"
      },
      "EntryAbility": "Monster_Common_PassiveSkill_StanceBreak_Action"
    },
    {
      "Name": "PassiveSkill02",
      "SkillType": "Passive",
      "UseType": "Passive",
      "TargetInfo": {
        "TargetType": "Caster"
      },
      "EntryAbility": "Monster_Common_MuteHitFly"
    }
  ],
  "AbilityList": [
    "Monster_W2_Xuanlu_01_PassiveSkill_Effect",
    "Monster_Common_PassiveSkill_StanceBreak_Action",
    "Monster_Common_MuteHitFly"
  ],
  "SkillAbilityList": [
    {
      "Skill": "Skill01",
      "AbilityList": [
        "Monster_W2_Xuanlu_01_Skill01_Phase01",
        "Monster_W2_Xuanlu_01_Skill01_Phase02",
        "Monster_W2_Xuanlu_01_Skill01_Camera"
      ]
    }
  ],
  "DynamicValues": {
    "Values": {
      "-1126825319": {
        "ReadInfo": {
          "Type": "None",
          "Str": "Skill01"
        }
      },
      "-1472889456": {
        "ReadInfo": {
          "Type": "SkillTreeParam",
          "Str": "Skill01"
        }
      }
    }
  },
  "WeaponType": "WP_Scythe",
  "ArmorType": "Armor_Metal",
  "DisableAnimEventLayers": [
    "Riboon Layer"
  ]
}