{
  "SomatoType": "LargeMonster",
  "CharacterHUDOffset": {
    "X": 0.3,
    "Y": 3.6,
    "Z": 0
  },
  "BuffPanelOffset": {
    "X": 0.3,
    "Y": 1.8,
    "Z": 0
  },
  "HitBoxWidth": 1.3,
  "HitBoxHeight": 2.8,
  "Resilience": "A",
  "Location": {
    "Width": 3.2
  },
  "VisualRadius": 0.8,
  "AnimEventConfigList": [
    "Config/ConfigAnimEvents/Monster/Designer/Monster_AML_Elite01_01_Designer_AnimEvent.json",
    "Config/ConfigAnimEvents/Monster/Effect/Monster_AML_Elite01_01_Effect_AnimEvent.json",
    "Config/ConfigAnimEvents/Monster/Audio/Monster_AML_Elite01_01_Audio_AnimEvent.json"
  ],
  "SkillList": [
    {
      "Name": "Skill01",
      "SkillType": "Skill",
      "UseType": "SelectEntity",
      "TargetInfo": {
        "TargetType": "EnemySelect"
      },
      "ReadyAnimState": "StandBy",
      "EntryAbility": "Monster_AML_Elite01_01_Skill01_Phase01"
    },
    {
      "Name": "Skill03",
      "SkillType": "Skill",
      "UseType": "SelectEntity",
      "TargetInfo": {
        "TargetType": "EnemySelect",
        "SubTargetType": "TargetAdjoinEntity"
      },
      "ReadyAnimState": "StandBy",
      "EntryAbility": "Monster_AML_Elite01_01_Skill03_Phase01"
    },
    {
      "Name": "Skill04",
      "SkillType": "Skill",
      "UseType": "SelectEntity",
      "TargetInfo": {
        "TargetType": "AllEnemy"
      },
      "ReadyAnimState": "StandBy",
      "EntryAbility": "Monster_AML_Elite01_01_Skill04_Tutorial_Phase01"
    },
    {
      "Name": "Skill05",
      "SkillType": "Skill",
      "UseType": "SelectEntity",
      "TargetInfo": {
        "TargetType": "AllEnemy"
      },
      "ReadyAnimState": "StandBy",
      "EntryAbility": "Monster_AML_Elite01_01_Skill05_Tutorial_Phase01"
    },
    {
      "Name": "Skill06",
      "SkillType": "Skill",
      "UseType": "SelectEntity",
      "TargetInfo": {
        "TargetType": "EnemySelect"
      },
      "SkillNameHUD": false,
      "ReadyAnimState": "StandBy",
      "EntryAbility": "Monster_AML_Elite01_01_Skill06_Phase01"
    },
    {
      "Name": "PassiveSkillInitiate",
      "SkillType": "Passive",
      "UseType": "Passive",
      "TargetInfo": {
        "TargetType": "Caster"
      },
      "EntryAbility": "Monster_AML_Elite01_01_PassiveSkill_Initiate"
    },
    {
      "Name": "PassiveSkill01",
      "SkillType": "Passive",
      "UseType": "Passive",
      "TargetInfo": {
        "TargetType": "Caster"
      },
      "EntryAbility": "Monster_Common_PassiveSkill_StanceBreak_Action"
    }
  ],
  "AbilityList": [
    "Monster_Common_PassiveSkill_StanceBreak_Action"
  ],
  "SkillAbilityList": [
    {
      "Skill": "Skill01",
      "AbilityList": [
        "Monster_AML_Elite01_01_Skill01_Camera",
        "Monster_AML_Elite01_01_Skill01_Phase01",
        "Monster_AML_Elite01_01_Skill01_Phase02"
      ]
    },
    {
      "Skill": "Skill03",
      "AbilityList": [
        "Monster_AML_Elite01_01_Skill03_Camera",
        "Monster_AML_Elite01_01_Skill03_Phase01",
        "Monster_AML_Elite01_01_Skill03_Phase02"
      ]
    },
    {
      "Skill": "Skill04",
      "AbilityList": [
        "Monster_AML_Elite01_01_Skill04_Camera",
        "Monster_AML_Elite01_01_Skill04_Tutorial_Phase01",
        "Monster_AML_Elite01_01_Skill04_Tutorial_Phase02"
      ]
    },
    {
      "Skill": "Skill05",
      "AbilityList": [
        "Monster_AML_Elite01_01_Skill05_Camera",
        "Monster_AML_Elite01_01_Skill05_Tutorial_Phase01",
        "Monster_AML_Elite01_01_Skill05_Tutorial_Phase02"
      ]
    },
    {
      "Skill": "Skill06",
      "AbilityList": [
        "Monster_AML_Elite01_01_Skill06_Camera",
        "Monster_AML_Elite01_01_Skill06_Phase01",
        "Monster_AML_Elite01_01_Skill06_Phase02"
      ]
    },
    {
      "Skill": "PassiveSkillInitiate",
      "AbilityList": [
        "Monster_AML_Elite01_01_PassiveSkill_Initiate",
        "Monster_AML_Elite01_01_PassiveSkill_InsertAbility_ListenPoison"
      ]
    }
  ],
  "DynamicValues": {
    "Values": {
      "-1126825319": {
        "ReadInfo": {
          "Type": "None",
          "Str": "Skill01"
        }
      },
      "-56289053": {
        "ReadInfo": {
          "Type": "None",
          "Str": "Skill03"
        }
      },
      "-402291451": {
        "ReadInfo": {
          "Type": "None",
          "Str": "Skill05"
        }
      },
      "-1994965064": {
        "ReadInfo": {
          "Type": "None",
          "Str": "PassiveSkillInitiate"
        }
      },
      "1285986891": {
        "ReadInfo": {
          "Type": "SkillTreeParam",
          "Str": "PassiveSkillInitiate"
        }
      },
      "-1303207772": {
        "ReadInfo": {
          "Type": "SkillRank",
          "Str": "PassiveSkillInitiate"
        }
      },
      "-1483874470": {
        "ReadInfo": {
          "Type": "BattleEvent",
          "Str": "PassiveSkillInitiate"
        }
      },
      "1918150955": {
        "ReadInfo": {
          "Type": 8,
          "Str": "PassiveSkillInitiate"
        }
      },
      "579478758": {
        "ReadInfo": {
          "Type": 10,
          "Str": "PassiveSkillInitiate"
        }
      },
      "-371555815": {}
    }
  },
  "CustomValues": {
    "Monster_AML_Elite01_01_BreakCounter": 0,
    "Monster_AML_Elite01_01_AICounter_01": 3,
    "Monster_AML_Elite01_01_AICounter_02": 1,
    "Monster_AML_Elite01_01_DOTHitCounter": 0
  },
  "WeaponType": "WP_Scythe",
  "ArmorType": "Armor_Metal",
  "DisableAnimEventLayers": [
    "Riboon Layer"
  ]
}