{
  "CharacterHUDOffset": {
    "X": 0.05,
    "Y": 1.9,
    "Z": 0.2
  },
  "BuffPanelOffset": {
    "X": 0,
    "Y": 1.8,
    "Z": 0
  },
  "HitBoxWidth": 0.3,
  "HitBoxHeight": 1.5,
  "Location": {
    "Width": 1,
    "LocalZOffsetMin": 0.3,
    "LocalZOffsetMax": 1
  },
  "VisualRadius": 0.8,
  "AnimEventConfigList": [
    "Config/ConfigAnimEvents/Monster/Designer/Monster_W1_Soldier02_01_Designer_AnimEvent.json",
    "Config/ConfigAnimEvents/Monster/Effect/Monster_W1_Soldier02_01_Effect_AnimEvent.json",
    "Config/ConfigAnimEvents/Monster/Audio/Monster_W1_Soldier02_01_Audio_AnimEvent.json"
  ],
  "SkillList": [
    {
      "Name": "Skill01",
      "UseType": "SelectEntity",
      "TargetInfo": {
        "TargetType": "EnemySelect"
      },
      "ReadyAnimState": "StandBy",
      "EntryAbility": "Monster_W1_Soldier02_01_Skill01_Phase01"
    },
    {
      "Name": "PassiveSkill01",
      "UseType": "Passive",
      "TargetInfo": {
        "TargetType": "Caster"
      },
      "EntryAbility": "Monster_Common_PassiveSkill_StanceBreak_Action"
    },
    {
      "Name": "PassiveSkill02",
      "SkillType": "Passive",
      "UseType": "Passive",
      "TargetInfo": {
        "TargetType": "Caster"
      },
      "EntryAbility": "Monster_W1_Soldier02_01_Passive01"
    }
  ],
  "AbilityList": [
    "Monster_Common_PassiveSkill_StanceBreak_Action",
    "Monster_W1_Soldier02_01_Skill01_Phase01",
    "Monster_W1_Soldier02_01_Skill01_Phase02",
    "Monster_W1_Soldier02_01_Skill01_Camera",
    "Monster_W1_Soldier02_01_Passive01"
  ],
  "DynamicValues": {
    "Values": {
      "-1126825319": {
        "ReadInfo": {
          "Type": "None",
          "Str": "Skill01"
        }
      },
      "889233808": {
        "ReadInfo": {
          "Type": "None",
          "Str": "PassiveSkill01"
        }
      },
      "1264754587": {}
    }
  },
  "CustomValues": {
    "AIFlag": 1,
    "Phase_Flag": 1
  },
  "WeaponType": "WP_Scythe",
  "ArmorType": "Armor_Metal",
  "DisableAnimEventLayers": [
    "Riboon Layer"
  ]
}