{
  "SomatoType": "LargeMonster",
  "CharacterHUDOffset": {
    "X": 0,
    "Y": 3.8,
    "Z": 0
  },
  "BuffPanelOffset": {
    "X": 0,
    "Y": 1.8,
    "Z": 0
  },
  "HitBoxWidth": 0.3,
  "HitBoxHeight": 2.8,
  "Location": {
    "Width": 3.2
  },
  "VisualRadius": 0.8,
  "AnimEventConfigList": [
    "Config/ConfigAnimEvents/Monster/Designer/Monster_XP_Elite01_00_Designer_AnimEvent.json",
    "Config/ConfigAnimEvents/Monster/Effect/Monster_XP_Elite01_00_Effect_AnimEvent.json",
    "Config/ConfigAnimEvents/Monster/Audio/Monster_XP_Elite01_00_Audio_AnimEvent.json"
  ],
  "SkillList": [
    {
      "Name": "Skill01",
      "UseType": "SelectEntity",
      "TargetInfo": {
        "TargetType": "EnemySelect"
      },
      "ReadyAnimState": "StandBy",
      "EntryAbility": "Monster_AetherDivide_XP_Elite01_00_Skill01_Phase01"
    },
    {
      "Name": "Skill03",
      "SkillType": "Skill",
      "UseType": "SelectEntity",
      "TargetInfo": {
        "TargetType": "Caster"
      },
      "ReadyAnimState": "StandBy",
      "EntryAbility": "Monster_AetherDivide_XP_Elite01_00_Skill03_Phase01"
    },
    {
      "Name": "Skill05",
      "SkillType": "Skill",
      "UseType": "SelectEntity",
      "TargetInfo": {
        "TargetType": "AllEnemy"
      },
      "ReadyAnimState": "StandBy",
      "EntryAbility": "Monster_AetherDivide_XP_Elite01_00_Skill05_Phase01",
      "ImmunizeProtect": true
    },
    {
      "Name": "Skill07",
      "SkillType": "Skill",
      "UseType": "SelectEntity",
      "TargetInfo": {
        "TargetType": "Caster"
      },
      "ReadyAnimState": "StandBy",
      "EntryAbility": "Monster_AetherDivide_XP_Elite01_00_Skill07_Phase01"
    },
    {
      "Name": "Skill08",
      "SkillType": "Skill",
      "UseType": "SelectEntity",
      "TargetInfo": {
        "TargetType": "AllEnemy"
      },
      "ReadyAnimState": "StandBy",
      "EntryAbility": "Monster_AetherDivide_XP_Elite01_00_Skill08_Phase01"
    },
    {
      "Name": "Skill09",
      "SkillType": "Skill",
      "UseType": "SelectEntity",
      "TargetInfo": {
        "TargetType": "AllEnemy"
      },
      "ReadyAnimState": "StandBy",
      "EntryAbility": "Monster_AetherDivide_XP_Elite01_00_Skill09_Phase01",
      "ImmunizeProtect": true
    },
    {
      "Name": "PassiveSkill01",
      "SkillType": "Passive",
      "UseType": "Passive",
      "TargetInfo": {
        "TargetType": "Caster"
      },
      "EntryAbility": "Monster_AetherDivide_XP_Elite01_00_PassiveSkill01"
    }
  ],
  "AbilityList": [
    "Monster_AetherDivide_Common_Passive",
    "Monster_AetherDivide_Common_Passive_P",
    "Monster_AetherDivide_Common_Passive_Large",
    "Monster_AetherDivide_XP_Elite01_00_PassiveSkill01"
  ],
  "SkillAbilityList": [
    {
      "Skill": "Skill01",
      "AbilityList": [
        "Monster_AetherDivide_XP_Elite01_00_Skill01_Camera",
        "Monster_AetherDivide_XP_Elite01_00_Skill01_Phase01",
        "Monster_AetherDivide_XP_Elite01_00_Skill01_Phase02"
      ]
    },
    {
      "Skill": "Skill03",
      "AbilityList": [
        "Monster_AetherDivide_XP_Elite01_00_Skill03_Camera",
        "Monster_AetherDivide_XP_Elite01_00_Skill03_Phase01",
        "Monster_AetherDivide_XP_Elite01_00_Skill03_Phase02"
      ]
    },
    {
      "Skill": "Skill05",
      "AbilityList": [
        "Monster_AetherDivide_XP_Elite01_00_Skill05_Camera",
        "Monster_AetherDivide_XP_Elite01_00_Skill05_Phase01",
        "Monster_AetherDivide_XP_Elite01_00_Skill05_Phase02"
      ]
    },
    {
      "Skill": "Skill07",
      "AbilityList": [
        "Monster_AetherDivide_XP_Elite01_00_Skill07_Camera",
        "Monster_AetherDivide_XP_Elite01_00_Skill07_Phase01",
        "Monster_AetherDivide_XP_Elite01_00_Skill07_Phase02"
      ]
    },
    {
      "Skill": "Skill08",
      "AbilityList": [
        "Monster_AetherDivide_XP_Elite01_00_Skill08_Camera",
        "Monster_AetherDivide_XP_Elite01_00_Skill08_Phase01",
        "Monster_AetherDivide_XP_Elite01_00_Skill08_Phase02"
      ]
    },
    {
      "Skill": "Skill09",
      "AbilityList": [
        "Monster_AetherDivide_XP_Elite01_00_Skill09_Camera",
        "Monster_AetherDivide_XP_Elite01_00_Skill09_Phase01",
        "Monster_AetherDivide_XP_Elite01_00_Skill09_Phase02"
      ]
    }
  ],
  "DynamicValues": {
    "Values": {
      "-1830764872": {},
      "24444579": {},
      "1715718693": {},
      "2128130574": {},
      "-1185847163": {},
      "2105274712": {},
      "1494603613": {},
      "-540397741": {},
      "1162418098": {},
      "1831630900": {},
      "-1428498779": {},
      "-1126825319": {
        "ReadInfo": {
          "Type": "None",
          "Str": "Skill01"
        }
      },
      "834560291": {
        "ReadInfo": {
          "Type": "SkillTreeParam",
          "Str": "Skill01"
        }
      },
      "-1012230101": {
        "ReadInfo": {
          "Type": "SkillRank",
          "Str": "Skill01"
        }
      },
      "-328771816": {
        "ReadInfo": {
          "Type": "BattleEvent",
          "Str": "Skill01"
        }
      },
      "1944682012": {
        "ReadInfo": {
          "Type": "SkillTreeParam",
          "Str": "Skill03"
        }
      },
      "1944333775": {
        "ReadInfo": {
          "Type": "SkillRank",
          "Str": "Skill03"
        }
      },
      "-402291451": {
        "ReadInfo": {
          "Type": "None",
          "Str": "Skill05"
        }
      },
      "-1922780913": {
        "ReadInfo": {
          "Type": "SkillTreeParam",
          "Str": "Skill05"
        }
      },
      "-561854409": {
        "ReadInfo": {
          "Type": "SkillRank",
          "Str": "Skill05"
        }
      },
      "-2811872": {
        "ReadInfo": {
          "Type": "BattleEvent",
          "Str": "Skill05"
        }
      },
      "-166860567": {
        "ReadInfo": {
          "Type": 8,
          "Str": "Skill05"
        }
      },
      "875825847": {
        "ReadInfo": {
          "Type": 10,
          "Str": "Skill05"
        }
      },
      "1092127185": {
        "ReadInfo": {
          "Type": "None",
          "Str": "Skill07"
        }
      },
      "1431434177": {
        "ReadInfo": {
          "Type": "None",
          "Str": "Skill09"
        }
      },
      "-2072376638": {
        "ReadInfo": {
          "Type": "SkillTreeParam",
          "Str": "Skill09"
        }
      }
    }
  },
  "CustomValues": {
    "StanceBreak_Sign": 0,
    "InsertController": 0,
    "Phase_Flag": 1,
    "AIFlag": 1
  },
  "WeaponType": "WP_Magic",
  "DisableAnimEventLayers": [
    "Riboon Layer"
  ]
}