{
  "SomatoType": "LargeMonster",
  "CharacterHUDOffset": {
    "X": 0.3,
    "Y": 3.6,
    "Z": 0
  },
  "BuffPanelOffset": {
    "X": 0.3,
    "Y": 1.8,
    "Z": 0
  },
  "HitBoxWidth": 1.3,
  "HitBoxHeight": 2.8,
  "Resilience": "A",
  "Location": {
    "Width": 3.2
  },
  "VisualRadius": 0.8,
  "AnimEventConfigList": [
    "Config/ConfigAnimEvents/Monster/Designer/Monster_AML_Elite01_00_Designer_AnimEvent.json",
    "Config/ConfigAnimEvents/Monster/Effect/Monster_AML_Elite01_00_Effect_AnimEvent.json",
    "Config/ConfigAnimEvents/Monster/Audio/Monster_AML_Elite01_00_Audio_AnimEvent.json"
  ],
  "SkillList": [
    {
      "Name": "Skill01",
      "UseType": "SelectEntity",
      "TargetInfo": {
        "TargetType": "EnemySelect"
      },
      "ReadyAnimState": "StandBy",
      "EntryAbility": "Monster_AML_Elite01_00_Skill01_Phase01"
    },
    {
      "Name": "Skill02",
      "SkillType": "Skill",
      "UseType": "SelectEntity",
      "TargetInfo": {
        "TargetType": "EnemySelect"
      },
      "ReadyAnimState": "StandBy",
      "EntryAbility": "Monster_AML_Elite01_00_Skill02_Phase01"
    },
    {
      "Name": "Skill03",
      "SkillType": "Skill",
      "UseType": "SelectEntity",
      "TargetInfo": {
        "TargetType": "EnemySelect",
        "SubTargetType": "TargetAdjoinEntity"
      },
      "ReadyAnimState": "StandBy",
      "EntryAbility": "Monster_AML_Elite01_00_Skill03_Phase01"
    },
    {
      "Name": "Skill04",
      "SkillType": "Skill",
      "UseType": "SelectEntity",
      "TargetInfo": {
        "TargetType": "EnemySelect"
      },
      "ReadyAnimState": "StandBy",
      "EntryAbility": "Monster_AML_Elite01_00_Skill04_Tutorial_Phase01"
    },
    {
      "Name": "Skill05",
      "SkillType": "Skill",
      "UseType": "SelectEntity",
      "TargetInfo": {
        "TargetType": "EnemySelect"
      },
      "ReadyAnimState": "StandBy",
      "EntryAbility": "Monster_AML_Elite01_00_Skill05_Tutorial_Phase01"
    },
    {
      "Name": "PassiveSkill01",
      "SkillType": "Passive",
      "UseType": "Passive",
      "TargetInfo": {
        "TargetType": "Caster"
      },
      "EntryAbility": "Monster_Common_PassiveSkill_StanceBreak_Action"
    },
    {
      "Name": "PassiveSkill02",
      "SkillType": "Passive",
      "UseType": "Passive",
      "TargetInfo": {
        "TargetType": "Caster"
      },
      "EntryAbility": "Monster_Common_PassiveSkill_Tutorial_Break"
    }
  ],
  "AbilityList": [
    "Monster_Common_PassiveSkill_StanceBreak_Action",
    "Monster_Common_PassiveSkill_Tutorial_Break"
  ],
  "SkillAbilityList": [
    {
      "Skill": "Skill01",
      "AbilityList": [
        "Monster_AML_Elite01_00_Skill01_Camera",
        "Monster_AML_Elite01_00_Skill01_Phase01",
        "Monster_AML_Elite01_00_Skill01_Phase02"
      ]
    },
    {
      "Skill": "Skill02",
      "AbilityList": [
        "Monster_AML_Elite01_00_Skill02_Camera",
        "Monster_AML_Elite01_00_Skill02_Phase01",
        "Monster_AML_Elite01_00_Skill02_Phase02"
      ]
    },
    {
      "Skill": "Skill03",
      "AbilityList": [
        "Monster_AML_Elite01_00_Skill03_Camera",
        "Monster_AML_Elite01_00_Skill03_Phase01",
        "Monster_AML_Elite01_00_Skill03_Phase02"
      ]
    },
    {
      "Skill": "Skill04",
      "AbilityList": [
        "Monster_AML_Elite01_00_Skill04_Camera",
        "Monster_AML_Elite01_00_Skill04_Tutorial_Phase01",
        "Monster_AML_Elite01_00_Skill04_Tutorial_Phase02"
      ]
    },
    {
      "Skill": "Skill05",
      "AbilityList": [
        "Monster_AML_Elite01_00_Skill05_Camera",
        "Monster_AML_Elite01_00_Skill05_Tutorial_Phase01",
        "Monster_AML_Elite01_00_Skill05_Tutorial_Phase02"
      ]
    }
  ],
  "DynamicValues": {
    "Values": {
      "-1126825319": {
        "ReadInfo": {
          "Type": "None",
          "Str": "Skill01"
        }
      },
      "-1847083384": {
        "ReadInfo": {
          "Type": "None",
          "Str": "Skill02"
        }
      },
      "-56289053": {
        "ReadInfo": {
          "Type": "None",
          "Str": "Skill03"
        }
      },
      "-402291451": {
        "ReadInfo": {
          "Type": "None",
          "Str": "Skill05"
        }
      },
      "-14369618": {
        "ReadInfo": {
          "Type": "SkillTreeParam",
          "Str": "Skill05"
        }
      },
      "1876724098": {
        "ReadInfo": {
          "Type": "SkillRank",
          "Str": "Skill05"
        }
      }
    }
  },
  "CustomValues": {
    "Monster_AML_Elite01_00_BreakCounter": 0,
    "Monster_AML_Elite01_00_AICounter_01": 2,
    "Monster_AML_Elite01_00_AICounter_02": 1,
    "Monster_AML_Elite01_00_AttackCount": 0
  },
  "WeaponType": "WP_Scythe",
  "ArmorType": "Armor_Metal",
  "DisableAnimEventLayers": [
    "Riboon Layer"
  ]
}