{
  "SomatoType": "LargeMonster",
  "CharacterHUDOffset": {
    "X": 0,
    "Y": 7.2,
    "Z": 0
  },
  "BuffPanelOffset": {
    "X": 0,
    "Y": 5.7,
    "Z": 0
  },
  "HitBoxWidth": 0.7,
  "HitBoxHeight": 5,
  "Location": {
    "Width": 4,
    "TeamDistanceOffset": 5
  },
  "SaveModelWhenDead": true,
  "DeadPerform": true,
  "AnimEventConfigList": [
    "Config/ConfigAnimEvents/Monster/Designer/Monster_W1_CocoliaP2_00_Designer_AnimEvent.json",
    "Config/ConfigAnimEvents/Monster/Effect/Monster_W1_CocoliaP2_00_Effect_AnimEvent.json",
    "Config/ConfigAnimEvents/Monster/Audio/Monster_W1_CocoliaP2_00_Audio_AnimEvent.json"
  ],
  "SkillList": [
    {
      "Name": "Skill01",
      "UseType": "SelectEntity",
      "TargetInfo": {
        "TargetType": "EnemySelect"
      },
      "ReadyAnimState": "StandBy",
      "EntryAbility": "Monster_W1_CocoliaP2_00_Skill01_Phase01"
    },
    {
      "Name": "Skill02",
      "SkillType": "Skill",
      "UseType": "SelectEntity",
      "TargetInfo": {
        "TargetType": "Caster"
      },
      "ReadyAnimState": "StandBy",
      "EntryAbility": "Monster_W1_CocoliaP2_00_Skill02_Phase01"
    },
    {
      "Name": "Skill04",
      "SkillType": "Skill",
      "UseType": "SelectEntity",
      "TargetInfo": {
        "TargetType": "AllEnemy"
      },
      "ReadyAnimState": "StandBy",
      "EntryAbility": "Monster_W1_CocoliaP2_00_Skill04_Phase01"
    },
    {
      "Name": "Skill06",
      "SkillType": "Skill",
      "UseType": "SelectEntity",
      "TargetInfo": {
        "TargetType": "EnemySelect"
      },
      "ReadyAnimState": "StandBy",
      "EntryAbility": "Monster_W1_CocoliaP2_00_Skill06_Phase01"
    },
    {
      "Name": "Skill07",
      "SkillType": "Skill",
      "UseType": "SelectEntity",
      "TargetInfo": {
        "TargetType": "EnemySelect"
      },
      "ReadyAnimState": "StandBy",
      "EntryAbility": "Monster_W1_CocoliaP2_00_Skill07_Phase01"
    },
    {
      "Name": "Skill08",
      "SkillType": "Skill",
      "UseType": "SelectEntity",
      "TargetInfo": {
        "TargetType": "Caster"
      },
      "ReadyAnimState": "StandBy",
      "EntryAbility": "Monster_W1_CocoliaP2_00_Skill08_Phase01"
    },
    {
      "Name": "Skill09",
      "SkillType": "Skill",
      "UseType": "SelectEntity",
      "TargetInfo": {
        "TargetType": "AllEnemy"
      },
      "ReadyAnimState": "StandBy",
      "EntryAbility": "Monster_W1_CocoliaP2_00_Skill09_Phase01"
    },
    {
      "Name": "Skill10",
      "SkillType": "Skill",
      "UseType": "SelectEntity",
      "TargetInfo": {
        "TargetType": "EnemySelect"
      },
      "ReadyAnimState": "StandBy",
      "EntryAbility": "Monster_W1_CocoliaP2_00_Skill10_Phase01"
    },
    {
      "Name": "SkillP01",
      "SkillType": "Passive",
      "UseType": "Passive",
      "TargetInfo": {
        "TargetType": "Caster"
      },
      "EntryAbility": "Monster_W1_CocoliaP2_00_PassiveSkillInitiate"
    },
    {
      "Name": "SkillP02",
      "SkillType": "Passive",
      "UseType": "Passive",
      "TargetInfo": {
        "TargetType": "Caster"
      },
      "EntryAbility": "Monster_W1_CocoliaP2_00_SkillP02"
    },
    {
      "Name": "PassiveSkillCommon01",
      "SkillType": "Passive",
      "UseType": "Passive",
      "TargetInfo": {
        "TargetType": "Caster"
      },
      "EntryAbility": "Monster_Common_PassiveSkill_StanceBreak_Action"
    }
  ],
  "AbilityList": [
    "Monster_Common_PassiveSkill_StanceBreak_Action"
  ],
  "SkillAbilityList": [
    {
      "Skill": "Skill01",
      "AbilityList": [
        "Monster_W1_CocoliaP2_00_Skill01_Camera",
        "Monster_W1_CocoliaP2_00_Skill01_Phase01",
        "Monster_W1_CocoliaP2_00_Skill01_Phase02"
      ]
    },
    {
      "Skill": "Skill02",
      "AbilityList": [
        "Monster_W1_CocoliaP2_00_Skill02_Camera",
        "Monster_W1_CocoliaP2_00_Skill02_Phase01",
        "Monster_W1_CocoliaP2_00_Skill02_Phase02"
      ]
    },
    {
      "Skill": "Skill04",
      "AbilityList": [
        "Monster_W1_CocoliaP2_00_Skill04_Camera",
        "Monster_W1_CocoliaP2_00_Skill04_Phase01",
        "Monster_W1_CocoliaP2_00_Skill04_Phase02"
      ]
    },
    {
      "Skill": "Skill06",
      "AbilityList": [
        "Monster_W1_CocoliaP2_00_Skill06_Camera",
        "Monster_W1_CocoliaP2_00_Skill06_Phase01",
        "Monster_W1_CocoliaP2_00_Skill06_Phase02"
      ]
    },
    {
      "Skill": "Skill07",
      "AbilityList": [
        "Monster_W1_CocoliaP2_00_Skill07_Camera",
        "Monster_W1_CocoliaP2_00_Skill07_Phase01",
        "Monster_W1_CocoliaP2_00_Skill07_Phase02"
      ]
    },
    {
      "Skill": "Skill08",
      "AbilityList": [
        "Monster_W1_CocoliaP2_00_Skill08_Camera",
        "Monster_W1_CocoliaP2_00_Skill08_Phase01",
        "Monster_W1_CocoliaP2_00_Skill08_Phase02"
      ]
    },
    {
      "Skill": "Skill09",
      "AbilityList": [
        "Monster_W1_CocoliaP2_00_Skill09_Camera",
        "Monster_W1_CocoliaP2_00_Skill09_Phase01",
        "Monster_W1_CocoliaP2_00_Skill09_Phase02"
      ]
    },
    {
      "Skill": "Skill10",
      "AbilityList": [
        "Monster_W1_CocoliaP2_00_Skill10_Camera",
        "Monster_W1_CocoliaP2_00_Skill10_Phase01",
        "Monster_W1_CocoliaP2_00_Skill10_Phase02"
      ]
    },
    {
      "Skill": "SkillP01",
      "AbilityList": [
        "Monster_W1_CocoliaP2_00_PassiveSkillInitiate",
        "Monster_W1_CocoliaP2_00_PassiveSkill_Insert"
      ]
    },
    {
      "Skill": "SkillP02",
      "AbilityList": [
        "Monster_W1_CocoliaP2_00_SkillP02"
      ]
    }
  ],
  "DynamicValues": {
    "Values": {
      "-1126825319": {
        "ReadInfo": {
          "Type": "None",
          "Str": "Skill01"
        }
      },
      "13825531": {
        "ReadInfo": {
          "Type": "None",
          "Str": "Skill02"
        }
      },
      "1325979655": {
        "ReadInfo": {
          "Type": "SkillTreeParam",
          "Str": "Skill02"
        }
      },
      "-190305622": {
        "ReadInfo": {
          "Type": "None",
          "Str": "Skill04"
        }
      },
      "-1122549516": {
        "ReadInfo": {
          "Type": "None",
          "Str": "Skill06"
        }
      },
      "668244815": {
        "ReadInfo": {
          "Type": "None",
          "Str": "Skill07"
        }
      },
      "-1007887444": {
        "ReadInfo": {
          "Type": "SkillTreeParam",
          "Str": "Skill07"
        }
      },
      "561314657": {
        "ReadInfo": {
          "Type": "SkillRank",
          "Str": "Skill07"
        }
      },
      "1431434177": {
        "ReadInfo": {
          "Type": "None",
          "Str": "Skill09"
        }
      },
      "2068769088": {
        "ReadInfo": {
          "Type": "None",
          "Str": "SkillP01"
        }
      },
      "251187319": {
        "ReadInfo": {
          "Type": "SkillTreeParam",
          "Str": "SkillP01"
        }
      },
      "1627933551": {
        "ReadInfo": {
          "Type": "SkillRank",
          "Str": "SkillP01"
        }
      },
      "1109782588": {
        "ReadInfo": {
          "Type": "None",
          "Str": "SkillP02"
        }
      },
      "-393929900": {
        "ReadInfo": {
          "Type": "SkillTreeParam",
          "Str": "SkillP02"
        }
      },
      "1987669189": {
        "ReadInfo": {
          "Type": "SkillRank",
          "Str": "SkillP02"
        }
      },
      "680481970": {}
    }
  },
  "CustomValues": {
    "Monster_W1_CocoliaP2_00_SummonMonsterID01": 1002013,
    "Monster_W1_CocoliaP2_00_SummonMonsterID02": 1002014,
    "Cocolia_AICounter": 1,
    "Cocolia_ChangePhase_InsertController": 0,
    "Cocolia_Tips_Taunt": 1
  },
  "WeaponType": "WP_Scythe",
  "ArmorType": "Armor_Physical_L",
  "ModifierPerformTimeFactor": 2,
  "DisableAnimEventLayers": [
    "ScaleLayer",
    "WeaponBloomLayer"
  ],
  "CameraNamedDynamicOffset": "Huge",
  "MaxMonsterPhase": 2,
  "PhaseList": [
    {
      "PhaseNum": 1
    },
    {
      "PhaseNum": 2,
      "PhaseMaxHPRatio": {
        "IsDynamic": true,
        "PostfixExpr": {
          "OpCodes": "AQAK",
          "FixedValues": [],
          "DynamicHashes": [
            2068769088
          ]
        }
      },
      "PhaseStanceRatio": {
        "IsDynamic": true,
        "PostfixExpr": {
          "OpCodes": "AQAK",
          "FixedValues": [],
          "DynamicHashes": [
            251187319
          ]
        }
      }
    }
  ]
}