{
  "SomatoType": "LargeMonster",
  "CharacterHUDOffset": {
    "X": 0.6,
    "Y": 4,
    "Z": 0
  },
  "BuffPanelOffset": {
    "X": 0,
    "Y": 1.8,
    "Z": 0
  },
  "HitBoxHeight": 2.8,
  "Location": {
    "Width": 2.4
  },
  "VisualRadius": 0.8,
  "SaveModelWhenDead": true,
  "AnimEventConfigList": [
    "Config/ConfigAnimEvents/Monster/Designer/Monster_W2_Xuanlu_00_Designer_AnimEvent.json",
    "Config/ConfigAnimEvents/Monster/Effect/Monster_W2_Xuanlu_00_Effect_AnimEvent.json",
    "Config/ConfigAnimEvents/Monster/Audio/Monster_W2_Xuanlu_00_Audio_AnimEvent.json"
  ],
  "SkillList": [
    {
      "Name": "Skill01",
      "UseType": "SelectEntity",
      "TargetInfo": {
        "TargetType": "Caster"
      },
      "ReadyAnimState": "StandBy",
      "EntryAbility": "Monster_W2_Xuanlu_00_Skill01_Phase01"
    },
    {
      "Name": "Skill02",
      "UseType": "SelectEntity",
      "TargetInfo": {
        "TargetType": "Caster"
      },
      "ReadyAnimState": "StandBy",
      "EntryAbility": "Monster_W2_Xuanlu_00_Skill02_Phase01"
    },
    {
      "Name": "Skill03",
      "UseType": "SelectEntity",
      "TargetInfo": {
        "TargetType": "Caster"
      },
      "ReadyAnimState": "StandBy",
      "EntryAbility": "Monster_W2_Xuanlu_00_Skill03_Phase01"
    },
    {
      "Name": "Skill04",
      "UseType": "SelectEntity",
      "TargetInfo": {
        "TargetType": "Caster"
      },
      "ReadyAnimState": "StandBy",
      "EntryAbility": "Monster_W2_Xuanlu_00_Skill04_Phase01"
    },
    {
      "Name": "Skill05",
      "UseType": "SelectEntity",
      "TargetInfo": {
        "TargetType": "EnemySelect"
      },
      "ReadyAnimState": "StandBy",
      "EntryAbility": "Monster_W2_Xuanlu_00_Skill05_Phase01"
    },
    {
      "Name": "Skill06",
      "UseType": "SelectEntity",
      "TargetInfo": {
        "TargetType": "AllEnemy"
      },
      "ReadyAnimState": "StandBy",
      "EntryAbility": "Monster_W2_Xuanlu_00_Skill06_Phase01"
    },
    {
      "Name": "Skill07",
      "UseType": "SelectEntity",
      "TargetInfo": {
        "TargetType": "Caster"
      },
      "ReadyAnimState": "StandBy",
      "EntryAbility": "Monster_W2_Xuanlu_00_Skill07_Phase01"
    },
    {
      "Name": "Skill08",
      "UseType": "SelectEntity",
      "TargetInfo": {
        "TargetType": "AllEnemy"
      },
      "ReadyAnimState": "StandBy",
      "EntryAbility": "Monster_W2_Xuanlu_10_Skill08_Phase01"
    },
    {
      "Name": "Skill09",
      "UseType": "SelectEntity",
      "TargetInfo": {
        "TargetType": "Caster"
      },
      "ReadyAnimState": "StandBy",
      "EntryAbility": "Monster_W2_Xuanlu_10_Skill09_Phase01"
    },
    {
      "Name": "Skill10",
      "UseType": "SelectEntity",
      "TargetInfo": {
        "TargetType": "Caster"
      },
      "ReadyAnimState": "StandBy",
      "EntryAbility": "Monster_W2_Xuanlu_10_Skill10_Phase01"
    },
    {
      "Name": "Skill11",
      "UseType": "SelectEntity",
      "TargetInfo": {
        "TargetType": "Caster"
      },
      "ReadyAnimState": "StandBy",
      "EntryAbility": "Monster_W2_Xuanlu_10_Skill11_Phase01"
    },
    {
      "Name": "Skill12",
      "UseType": "SelectEntity",
      "TargetInfo": {
        "TargetType": "Caster"
      },
      "ReadyAnimState": "StandBy",
      "EntryAbility": "Monster_W2_Xuanlu_10_Skill12_Phase01"
    },
    {
      "Name": "Skill13",
      "UseType": "SelectEntity",
      "TargetInfo": {
        "TargetType": "Caster"
      },
      "ReadyAnimState": "StandBy",
      "EntryAbility": "Monster_W2_Xuanlu_10_Skill13_Phase01"
    },
    {
      "Name": "Skill14",
      "SkillType": "Passive",
      "UseType": "Passive",
      "TargetInfo": {
        "TargetType": "Caster"
      },
      "ReadyAnimState": "StandBy",
      "EntryAbility": "Monster_W2_Xuanlu_10_Skill14_Initiate"
    },
    {
      "Name": "Passive",
      "SkillType": "Passive",
      "UseType": "Passive",
      "TargetInfo": {
        "TargetType": "Caster"
      },
      "EntryAbility": "Monster_W2_Xuanlu_10_PassiveSkill_Initiate"
    },
    {
      "Name": "PassiveSkill01",
      "SkillType": "Passive",
      "UseType": "Passive",
      "TargetInfo": {
        "TargetType": "Caster"
      },
      "EntryAbility": "Monster_Common_PassiveSkill_StanceBreak_Action"
    },
    {
      "Name": "PassiveSkill02",
      "SkillType": "Passive",
      "UseType": "Passive",
      "TargetInfo": {
        "TargetType": "Caster"
      },
      "EntryAbility": "Monster_Common_MuteHitFly"
    }
  ],
  "AbilityList": [
    "Monster_W2_Xuanlu_10_PassiveSkill_Initiate",
    "Monster_W2_Xuanlu_10_ChangePhase2",
    "Monster_W2_Xuanlu_10_ChangePhase3",
    "Monster_W2_Xuanlu_10_PassiveSkill_Camera",
    "Monster_Common_PassiveSkill_StanceBreak_Action",
    "Monster_Common_MuteHitFly"
  ],
  "SkillAbilityList": [
    {
      "Skill": "Skill01",
      "AbilityList": [
        "Monster_W2_Xuanlu_00_Skill01_Phase01",
        "Monster_W2_Xuanlu_00_Skill01_Phase02",
        "Monster_W2_Xuanlu_00_Skill01_Camera"
      ]
    },
    {
      "Skill": "Skill02",
      "AbilityList": [
        "Monster_W2_Xuanlu_00_Skill02_Phase01",
        "Monster_W2_Xuanlu_00_Skill02_Phase02"
      ]
    },
    {
      "Skill": "Skill03",
      "AbilityList": [
        "Monster_W2_Xuanlu_00_Skill03_Phase01",
        "Monster_W2_Xuanlu_00_Skill03_Phase02"
      ]
    },
    {
      "Skill": "Skill04",
      "AbilityList": [
        "Monster_W2_Xuanlu_00_Skill04_Phase01",
        "Monster_W2_Xuanlu_00_Skill04_Phase02"
      ]
    },
    {
      "Skill": "Skill05",
      "AbilityList": [
        "Monster_W2_Xuanlu_00_Skill05_Phase01",
        "Monster_W2_Xuanlu_00_Skill05_Phase02",
        "Monster_W2_Xuanlu_00_Skill05_Camera"
      ]
    },
    {
      "Skill": "Skill06",
      "AbilityList": [
        "Monster_W2_Xuanlu_00_Skill06_Phase01",
        "Monster_W2_Xuanlu_00_Skill06_Phase02",
        "Monster_W2_Xuanlu_00_Skill06_Camera"
      ]
    },
    {
      "Skill": "Skill07",
      "AbilityList": [
        "Monster_W2_Xuanlu_00_Skill07_Phase01",
        "Monster_W2_Xuanlu_00_Skill07_Phase02",
        "Monster_W2_Xuanlu_00_Skill07_Camera"
      ]
    },
    {
      "Skill": "Skill08",
      "AbilityList": [
        "Monster_W2_Xuanlu_10_Skill08_Phase01",
        "Monster_W2_Xuanlu_10_Skill08_Phase02",
        "Monster_W2_Xuanlu_10_Skill08_Camera"
      ]
    },
    {
      "Skill": "Skill09",
      "AbilityList": [
        "Monster_W2_Xuanlu_10_Skill09_Phase01",
        "Monster_W2_Xuanlu_10_Skill09_Phase02",
        "Monster_W2_Xuanlu_10_Skill09_Camera"
      ]
    },
    {
      "Skill": "Skill10",
      "AbilityList": [
        "Monster_W2_Xuanlu_10_Skill10_Phase01",
        "Monster_W2_Xuanlu_10_Skill10_Phase02"
      ]
    },
    {
      "Skill": "Skill11",
      "AbilityList": [
        "Monster_W2_Xuanlu_10_Skill11_Phase01",
        "Monster_W2_Xuanlu_10_Skill11_Phase02"
      ]
    },
    {
      "Skill": "Skill12",
      "AbilityList": [
        "Monster_W2_Xuanlu_10_Skill12_Phase01",
        "Monster_W2_Xuanlu_10_Skill12_Phase02"
      ]
    },
    {
      "Skill": "Skill13",
      "AbilityList": [
        "Monster_W2_Xuanlu_10_Skill13_Phase01",
        "Monster_W2_Xuanlu_10_Skill13_Phase02"
      ]
    },
    {
      "Skill": "Skill14",
      "AbilityList": [
        "Monster_W2_Xuanlu_10_Skill14_Initiate"
      ]
    }
  ],
  "DynamicValues": {
    "Values": {
      "1850673830": {},
      "794762973": {},
      "-1211073306": {},
      "1515468918": {},
      "1108883507": {},
      "1108883504": {},
      "1108883505": {},
      "1108883502": {},
      "-1749907110": {},
      "-1150432734": {},
      "319820087": {},
      "1184206733": {},
      "65584645": {},
      "846089084": {},
      "1356250157": {},
      "-77829257": {},
      "548051190": {},
      "951335717": {},
      "-614748224": {},
      "-211463697": {},
      "1044888503": {},
      "-1739196975": {},
      "1824043942": {
        "ReadInfo": {
          "Type": "None",
          "Str": "Skill01"
        }
      },
      "-663990795": {
        "ReadInfo": {
          "Type": "None",
          "Str": "Skill02"
        }
      },
      "1693654576": {
        "ReadInfo": {
          "Type": "None",
          "Str": "Skill03"
        }
      },
      "1901813119": {
        "ReadInfo": {
          "Type": "None",
          "Str": "Skill04"
        }
      },
      "-402291451": {
        "ReadInfo": {
          "Type": "None",
          "Str": "Skill05"
        }
      },
      "-1122549516": {
        "ReadInfo": {
          "Type": "None",
          "Str": "Skill06"
        }
      },
      "-1832128285": {
        "ReadInfo": {
          "Type": "None",
          "Str": "Skill07"
        }
      },
      "-1495385914": {
        "ReadInfo": {
          "Type": "SkillTreeParam",
          "Str": "Skill07"
        }
      },
      "1643420006": {
        "ReadInfo": {
          "Type": "None",
          "Str": "Skill08"
        }
      },
      "-1885619960": {
        "ReadInfo": {
          "Type": "SkillTreeParam",
          "Str": "Skill08"
        }
      },
      "-1089750338": {},
      "-1830212673": {
        "ReadInfo": {
          "Type": "None",
          "Str": "Skill09"
        }
      },
      "-349315659": {
        "ReadInfo": {
          "Type": "SkillTreeParam",
          "Str": "Skill09"
        }
      },
      "982942348": {
        "ReadInfo": {
          "Type": "None",
          "Str": "Skill10"
        }
      },
      "948335145": {
        "ReadInfo": {
          "Type": "SkillTreeParam",
          "Str": "Skill10"
        }
      },
      "-1890636345": {
        "ReadInfo": {
          "Type": "None",
          "Str": "Skill11"
        }
      },
      "-1925243548": {
        "ReadInfo": {
          "Type": "SkillTreeParam",
          "Str": "Skill11"
        }
      },
      "-83703786": {
        "ReadInfo": {
          "Type": "None",
          "Str": "Skill12"
        }
      },
      "-118310989": {
        "ReadInfo": {
          "Type": "SkillTreeParam",
          "Str": "Skill12"
        }
      },
      "-10037420": {
        "ReadInfo": {
          "Type": "SkillRank",
          "Str": "Skill12"
        }
      },
      "-35444751": {
        "ReadInfo": {
          "Type": "BattleEvent",
          "Str": "Skill12"
        }
      },
      "-2021025711": {
        "ReadInfo": {
          "Type": "None",
          "Str": "Skill13"
        }
      },
      "-2055632914": {
        "ReadInfo": {
          "Type": "SkillTreeParam",
          "Str": "Skill13"
        }
      },
      "-1947359345": {
        "ReadInfo": {
          "Type": "SkillRank",
          "Str": "Skill13"
        }
      },
      "-1972766676": {
        "ReadInfo": {
          "Type": "BattleEvent",
          "Str": "Skill13"
        }
      },
      "-1279873550": {
        "ReadInfo": {
          "Type": "None",
          "Str": "Skill14"
        }
      },
      "1697555068": {
        "ReadInfo": {
          "Type": "SkillTreeParam",
          "Str": "Skill14"
        }
      },
      "-364012831": {
        "ReadInfo": {
          "Type": "SkillRank",
          "Str": "Skill14"
        }
      },
      "1755323496": {}
    }
  },
  "WeaponType": "WP_Scythe",
  "ArmorType": "Armor_Metal",
  "DisableAnimEventLayers": [
    "Riboon Layer"
  ],
  "CameraNamedDynamicOffset": "Xuanlu_00",
  "MaxMonsterPhase": 3,
  "PhaseList": [
    {
      "PhaseNum": 1
    },
    {
      "PhaseNum": 2
    },
    {
      "PhaseNum": 3,
      "PhaseMaxHPRatio": {
        "IsDynamic": true,
        "PostfixExpr": {
          "OpCodes": "AQAK",
          "FixedValues": [],
          "DynamicHashes": [
            -364012831
          ]
        }
      }
    }
  ],
  "OverrideWaveMonsterPerform": "XuanluStartCamera"
}