{
  "OnInitSequece": [],
  "OnStartSequece": [
    {
      "TaskList": [
        {
          "$type": "RPG.GameCore.PredicateTaskList",
          "Predicate": {
            "$type": "RPG.GameCore.ByComparePropState",
            "TargetType": {
              "$type": "RPG.GameCore.TargetFetchAdvPropEx",
              "FetchType": "SinglePropByPropKey",
              "SinglePropKey": {
                "Custom": true,
                "Key": "Unlock_Chest"
              }
            },
            "State": "ChestLocked"
          },
          "SuccessTaskList": [
            {
              "$type": "RPG.GameCore.PropInitPuzzle",
              "BoardPath": {
                "Custom": true,
                "Key": "Prefab_Path"
              }
            }
          ]
        }
      ]
    },
    {
      "TaskList": [
        {
          "$type": "RPG.GameCore.PropPuzzleEventListener",
          "FinishCallback": [
            {
              "$type": "RPG.GameCore.PropReqInteract",
              "TargetType": {
                "$type": "RPG.GameCore.TargetFetchAdvPropEx",
                "FetchType": "SinglePropByPropKey",
                "SinglePropKey": {
                  "Custom": true,
                  "Key": "Unlock_Chest"
                }
              },
              "InteractID": {
                "IsDynamic": false,
                "FixedValue": {
                  "Value": 111120
                }
              }
            }
          ],
          "ResetCallback": [],
          "ResetCallbackLoop": false,
          "QuitCallbackLoop": false
        }
      ]
    },
    {
      "TaskList": [
        {
          "$type": "RPG.GameCore.PropStateChangeListenerConfig",
          "FromState": "ChestLocked",
          "ToState": "ChestClosed",
          "OnChange": [
            {
              "$type": "RPG.GameCore.ToastPage",
              "MessageOne": {
                "Hash": 362442128
              },
              "MessageTwo": {
                "Hash": -1844055497
              }
            },
            {
              "$type": "RPG.GameCore.ShowWaypointByProp",
              "PropKey": {
                "Custom": true,
                "Key": "Unlock_Chest"
              },
              "MaxRange": 10,
              "IconPath": "SpriteOutput/MapPics/Billboard/IconBillboardBox.png",
              "Offset": {
                "X": 0,
                "Y": 1.6,
                "Z": 0
              }
            },
            {
              "$type": "RPG.GameCore.PropTriggerAnimState",
              "AnimStateName": "LockedToStandBy",
              "TargetType": {
                "$type": "RPG.GameCore.TargetFetchAdvPropEx",
                "FetchType": "SinglePropByPropKey",
                "SinglePropKey": {
                  "Custom": true,
                  "Key": "Unlock_Chest"
                }
              }
            },
            {
              "$type": "RPG.GameCore.PropPuzzleCustomEventSender",
              "Event": "PillarPuzzleDisappear"
            },
            {
              "$type": "RPG.GameCore.WaitSecond",
              "WaitTime": 5
            },
            {
              "$type": "RPG.GameCore.PropClosePuzzle"
            }
          ],
          "TargetType": {
            "$type": "RPG.GameCore.TargetFetchAdvPropEx",
            "FetchType": "SinglePropByPropKey",
            "SinglePropKey": {
              "Custom": true,
              "Key": "Unlock_Chest"
            }
          }
        }
      ]
    },
    {
      "TaskList": [
        {
          "$type": "RPG.GameCore.PropStateChangeListenerConfig",
          "FromState": "ChestClosed",
          "ToState": "ChestUsed",
          "OnChange": [
            {
              "$type": "RPG.GameCore.HideWaypointByProp",
              "PropKey": {
                "Custom": true,
                "Key": "Unlock_Chest"
              }
            }
          ],
          "TargetType": {
            "$type": "RPG.GameCore.TargetFetchAdvPropEx",
            "FetchType": "SinglePropByPropKey",
            "SinglePropKey": {
              "Custom": true,
              "Key": "Unlock_Chest"
            }
          }
        }
      ]
    },
    {
      "TaskList": [
        {
          "$type": "RPG.GameCore.PropStateExecute",
          "TargetType": {
            "$type": "RPG.GameCore.TargetFetchAdvPropEx",
            "FetchType": "SinglePropByPropKey",
            "SinglePropKey": {
              "Custom": true,
              "Key": "Unlock_Chest"
            }
          },
          "State": "ChestClosed",
          "Execute": [
            {
              "$type": "RPG.GameCore.ShowWaypointByProp",
              "PropKey": {
                "Custom": true,
                "Key": "Unlock_Chest"
              },
              "MaxRange": 10,
              "IconPath": "SpriteOutput/MapPics/Billboard/IconBillboardBox.png",
              "Offset": {
                "X": 0,
                "Y": 1.6,
                "Z": 0
              }
            }
          ]
        }
      ]
    }
  ],
  "ValueSource": {
    "Values": [
      {
        "$type": "RPG.GameCore.SharedString",
        "Value": "Props/Outputs/Chap01/Chap01_Prop_ElementSwitch_01/PuzzleController/PillarPuzzleBoardSequenceHit.prefab",
        "Key": "Prefab_Path"
      },
      {
        "$type": "RPG.GameCore.SharedString",
        "Key": "Unlock_Chest"
      },
      {
        "$type": "RPG.GameCore.SharedFloat",
        "Key": "Pillar_Group"
      }
    ]
  }
}