{
  "AbilityList": [
    {
      "Name": "MazeMonster_CommonAbility_HitNoBattle",
      "TargetInfo": {
        "TargetType": "Caster"
      },
      "OnStart": [
        {
          "$type": "RPG.GameCore.AddAdventureModifier",
          "TargetType": {
            "$type": "RPG.GameCore.TargetAlias",
            "Alias": "Caster"
          },
          "ModifierName": "ADV_Modifier_MazeCommon_HitNoBattle"
        }
      ]
    },
    {
      "Name": "MazeMonster_CommonAbility_HitToDie",
      "TargetInfo": {
        "TargetType": "Caster"
      },
      "OnStart": [
        {
          "$type": "RPG.GameCore.AddAdventureModifier",
          "TargetType": {
            "$type": "RPG.GameCore.TargetAlias",
            "Alias": "Caster"
          },
          "ModifierName": "ADV_Modifier_MazeCommon_HitToDie"
        }
      ]
    },
    {
      "Name": "FakePlayer_W1_Mecha01_NormalAtk01",
      "TargetInfo": {
        "TargetType": "SkillPointEntityOrNone",
        "MaxTargetCount": 4
      },
      "OnStart": [
        {
          "$type": "RPG.GameCore.BoomRobotGameplayBoomStart"
        },
        {
          "$type": "RPG.GameCore.TriggerCustomString",
          "CustomString": {
            "Value": "Bomb_BoomCamera"
          }
        },
        {
          "$type": "RPG.GameCore.AnimSetParameter",
          "ParameterName": "Flash",
          "ParameterType": "Trigger",
          "Value": 1
        },
        {
          "$type": "RPG.GameCore.AdventureTriggerAnimStateWithMove",
          "TargetType": {
            "$type": "RPG.GameCore.TargetAlias",
            "Alias": "AdvLocalPlayer"
          },
          "AnimLogicState": "NormalAtk",
          "AnimStateName": "Attack_1",
          "MovingRangeList": [
            {
              "OffsetTargetDistance": {
                "IsDynamic": false,
                "FixedValue": {
                  "Value": 1.2000000001862645
                }
              },
              "NormalizedTimeStart": {
                "IsDynamic": false,
                "FixedValue": {
                  "Value": 0.010000000009313226
                }
              },
              "NormalizedTimeEnd": {
                "IsDynamic": false,
                "FixedValue": {
                  "Value": 0.0800000000745058
                }
              },
              "DefaultMoveDistance": {
                "IsDynamic": false,
                "FixedValue": {
                  "Value": 2.5000000004656613
                }
              }
            }
          ]
        },
        {
          "$type": "RPG.GameCore.WaitAnimState",
          "TargetType": {
            "$type": "RPG.GameCore.TargetAlias",
            "Alias": "Caster"
          },
          "AnimStateName": "Attack",
          "NormalizedTimeEnd": {
            "IsDynamic": false,
            "FixedValue": {
              "Value": 0.40000000037252903
            }
          }
        },
        {
          "$type": "RPG.GameCore.RadialBlurEffect",
          "TargetType": {
            "$type": "RPG.GameCore.TargetAlias",
            "Alias": "Caster"
          },
          "Duration": 0.8,
          "Iteration": 4,
          "BlurStart": 0.005,
          "BlurFeather": 0.01
        },
        {
          "$type": "RPG.GameCore.TriggerEffect",
          "TargetType": {
            "$type": "RPG.GameCore.TargetAlias",
            "Alias": "Caster"
          },
          "EffectPath": "Effects/Eff_Prefab/Eff_Monster/Eff_W1_Mecha01_00/Eff_Monster_W1_Mecha01_00_Skill03_Explode.prefab"
        },
        {
          "$type": "RPG.GameCore.AdventureTriggerAttack",
          "AttackTargetType": {
            "$type": "RPG.GameCore.TargetAlias",
            "Alias": "AllEnemy"
          },
          "TriggerBattleDelay": 0.1,
          "AttackDetectConfig": {
            "$type": "RPG.GameCore.AdventureAttackDetectCircleConfig",
            "MaxRadius": 4,
            "FanAngle": 360
          },
          "HitConfig": {
            "HitAnimation": "Hit",
            "HitEffectHeight": 0.8
          },
          "TriggerBattleByAllHitTarget": true
        },
        {
          "$type": "RPG.GameCore.VCameraConfigChange",
          "CameraConfig": {
            "ShakeTemplateName": "Common_Rapid_Middle",
            "OverrideShakeConfigV2": {
              "ShakeScale": 2,
              "ShakeTime": 3.5,
              "ShakeDir": {
                "X": 0,
                "Y": 1,
                "Z": 0
              }
            }
          }
        },
        {
          "$type": "RPG.GameCore.SetEntityVisible",
          "TargetType": {
            "$type": "RPG.GameCore.TargetAlias",
            "Alias": "Caster"
          }
        },
        {
          "$type": "RPG.GameCore.BoomRobotGameplayBoomEnd"
        }
      ]
    }
  ]
}