{
  "OnInitSequece": [],
  "OnStartSequece": [
    {
      "TaskList": [
        {
          "$type": "RPG.GameCore.WaitCustomString",
          "CustomString": {
            "Value": "Talk_602020190"
          }
        },
        {
          "$type": "RPG.GameCore.WaitSecond",
          "WaitTime": 0.5
        },
        {
          "$type": "RPG.GameCore.FinishPerformanceMission",
          "Key": "Mission_602020190"
        }
      ]
    }
  ]
}