{
  "OnInitSequece": [],
  "OnStartSequece": [
    {
      "IsLoop": true,
      "TaskList": [
        {
          "$type": "RPG.GameCore.WaitCustomString",
          "CustomString": {
            "Value": "FindChest_M1_Range_C"
          }
        },
        {
          "$type": "RPG.GameCore.WaitSecond",
          "WaitTime": 20,
          "MaxAdvencePerTick": 1
        },
        {
          "$type": "RPG.GameCore.PropStateExecute",
          "TargetType": {
            "$type": "RPG.GameCore.TargetFetchAdvPropEx",
            "FetchType": "SinglePropByPropID",
            "SinglePropID": {
              "GroupID": {
                "IsDynamic": false,
                "FixedValue": {
                  "Value": 25
                }
              },
              "ID": {
                "IsDynamic": false,
                "FixedValue": {
                  "Value": 300002
                }
              }
            }
          },
          "State": "Hidden",
          "Execute": [
            {
              "$type": "RPG.GameCore.PropStateExecute",
              "TargetType": {
                "$type": "RPG.GameCore.TargetFetchAdvPropEx",
                "FetchType": "SinglePropByPropID",
                "SinglePropID": {
                  "GroupID": {
                    "IsDynamic": false,
                    "FixedValue": {
                      "Value": 25
                    }
                  },
                  "ID": {
                    "IsDynamic": false,
                    "FixedValue": {
                      "Value": 300008
                    }
                  }
                }
              },
              "Execute": [
                {
                  "$type": "RPG.GameCore.PlayMissionTalk",
                  "SimpleTalkList": [
                    {
                      "TalkSentenceID": 701040330,
                      "ProtectTime": 2
                    },
                    {
                      "TalkSentenceID": 701040331,
                      "ProtectTime": 2
                    }
                  ]
                },
                {
                  "$type": "RPG.GameCore.TriggerCustomString",
                  "CustomString": {
                    "Value": "FindChest_M1_Range_CCC"
                  }
                }
              ]
            }
          ]
        }
      ]
    },
    {
      "IsLoop": true,
      "TaskList": [
        {
          "$type": "RPG.GameCore.WaitCustomString",
          "CustomString": {
            "Value": "FindChest_M1_Range_CCC"
          }
        },
        {
          "$type": "RPG.GameCore.WaitSecond",
          "WaitTime": 20,
          "MaxAdvencePerTick": 1
        },
        {
          "$type": "RPG.GameCore.PropStateExecute",
          "TargetType": {
            "$type": "RPG.GameCore.TargetFetchAdvPropEx",
            "FetchType": "SinglePropByPropID",
            "SinglePropID": {
              "GroupID": {
                "IsDynamic": false,
                "FixedValue": {
                  "Value": 25
                }
              },
              "ID": {
                "IsDynamic": false,
                "FixedValue": {
                  "Value": 300002
                }
              }
            }
          },
          "State": "Hidden",
          "Execute": [
            {
              "$type": "RPG.GameCore.PropStateExecute",
              "TargetType": {
                "$type": "RPG.GameCore.TargetFetchAdvPropEx",
                "FetchType": "SinglePropByPropID",
                "SinglePropID": {
                  "GroupID": {
                    "IsDynamic": false,
                    "FixedValue": {
                      "Value": 25
                    }
                  },
                  "ID": {
                    "IsDynamic": false,
                    "FixedValue": {
                      "Value": 300008
                    }
                  }
                }
              },
              "Execute": [
                {
                  "$type": "RPG.GameCore.PlayMissionTalk",
                  "SimpleTalkList": [
                    {
                      "TalkSentenceID": 701040330,
                      "ProtectTime": 2
                    },
                    {
                      "TalkSentenceID": 701040331,
                      "ProtectTime": 2
                    }
                  ]
                },
                {
                  "$type": "RPG.GameCore.TriggerCustomString",
                  "CustomString": {
                    "Value": "FindChest_M1_Range_C"
                  }
                }
              ]
            }
          ]
        }
      ]
    },
    {
      "IsLoop": true,
      "TaskList": [
        {
          "$type": "RPG.GameCore.WaitCustomString",
          "CustomString": {
            "Value": "FindChest_M101_OnExit"
          }
        },
        {
          "$type": "RPG.GameCore.PropSetupTrigger",
          "TargetType": {
            "$type": "RPG.GameCore.TargetFetchAdvPropEx",
            "FetchType": "SinglePropByPropID",
            "SinglePropID": {
              "GroupID": {
                "IsDynamic": false,
                "FixedValue": {
                  "Value": 25
                }
              },
              "ID": {
                "IsDynamic": false,
                "FixedValue": {
                  "Value": 300003
                }
              }
            }
          },
          "TargetGroupID": {
            "IsDynamic": false,
            "FixedValue": {
              "Value": 0
            }
          },
          "TargetID": {
            "IsDynamic": false,
            "FixedValue": {
              "Value": 0
            }
          },
          "TargetTypes": [],
          "OnTriggerEnter": [
            {
              "$type": "RPG.GameCore.TriggerCustomString",
              "CustomString": {
                "Value": "FindChest_M1_Range_C"
              }
            },
            {
              "$type": "RPG.GameCore.TriggerCustomString",
              "CustomString": {
                "Value": "FindChest_M101_ReEnter"
              }
            },
            {
              "$type": "RPG.GameCore.ShowFuncBtn",
              "ItemID": 190903,
              "CDDuration": 0
            },
            {
              "$type": "RPG.GameCore.PropEnableCollider",
              "TargetType": {
                "$type": "RPG.GameCore.TargetFetchAdvPropEx",
                "FetchType": "SinglePropByPropID",
                "SinglePropID": {
                  "GroupID": {
                    "IsDynamic": false,
                    "FixedValue": {
                      "Value": 25
                    }
                  },
                  "ID": {
                    "IsDynamic": false,
                    "FixedValue": {
                      "Value": 300003
                    }
                  }
                }
              }
            },
            {
              "$type": "RPG.GameCore.PropReqInteract",
              "TargetType": {
                "$type": "RPG.GameCore.TargetFetchAdvPropEx",
                "FetchType": "SinglePropByPropID",
                "SinglePropID": {
                  "GroupID": {
                    "IsDynamic": false,
                    "FixedValue": {
                      "Value": 25
                    }
                  },
                  "ID": {
                    "IsDynamic": false,
                    "FixedValue": {
                      "Value": 300008
                    }
                  }
                }
              },
              "InteractID": {
                "IsDynamic": false,
                "FixedValue": {
                  "Value": 1100
                }
              }
            }
          ]
        }
      ]
    },
    {
      "IsLoop": true,
      "TaskList": [
        {
          "$type": "RPG.GameCore.WaitCustomString",
          "CustomString": {
            "Value": "FindChest_M101_ReEnter"
          }
        },
        {
          "$type": "RPG.GameCore.PropSetupTrigger",
          "TargetType": {
            "$type": "RPG.GameCore.TargetFetchAdvPropEx",
            "FetchType": "SinglePropByPropID",
            "SinglePropID": {
              "GroupID": {
                "IsDynamic": false,
                "FixedValue": {
                  "Value": 25
                }
              },
              "ID": {
                "IsDynamic": false,
                "FixedValue": {
                  "Value": 300008
                }
              }
            }
          },
          "TargetGroupID": {
            "IsDynamic": false,
            "FixedValue": {
              "Value": 0
            }
          },
          "TargetID": {
            "IsDynamic": false,
            "FixedValue": {
              "Value": 0
            }
          },
          "TargetTypes": [],
          "OnTriggerEnter": [],
          "OnTriggerExit": [
            {
              "$type": "RPG.GameCore.ShowFuncBtn",
              "Show": false,
              "ItemID": 190903,
              "CDDuration": 0
            },
            {
              "$type": "RPG.GameCore.PropEnableCollider",
              "TargetType": {
                "$type": "RPG.GameCore.TargetFetchAdvPropEx",
                "FetchType": "SinglePropByPropID",
                "SinglePropID": {
                  "GroupID": {
                    "IsDynamic": false,
                    "FixedValue": {
                      "Value": 25
                    }
                  },
                  "ID": {
                    "IsDynamic": false,
                    "FixedValue": {
                      "Value": 300008
                    }
                  }
                }
              }
            },
            {
              "$type": "RPG.GameCore.TriggerCustomString",
              "CustomString": {
                "Value": "FindChest_M101_OnExit"
              }
            },
            {
              "$type": "RPG.GameCore.PropReqInteract",
              "TargetType": {
                "$type": "RPG.GameCore.TargetFetchAdvPropEx",
                "FetchType": "SinglePropByPropID",
                "SinglePropID": {
                  "GroupID": {
                    "IsDynamic": false,
                    "FixedValue": {
                      "Value": 25
                    }
                  },
                  "ID": {
                    "IsDynamic": false,
                    "FixedValue": {
                      "Value": 300008
                    }
                  }
                }
              },
              "InteractID": {
                "IsDynamic": false,
                "FixedValue": {
                  "Value": 1010
                }
              }
            }
          ]
        }
      ]
    },
    {
      "TaskList": [
        {
          "$type": "RPG.GameCore.PropSetupTrigger",
          "TargetType": {
            "$type": "RPG.GameCore.TargetFetchAdvPropEx",
            "FetchType": "SinglePropByPropID",
            "SinglePropID": {
              "GroupID": {
                "IsDynamic": false,
                "FixedValue": {
                  "Value": 25
                }
              },
              "ID": {
                "IsDynamic": false,
                "FixedValue": {
                  "Value": 300003
                }
              }
            }
          },
          "TargetGroupID": {
            "IsDynamic": false,
            "FixedValue": {
              "Value": 0
            }
          },
          "TargetID": {
            "IsDynamic": false,
            "FixedValue": {
              "Value": 0
            }
          },
          "TargetTypes": [],
          "OnTriggerEnter": [
            {
              "$type": "RPG.GameCore.TriggerCustomString",
              "CustomString": {
                "Value": "FindChest_M1_Range_C"
              }
            },
            {
              "$type": "RPG.GameCore.ShowFuncBtn",
              "ItemID": 190903,
              "CDDuration": 0
            },
            {
              "$type": "RPG.GameCore.PropEnableCollider",
              "TargetType": {
                "$type": "RPG.GameCore.TargetFetchAdvPropEx",
                "FetchType": "SinglePropByPropID",
                "SinglePropID": {
                  "GroupID": {
                    "IsDynamic": false,
                    "FixedValue": {
                      "Value": 25
                    }
                  },
                  "ID": {
                    "IsDynamic": false,
                    "FixedValue": {
                      "Value": 300003
                    }
                  }
                }
              }
            },
            {
              "$type": "RPG.GameCore.PlayMissionTalk",
              "SimpleTalkList": [
                {
                  "TalkSentenceID": 701040330,
                  "ProtectTime": 2
                },
                {
                  "TalkSentenceID": 701040331,
                  "ProtectTime": 2
                }
              ]
            }
          ]
        }
      ]
    },
    {
      "TaskList": [
        {
          "$type": "RPG.GameCore.WaitCustomString",
          "CustomString": {
            "Value": "FindChest_M1_Range_C"
          }
        },
        {
          "$type": "RPG.GameCore.PropSetupTrigger",
          "TargetType": {
            "$type": "RPG.GameCore.TargetFetchAdvPropEx",
            "FetchType": "SinglePropByPropID",
            "SinglePropID": {
              "GroupID": {
                "IsDynamic": false,
                "FixedValue": {
                  "Value": 25
                }
              },
              "ID": {
                "IsDynamic": false,
                "FixedValue": {
                  "Value": 300008
                }
              }
            }
          },
          "TargetGroupID": {
            "IsDynamic": false,
            "FixedValue": {
              "Value": 0
            }
          },
          "TargetID": {
            "IsDynamic": false,
            "FixedValue": {
              "Value": 0
            }
          },
          "TargetTypes": [],
          "OnTriggerEnter": [],
          "OnTriggerExit": [
            {
              "$type": "RPG.GameCore.ShowFuncBtn",
              "Show": false,
              "ItemID": 190903,
              "CDDuration": 0
            },
            {
              "$type": "RPG.GameCore.PropEnableCollider",
              "TargetType": {
                "$type": "RPG.GameCore.TargetFetchAdvPropEx",
                "FetchType": "SinglePropByPropID",
                "SinglePropID": {
                  "GroupID": {
                    "IsDynamic": false,
                    "FixedValue": {
                      "Value": 25
                    }
                  },
                  "ID": {
                    "IsDynamic": false,
                    "FixedValue": {
                      "Value": 300008
                    }
                  }
                }
              }
            },
            {
              "$type": "RPG.GameCore.TriggerCustomString",
              "CustomString": {
                "Value": "FindChest_M101_OnExit"
              }
            },
            {
              "$type": "RPG.GameCore.PropReqInteract",
              "TargetType": {
                "$type": "RPG.GameCore.TargetFetchAdvPropEx",
                "FetchType": "SinglePropByPropID",
                "SinglePropID": {
                  "GroupID": {
                    "IsDynamic": false,
                    "FixedValue": {
                      "Value": 25
                    }
                  },
                  "ID": {
                    "IsDynamic": false,
                    "FixedValue": {
                      "Value": 300008
                    }
                  }
                }
              },
              "InteractID": {
                "IsDynamic": false,
                "FixedValue": {
                  "Value": 1010
                }
              }
            }
          ]
        }
      ]
    },
    {
      "TaskList": [
        {
          "$type": "RPG.GameCore.WaitCustomString",
          "CustomString": {
            "Value": "FindChest_M1_Range_C"
          }
        },
        {
          "$type": "RPG.GameCore.PropSetupUITrigger",
          "ButtonIcon": "SpriteOutput/TalkIcon/CheckIcon.png",
          "ButtonText": {
            "Hash": 278713937
          },
          "ButtonCallback": [
            {
              "$type": "RPG.GameCore.TriggerCustomString",
              "CustomString": {
                "Value": "FindChest_M1_Range_CC"
              }
            },
            {
              "$type": "RPG.GameCore.PropEnableCollider",
              "SpecifiedRelativePaths": [],
              "TargetType": {
                "$type": "RPG.GameCore.TargetFetchAdvPropEx",
                "FetchType": "SinglePropByPropID",
                "SinglePropID": {
                  "GroupID": {
                    "IsDynamic": false,
                    "FixedValue": {
                      "Value": 25
                    }
                  },
                  "ID": {
                    "IsDynamic": false,
                    "FixedValue": {
                      "Value": 300001
                    }
                  }
                }
              }
            }
          ],
          "TargetType": {
            "$type": "RPG.GameCore.TargetFetchAdvPropEx",
            "FetchType": "SinglePropByPropID",
            "SinglePropID": {
              "GroupID": {
                "IsDynamic": false,
                "FixedValue": {
                  "Value": 25
                }
              },
              "ID": {
                "IsDynamic": false,
                "FixedValue": {
                  "Value": 300001
                }
              }
            }
          }
        }
      ]
    },
    {
      "TaskList": [
        {
          "$type": "RPG.GameCore.WaitCustomString",
          "CustomString": {
            "Value": "FindChest_M1_Range_CC"
          }
        },
        {
          "$type": "RPG.GameCore.LockPlayerControl"
        },
        {
          "$type": "RPG.GameCore.PlayScreenTransfer",
          "Mode": "SwitchOut",
          "CustomTime": 1
        },
        {
          "$type": "RPG.GameCore.ActiveVirtualCamera",
          "AreaName": "Chap01_MAZ_M101_LevelArea",
          "AnchorName": "FindChest_Cam_01",
          "BlendConfig": {
            "ExportToJson": true,
            "BlendType": "Cut"
          }
        },
        {
          "$type": "RPG.GameCore.WaitSecond",
          "WaitTime": 1
        },
        {
          "$type": "RPG.GameCore.PlayScreenTransfer",
          "CustomTime": 1
        },
        {
          "$type": "RPG.GameCore.PropReqInteract",
          "TargetType": {
            "$type": "RPG.GameCore.TargetFetchAdvPropEx",
            "FetchType": "SinglePropByPropID",
            "SinglePropID": {
              "GroupID": {
                "IsDynamic": false,
                "FixedValue": {
                  "Value": 25
                }
              },
              "ID": {
                "IsDynamic": false,
                "FixedValue": {
                  "Value": 300002
                }
              }
            }
          },
          "InteractID": {
            "IsDynamic": false,
            "FixedValue": {
              "Value": 120120
            }
          }
        }
      ]
    },
    {
      "TaskList": [
        {
          "$type": "RPG.GameCore.PropStateChangeListenerConfig",
          "FromState": "Hidden",
          "ToState": "ChestClosed",
          "FromAnyState": true,
          "OnChange": [
            {
              "$type": "RPG.GameCore.PlayMissionTalk",
              "SimpleTalkList": [
                {
                  "TalkSentenceID": 701040332,
                  "ProtectTime": 2
                }
              ]
            },
            {
              "$type": "RPG.GameCore.WaitSecond",
              "WaitTime": 3
            },
            {
              "$type": "RPG.GameCore.PlayScreenTransfer",
              "Mode": "SwitchOut",
              "CustomTime": 1
            },
            {
              "$type": "RPG.GameCore.ActiveVirtualCamera",
              "AreaName": "Chap01_MAZ_M101_LevelArea",
              "AnchorName": "FindChest_Cam_01",
              "IsActive": false,
              "BlendConfig": {
                "ExportToJson": true,
                "BlendType": "Cut"
              }
            },
            {
              "$type": "RPG.GameCore.WaitSecond",
              "WaitTime": 1
            },
            {
              "$type": "RPG.GameCore.PlayScreenTransfer",
              "CustomTime": 1
            },
            {
              "$type": "RPG.GameCore.UnLockPlayerControl"
            },
            {
              "$type": "RPG.GameCore.PropEnableCollider",
              "SpecifiedRelativePaths": [],
              "TargetType": {
                "$type": "RPG.GameCore.TargetFetchAdvPropEx",
                "FetchType": "SinglePropByPropID",
                "SinglePropID": {
                  "GroupID": {
                    "IsDynamic": false,
                    "FixedValue": {
                      "Value": 25
                    }
                  },
                  "ID": {
                    "IsDynamic": false,
                    "FixedValue": {
                      "Value": 300004
                    }
                  }
                }
              }
            },
            {
              "$type": "RPG.GameCore.PropEnableCollider",
              "SpecifiedRelativePaths": [],
              "TargetType": {
                "$type": "RPG.GameCore.TargetFetchAdvPropEx",
                "FetchType": "SinglePropByPropID",
                "SinglePropID": {
                  "GroupID": {
                    "IsDynamic": false,
                    "FixedValue": {
                      "Value": 25
                    }
                  },
                  "ID": {
                    "IsDynamic": false,
                    "FixedValue": {
                      "Value": 300006
                    }
                  }
                }
              }
            },
            {
              "$type": "RPG.GameCore.PropEnableCollider",
              "SpecifiedRelativePaths": [],
              "TargetType": {
                "$type": "RPG.GameCore.TargetFetchAdvPropEx",
                "FetchType": "SinglePropByPropID",
                "SinglePropID": {
                  "GroupID": {
                    "IsDynamic": false,
                    "FixedValue": {
                      "Value": 25
                    }
                  },
                  "ID": {
                    "IsDynamic": false,
                    "FixedValue": {
                      "Value": 300007
                    }
                  }
                }
              }
            }
          ],
          "TargetType": {
            "$type": "RPG.GameCore.TargetFetchAdvPropEx",
            "FetchType": "SinglePropByPropID",
            "SinglePropID": {
              "GroupID": {
                "IsDynamic": false,
                "FixedValue": {
                  "Value": 25
                }
              },
              "ID": {
                "IsDynamic": false,
                "FixedValue": {
                  "Value": 300002
                }
              }
            }
          }
        }
      ]
    },
    {
      "TaskList": [
        {
          "$type": "RPG.GameCore.PropStateChangeListenerConfig",
          "FromState": "ChestClosed",
          "ToState": "ChestUsed",
          "FromAnyState": true,
          "OnChange": [
            {
              "$type": "RPG.GameCore.TakeEventMission",
              "EventMissionID": 900105
            },
            {
              "$type": "RPG.GameCore.ShowFuncBtn",
              "Show": false,
              "ItemID": 190903,
              "CDDuration": 0
            }
          ],
          "TargetType": {
            "$type": "RPG.GameCore.TargetFetchAdvPropEx",
            "FetchType": "SinglePropByPropID",
            "SinglePropID": {
              "GroupID": {
                "IsDynamic": false,
                "FixedValue": {
                  "Value": 25
                }
              },
              "ID": {
                "IsDynamic": false,
                "FixedValue": {
                  "Value": 300002
                }
              }
            }
          }
        }
      ]
    },
    {
      "TaskList": [
        {
          "$type": "RPG.GameCore.WaitCustomString",
          "CustomString": {
            "Value": "FindChest_M1_Range_C"
          }
        },
        {
          "$type": "RPG.GameCore.PropSetupUITrigger",
          "ButtonIcon": "SpriteOutput/TalkIcon/CheckIcon.png",
          "ButtonText": {
            "Hash": 278713937
          },
          "ButtonCallback": [
            {
              "$type": "RPG.GameCore.PlayMissionTalk",
              "SimpleTalkList": [
                {
                  "TalkSentenceID": 701040327,
                  "ProtectTime": 2
                }
              ]
            }
          ],
          "TargetType": {
            "$type": "RPG.GameCore.TargetFetchAdvPropEx",
            "FetchType": "SinglePropByPropID",
            "SinglePropID": {
              "GroupID": {
                "IsDynamic": false,
                "FixedValue": {
                  "Value": 25
                }
              },
              "ID": {
                "IsDynamic": false,
                "FixedValue": {
                  "Value": 300004
                }
              }
            }
          }
        }
      ]
    },
    {
      "TaskList": [
        {
          "$type": "RPG.GameCore.WaitCustomString",
          "CustomString": {
            "Value": "FindChest_M1_Range_C"
          }
        },
        {
          "$type": "RPG.GameCore.PropSetupUITrigger",
          "ButtonIcon": "SpriteOutput/TalkIcon/CheckIcon.png",
          "ButtonText": {
            "Hash": 278713937
          },
          "ButtonCallback": [
            {
              "$type": "RPG.GameCore.PlayMissionTalk",
              "SimpleTalkList": [
                {
                  "TalkSentenceID": 701040325,
                  "ProtectTime": 2
                }
              ]
            }
          ],
          "TargetType": {
            "$type": "RPG.GameCore.TargetFetchAdvPropEx",
            "FetchType": "SinglePropByPropID",
            "SinglePropID": {
              "GroupID": {
                "IsDynamic": false,
                "FixedValue": {
                  "Value": 25
                }
              },
              "ID": {
                "IsDynamic": false,
                "FixedValue": {
                  "Value": 300006
                }
              }
            }
          }
        }
      ]
    },
    {
      "TaskList": [
        {
          "$type": "RPG.GameCore.WaitCustomString",
          "CustomString": {
            "Value": "FindChest_M1_Range_C"
          }
        },
        {
          "$type": "RPG.GameCore.PropSetupUITrigger",
          "ButtonIcon": "SpriteOutput/TalkIcon/CheckIcon.png",
          "ButtonText": {
            "Hash": 278713937
          },
          "ButtonCallback": [
            {
              "$type": "RPG.GameCore.PlayMissionTalk",
              "SimpleTalkList": [
                {
                  "TalkSentenceID": 701040326,
                  "ProtectTime": 2
                }
              ]
            }
          ],
          "TargetType": {
            "$type": "RPG.GameCore.TargetFetchAdvPropEx",
            "FetchType": "SinglePropByPropID",
            "SinglePropID": {
              "GroupID": {
                "IsDynamic": false,
                "FixedValue": {
                  "Value": 25
                }
              },
              "ID": {
                "IsDynamic": false,
                "FixedValue": {
                  "Value": 300007
                }
              }
            }
          }
        }
      ]
    },
    {
      "TaskList": [
        {
          "$type": "RPG.GameCore.PropStateChangeListenerConfig",
          "FromState": "ChestClosed",
          "ToState": "ChestUsed",
          "OnChange": [
            {
              "$type": "RPG.GameCore.HideWaypointByProp",
              "GroupID": {
                "IsDynamic": false,
                "FixedValue": {
                  "Value": 0
                }
              },
              "InstanceID": {
                "IsDynamic": false,
                "FixedValue": {
                  "Value": 0
                }
              },
              "PropKey": {
                "Custom": true,
                "Key": "FindChest_UnlockChest"
              }
            }
          ],
          "TargetType": {
            "$type": "RPG.GameCore.TargetFetchAdvPropEx",
            "FetchType": "SinglePropByPropKey",
            "SinglePropKey": {
              "Custom": true,
              "Key": "FindChest_UnlockChest"
            }
          }
        }
      ]
    },
    {
      "TaskList": [
        {
          "$type": "RPG.GameCore.PropStateChangeListenerConfig",
          "FromState": "Hidden",
          "ToState": "ChestClosed",
          "OnChange": [
            {
              "$type": "RPG.GameCore.ShowWaypointByProp",
              "GroupID": {
                "IsDynamic": false,
                "FixedValue": {
                  "Value": 0
                }
              },
              "InstanceID": {
                "IsDynamic": false,
                "FixedValue": {
                  "Value": 0
                }
              },
              "PropKey": {
                "Custom": true,
                "Key": "FindChest_UnlockChest"
              },
              "MaxRange": 10,
              "IconPath": "SpriteOutput/MapPics/Billboard/IconBillboardBox.png",
              "Offset": {
                "X": 0,
                "Y": 1.6,
                "Z": 0
              }
            }
          ],
          "TargetType": {
            "$type": "RPG.GameCore.TargetFetchAdvPropEx",
            "FetchType": "SinglePropByPropKey",
            "SinglePropKey": {
              "Custom": true,
              "Key": "FindChest_UnlockChest"
            }
          }
        }
      ]
    }
  ],
  "ValueSource": {
    "Values": [
      {
        "$type": "RPG.GameCore.SharedString",
        "Key": "FindChest_UnlockChest"
      }
    ]
  }
}