{
  "OnInitSequece": [],
  "OnStartSequece": [
    {
      "TaskList": [
        {
          "$type": "RPG.GameCore.LevelPerformanceInitialize",
          "PerformanceType": "E",
          "HideMunicipalCrowd": false,
          "HideMunicipalPedestrian": false
        },
        {
          "$type": "RPG.GameCore.ShowTalkBackground",
          "TalkBgID": 117701
        },
        {
          "$type": "RPG.GameCore.PlayAndWaitSimpleTalk",
          "SimpleTalkList": [
            {
              "TalkSentenceID": 403050921,
              "ProtectTime": 0.3
            }
          ]
        },
        {
          "$type": "RPG.GameCore.PlayOptionTalk",
          "OptionList": [
            {
              "OptionTextmapID": {
                "Hash": -786974088
              },
              "OptionIconType": "ChatContinueIcon",
              "TriggerCustomString": "TalkSentence_403050924",
              "DialogueEventID": 117701
            },
            {
              "OptionTextmapID": {
                "Hash": -786974091
              },
              "OptionIconType": "ChatContinueIcon",
              "TriggerCustomString": "TalkSentence_403050925",
              "DialogueEventID": 117702
            }
          ]
        }
      ]
    },
    {
      "TaskList": [
        {
          "$type": "RPG.GameCore.WaitCustomString",
          "CustomString": {
            "Value": "TalkSentence_403050924"
          }
        },
        {
          "$type": "RPG.GameCore.TriggerSound",
          "SoundName": "Ev_sfx_ui_feedback_rogue_cheers_text",
          "EmitterType": "DefaultEmitter"
        },
        {
          "$type": "RPG.GameCore.PlayAndWaitSimpleTalk",
          "SimpleTalkList": [
            {
              "TalkSentenceID": 403050924,
              "ProtectTime": 0.3
            },
            {
              "TalkSentenceID": 403050925,
              "ProtectTime": 0.3
            },
            {
              "TalkSentenceID": 403050926,
              "ProtectTime": 0.3
            }
          ]
        },
        {
          "$type": "RPG.GameCore.EndPerformance"
        }
      ]
    },
    {
      "TaskList": [
        {
          "$type": "RPG.GameCore.WaitCustomString",
          "CustomString": {
            "Value": "TalkSentence_403050925"
          }
        },
        {
          "$type": "RPG.GameCore.PlayAndWaitSimpleTalk",
          "SimpleTalkList": [
            {
              "TalkSentenceID": 403050924,
              "ProtectTime": 0.3
            },
            {
              "TalkSentenceID": 403050925,
              "ProtectTime": 0.3
            },
            {
              "TalkSentenceID": 403050926,
              "ProtectTime": 0.3
            }
          ]
        },
        {
          "$type": "RPG.GameCore.EndPerformance"
        }
      ]
    },
    {
      "TaskList": [
        {
          "$type": "RPG.GameCore.WaitPerformanceEnd"
        },
        {
          "$type": "RPG.GameCore.FinishLevelGraph"
        }
      ]
    }
  ]
}