{
  "OnInitSequece": [],
  "OnStartSequece": [
    {
      "TaskList": [
        {
          "$type": "RPG.GameCore.LevelPerformanceInitialize",
          "PerformanceType": "E",
          "CreateCharacterList": [],
          "EntityVisiableList": [],
          "HideMunicipalCrowd": false,
          "HideMunicipalPedestrian": false,
          "PropVisiableList": [],
          "MarkStreamingItems": []
        },
        {
          "$type": "RPG.GameCore.ShowTalkBackground",
          "TalkBgID": 10501
        },
        {
          "$type": "RPG.GameCore.PlaySimpleTalk",
          "SimpleTalkList": [
            {
              "TalkSentenceID": 403810501,
              "ProtectTime": 0.3
            },
            {
              "TalkSentenceID": 403810502,
              "ProtectTime": 0.3
            },
            {
              "TalkSentenceID": 403810503,
              "ProtectTime": 0.3
            }
          ]
        },
        {
          "$type": "RPG.GameCore.WaitSimpleTalkFinish"
        },
        {
          "$type": "RPG.GameCore.PlayOptionTalk",
          "OptionList": [
            {
              "TalkSentenceID": 403810504,
              "OptionIconType": "ChatContinueIcon",
              "TriggerCustomString": "TalkSentence_403810511"
            },
            {
              "TalkSentenceID": 403810505,
              "OptionIconType": "ChatContinueIcon",
              "TriggerCustomString": "TalkSentence_403810511"
            },
            {
              "TalkSentenceID": 403810506,
              "OptionIconType": "ChatContinueIcon",
              "TriggerCustomString": "TalkSentence_403810511"
            }
          ]
        }
      ]
    },
    {
      "TaskList": [
        {
          "$type": "RPG.GameCore.WaitCustomString",
          "CustomString": {
            "Value": "TalkSentence_403810511"
          }
        },
        {
          "$type": "RPG.GameCore.PlaySimpleTalk",
          "SimpleTalkList": [
            {
              "TalkSentenceID": 403810507,
              "ProtectTime": 0.3
            }
          ]
        },
        {
          "$type": "RPG.GameCore.WaitSimpleTalkFinish"
        },
        {
          "$type": "RPG.GameCore.PlayOptionTalk",
          "OptionList": [
            {
              "OptionTextmapID": {
                "Hash": -1526286065
              },
              "OptionIconType": "ChatContinueIcon",
              "TriggerCustomString": "ALL_TALK_END",
              "DialogueEventID": 10501
            },
            {
              "OptionTextmapID": {
                "Hash": -1526286064
              },
              "OptionIconType": "ChatContinueIcon",
              "TriggerCustomString": "ALL_TALK_END",
              "DialogueEventID": 10502
            }
          ]
        }
      ]
    },
    {
      "TaskList": [
        {
          "$type": "RPG.GameCore.WaitCustomString",
          "CustomString": {
            "Value": "ALL_TALK_END"
          }
        },
        {
          "$type": "RPG.GameCore.EndPerformance"
        }
      ]
    },
    {
      "TaskList": [
        {
          "$type": "RPG.GameCore.WaitPerformanceEnd"
        },
        {
          "$type": "RPG.GameCore.FinishLevelGraph"
        }
      ]
    }
  ]
}