{
  "MainMissionID": 1010002,
  "StartSubMissionList": [
    101000201
  ],
  "FinishSubMissionList": [
    101010101
  ],
  "SubMissionList": [
    {
      "ID": 101000201,
      "MainMissionID": 1010002,
      "MissionJsonPath": "Config/Level/Mission/1010002/Mission_101000201.json",
      "LevelPlaneID": 10000,
      "LevelFloorID": 10000000,
      "TakeType": "Auto",
      "FinishType": "Talk",
      "ParamType": "Equal",
      "ParamStr1": "Mission_101000201",
      "ParamItemList": [],
      "Progress": 1,
      "MapNPCList": [],
      "MapPropList": []
    },
    {
      "ID": 101000202,
      "MainMissionID": 1010002,
      "MissionJsonPath": "Config/Level/Mission/1010002/Mission_101000202.json",
      "LevelPlaneID": 10000,
      "LevelFloorID": 10000000,
      "TakeType": "AnySequence",
      "TakeParamIntList": [
        101000201
      ],
      "FinishType": "Talk",
      "ParamType": "Equal",
      "ParamStr1": "Mission_101000202",
      "ParamItemList": [],
      "Progress": 1,
      "MapNPCList": [],
      "MapPropList": []
    },
    {
      "ID": 101000203,
      "MainMissionID": 1010002,
      "MissionJsonPath": "Config/Level/Mission/1010002/Mission_101000203.json",
      "LevelPlaneID": 10000,
      "LevelFloorID": 10000000,
      "TakeType": "AnySequence",
      "TakeParamIntList": [
        101000206
      ],
      "FinishType": "Talk",
      "ParamType": "Equal",
      "ParamStr1": "Mission_101000203",
      "ParamItemList": [],
      "Progress": 1,
      "WayPointType": "NPC",
      "WayPointFloorID": 10000000,
      "WayPointGroupID": 17,
      "WayPointEntityID": 400001,
      "MapNPCList": [],
      "MapPropList": []
    },
    {
      "ID": 101000204,
      "MainMissionID": 1010002,
      "MissionJsonPath": "Config/Level/Mission/1010002/Mission_101000204.json",
      "LevelPlaneID": 10000,
      "LevelFloorID": 10000000,
      "TakeType": "AnySequence",
      "TakeParamIntList": [
        101000203
      ],
      "FinishType": "Talk",
      "ParamType": "Equal",
      "ParamStr1": "Mission_101000204",
      "ParamItemList": [],
      "Progress": 1,
      "MapNPCList": [],
      "MapPropList": []
    },
    {
      "ID": 101000205,
      "MainMissionID": 1010002,
      "MissionJsonPath": "Config/Level/Mission/1010002/Mission_101000205.json",
      "LevelPlaneID": 10000,
      "LevelFloorID": 10000000,
      "TakeType": "AnySequence",
      "TakeParamIntList": [
        101000204
      ],
      "FinishType": "EnterFloor",
      "ParamType": "Equal",
      "ParamInt1": 20101,
      "ParamInt2": 20101001,
      "ParamItemList": [],
      "Progress": 1,
      "MapNPCList": [],
      "MapPropList": []
    },
    {
      "ID": 101000206,
      "MainMissionID": 1010002,
      "MissionJsonPath": "Config/Level/Mission/1010002/Mission_101000206.json",
      "LevelPlaneID": 10000,
      "LevelFloorID": 10000000,
      "TakeType": "AnySequence",
      "TakeParamIntList": [
        101000202
      ],
      "FinishType": "Talk",
      "ParamType": "Equal",
      "ParamStr1": "Mission_101000206",
      "ParamItemList": [],
      "Progress": 1,
      "IsShowStartHint": "New",
      "WayPointType": "NPC",
      "WayPointFloorID": 10000000,
      "WayPointGroupID": 17,
      "WayPointEntityID": 400002,
      "MapNPCList": [],
      "MapPropList": []
    },
    {
      "ID": 101010101,
      "MainMissionID": 1010002,
      "MissionJsonPath": "Config/Level/Mission/1010101/Mission_101010101.json",
      "LevelPlaneID": 20101,
      "LevelFloorID": 20101001,
      "TakeType": "AnySequence",
      "TakeParamIntList": [
        101000205
      ],
      "FinishType": "Talk",
      "ParamType": "Equal",
      "ParamStr1": "Mission_101010101",
      "ParamItemList": [],
      "Progress": 1,
      "IsShowFinishEffect": 2,
      "WayPointFloorID": 20101001,
      "MapNPCList": [],
      "MapPropList": []
    }
  ]
}