{
  "OnInitSequece": [
    {
      "TaskList": []
    }
  ],
  "OnStartSequece": [
    {
      "TaskList": [
        {
          "$type": "RPG.GameCore.AdvDistrictSetupTrigger",
          "GroupID": {
            "IsDynamic": false,
            "FixedValue": {
              "Value": 122
            }
          },
          "DistrictID": {
            "IsDynamic": false,
            "FixedValue": {
              "Value": 1
            }
          },
          "TickInterval": 0.1,
          "OnEnter": [
            {
              "$type": "RPG.GameCore.TriggerCustomString",
              "CustomString": {
                "Value": "801516312p"
              }
            }
          ],
          "IsOverrideValidGuestConfig": true,
          "OverridedValidGuestConfig": {
            "FakePlayer": true
          }
        }
      ]
    },
    {
      "TaskList": [
        {
          "$type": "RPG.GameCore.WaitCustomString",
          "CustomString": {
            "Value": "801516312p"
          }
        },
        {
          "$type": "RPG.GameCore.TriggerPerformance",
          "ValueSource": {},
          "PerformanceType": "D",
          "PerformanceID": 801516307
        },
        {
          "$type": "RPG.GameCore.AdvDestroyGroupEntity",
          "InstanceIDList": [
            300002
          ]
        },
        {
          "$type": "RPG.GameCore.TriggerCustomString",
          "CustomString": {
            "Value": "Talk_801516312"
          }
        }
      ]
    },
    {
      "TaskList": [
        {
          "$type": "RPG.GameCore.WaitSecond",
          "WaitTime": 1
        },
        {
          "$type": "RPG.GameCore.PlayMissionTalk",
          "SimpleTalkList": [
            {
              "TalkSentenceID": 815163900,
              "ProtectTime": 2,
              "ForceToNextTime": 3
            },
            {
              "TalkSentenceID": 815163901,
              "ProtectTime": 2,
              "ForceToNextTime": 3
            },
            {
              "TalkSentenceID": 815163902,
              "ProtectTime": 2,
              "ForceToNextTime": 3
            }
          ]
        }
      ]
    },
    {
      "TaskList": [
        {
          "$type": "RPG.GameCore.WaitCustomString",
          "CustomString": {
            "Value": "801516312p"
          }
        },
        {
          "$type": "RPG.GameCore.WaitSecond",
          "WaitTime": 0.5
        },
        {
          "$type": "RPG.GameCore.AdvCreateGroupEntity",
          "InstanceIDList": [
            300002
          ]
        }
      ]
    }
  ],
  "Type": "Group"
}