{
  "OnInitSequece": [],
  "OnStartSequece": [
    {
      "TaskList": [
        {
          "$type": "RPG.GameCore.PropSetupUITrigger",
          "IconType": "TriggerProp",
          "ButtonText": {
            "Hash": 323942139
          },
          "ButtonCallback": [
            {
              "$type": "RPG.GameCore.PropEnableCollider",
              "OPType": "TriggerOnly",
              "TargetType": {
                "$type": "RPG.GameCore.TargetFetchAdvPropEx"
              }
            },
            {
              "$type": "RPG.GameCore.LockPlayerControl",
              "LockCameraControl": false
            },
            {
              "$type": "RPG.GameCore.ShowTalkUI",
              "Show": true
            },
            {
              "$type": "RPG.GameCore.AdvEntityFaceTo",
              "SourceType": {
                "$type": "RPG.GameCore.TargetFetchAdvLocalPlayer",
                "IncludeStoryPlayer": false
              },
              "TargetType": {
                "$type": "RPG.GameCore.TargetFetchAdvPropEx"
              },
              "EnableSteer": true,
              "EnableLookAt": false,
              "LookAtPoint": "Origin",
              "FinishImmediately": false,
              "TurnBackOnGraphEnd": false
            },
            {
              "$type": "RPG.GameCore.CharacterTriggerAnimState",
              "TargetAlias": {
                "$type": "RPG.GameCore.TargetFetchAdvLocalPlayer",
                "IncludeStoryPlayer": false
              },
              "ForceStart": false,
              "AnimStateName": "LookatPhoneBS"
            },
            {
              "$type": "RPG.GameCore.CreatePhoneOnCharacter",
              "TargetType": {
                "$type": "RPG.GameCore.TargetFetchAdvLocalPlayer",
                "IncludeStoryPlayer": false
              }
            },
            {
              "$type": "RPG.GameCore.SelectorConfig",
              "TaskList": [
                {
                  "$type": "RPG.GameCore.PropStateExecute",
                  "TargetType": {
                    "$type": "RPG.GameCore.TargetFetchAdvPropEx",
                    "FetchType": "SinglePropByPropKey",
                    "SinglePropKey": {
                      "Custom": true,
                      "Key": "Choice"
                    }
                  },
                  "Execute": [
                    {
                      "$type": "RPG.GameCore.PlayAndWaitSimpleTalk",
                      "Backgrounds": [],
                      "TargetBehaviors": [],
                      "SimpleTalkList": [
                        {
                          "TalkSentenceID": 412210222,
                          "ProtectTime": 0.3
                        }
                      ]
                    },
                    {
                      "$type": "RPG.GameCore.PlayOptionTalk",
                      "OptionList": [
                        {
                          "TalkSentenceID": 412210408,
                          "OptionIconType": "ChatContinueIcon",
                          "TriggerCustomString": "OnInit_X201_01"
                        }
                      ]
                    },
                    {
                      "$type": "RPG.GameCore.BlockInputController",
                      "Enable": true,
                      "ActionNameList": []
                    },
                    {
                      "$type": "RPG.GameCore.TriggerCustomString",
                      "CustomString": {
                        "Custom": true,
                        "Key": "Mission_Str"
                      }
                    },
                    {
                      "$type": "RPG.GameCore.TriggerCustomString",
                      "CustomString": {
                        "Value": "GoNext"
                      }
                    }
                  ]
                },
                {
                  "$type": "RPG.GameCore.PropStateExecute",
                  "TargetType": {
                    "$type": "RPG.GameCore.TargetFetchAdvPropEx",
                    "FetchType": "SinglePropByPropKey",
                    "SinglePropKey": {
                      "Custom": true,
                      "Key": "Choice2nd"
                    }
                  },
                  "Execute": [
                    {
                      "$type": "RPG.GameCore.PlayAndWaitSimpleTalk",
                      "Backgrounds": [],
                      "TargetBehaviors": [],
                      "SimpleTalkList": [
                        {
                          "TalkSentenceID": 412210223,
                          "ProtectTime": 0.3
                        }
                      ]
                    },
                    {
                      "$type": "RPG.GameCore.PlayOptionTalk",
                      "OptionList": [
                        {
                          "TalkSentenceID": 412210408,
                          "OptionIconType": "ChatContinueIcon",
                          "TriggerCustomString": "OnInit_X201_01",
                          "HasTriggered": true
                        },
                        {
                          "TalkSentenceID": 412210409,
                          "OptionIconType": "ChatContinueIcon",
                          "TriggerCustomString": "OnInit_X201_02"
                        }
                      ]
                    },
                    {
                      "$type": "RPG.GameCore.BlockInputController",
                      "Enable": true,
                      "ActionNameList": []
                    },
                    {
                      "$type": "RPG.GameCore.TriggerCustomString",
                      "CustomString": {
                        "Value": "GoNext"
                      }
                    }
                  ]
                },
                {
                  "$type": "RPG.GameCore.PropStateExecute",
                  "TargetType": {
                    "$type": "RPG.GameCore.TargetFetchAdvPropEx",
                    "FetchType": "SinglePropByPropKey",
                    "SinglePropKey": {
                      "Custom": true,
                      "Key": "Choice3rd"
                    }
                  },
                  "Execute": [
                    {
                      "$type": "RPG.GameCore.PlayAndWaitSimpleTalk",
                      "Backgrounds": [],
                      "TargetBehaviors": [],
                      "SimpleTalkList": [
                        {
                          "TalkSentenceID": 412210224,
                          "ProtectTime": 0.3
                        }
                      ]
                    },
                    {
                      "$type": "RPG.GameCore.PlayOptionTalk",
                      "OptionList": [
                        {
                          "TalkSentenceID": 412210408,
                          "OptionIconType": "ChatContinueIcon",
                          "TriggerCustomString": "OnInit_X201_01",
                          "HasTriggered": true
                        },
                        {
                          "TalkSentenceID": 412210409,
                          "OptionIconType": "ChatContinueIcon",
                          "TriggerCustomString": "OnInit_X201_02",
                          "HasTriggered": true
                        },
                        {
                          "TalkSentenceID": 412210410,
                          "OptionIconType": "ChatContinueIcon",
                          "TriggerCustomString": "OnInit_X201_03"
                        }
                      ]
                    },
                    {
                      "$type": "RPG.GameCore.BlockInputController",
                      "Enable": true,
                      "ActionNameList": []
                    },
                    {
                      "$type": "RPG.GameCore.TriggerCustomString",
                      "CustomString": {
                        "Value": "GoNext"
                      }
                    }
                  ]
                },
                {
                  "$type": "RPG.GameCore.PropStateExecute",
                  "TargetType": {
                    "$type": "RPG.GameCore.TargetFetchAdvPropEx",
                    "FetchType": "SinglePropByPropKey",
                    "SinglePropKey": {
                      "Custom": true,
                      "Key": "Choice3rd"
                    }
                  },
                  "State": "Open",
                  "Execute": [
                    {
                      "$type": "RPG.GameCore.PlayAndWaitSimpleTalk",
                      "Backgrounds": [],
                      "TargetBehaviors": [],
                      "SimpleTalkList": [
                        {
                          "TalkSentenceID": 412210401,
                          "ProtectTime": 0.3
                        }
                      ]
                    },
                    {
                      "$type": "RPG.GameCore.PlayOptionTalk",
                      "OptionList": [
                        {
                          "TalkSentenceID": 412210408,
                          "OptionIconType": "ChatContinueIcon",
                          "TriggerCustomString": "OnInit_X201_01"
                        },
                        {
                          "TalkSentenceID": 412210409,
                          "OptionIconType": "ChatContinueIcon",
                          "TriggerCustomString": "OnInit_X201_02"
                        },
                        {
                          "TalkSentenceID": 412210410,
                          "OptionIconType": "ChatContinueIcon",
                          "TriggerCustomString": "OnInit_X201_03"
                        },
                        {
                          "TalkSentenceID": 412210425,
                          "OptionIconType": "ChatOutIcon",
                          "TriggerCustomString": "Quit"
                        }
                      ]
                    },
                    {
                      "$type": "RPG.GameCore.BlockInputController",
                      "Enable": true,
                      "ActionNameList": []
                    },
                    {
                      "$type": "RPG.GameCore.TriggerCustomString",
                      "CustomString": {
                        "Value": "GoNext"
                      }
                    }
                  ]
                }
              ]
            }
          ],
          "OverrideTargetTypes": [],
          "TargetType": {
            "$type": "RPG.GameCore.TargetFetchAdvPropEx",
            "SinglePropKey": {
              "Custom": true,
              "Key": "StartDrone"
            }
          }
        }
      ]
    },
    {
      "IsLoop": true,
      "TaskList": [
        {
          "$type": "RPG.GameCore.WaitCustomString",
          "CustomString": {
            "Value": "Quit"
          },
          "WaitOwnerOnly": true
        },
        {
          "$type": "RPG.GameCore.CharacterTriggerAnimState",
          "TargetAlias": {
            "$type": "RPG.GameCore.TargetFetchAdvLocalPlayer",
            "IncludeStoryPlayer": false
          },
          "ForceStart": false,
          "AnimStateName": "LookatPhoneAS"
        },
        {
          "$type": "RPG.GameCore.CreatePhoneOnCharacter",
          "IsDestroy": true,
          "TargetType": {
            "$type": "RPG.GameCore.TargetFetchAdvLocalPlayer",
            "IncludeStoryPlayer": false
          }
        },
        {
          "$type": "RPG.GameCore.UnLockPlayerControl"
        },
        {
          "$type": "RPG.GameCore.BlockInputController",
          "ActionNameList": []
        }
      ]
    },
    {
      "IsLoop": true,
      "TaskList": [
        {
          "$type": "RPG.GameCore.WaitCustomString",
          "CustomString": {
            "Value": "GoNext"
          },
          "WaitOwnerOnly": true,
          "GoNextImmediately": true
        },
        {
          "$type": "RPG.GameCore.ShowTalkUI"
        },
        {
          "$type": "RPG.GameCore.WaitSecond",
          "WaitTime": 2
        },
        {
          "$type": "RPG.GameCore.PropEnableCollider",
          "OPType": "TriggerOnly",
          "Enabled": true,
          "TargetType": {
            "$type": "RPG.GameCore.TargetFetchAdvPropEx"
          }
        }
      ]
    }
  ],
  "ValueSource": {
    "Values": [
      {
        "$type": "RPG.GameCore.SharedString",
        "Key": "Choice"
      },
      {
        "$type": "RPG.GameCore.SharedString",
        "Key": "Choice2nd"
      },
      {
        "$type": "RPG.GameCore.SharedString",
        "Key": "Choice3rd"
      },
      {
        "$type": "RPG.GameCore.SharedString",
        "Key": "Mission_Str"
      }
    ]
  }
}