{
  "AbilityList": [
    {
      "Modifiers": {
        "Monster_XP_Minion03_00_EffectController": {
          "_CallbackList": [
            {
              "Event": "OnCreate",
              "CallbackConfig": [
                {
                  "$type": "RPG.GameCore.TriggerEffect",
                  "TargetType": {
                    "$type": "RPG.GameCore.TargetAlias",
                    "Alias": "Caster"
                  },
                  "IsAttachToTargetEntity": true,
                  "Flags": [
                    "Resident"
                  ],
                  "EffectPath": "Effects/Eff_Prefab/Eff_Monster/Eff_XP_Minion03_00/Eff_Monster_XP_Minion03_00_StandBy_Loop.prefab",
                  "AttachPoint": "Body"
                },
                {
                  "$type": "RPG.GameCore.TriggerEffect",
                  "TargetType": {
                    "$type": "RPG.GameCore.TargetAlias",
                    "Alias": "Caster"
                  },
                  "IsAttachToTargetEntity": true,
                  "EffectPath": "Effects/Eff_Prefab/Eff_Monster/Eff_XP_Minion03_00/Eff_Monster_XP_Minion03_00_StandBy_Loop_02.prefab",
                  "AttachPoint": "Body"
                }
              ]
            },
            {
              "Event": "OnDestroy",
              "CallbackConfig": [
                {
                  "$type": "RPG.GameCore.PredicateTaskList",
                  "Predicate": {
                    "$type": "RPG.GameCore.ByCompareDynamicValue",
                    "TargetType": {
                      "$type": "RPG.GameCore.TargetAlias",
                      "Alias": "ModifierOwnerEntity"
                    },
                    "DynamicKey": "TimeSlowSpeed",
                    "ContextScope": "TargetEntity",
                    "CompareType": "Equal",
                    "CompareValue": {
                      "IsDynamic": false,
                      "FixedValue": {
                        "Value": 0
                      }
                    }
                  },
                  "SuccessTaskList": [
                    {
                      "$type": "RPG.GameCore.SetAttachEffectTimeSlow",
                      "AttachPoint": "Body",
                      "TimeSlow": 1
                    },
                    {
                      "$type": "RPG.GameCore.DefineDynamicValue",
                      "TargetType": {
                        "$type": "RPG.GameCore.TargetAlias",
                        "Alias": "ModifierOwnerEntity"
                      },
                      "DynamicKey": "TimeSlowSpeed",
                      "ResetValue": {
                        "IsDynamic": false,
                        "FixedValue": {
                          "Value": 1
                        }
                      },
                      "ContextScope": "TargetEntity"
                    }
                  ],
                  "FailedTaskList": []
                }
              ]
            },
            {
              "Event": "OnBeingBreak",
              "CallbackConfig": [
                {
                  "$type": "RPG.GameCore.RemoveEffect",
                  "TargetType": {
                    "$type": "RPG.GameCore.TargetAlias",
                    "Alias": "Caster"
                  },
                  "EffectPath": "Effects/Eff_Prefab/Eff_Monster/Eff_XP_Minion03_00/Eff_Monster_XP_Minion03_00_StandBy_Loop_02.prefab"
                }
              ]
            },
            {
              "Event": "OnEndBreak",
              "CallbackConfig": [
                {
                  "$type": "RPG.GameCore.TriggerEffect",
                  "TargetType": {
                    "$type": "RPG.GameCore.TargetAlias",
                    "Alias": "Caster"
                  },
                  "IsAttachToTargetEntity": true,
                  "EffectPath": "Effects/Eff_Prefab/Eff_Monster/Eff_XP_Minion03_00/Eff_Monster_XP_Minion03_00_StandBy_Loop_02.prefab",
                  "AttachPoint": "Body"
                }
              ]
            },
            {
              "Event": "OnModifierAdd",
              "CallbackConfig": [
                {
                  "$type": "RPG.GameCore.PredicateTaskList",
                  "Predicate": {
                    "$type": "RPG.GameCore.ByContainBehaviorFlag",
                    "TargetType": {
                      "$type": "RPG.GameCore.TargetAlias",
                      "Alias": "ModifierOwnerEntity"
                    },
                    "Flag": "STAT_Confine"
                  },
                  "SuccessTaskList": [
                    {
                      "$type": "RPG.GameCore.PredicateTaskList",
                      "Predicate": {
                        "$type": "RPG.GameCore.ByCompareDynamicValue",
                        "TargetType": {
                          "$type": "RPG.GameCore.TargetAlias",
                          "Alias": "ModifierOwnerEntity"
                        },
                        "DynamicKey": "TimeSlowSpeed",
                        "ContextScope": "TargetEntity",
                        "CompareType": "Equal",
                        "CompareValue": {
                          "IsDynamic": false,
                          "FixedValue": {
                            "Value": 1
                          }
                        }
                      },
                      "SuccessTaskList": [
                        {
                          "$type": "RPG.GameCore.SetAttachEffectTimeSlow",
                          "AttachPoint": "Body",
                          "TimeSlow": 0.2
                        },
                        {
                          "$type": "RPG.GameCore.DefineDynamicValue",
                          "TargetType": {
                            "$type": "RPG.GameCore.TargetAlias",
                            "Alias": "ModifierOwnerEntity"
                          },
                          "DynamicKey": "TimeSlowSpeed",
                          "ContextScope": "TargetEntity"
                        }
                      ],
                      "FailedTaskList": []
                    }
                  ]
                },
                {
                  "$type": "RPG.GameCore.PredicateTaskList",
                  "Predicate": {
                    "$type": "RPG.GameCore.ByContainBehaviorFlag",
                    "TargetType": {
                      "$type": "RPG.GameCore.TargetAlias",
                      "Alias": "ModifierOwnerEntity"
                    },
                    "Flag": "STAT_CTRL_Frozen"
                  },
                  "SuccessTaskList": [
                    {
                      "$type": "RPG.GameCore.PredicateTaskList",
                      "Predicate": {
                        "$type": "RPG.GameCore.ByCompareDynamicValue",
                        "TargetType": {
                          "$type": "RPG.GameCore.TargetAlias",
                          "Alias": "ModifierOwnerEntity"
                        },
                        "DynamicKey": "TimeSlowSpeed",
                        "ContextScope": "TargetEntity",
                        "CompareType": "Equal",
                        "CompareValue": {
                          "IsDynamic": false,
                          "FixedValue": {
                            "Value": 1
                          }
                        }
                      },
                      "SuccessTaskList": [
                        {
                          "$type": "RPG.GameCore.SetAttachEffectTimeSlow",
                          "AttachPoint": "Body"
                        },
                        {
                          "$type": "RPG.GameCore.DefineDynamicValue",
                          "TargetType": {
                            "$type": "RPG.GameCore.TargetAlias",
                            "Alias": "ModifierOwnerEntity"
                          },
                          "DynamicKey": "TimeSlowSpeed",
                          "ContextScope": "TargetEntity"
                        }
                      ],
                      "FailedTaskList": []
                    }
                  ]
                }
              ]
            },
            {
              "Event": "OnModifierRemove",
              "CallbackConfig": [
                {
                  "$type": "RPG.GameCore.PredicateTaskList",
                  "Predicate": {
                    "$type": "RPG.GameCore.ByAny",
                    "PredicateList": [
                      {
                        "$type": "RPG.GameCore.ByContainBehaviorFlag",
                        "TargetType": {
                          "$type": "RPG.GameCore.TargetAlias",
                          "Alias": "ModifierOwnerEntity"
                        },
                        "Flag": "STAT_Confine"
                      },
                      {
                        "$type": "RPG.GameCore.ByContainBehaviorFlag",
                        "TargetType": {
                          "$type": "RPG.GameCore.TargetAlias",
                          "Alias": "ModifierOwnerEntity"
                        },
                        "Flag": "STAT_CTRL_Frozen"
                      }
                    ]
                  },
                  "FailedTaskList": [
                    {
                      "$type": "RPG.GameCore.PredicateTaskList",
                      "Predicate": {
                        "$type": "RPG.GameCore.ByCompareDynamicValue",
                        "TargetType": {
                          "$type": "RPG.GameCore.TargetAlias",
                          "Alias": "ModifierOwnerEntity"
                        },
                        "DynamicKey": "TimeSlowSpeed",
                        "ContextScope": "TargetEntity",
                        "CompareType": "Equal",
                        "CompareValue": {
                          "IsDynamic": false,
                          "FixedValue": {
                            "Value": 0
                          }
                        }
                      },
                      "SuccessTaskList": [
                        {
                          "$type": "RPG.GameCore.SetAttachEffectTimeSlow",
                          "AttachPoint": "Body",
                          "TimeSlow": 1
                        },
                        {
                          "$type": "RPG.GameCore.DefineDynamicValue",
                          "TargetType": {
                            "$type": "RPG.GameCore.TargetAlias",
                            "Alias": "ModifierOwnerEntity"
                          },
                          "DynamicKey": "TimeSlowSpeed",
                          "ResetValue": {
                            "IsDynamic": false,
                            "FixedValue": {
                              "Value": 1
                            }
                          },
                          "ContextScope": "TargetEntity"
                        }
                      ],
                      "FailedTaskList": []
                    }
                  ]
                },
                {
                  "$type": "RPG.GameCore.PredicateTaskList",
                  "Predicate": {
                    "$type": "RPG.GameCore.ByContainBehaviorFlag",
                    "TargetType": {
                      "$type": "RPG.GameCore.TargetAlias",
                      "Alias": "ModifierOwnerEntity"
                    },
                    "Flag": "STAT_Confine"
                  },
                  "SuccessTaskList": [
                    {
                      "$type": "RPG.GameCore.PredicateTaskList",
                      "Predicate": {
                        "$type": "RPG.GameCore.ByContainBehaviorFlag",
                        "TargetType": {
                          "$type": "RPG.GameCore.TargetAlias",
                          "Alias": "ModifierOwnerEntity"
                        },
                        "Flag": "STAT_CTRL_Frozen"
                      },
                      "SuccessTaskList": [],
                      "FailedTaskList": [
                        {
                          "$type": "RPG.GameCore.PredicateTaskList",
                          "Predicate": {
                            "$type": "RPG.GameCore.ByCompareDynamicValue",
                            "TargetType": {
                              "$type": "RPG.GameCore.TargetAlias",
                              "Alias": "ModifierOwnerEntity"
                            },
                            "DynamicKey": "TimeSlowSpeed",
                            "ContextScope": "TargetEntity",
                            "CompareType": "Equal",
                            "CompareValue": {
                              "IsDynamic": false,
                              "FixedValue": {
                                "Value": 1
                              }
                            }
                          },
                          "SuccessTaskList": [
                            {
                              "$type": "RPG.GameCore.SetAttachEffectTimeSlow",
                              "AttachPoint": "Body",
                              "TimeSlow": 0.2
                            },
                            {
                              "$type": "RPG.GameCore.DefineDynamicValue",
                              "TargetType": {
                                "$type": "RPG.GameCore.TargetAlias",
                                "Alias": "ModifierOwnerEntity"
                              },
                              "DynamicKey": "TimeSlowSpeed",
                              "ContextScope": "TargetEntity"
                            }
                          ],
                          "FailedTaskList": []
                        }
                      ]
                    }
                  ]
                }
              ]
            }
          ]
        },
        "Monster_XP_Minion03_00_Deathrattle": {
          "BehaviorFlagList": [
            "Deathrattle"
          ],
          "_CallbackList": [
            {
              "Event": "OnDeathrattle",
              "CallbackConfig": [
                {
                  "$type": "RPG.GameCore.DispelStatus",
                  "TargetType": {
                    "$type": "RPG.GameCore.TargetAlias",
                    "Alias": "Caster"
                  },
                  "OnlyAlive": false,
                  "IsSlientDispel": true
                },
                {
                  "$type": "RPG.GameCore.TurnInsertAbility",
                  "AbilityName": "Monster_XP_Minion03_00_PassiveSkill_Insert_Phase01",
                  "InsertAbilityPriority": "MonsterDeathRattle",
                  "OwnerAliveState": "Mask_AliveOrLimbo",
                  "TargetAliveState": "Mask_AliveOrLimbo",
                  "ShowInActionBar": true
                },
                {
                  "$type": "RPG.GameCore.SetDieImmediately"
                }
              ]
            }
          ]
        }
      },
      "Name": "Monster_XP_Minion03_00_Passive01",
      "TargetInfo": {
        "TargetType": "Caster"
      },
      "OnAdd": [
        {
          "$type": "RPG.GameCore.AddModifier",
          "TargetType": {
            "$type": "RPG.GameCore.TargetAlias",
            "Alias": "Caster"
          },
          "ModifierName": "Monster_XP_Minion03_00_EffectController"
        },
        {
          "$type": "RPG.GameCore.AddModifier",
          "TargetType": {
            "$type": "RPG.GameCore.TargetAlias",
            "Alias": "Caster"
          },
          "ModifierName": "Monster_XP_Minion03_00_Deathrattle"
        }
      ]
    },
    {
      "Name": "Monster_XP_Minion03_00_Skill01_Phase01",
      "TargetInfo": {
        "TargetType": "SkillTargetEntityList"
      },
      "OnStart": [
        {
          "$type": "RPG.GameCore.TriggerAbility",
          "TargetType": {
            "$type": "RPG.GameCore.TargetAlias",
            "Alias": "Caster"
          },
          "AbilityName": "Monster_XP_Minion03_00_Skill01_Phase02",
          "IsSkillPerform": true
        },
        {
          "$type": "RPG.GameCore.TriggerAbility",
          "TargetType": {
            "$type": "RPG.GameCore.TargetAlias",
            "Alias": "Caster"
          },
          "AbilityName": "Monster_XP_Minion03_00_Skill01_Camera",
          "IsSkillPerform": true
        },
        {
          "$type": "RPG.GameCore.LookAt",
          "TargetType": "AbilityTargetEntity"
        },
        {
          "$type": "RPG.GameCore.TriggerAnimState",
          "AnimStateName": "Skill01",
          "NormalizedTimeEnd": {
            "IsDynamic": false,
            "FixedValue": {
              "Value": 1
            }
          },
          "NormalizedTimeWait": {
            "IsDynamic": false,
            "FixedValue": {
              "Value": 0.7690000000875443
            }
          },
          "NormalizedTransitionDuration": {
            "IsDynamic": false,
            "FixedValue": {
              "Value": 0.030000000027939677
            }
          }
        },
        {
          "$type": "RPG.GameCore.TriggerAnimState",
          "AnimLogicState": "Idle"
        },
        {
          "$type": "RPG.GameCore.LookAt",
          "TargetType": "TeamFormation"
        }
      ]
    },
    {
      "Name": "Monster_XP_Minion03_00_Skill01_Phase02",
      "TargetInfo": {
        "TargetType": "SkillTargetEntityList"
      },
      "OnStart": [
        {
          "$type": "RPG.GameCore.WaitAnimState",
          "TargetType": {
            "$type": "RPG.GameCore.TargetAlias",
            "Alias": "Caster"
          },
          "AnimStateName": "Skill01",
          "NormalizedTimeEnd": {
            "IsDynamic": false,
            "FixedValue": {
              "Value": 0.1500000001396984
            }
          }
        },
        {
          "$type": "RPG.GameCore.SkillExecutionStart"
        },
        {
          "$type": "RPG.GameCore.WaitAnimState",
          "AnimStateName": "Skill01",
          "NormalizedTimeEnd": {
            "IsDynamic": false,
            "FixedValue": {
              "Value": 0.22000000020489097
            }
          }
        },
        {
          "$type": "RPG.GameCore.StartAim",
          "TargetType": {
            "$type": "RPG.GameCore.TargetAlias",
            "Alias": "SkillPointEntity"
          },
          "TargetAttachPoint": "Root"
        },
        {
          "$type": "RPG.GameCore.WaitAnimState",
          "AnimStateName": "Skill01",
          "NormalizedTimeEnd": {
            "IsDynamic": false,
            "FixedValue": {
              "Value": 0.49000000045634806
            }
          }
        },
        {
          "$type": "RPG.GameCore.DamageByAttackProperty",
          "TargetType": {
            "$type": "RPG.GameCore.TargetAlias",
            "Alias": "AbilityTargetEntity"
          },
          "AttackProperty": {
            "DamageType": "Imaginary",
            "DamagePercentage": {
              "IsDynamic": true,
              "PostfixExpr": {
                "OpCodes": "AQAK",
                "FixedValues": [],
                "DynamicHashes": [
                  -1126825319
                ]
              }
            },
            "SPHitRatio": {
              "IsDynamic": false,
              "FixedValue": {
                "Value": 1
              }
            },
            "AttackType": "Normal",
            "HitAnimation": "Hit",
            "HitEffect": "Effects/Eff_Prefab/Eff_Monster/Eff_XP_Minion03_00/Eff_Monster_XP_Minion03_00_Skill01_Hit.prefab"
          },
          "SpecialHitSoundEvent": "Ev_sfx_monster_skill_01_hit_aml_minion02_golden"
        },
        {
          "$type": "RPG.GameCore.DamagePerformFinish"
        },
        {
          "$type": "RPG.GameCore.WaitAnimState",
          "AnimStateName": "Skill01",
          "NormalizedTimeEnd": {
            "IsDynamic": false,
            "FixedValue": {
              "Value": 0.6000000005587935
            }
          }
        },
        {
          "$type": "RPG.GameCore.StopAim"
        },
        {
          "$type": "RPG.GameCore.SkillPerformFinish"
        }
      ]
    },
    {
      "Name": "Monster_XP_Minion03_00_Skill02_Phase01",
      "TargetInfo": {
        "TargetType": "AllTeamMember"
      },
      "OnStart": [
        {
          "$type": "RPG.GameCore.TriggerAbility",
          "TargetType": {
            "$type": "RPG.GameCore.TargetAlias",
            "Alias": "Caster"
          },
          "AbilityName": "Monster_XP_Minion03_00_Skill02_Phase02",
          "IsSkillPerform": true
        },
        {
          "$type": "RPG.GameCore.TriggerAbility",
          "TargetType": {
            "$type": "RPG.GameCore.TargetAlias",
            "Alias": "Caster"
          },
          "AbilityName": "Monster_XP_Minion03_00_Skill02_Camera",
          "IsSkillPerform": true
        },
        {
          "$type": "RPG.GameCore.TriggerAnimState",
          "AnimStateName": "Skill02",
          "NormalizedTimeEnd": {
            "IsDynamic": false,
            "FixedValue": {
              "Value": 1
            }
          },
          "NormalizedTimeWait": {
            "IsDynamic": false,
            "FixedValue": {
              "Value": 0.7570000002160668
            }
          }
        },
        {
          "$type": "RPG.GameCore.TriggerAnimState",
          "AnimLogicState": "Idle"
        }
      ]
    },
    {
      "Name": "Monster_XP_Minion03_00_Skill02_Phase02",
      "TargetInfo": {
        "TargetType": "AllTeamMember"
      },
      "OnStart": [
        {
          "$type": "RPG.GameCore.WaitAnimState",
          "TargetType": {
            "$type": "RPG.GameCore.TargetAlias",
            "Alias": "Caster"
          },
          "AnimStateName": "Skill02",
          "NormalizedTimeEnd": {
            "IsDynamic": false,
            "FixedValue": {
              "Value": 0.1500000001396984
            }
          }
        },
        {
          "$type": "RPG.GameCore.SkillExecutionStart"
        },
        {
          "$type": "RPG.GameCore.WaitAnimState",
          "AnimStateName": "Skill02",
          "NormalizedTimeEnd": {
            "IsDynamic": false,
            "FixedValue": {
              "Value": 0.48000000044703484
            }
          }
        },
        {
          "$type": "RPG.GameCore.AddModifier",
          "TargetType": {
            "$type": "RPG.GameCore.TargetAlias",
            "Alias": "AllTeamMember"
          },
          "ModifierName": "Monster_XP_Minion03_00_Attack",
          "LifeTime": {
            "IsDynamic": true,
            "PostfixExpr": {
              "OpCodes": "AQAK",
              "FixedValues": [],
              "DynamicHashes": [
                517003587
              ]
            }
          },
          "DynamicValues": {
            "MDF_AttackAddedRatio": {
              "IsDynamic": true,
              "PostfixExpr": {
                "OpCodes": "AQAK",
                "FixedValues": [],
                "DynamicHashes": [
                  1961261976
                ]
              }
            }
          }
        },
        {
          "$type": "RPG.GameCore.SkillPerformFinish"
        }
      ]
    },
    {
      "Name": "Monster_XP_Minion03_00_PassiveSkill_Insert_Phase01",
      "TargetInfo": {
        "TargetType": "AllEnemy"
      },
      "OnStart": [
        {
          "$type": "RPG.GameCore.ShowSkillTextDialog",
          "SkillName": {
            "Hash": 1350990210
          },
          "IsDark": true
        },
        {
          "$type": "RPG.GameCore.ExitBreakState",
          "TargetType": {
            "$type": "RPG.GameCore.TargetAlias",
            "Alias": "Caster"
          },
          "CancelRecoverAnim": true
        },
        {
          "$type": "RPG.GameCore.SetTeamFormation",
          "Team": "TeamLight",
          "FormationType": "LightTeamNormal",
          "CustomFormationIgnoreDying": false
        },
        {
          "$type": "RPG.GameCore.VCameraConfigChange",
          "CameraConfig": {
            "NormalConfig": {
              "CameraState": "CastAnimation",
              "AnchorOffset": {
                "X": 0,
                "Y": 0.25,
                "Z": -5
              },
              "AimTargetType": {
                "$type": "RPG.GameCore.TargetAlias",
                "Alias": "Caster"
              },
              "AimOffset": {
                "X": 0,
                "Y": -0.25,
                "Z": 0
              }
            },
            "ShowEntityConfig": {
              "ShowTargetType": {
                "$type": "RPG.GameCore.TargetAlias",
                "Alias": "AllTeamMember"
              },
              "IsAliveOnly": false
            }
          }
        },
        {
          "$type": "RPG.GameCore.TriggerAnimStateWithMove",
          "TargetType": {
            "$type": "RPG.GameCore.TargetAlias",
            "Alias": "Caster"
          },
          "AnimStateName": "PassiveSkill01",
          "NormalizedTimeEnd": {
            "IsDynamic": false,
            "FixedValue": {
              "Value": 1
            }
          },
          "EventList": [
            {
              "NormalizedTime": {
                "IsDynamic": false,
                "FixedValue": {
                  "Value": 0.9000000008381903
                }
              },
              "TaskList": [
                {
                  "$type": "RPG.GameCore.SetEntityVisible",
                  "TargetType": {
                    "$type": "RPG.GameCore.TargetAlias",
                    "Alias": "Caster"
                  }
                }
              ]
            }
          ]
        },
        {
          "$type": "RPG.GameCore.WaitSecond",
          "WaitTime": 0.1
        },
        {
          "$type": "RPG.GameCore.VCameraConfigChange",
          "CameraConfig": {
            "NormalConfig": {
              "CameraState": "CasterToTargetPerform",
              "AnchorTargetType": {
                "$type": "RPG.GameCore.TargetAlias",
                "Alias": "DarkTeamEntity"
              },
              "IsLocalOffset": true,
              "AnchorOffset": {
                "X": -3.5,
                "Y": 1,
                "Z": 3.5
              },
              "AnchorRatio": 1,
              "AimTargetType": {
                "$type": "RPG.GameCore.TargetAlias",
                "Alias": "LightTeamEntity"
              },
              "AimOffset": {
                "X": 2.5,
                "Y": 1.5,
                "Z": 0
              },
              "FollowDamp": 0.01,
              "AimDamp": 0.01,
              "Dutch": 2,
              "ResetToDefault": false
            },
            "BlendConfig": {
              "BlendType": "Cut",
              "BlendTime": 0.013333
            }
          }
        },
        {
          "$type": "RPG.GameCore.ModifySPNew",
          "TargetType": {
            "$type": "RPG.GameCore.TargetAlias",
            "Alias": "AllEnemy"
          },
          "AddValue": {
            "IsDynamic": true,
            "PostfixExpr": {
              "OpCodes": "AQAK",
              "FixedValues": [],
              "DynamicHashes": [
                -1181873395
              ]
            }
          }
        },
        {
          "$type": "RPG.GameCore.ShowEntityFloatMessage",
          "TargetType": {
            "$type": "RPG.GameCore.TargetAlias",
            "Alias": "AllEnemy"
          },
          "AliveOnly": true,
          "ContentID": {
            "Hash": -199816092
          }
        },
        {
          "$type": "RPG.GameCore.TriggerEffect",
          "TargetType": {
            "$type": "RPG.GameCore.TargetAlias",
            "Alias": "AllEnemy"
          },
          "AliveOnly": true,
          "EffectPath": "Effects/Eff_Prefab/Eff_Common/Eff_Common_MAZ_RecoverSP.prefab"
        },
        {
          "$type": "RPG.GameCore.WaitSecond",
          "WaitTime": 1
        }
      ]
    }
  ],
  "GlobalModifiers": {
    "Monster_XP_Minion03_00_Attack": {
      "LifeTime": 1,
      "_CallbackList": [
        {
          "Event": "OnStack",
          "CallbackConfig": [
            {
              "$type": "RPG.GameCore.StackProperty",
              "TargetType": {
                "$type": "RPG.GameCore.TargetAlias",
                "Alias": "ModifierOwnerEntity"
              },
              "Property": "AttackAddedRatio",
              "PropertyValue": {
                "IsDynamic": true,
                "PostfixExpr": {
                  "OpCodes": "AQAK",
                  "FixedValues": [],
                  "DynamicHashes": [
                    -1826473127
                  ]
                }
              }
            },
            {
              "$type": "RPG.GameCore.TriggerEffect",
              "TargetType": {
                "$type": "RPG.GameCore.TargetAlias",
                "Alias": "ModifierOwnerEntity"
              },
              "EffectPath": "Effects/Eff_Prefab/Eff_Common/Eff_Buff_Common_OtherRise_Trigger.prefab"
            }
          ]
        }
      ],
      "Stacking": "ReplaceByCaster",
      "DynamicValues": {
        "Values": {
          "-1826473127": {}
        }
      }
    }
  }
}