{
  "AbilityList": [
    {
      "Name": "Monster_AML_Boss_00_Part1_Skill01_Phase01",
      "TargetInfo": {
        "TargetType": "SkillTargetEntityList"
      },
      "OnStart": [
        {
          "$type": "RPG.GameCore.TriggerAbility",
          "TargetType": {
            "$type": "RPG.GameCore.TargetAlias",
            "Alias": "Caster"
          },
          "AbilityName": "Monster_AML_Boss_00_Part1_Skill01_Phase02",
          "IsSkillPerform": true
        },
        {
          "$type": "RPG.GameCore.TriggerAbility",
          "TargetType": {
            "$type": "RPG.GameCore.TargetAlias",
            "Alias": "Caster"
          },
          "AbilityName": "Monster_AML_Boss_00_Part1_Skill01_Camera",
          "IsSkillPerform": true
        },
        {
          "$type": "RPG.GameCore.LookAt",
          "TargetType": "TeamFormation"
        },
        {
          "$type": "RPG.GameCore.TriggerAnimState",
          "AnimStateName": "Skill01",
          "NormalizedTimeEnd": {
            "IsDynamic": false,
            "FixedValue": {
              "Value": 1
            }
          }
        },
        {
          "$type": "RPG.GameCore.TriggerAnimState",
          "AnimLogicState": "Idle",
          "AnimStateName": "StandBy"
        },
        {
          "$type": "RPG.GameCore.LookAt",
          "TargetType": "TeamFormation"
        }
      ]
    },
    {
      "Name": "Monster_AML_Boss_00_Part1_Skill01_Phase02",
      "TargetInfo": {
        "TargetType": "SkillTargetEntityList"
      },
      "OnStart": [
        {
          "$type": "RPG.GameCore.SkillExecutionStart"
        },
        {
          "$type": "RPG.GameCore.WaitAnimState",
          "TargetType": {
            "$type": "RPG.GameCore.TargetFetchCaster"
          },
          "AnimStateName": "Skill01",
          "NormalizedTimeEnd": {
            "IsDynamic": false,
            "FixedValue": {
              "Value": 0.2700000002514571
            }
          }
        },
        {
          "$type": "RPG.GameCore.WaitAnimState",
          "TargetType": {
            "$type": "RPG.GameCore.TargetAlias",
            "Alias": "PartEntity0"
          },
          "AnimStateName": "Skill01",
          "NormalizedTimeEnd": {
            "IsDynamic": false,
            "FixedValue": {
              "Value": 0.42599999997764826
            }
          }
        },
        {
          "$type": "RPG.GameCore.DamageByAttackProperty",
          "TargetType": {
            "$type": "RPG.GameCore.TargetAlias",
            "Alias": "AllEnemy"
          },
          "AttackProperty": {
            "DamageType": "Imaginary",
            "DamagePercentage": {
              "IsDynamic": true,
              "PostfixExpr": {
                "OpCodes": "AQAK",
                "FixedValues": [],
                "DynamicHashes": [
                  -1126825319
                ]
              }
            },
            "SPHitRatio": {
              "IsDynamic": false,
              "FixedValue": {
                "Value": 1
              }
            },
            "AttackType": "Normal",
            "FrameHalt": {
              "IsDynamic": false,
              "FixedValue": {
                "Value": 0.10000000009313226
              }
            },
            "HitAnimation": "Hit",
            "HitEffect": "Effects/Eff_Prefab/Eff_Monster/Eff_AML_Boss_00/Eff_Monster_AML_Boss_00_Skill01_Hit.prefab"
          },
          "SpecialHitSoundEvent": "Ev_sfx_monster_skill_01_hit_aml_boss00",
          "DisplayData": {
            "UIMessageHeight": 1,
            "DitherRangeX": 0.02,
            "DitherRangeY": 0.02
          }
        },
        {
          "$type": "RPG.GameCore.DamagePerformFinish"
        },
        {
          "$type": "RPG.GameCore.SkillPerformFinish"
        }
      ]
    },
    {
      "Name": "Monster_AML_Boss_00_Part1_Skill02_Phase01",
      "TargetInfo": {
        "TargetType": "SkillTargetEntityList"
      },
      "OnStart": [
        {
          "$type": "RPG.GameCore.TriggerAbility",
          "TargetType": {
            "$type": "RPG.GameCore.TargetAlias",
            "Alias": "Caster"
          },
          "AbilityName": "Monster_AML_Boss_00_Part1_Skill02_Phase02",
          "IsSkillPerform": true
        },
        {
          "$type": "RPG.GameCore.TriggerAbility",
          "TargetType": {
            "$type": "RPG.GameCore.TargetAlias",
            "Alias": "Caster"
          },
          "AbilityName": "Monster_AML_Boss_00_Part1_Skill02_Camera",
          "IsSkillPerform": true
        },
        {
          "$type": "RPG.GameCore.LookAt",
          "TargetType": "TeamFormation"
        },
        {
          "$type": "RPG.GameCore.TriggerAnimState",
          "AnimStateName": "Skill02",
          "NormalizedTimeEnd": {
            "IsDynamic": false,
            "FixedValue": {
              "Value": 1
            }
          }
        },
        {
          "$type": "RPG.GameCore.TriggerAnimState",
          "AnimLogicState": "Idle",
          "AnimStateName": "StandBy"
        },
        {
          "$type": "RPG.GameCore.LookAt",
          "TargetType": "TeamFormation"
        }
      ]
    },
    {
      "Name": "Monster_AML_Boss_00_Part1_Skill02_Phase02",
      "TargetInfo": {
        "TargetType": "SkillTargetEntityList"
      },
      "OnStart": [
        {
          "$type": "RPG.GameCore.SkillExecutionStart"
        },
        {
          "$type": "RPG.GameCore.WaitAnimState",
          "TargetType": {
            "$type": "RPG.GameCore.TargetAlias",
            "Alias": "PartEntity0"
          },
          "AnimStateName": "Skill02",
          "NormalizedTimeEnd": {
            "IsDynamic": false,
            "FixedValue": {
              "Value": 0.2700000002514571
            }
          }
        },
        {
          "$type": "RPG.GameCore.SetTeamFormation",
          "Team": "TeamLight",
          "CustomFormationName": "Monster_AML_Boss_00_Skill01"
        },
        {
          "$type": "RPG.GameCore.WaitAnimState",
          "TargetType": {
            "$type": "RPG.GameCore.TargetAlias",
            "Alias": "PartEntity0"
          },
          "AnimStateName": "Skill02",
          "NormalizedTimeEnd": {
            "IsDynamic": false,
            "FixedValue": {
              "Value": 0.42599999997764826
            }
          }
        },
        {
          "$type": "RPG.GameCore.DamageByAttackProperty",
          "TargetType": {
            "$type": "RPG.GameCore.TargetAlias",
            "Alias": "AllEnemy"
          },
          "AttackProperty": {
            "DamageType": "Imaginary",
            "DamagePercentage": {
              "IsDynamic": true,
              "PostfixExpr": {
                "OpCodes": "AQAK",
                "FixedValues": [],
                "DynamicHashes": [
                  -1847083384
                ]
              }
            },
            "SPHitRatio": {
              "IsDynamic": false,
              "FixedValue": {
                "Value": 1
              }
            },
            "AttackType": "Normal",
            "FrameHalt": {
              "IsDynamic": false,
              "FixedValue": {
                "Value": 0.10000000009313226
              }
            },
            "HitAnimation": "Hit_H",
            "HitEffect": "Effects/Eff_Prefab/Eff_Monster/Eff_AML_Boss_00/Eff_Monster_AML_Boss_00_Skill02_Hit.prefab"
          },
          "SpecialHitSoundEvent": "Ev_sfx_monster_skill_02_hit_aml_boss00",
          "DisplayData": {
            "UIMessageHeight": 1,
            "DitherRangeX": 0.02,
            "DitherRangeY": 0.02
          }
        },
        {
          "$type": "RPG.GameCore.AddModifier",
          "TargetType": {
            "$type": "RPG.GameCore.TargetAlias",
            "Alias": "AllEnemy"
          },
          "ModifierName": "MCommon_Confine",
          "LifeStepImmediately": true,
          "Chance": {
            "IsDynamic": true,
            "PostfixExpr": {
              "OpCodes": "AQAK",
              "FixedValues": [],
              "DynamicHashes": [
                242280286
              ]
            }
          },
          "LifeTime": {
            "IsDynamic": true,
            "PostfixExpr": {
              "OpCodes": "AQAK",
              "FixedValues": [],
              "DynamicHashes": [
                -1019407308
              ]
            }
          },
          "DynamicValues": {
            "MDF_SpeedDownRatio": {
              "IsDynamic": true,
              "PostfixExpr": {
                "OpCodes": "AQAK",
                "FixedValues": [],
                "DynamicHashes": [
                  220391868
                ]
              }
            },
            "MDF_ActionDelayRatio": {
              "IsDynamic": true,
              "PostfixExpr": {
                "OpCodes": "AQAK",
                "FixedValues": [],
                "DynamicHashes": [
                  1086047149
                ]
              }
            }
          }
        },
        {
          "$type": "RPG.GameCore.DamagePerformFinish"
        },
        {
          "$type": "RPG.GameCore.SkillPerformFinish"
        }
      ]
    },
    {
      "Name": "Monster_AML_Boss_00_Part1_Skill03_Phase01",
      "TargetInfo": {
        "TargetType": "SkillTargetEntityList"
      },
      "OnStart": [
        {
          "$type": "RPG.GameCore.TriggerAbility",
          "TargetType": {
            "$type": "RPG.GameCore.TargetAlias",
            "Alias": "Caster"
          },
          "AbilityName": "Monster_AML_Boss_00_Part1_Skill03_Phase02",
          "IsSkillPerform": true
        },
        {
          "$type": "RPG.GameCore.TriggerAbility",
          "TargetType": {
            "$type": "RPG.GameCore.TargetAlias",
            "Alias": "Caster"
          },
          "AbilityName": "Monster_AML_Boss_00_Part1_Skill03_Camera",
          "IsSkillPerform": true
        },
        {
          "$type": "RPG.GameCore.LookAt",
          "TargetType": "TeamFormation"
        },
        {
          "$type": "RPG.GameCore.TriggerAnimState",
          "AnimStateName": "Skill03",
          "NormalizedTimeEnd": {
            "IsDynamic": false,
            "FixedValue": {
              "Value": 1
            }
          }
        },
        {
          "$type": "RPG.GameCore.TriggerAnimState",
          "AnimLogicState": "Idle",
          "AnimStateName": "StandBy"
        },
        {
          "$type": "RPG.GameCore.LookAt",
          "TargetType": "TeamFormation"
        }
      ]
    },
    {
      "Name": "Monster_AML_Boss_00_Part1_Skill03_Phase02",
      "TargetInfo": {
        "TargetType": "SkillTargetEntityList"
      },
      "OnStart": [
        {
          "$type": "RPG.GameCore.SkillExecutionStart"
        },
        {
          "$type": "RPG.GameCore.WaitAnimState",
          "TargetType": {
            "$type": "RPG.GameCore.TargetAlias",
            "Alias": "PartEntity0"
          },
          "AnimStateName": "Skill03",
          "NormalizedTimeEnd": {
            "IsDynamic": false,
            "FixedValue": {
              "Value": 0.2700000002514571
            }
          }
        },
        {
          "$type": "RPG.GameCore.SetTeamFormation",
          "Team": "TeamLight",
          "CustomFormationName": "Monster_AML_Boss_00_Skill01"
        },
        {
          "$type": "RPG.GameCore.WaitAnimState",
          "TargetType": {
            "$type": "RPG.GameCore.TargetAlias",
            "Alias": "PartEntity0"
          },
          "AnimStateName": "Skill03",
          "NormalizedTimeEnd": {
            "IsDynamic": false,
            "FixedValue": {
              "Value": 0.42599999997764826
            }
          }
        },
        {
          "$type": "RPG.GameCore.DamageByAttackProperty",
          "TargetType": {
            "$type": "RPG.GameCore.TargetAlias",
            "Alias": "AllEnemy"
          },
          "AttackProperty": {
            "DamageType": "Imaginary",
            "DamagePercentage": {
              "IsDynamic": true,
              "PostfixExpr": {
                "OpCodes": "AQAAAAQK",
                "FixedValues": [
                  {
                    "Value": 0.5000000004656613
                  }
                ],
                "DynamicHashes": [
                  -56289053
                ]
              }
            },
            "SPHitRatio": {
              "IsDynamic": false,
              "FixedValue": {
                "Value": 1
              }
            },
            "AttackType": "Normal",
            "FrameHalt": {
              "IsDynamic": false,
              "FixedValue": {
                "Value": 0.10000000009313226
              }
            },
            "HitAnimation": "Hit",
            "HitEffect": "Effects/Eff_Prefab/Eff_Monster/Eff_AML_Boss_00/Eff_Monster_AML_Boss_00_Skill03_Hit.prefab"
          },
          "SpecialHitSoundEvent": "Ev_sfx_monster_skill_03_hit_aml_boss00",
          "DisplayData": {
            "UIMessageHeight": 1,
            "DitherRangeX": 0.02,
            "DitherRangeY": 0.02
          }
        },
        {
          "$type": "RPG.GameCore.WaitAnimState",
          "TargetType": {
            "$type": "RPG.GameCore.TargetAlias",
            "Alias": "PartEntity0"
          },
          "AnimStateName": "Skill03",
          "NormalizedTimeEnd": {
            "IsDynamic": false,
            "FixedValue": {
              "Value": 0.5100000004749745
            }
          }
        },
        {
          "$type": "RPG.GameCore.LoopTargetList",
          "MaxLoopCount": {
            "IsDynamic": false,
            "FixedValue": {
              "Value": 4
            }
          },
          "TaskList": [
            {
              "$type": "RPG.GameCore.GoNextTargetInList"
            },
            {
              "$type": "RPG.GameCore.DamageByAttackProperty",
              "TargetType": {
                "$type": "RPG.GameCore.TargetAlias",
                "Alias": "AbilityTargetEntity"
              },
              "AttackProperty": {
                "DamageType": "Imaginary",
                "DamagePercentage": {
                  "IsDynamic": true,
                  "PostfixExpr": {
                    "OpCodes": "AQAAAAQK",
                    "FixedValues": [
                      {
                        "Value": 0.5000000004656613
                      }
                    ],
                    "DynamicHashes": [
                      -56289053
                    ]
                  }
                },
                "SPHitRatio": {
                  "IsDynamic": false,
                  "FixedValue": {
                    "Value": 1
                  }
                },
                "AttackType": "Normal",
                "FrameHalt": {
                  "IsDynamic": false,
                  "FixedValue": {
                    "Value": 0.10000000009313226
                  }
                },
                "HitAnimation": "Hit_H",
                "HitEffect": "Effects/Eff_Prefab/Eff_Monster/Eff_AML_Boss_00/Eff_Monster_AML_Boss_00_Skill03_Hit.prefab"
              },
              "SpecialHitSoundEvent": "Ev_sfx_monster_skill_03_hit_aml_boss00",
              "DisplayData": {
                "UIMessageHeight": 1,
                "DitherRangeX": 0.02,
                "DitherRangeY": 0.02
              }
            },
            {
              "$type": "RPG.GameCore.VCameraConfigChange",
              "CameraConfig": {
                "ShakeTemplateName": "Common_Explode_Big",
                "OverrideShakeConfigV2": {
                  "ShakeScale": 2,
                  "ShakeTime": 1,
                  "ShakeDir": {
                    "X": 0.97,
                    "Y": 0.3,
                    "Z": -0.9
                  }
                }
              }
            },
            {
              "$type": "RPG.GameCore.WaitSecond",
              "WaitTime": 0.05
            }
          ]
        },
        {
          "$type": "RPG.GameCore.AddModifier",
          "TargetType": {
            "$type": "RPG.GameCore.TargetAlias",
            "Alias": "AllEnemy"
          },
          "ModifierName": "MCommon_Confine",
          "LifeStepImmediately": true,
          "Chance": {
            "IsDynamic": true,
            "PostfixExpr": {
              "OpCodes": "AQAK",
              "FixedValues": [],
              "DynamicHashes": [
                -894095079
              ]
            }
          },
          "LifeTime": {
            "IsDynamic": true,
            "PostfixExpr": {
              "OpCodes": "AQAK",
              "FixedValues": [],
              "DynamicHashes": [
                238783065
              ]
            }
          },
          "DynamicValues": {
            "MDF_SpeedDownRatio": {
              "IsDynamic": true,
              "PostfixExpr": {
                "OpCodes": "AQAK",
                "FixedValues": [],
                "DynamicHashes": [
                  630854039
                ]
              }
            },
            "MDF_ActionDelayRatio": {
              "IsDynamic": true,
              "PostfixExpr": {
                "OpCodes": "AQAK",
                "FixedValues": [],
                "DynamicHashes": [
                  709261362
                ]
              }
            }
          }
        },
        {
          "$type": "RPG.GameCore.DamagePerformFinish"
        },
        {
          "$type": "RPG.GameCore.SkillPerformFinish"
        }
      ]
    },
    {
      "Modifiers": {
        "MMonster_AML_Boss_00_Part1_HitEffect": {
          "_CallbackList": [
            {
              "Event": "OnBeforeBeingHit",
              "CallbackConfig": [
                {
                  "$type": "RPG.GameCore.TriggerEffect",
                  "TargetType": {
                    "$type": "RPG.GameCore.TargetAlias",
                    "Alias": "Caster"
                  },
                  "EffectPath": "Effects/Eff_Prefab/Eff_Monster/Eff_AML_Boss_00/Eff_Monster_AML_Boss_00_Hit.prefab"
                },
                {
                  "$type": "RPG.GameCore.PredicateTaskList",
                  "Predicate": {
                    "$type": "RPG.GameCore.ByCompareHPRatio",
                    "TargetType": {
                      "$type": "RPG.GameCore.TargetAlias",
                      "Alias": "ModifierOwnerEntity"
                    },
                    "CompareType": "Less",
                    "CompareValue": {
                      "IsDynamic": false,
                      "FixedValue": {
                        "Value": 0.3000000002793968
                      }
                    }
                  },
                  "SuccessTaskList": [
                    {
                      "$type": "RPG.GameCore.SetCharacterEffectMaterialBlock",
                      "UniqueName": "_Crack1",
                      "PropertyName": "_CrackProgress"
                    },
                    {
                      "$type": "RPG.GameCore.TriggerSound",
                      "SoundName": "Ev_sfx_monster_crack_aml_boss00"
                    }
                  ],
                  "FailedTaskList": [
                    {
                      "$type": "RPG.GameCore.PredicateTaskList",
                      "Predicate": {
                        "$type": "RPG.GameCore.ByCompareHPRatio",
                        "TargetType": {
                          "$type": "RPG.GameCore.TargetAlias",
                          "Alias": "ModifierOwnerEntity"
                        },
                        "CompareType": "Less",
                        "CompareValue": {
                          "IsDynamic": false,
                          "FixedValue": {
                            "Value": 0.6000000005587935
                          }
                        }
                      },
                      "SuccessTaskList": [
                        {
                          "$type": "RPG.GameCore.SetCharacterEffectMaterialBlock",
                          "UniqueName": "_Crack1",
                          "PropertyName": "_CrackProgress",
                          "FloatValue": -0.15
                        },
                        {
                          "$type": "RPG.GameCore.TriggerSound",
                          "SoundName": "Ev_sfx_monster_crack_aml_boss00"
                        }
                      ],
                      "FailedTaskList": [
                        {
                          "$type": "RPG.GameCore.PredicateTaskList",
                          "Predicate": {
                            "$type": "RPG.GameCore.ByCompareHPRatio",
                            "TargetType": {
                              "$type": "RPG.GameCore.TargetAlias",
                              "Alias": "ModifierOwnerEntity"
                            },
                            "CompareType": "Less",
                            "CompareValue": {
                              "IsDynamic": false,
                              "FixedValue": {
                                "Value": 0.8000000007450581
                              }
                            }
                          },
                          "SuccessTaskList": [
                            {
                              "$type": "RPG.GameCore.SetCharacterEffectMaterialBlock",
                              "UniqueName": "_Crack1",
                              "PropertyName": "_CrackProgress",
                              "FloatValue": -0.6
                            },
                            {
                              "$type": "RPG.GameCore.TriggerSound",
                              "SoundName": "Ev_sfx_monster_crack_aml_boss00"
                            }
                          ]
                        }
                      ]
                    }
                  ]
                }
              ]
            },
            {
              "Event": "OnBeingLimbo",
              "CallbackConfig": [
                {
                  "$type": "RPG.GameCore.TriggerEffect",
                  "TargetType": {
                    "$type": "RPG.GameCore.TargetAlias",
                    "Alias": "PartEntity0"
                  },
                  "EffectPath": "Effects/Eff_Prefab/Eff_Monster/Eff_AML_Boss_00/Eff_Monster_AML_Boss_00_Hit01_Break.prefab"
                },
                {
                  "$type": "RPG.GameCore.TriggerEffect",
                  "TargetType": {
                    "$type": "RPG.GameCore.TargetAlias",
                    "Alias": "PartEntity0"
                  },
                  "EffectPath": "Effects/Eff_Prefab/Eff_Monster/Eff_AML_Boss_00/Eff_Monster_AML_Boss_00_Hit_Part_Crack_2_black.prefab",
                  "MinMutexType": "Entity"
                },
                {
                  "$type": "RPG.GameCore.ShowUIPage",
                  "AssetPath": "UI/Common/Widget/BattleSelfStatusHint.prefab",
                  "UITextNodes": [
                    {
                      "TextPath": "AreaInfoPanel/Title/Text",
                      "TextContent": {
                        "Hash": -1687996127
                      }
                    }
                  ],
                  "LifeTime": 3
                }
              ]
            }
          ]
        },
        "MMonster_AML_Boss_00_Part1_OnBreakRecoverSoundEffect": {
          "_CallbackList": [
            {
              "Event": "OnPhase1",
              "CallbackConfig": [
                {
                  "$type": "RPG.GameCore.PredicateTaskList",
                  "Predicate": {
                    "$type": "RPG.GameCore.ByAnd",
                    "PredicateList": [
                      {
                        "$type": "RPG.GameCore.ByContainBehaviorFlag",
                        "TargetType": {
                          "$type": "RPG.GameCore.TargetAlias",
                          "Alias": "ModifierOwnerEntity"
                        },
                        "Flag": "Break"
                      },
                      {
                        "$type": "RPG.GameCore.ByIsTurnActionEntity",
                        "TargetType": {
                          "$type": "RPG.GameCore.TargetAlias",
                          "Alias": "ModifierOwnerEntity"
                        }
                      }
                    ]
                  },
                  "SuccessTaskList": [
                    {
                      "$type": "RPG.GameCore.TriggerSound",
                      "SoundName": "Ev_sfx_monster_stagger_recover_aml_boss00_right",
                      "EmitterType": "DefaultEmitter"
                    }
                  ]
                }
              ]
            }
          ]
        }
      },
      "Name": "Monster_AML_Boss_00_Part1_HitEffect",
      "TargetInfo": {
        "TargetType": "Caster"
      },
      "OnStart": [
        {
          "$type": "RPG.GameCore.AddModifier",
          "TargetType": {
            "$type": "RPG.GameCore.TargetAlias",
            "Alias": "Caster"
          },
          "ModifierName": "MMonster_AML_Boss_00_Part1_HitEffect"
        },
        {
          "$type": "RPG.GameCore.AddModifier",
          "TargetType": {
            "$type": "RPG.GameCore.TargetAlias",
            "Alias": "Caster"
          },
          "ModifierName": "MMonster_AML_Boss_00_Part1_OnBreakRecoverSoundEffect"
        },
        {
          "$type": "RPG.GameCore.TriggerEffect",
          "TargetType": {
            "$type": "RPG.GameCore.TargetAlias",
            "Alias": "Caster"
          },
          "EffectPath": "Effects/Eff_Prefab/Eff_Monster/Eff_AML_Boss_00/Eff_Monster_AML_Boss_00_Hit_Part_Crack_2.prefab",
          "UniqueEffectName": "_Crack1",
          "MinMutexType": "Entity"
        },
        {
          "$type": "RPG.GameCore.SetCharacterEffectMaterialBlock",
          "UniqueName": "_Crack1",
          "PropertyName": "_CrackProgress",
          "FloatValue": -1
        }
      ]
    }
  ]
}