{
  "AbilityList": [
    {
      "Modifiers": {
        "Monster_AML_Minion04_00_EffectController": {
          "_CallbackList": [
            {
              "Event": "OnCreate",
              "CallbackConfig": [
                {
                  "$type": "RPG.GameCore.PredicateTaskList",
                  "Predicate": {
                    "$type": "RPG.GameCore.ByIsContainModifier",
                    "TargetType": {
                      "$type": "RPG.GameCore.TargetAlias",
                      "Alias": "Caster"
                    },
                    "ModifierName": "StanceBreakState"
                  },
                  "SuccessTaskList": [],
                  "FailedTaskList": [
                    {
                      "$type": "RPG.GameCore.AddModifier",
                      "TargetType": {
                        "$type": "RPG.GameCore.TargetAlias",
                        "Alias": "ModifierOwnerEntity"
                      },
                      "ModifierName": "Monster_AML_Minion04_00_Effect"
                    }
                  ]
                }
              ]
            },
            {
              "Event": "OnBeingBreak",
              "CallbackConfig": [
                {
                  "$type": "RPG.GameCore.RemoveModifier",
                  "TargetType": {
                    "$type": "RPG.GameCore.TargetAlias",
                    "Alias": "ModifierOwnerEntity"
                  },
                  "ModifierName": "Monster_AML_Minion04_00_Effect"
                }
              ]
            },
            {
              "Event": "OnEndBreak",
              "CallbackConfig": [
                {
                  "$type": "RPG.GameCore.AddModifier",
                  "TargetType": {
                    "$type": "RPG.GameCore.TargetAlias",
                    "Alias": "ModifierOwnerEntity"
                  },
                  "ModifierName": "Monster_AML_Minion04_00_Effect"
                }
              ]
            }
          ]
        },
        "Monster_AML_Minion04_00_Effect": {
          "_CallbackList": [
            {
              "Event": "OnCreate",
              "CallbackConfig": [
                {
                  "$type": "RPG.GameCore.ModifierAttachEffect",
                  "TargetType": {
                    "$type": "RPG.GameCore.TargetAlias",
                    "Alias": "ModifierOwnerEntity"
                  },
                  "EffectPath": "Effects/Eff_Prefab/Eff_Monster/Eff_AML_Minion04_00/Eff_Monster_AML_Minion04_00_Trail.prefab",
                  "AttachPoint": "Head",
                  "MinMutexTime": -1,
                  "MutexType": "Entity"
                }
              ]
            }
          ]
        }
      },
      "Name": "Monster_AML_Minion04_00_Passive01",
      "TargetInfo": {
        "TargetType": "Caster"
      },
      "OnAdd": [
        {
          "$type": "RPG.GameCore.AddModifier",
          "TargetType": {
            "$type": "RPG.GameCore.TargetAlias",
            "Alias": "Caster"
          },
          "ModifierName": "Monster_AML_Minion04_00_EffectController"
        }
      ],
      "OnStart": []
    },
    {
      "Name": "Monster_AML_Minion04_00_Skill01_Phase01",
      "TargetInfo": {
        "TargetType": "SkillTargetEntityList"
      },
      "OnStart": [
        {
          "$type": "RPG.GameCore.TriggerAbility",
          "TargetType": {
            "$type": "RPG.GameCore.TargetAlias",
            "Alias": "Caster"
          },
          "AbilityName": "Monster_AML_Minion04_00_Skill01_Phase02",
          "IsSkillPerform": true
        },
        {
          "$type": "RPG.GameCore.TriggerAbility",
          "TargetType": {
            "$type": "RPG.GameCore.TargetAlias",
            "Alias": "Caster"
          },
          "AbilityName": "Monster_AML_Minion04_00_Skill01_Camera",
          "IsSkillPerform": true
        },
        {
          "$type": "RPG.GameCore.LookAt",
          "TargetType": "AbilityTargetEntity"
        },
        {
          "$type": "RPG.GameCore.TriggerAnimStateWithMove",
          "TargetType": {
            "$type": "RPG.GameCore.TargetAlias",
            "Alias": "Caster"
          },
          "AnimStateName": "Skill01",
          "NormalizedTimeEnd": {
            "IsDynamic": false,
            "FixedValue": {
              "Value": 0.8850000004749745
            }
          },
          "NormalizedTransitionDuration": {
            "IsDynamic": false,
            "FixedValue": {
              "Value": 0.1500000001396984
            }
          }
        },
        {
          "$type": "RPG.GameCore.TriggerAnimState",
          "AnimLogicState": "Idle",
          "NormalizedTransitionDuration": {
            "IsDynamic": false,
            "FixedValue": {
              "Value": 0.25000000023283064
            }
          }
        }
      ]
    },
    {
      "Name": "Monster_AML_Minion04_00_Skill01_Phase02",
      "TargetInfo": {
        "TargetType": "SkillTargetEntityList"
      },
      "OnStart": [
        {
          "$type": "RPG.GameCore.WaitAnimState",
          "TargetType": {
            "$type": "RPG.GameCore.TargetAlias",
            "Alias": "Caster"
          },
          "AnimStateName": "Skill01",
          "NormalizedTimeEnd": {
            "IsDynamic": false,
            "FixedValue": {
              "Value": 0.05000000004656613
            }
          }
        },
        {
          "$type": "RPG.GameCore.SkillExecutionStart"
        },
        {
          "$type": "RPG.GameCore.WaitAnimState",
          "TargetType": {
            "$type": "RPG.GameCore.TargetAlias",
            "Alias": "Caster"
          },
          "AnimStateName": "Skill01",
          "NormalizedTimeEnd": {
            "IsDynamic": false,
            "FixedValue": {
              "Value": 0.26000000024214387
            }
          }
        },
        {
          "$type": "RPG.GameCore.AddModifier",
          "TargetType": {
            "$type": "RPG.GameCore.TargetAlias",
            "Alias": "Caster"
          },
          "ModifierName": "MMonster_AML_Minion04_00_Overheat_Effect"
        },
        {
          "$type": "RPG.GameCore.WaitAnimState",
          "TargetType": {
            "$type": "RPG.GameCore.TargetAlias",
            "Alias": "Caster"
          },
          "AnimStateName": "Skill01",
          "NormalizedTimeEnd": {
            "IsDynamic": false,
            "FixedValue": {
              "Value": 0.2910000002011657
            }
          }
        },
        {
          "$type": "RPG.GameCore.FireProjectile",
          "TargetType": {
            "$type": "RPG.GameCore.TargetAlias",
            "Alias": "AbilityTargetEntity"
          },
          "Projectile": {
            "FlyTime": 0.15,
            "AttachPoint": "Gun",
            "TargetAttachPoint": "SelectRoot",
            "TargetOffset": {
              "X": -0.1,
              "Y": 0,
              "Z": -0.16
            },
            "IgnoreTargetHitbox": true,
            "FlyEffect": "Effects/Eff_Prefab/Eff_Monster/Eff_AML_Minion04_00/Eff_Monster_AML_Minion04_00_Skill01_Bullet.prefab",
            "HitEffect": "Effects/Eff_Prefab/Eff_Monster/Eff_AML_Minion04_00/Eff_Monster_AML_Minion04_00_Skill01_Hit.prefab",
            "AlignHitEffect": true
          },
          "OnProjectileHit": [
            {
              "$type": "RPG.GameCore.DamageByAttackProperty",
              "TargetType": {
                "$type": "RPG.GameCore.TargetAlias",
                "Alias": "AbilityTargetEntity"
              },
              "AttackProperty": {
                "DamageType": "Imaginary",
                "DamagePercentage": {
                  "IsDynamic": true,
                  "PostfixExpr": {
                    "OpCodes": "AQAAAAQK",
                    "FixedValues": [
                      {
                        "Value": 0.33000000030733645
                      }
                    ],
                    "DynamicHashes": [
                      -1126825319
                    ]
                  }
                },
                "SPHitRatio": {
                  "IsDynamic": false,
                  "FixedValue": {
                    "Value": 0.33000000030733645
                  }
                },
                "AttackType": "Normal",
                "IsFaceToHitDir": true,
                "HitAnimation": "Hit"
              },
              "TriggerHitSound": true,
              "SpecialHitSoundEvent": "Ev_sfx_monster_skill_01_hit_aml_minion04",
              "DisplayData": {
                "UIMessageHeight": 1,
                "DitherRangeX": 0.02,
                "DitherRangeY": 0.02
              }
            },
            {
              "$type": "RPG.GameCore.VCameraConfigChange",
              "CameraConfig": {
                "ShakeConfigV2": {
                  "ShakeRange": 0.3,
                  "ShakeTime": 0.08,
                  "ShakeDir": {
                    "X": -0.1,
                    "Y": -0.1,
                    "Z": -0.2
                  },
                  "BaseCycle": 0.2,
                  "CycleDamping": 0,
                  "RangeAttenuation": 0.95,
                  "PerlinNoiseAmplitude": {
                    "X": 0.1,
                    "Y": 0.1,
                    "Z": 0.1
                  },
                  "PerlinNoiseFreq": {
                    "X": 16,
                    "Y": 14,
                    "Z": 12
                  }
                }
              }
            }
          ]
        },
        {
          "$type": "RPG.GameCore.WaitAnimState",
          "TargetType": {
            "$type": "RPG.GameCore.TargetAlias",
            "Alias": "Caster"
          },
          "AnimStateName": "Skill01",
          "NormalizedTimeEnd": {
            "IsDynamic": false,
            "FixedValue": {
              "Value": 0.3389999996870756
            }
          }
        },
        {
          "$type": "RPG.GameCore.FireProjectile",
          "TargetType": {
            "$type": "RPG.GameCore.TargetAlias",
            "Alias": "AbilityTargetEntity"
          },
          "Projectile": {
            "FlyTime": 0.15,
            "AttachPoint": "Gun",
            "TargetAttachPoint": "SelectRoot",
            "TargetOffset": {
              "X": 0.3,
              "Y": 0,
              "Z": 0.05
            },
            "IgnoreTargetHitbox": true,
            "FlyEffect": "Effects/Eff_Prefab/Eff_Monster/Eff_AML_Minion04_00/Eff_Monster_AML_Minion04_00_Skill01_Bullet.prefab",
            "HitEffect": "Effects/Eff_Prefab/Eff_Monster/Eff_AML_Minion04_00/Eff_Monster_AML_Minion04_00_Skill01_Hit.prefab",
            "AlignHitEffect": true
          },
          "OnProjectileHit": [
            {
              "$type": "RPG.GameCore.DamageByAttackProperty",
              "TargetType": {
                "$type": "RPG.GameCore.TargetAlias",
                "Alias": "AbilityTargetEntity"
              },
              "AttackProperty": {
                "DamageType": "Imaginary",
                "DamagePercentage": {
                  "IsDynamic": true,
                  "PostfixExpr": {
                    "OpCodes": "AQAAAAQK",
                    "FixedValues": [
                      {
                        "Value": 0.33000000030733645
                      }
                    ],
                    "DynamicHashes": [
                      -1126825319
                    ]
                  }
                },
                "SPHitRatio": {
                  "IsDynamic": false,
                  "FixedValue": {
                    "Value": 0.33000000030733645
                  }
                },
                "AttackType": "Normal",
                "IsFaceToHitDir": true,
                "HitAnimation": "Hit"
              },
              "TriggerHitSound": true,
              "SpecialHitSoundEvent": "Ev_sfx_monster_skill_01_hit_aml_minion04",
              "DisplayData": {
                "UIMessageHeight": 1,
                "DitherRangeX": 0.02,
                "DitherRangeY": 0.02
              }
            },
            {
              "$type": "RPG.GameCore.VCameraConfigChange",
              "CameraConfig": {
                "ShakeConfigV2": {
                  "ShakeRange": 0.3,
                  "ShakeTime": 0.08,
                  "ShakeDir": {
                    "X": -0.1,
                    "Y": -0.1,
                    "Z": -0.2
                  },
                  "BaseCycle": 0.2,
                  "CycleDamping": 0,
                  "RangeAttenuation": 0.95,
                  "PerlinNoiseAmplitude": {
                    "X": 0.1,
                    "Y": 0.1,
                    "Z": 0.1
                  },
                  "PerlinNoiseFreq": {
                    "X": 16,
                    "Y": 14,
                    "Z": 12
                  }
                }
              }
            }
          ]
        },
        {
          "$type": "RPG.GameCore.WaitAnimState",
          "TargetType": {
            "$type": "RPG.GameCore.TargetAlias",
            "Alias": "Caster"
          },
          "AnimStateName": "Skill01",
          "NormalizedTimeEnd": {
            "IsDynamic": false,
            "FixedValue": {
              "Value": 0.3959999999497086
            }
          }
        },
        {
          "$type": "RPG.GameCore.FireProjectile",
          "TargetType": {
            "$type": "RPG.GameCore.TargetAlias",
            "Alias": "AbilityTargetEntity"
          },
          "Projectile": {
            "FlyTime": 0.15,
            "AttachPoint": "Gun",
            "TargetAttachPoint": "SelectRoot",
            "TargetOffset": {
              "X": -0.25,
              "Y": 0,
              "Z": 0.16
            },
            "IgnoreTargetHitbox": true,
            "FlyEffect": "Effects/Eff_Prefab/Eff_Monster/Eff_AML_Minion04_00/Eff_Monster_AML_Minion04_00_Skill01_Bullet.prefab",
            "HitEffect": "Effects/Eff_Prefab/Eff_Monster/Eff_AML_Minion04_00/Eff_Monster_AML_Minion04_00_Skill01_Hit02.prefab",
            "AlignHitEffect": true
          },
          "OnProjectileHit": [
            {
              "$type": "RPG.GameCore.DamageByAttackProperty",
              "TargetType": {
                "$type": "RPG.GameCore.TargetAlias",
                "Alias": "AbilityTargetEntity"
              },
              "AttackProperty": {
                "DamageType": "Imaginary",
                "DamagePercentage": {
                  "IsDynamic": true,
                  "PostfixExpr": {
                    "OpCodes": "AQAAAAQK",
                    "FixedValues": [
                      {
                        "Value": 0.3400000003166497
                      }
                    ],
                    "DynamicHashes": [
                      -1126825319
                    ]
                  }
                },
                "SPHitRatio": {
                  "IsDynamic": false,
                  "FixedValue": {
                    "Value": 0.3400000003166497
                  }
                },
                "AttackType": "Normal",
                "IsFaceToHitDir": true,
                "HitAnimation": "Hit"
              },
              "TriggerHitSound": true,
              "SpecialHitSoundEvent": "Ev_sfx_monster_skill_01_hit_aml_minion04",
              "DisplayData": {
                "UIMessageHeight": 1,
                "DitherRangeX": 0.02,
                "DitherRangeY": 0.02
              }
            },
            {
              "$type": "RPG.GameCore.AddModifier",
              "TargetType": {
                "$type": "RPG.GameCore.TargetAlias",
                "Alias": "AbilityTargetEntity"
              },
              "ModifierName": "MMonster_AML_Minion04_00_Mark",
              "DynamicValues": {
                "Skill01_P2_MarkDamagePercentage": {
                  "IsDynamic": true,
                  "PostfixExpr": {
                    "OpCodes": "AQAK",
                    "FixedValues": [],
                    "DynamicHashes": [
                      576870655
                    ]
                  }
                }
              }
            },
            {
              "$type": "RPG.GameCore.VCameraConfigChange",
              "CameraConfig": {
                "ShakeConfigV2": {
                  "ShakeRange": 0.4,
                  "ShakeTime": 0.1,
                  "ShakeDir": {
                    "X": -0.1,
                    "Y": -0.1,
                    "Z": -0.2
                  },
                  "BaseCycle": 0.2,
                  "CycleDamping": 0,
                  "RangeAttenuation": 0.95,
                  "PerlinNoiseAmplitude": {
                    "X": 0.1,
                    "Y": 0.1,
                    "Z": 0.1
                  },
                  "PerlinNoiseFreq": {
                    "X": 16,
                    "Y": 14,
                    "Z": 12
                  }
                }
              }
            }
          ],
          "WaitProjectileFinish": true
        },
        {
          "$type": "RPG.GameCore.AddModifier",
          "TargetType": {
            "$type": "RPG.GameCore.TargetAlias",
            "Alias": "Caster"
          },
          "ModifierName": "MMonster_AML_Minion04_00_Overheat"
        },
        {
          "$type": "RPG.GameCore.DamagePerformFinish"
        },
        {
          "$type": "RPG.GameCore.SkillPerformFinish"
        }
      ]
    },
    {
      "Name": "Monster_AML_Minion04_00_Skill02_Phase01",
      "TargetInfo": {
        "TargetType": "SkillTargetEntityList"
      },
      "OnStart": [
        {
          "$type": "RPG.GameCore.TriggerAbility",
          "TargetType": {
            "$type": "RPG.GameCore.TargetAlias",
            "Alias": "Caster"
          },
          "AbilityName": "Monster_AML_Minion04_00_Skill02_Phase02",
          "IsSkillPerform": true
        },
        {
          "$type": "RPG.GameCore.TriggerAbility",
          "TargetType": {
            "$type": "RPG.GameCore.TargetAlias",
            "Alias": "Caster"
          },
          "AbilityName": "Monster_AML_Minion04_00_Skill02_Camera",
          "IsSkillPerform": true
        },
        {
          "$type": "RPG.GameCore.TriggerAnimState",
          "AnimStateName": "Skill02",
          "NormalizedTimeEnd": {
            "IsDynamic": false,
            "FixedValue": {
              "Value": 1
            }
          },
          "NormalizedTransitionDuration": {
            "IsDynamic": false,
            "FixedValue": {
              "Value": 0.1500000001396984
            }
          }
        },
        {
          "$type": "RPG.GameCore.TriggerAnimState",
          "AnimLogicState": "Idle",
          "NormalizedTransitionDuration": {
            "IsDynamic": false,
            "FixedValue": {
              "Value": 0.25000000023283064
            }
          }
        }
      ]
    },
    {
      "Name": "Monster_AML_Minion04_00_Skill02_Phase02",
      "TargetInfo": {
        "TargetType": "SkillTargetEntityList"
      },
      "OnStart": [
        {
          "$type": "RPG.GameCore.WaitAnimState",
          "TargetType": {
            "$type": "RPG.GameCore.TargetAlias",
            "Alias": "Caster"
          },
          "AnimStateName": "Skill02",
          "NormalizedTimeEnd": {
            "IsDynamic": false,
            "FixedValue": {
              "Value": 0.20000000018626451
            }
          }
        },
        {
          "$type": "RPG.GameCore.SkillExecutionStart"
        },
        {
          "$type": "RPG.GameCore.WaitAnimState",
          "TargetType": {
            "$type": "RPG.GameCore.TargetAlias",
            "Alias": "Caster"
          },
          "AnimStateName": "Skill02",
          "NormalizedTimeEnd": {
            "IsDynamic": false,
            "FixedValue": {
              "Value": 0.25000000023283064
            }
          }
        },
        {
          "$type": "RPG.GameCore.RemoveModifier",
          "TargetType": {
            "$type": "RPG.GameCore.TargetAlias",
            "Alias": "Caster"
          },
          "ModifierName": "MMonster_AML_Minion04_00_Overheat"
        },
        {
          "$type": "RPG.GameCore.WaitAnimState",
          "TargetType": {
            "$type": "RPG.GameCore.TargetAlias",
            "Alias": "Caster"
          },
          "AnimStateName": "Skill02",
          "NormalizedTimeEnd": {
            "IsDynamic": false,
            "FixedValue": {
              "Value": 0.6000000005587935
            }
          }
        },
        {
          "$type": "RPG.GameCore.WaitAnimState",
          "TargetType": {
            "$type": "RPG.GameCore.TargetAlias",
            "Alias": "Caster"
          },
          "AnimStateName": "Skill02",
          "NormalizedTimeEnd": {
            "IsDynamic": false,
            "FixedValue": {
              "Value": 0.7500000006984919
            }
          }
        },
        {
          "$type": "RPG.GameCore.SkillPerformFinish"
        }
      ]
    }
  ],
  "GlobalModifiers": {
    "MMonster_AML_Minion04_00_Overheat": {
      "_CallbackList": [
        {
          "Event": "OnDestroy",
          "CallbackConfig": [
            {
              "$type": "RPG.GameCore.RemoveModifier",
              "TargetType": {
                "$type": "RPG.GameCore.TargetAlias",
                "Alias": "Caster"
              },
              "ModifierName": "MMonster_AML_Minion04_00_Overheat_Effect"
            }
          ]
        }
      ]
    },
    "MMonster_AML_Minion04_00_Overheat_Effect": {
      "_CallbackList": [
        {
          "Event": "OnCreate",
          "CallbackConfig": [
            {
              "$type": "RPG.GameCore.ModifierAttachEffect",
              "TargetType": {
                "$type": "RPG.GameCore.TargetAlias",
                "Alias": "ModifierOwnerEntity"
              },
              "Flags": [
                "Resident"
              ],
              "EffectPath": "Effects/Eff_Prefab/Eff_Monster/Eff_AML_Minion04_00/Eff_Monster_AML_Minion04_00_Skill02_OverHeat_Loop.prefab",
              "MinMutexTime": -1,
              "MutexType": "Entity"
            }
          ]
        }
      ]
    }
  }
}