{
  "AbilityList": [
    {
      "Name": "Monster_W1_Soldier01_04_Skill01_Phase01",
      "TargetInfo": {
        "TargetType": "SkillTargetEntityList",
        "MaxTargetCount": 3
      },
      "OnStart": [
        {
          "$type": "RPG.GameCore.SetTeamFormation",
          "Team": "TeamLight",
          "FormationType": "LightTeamNormal",
          "CustomFormationIgnoreDying": false
        },
        {
          "$type": "RPG.GameCore.TriggerAbility",
          "TargetType": {
            "$type": "RPG.GameCore.TargetAlias",
            "Alias": "Caster"
          },
          "AbilityName": "Monster_W1_Soldier01_04_Skill01_Phase02",
          "IsSkillPerform": true
        },
        {
          "$type": "RPG.GameCore.TriggerAbility",
          "TargetType": {
            "$type": "RPG.GameCore.TargetAlias",
            "Alias": "Caster"
          },
          "AbilityName": "Monster_W1_Soldier01_04_Skill01_Camera",
          "IsSkillPerform": true
        },
        {
          "$type": "RPG.GameCore.LookAt",
          "TargetType": "AbilityTargetEntity"
        },
        {
          "$type": "RPG.GameCore.MoveToTargetList",
          "TargetType": {
            "$type": "RPG.GameCore.TargetAlias",
            "Alias": "Caster"
          },
          "AnimStateName": "Skill01",
          "NormalizedTimeEnd": {
            "IsDynamic": false,
            "FixedValue": {
              "Value": 1
            }
          },
          "MovingRangeList": [
            {
              "TargetType": {
                "$type": "RPG.GameCore.TargetAlias",
                "Alias": "AbilityTargetEntity"
              },
              "IgnoreRadius": true,
              "OffsetTargetDistance": {
                "IsDynamic": false,
                "FixedValue": {
                  "Value": 1.7000000006519258
                }
              },
              "NormalizedTimeStart": {
                "IsDynamic": false,
                "FixedValue": {
                  "Value": 0.2300000002142042
                }
              },
              "NormalizedTimeEnd": {
                "IsDynamic": false,
                "FixedValue": {
                  "Value": 0.4200000003911555
                }
              }
            },
            {
              "TargetType": {
                "$type": "RPG.GameCore.TargetAlias",
                "Alias": "TeamFormation"
              },
              "IgnoreRadius": true,
              "OffsetTargetDistance": {
                "IsDynamic": false,
                "FixedValue": {
                  "Value": 0
                }
              },
              "NormalizedTimeStart": {
                "IsDynamic": false,
                "FixedValue": {
                  "Value": 0.6960000002291054
                }
              },
              "NormalizedTimeEnd": {
                "IsDynamic": false,
                "FixedValue": {
                  "Value": 0.7820000005885959
                }
              }
            }
          ]
        },
        {
          "$type": "RPG.GameCore.TriggerAnimState",
          "AnimLogicState": "Idle"
        }
      ]
    },
    {
      "Name": "Monster_W1_Soldier01_04_Skill01_Phase02",
      "TargetInfo": {
        "TargetType": "SkillTargetEntityList",
        "MaxTargetCount": 3
      },
      "OnStart": [
        {
          "$type": "RPG.GameCore.WaitAnimState",
          "TargetType": {
            "$type": "RPG.GameCore.TargetAlias",
            "Alias": "Caster"
          },
          "AnimStateName": "Skill01",
          "NormalizedTimeEnd": {
            "IsDynamic": false,
            "FixedValue": {
              "Value": 0.1500000001396984
            }
          }
        },
        {
          "$type": "RPG.GameCore.SkillExecutionStart"
        },
        {
          "$type": "RPG.GameCore.WaitAnimState",
          "TargetType": {
            "$type": "RPG.GameCore.TargetAlias",
            "Alias": "Caster"
          },
          "AnimStateName": "Skill01",
          "NormalizedTimeEnd": {
            "IsDynamic": false,
            "FixedValue": {
              "Value": 0.4459999999962747
            }
          }
        },
        {
          "$type": "RPG.GameCore.DamageByAttackProperty",
          "TargetType": {
            "$type": "RPG.GameCore.TargetAlias",
            "Alias": "AbilityTargetEntity"
          },
          "AttackProperty": {
            "DamagePercentage": {
              "IsDynamic": true,
              "PostfixExpr": {
                "OpCodes": "AQAK",
                "FixedValues": [],
                "DynamicHashes": [
                  -1126825319
                ]
              }
            },
            "SPHitRatio": {
              "IsDynamic": false,
              "FixedValue": {
                "Value": 1
              }
            },
            "AttackType": "Normal",
            "IsFaceToHitDir": true,
            "HitAnimation": "Hit_H",
            "HitEffect": "Effects/Eff_Prefab/Eff_Monster/Eff_W1_Soldier01_04/Eff_Monster_W1_Soldier01_04_Skill01_Hit_01.prefab"
          },
          "TriggerHitSound": true,
          "DisplayData": {
            "UIMessageHeight": 1,
            "DitherRangeX": 0.02,
            "DitherRangeY": 0.02
          }
        },
        {
          "$type": "RPG.GameCore.DamageByAttackProperty",
          "TargetType": {
            "$type": "RPG.GameCore.TargetAlias",
            "Alias": "AbilityTargetAdjoinEntity"
          },
          "AttackProperty": {
            "DamagePercentage": {
              "IsDynamic": true,
              "PostfixExpr": {
                "OpCodes": "AQAK",
                "FixedValues": [],
                "DynamicHashes": [
                  -1655355878
                ]
              }
            },
            "SPHitRatio": {
              "IsDynamic": false,
              "FixedValue": {
                "Value": 1
              }
            },
            "AttackType": "Normal",
            "IsFaceToHitDir": true,
            "HitAnimation": "Hit_H",
            "HitEffect": "Effects/Eff_Prefab/Eff_Monster/Eff_W1_Soldier01_04/Eff_Monster_W1_Soldier01_04_Skill01_Hit_01.prefab"
          },
          "TriggerHitSound": true,
          "DisplayData": {
            "UIMessageHeight": 1,
            "DitherRangeX": 0.02,
            "DitherRangeY": 0.02
          }
        },
        {
          "$type": "RPG.GameCore.VCameraConfigChange",
          "CameraConfig": {
            "ShakeTemplateName": "_SR0.29_T0.05_ST0.2：Monster_W1_Soldier04_00_Camera_1"
          }
        },
        {
          "$type": "RPG.GameCore.DamagePerformFinish"
        },
        {
          "$type": "RPG.GameCore.SkillPerformFinish"
        }
      ]
    },
    {
      "Name": "Monster_W1_Soldier01_04_Passive01",
      "TargetInfo": {
        "TargetType": "Caster"
      },
      "OnStart": [
        {
          "$type": "RPG.GameCore.AddModifier",
          "TargetType": {
            "$type": "RPG.GameCore.TargetAlias",
            "Alias": "Caster"
          },
          "ModifierName": "Monster_W1_Soldier01_04_CoinPassive"
        }
      ]
    }
  ],
  "GlobalModifiers": {
    "Monster_W1_Soldier01_04_CoinPassive": {
      "_CallbackList": [
        {
          "Event": "OnAfterAttack",
          "CallbackConfig": [
            {
              "$type": "RPG.GameCore.PredicateTaskList",
              "Predicate": {
                "$type": "RPG.GameCore.ByIsContainModifier",
                "TargetType": {
                  "$type": "RPG.GameCore.TargetAlias",
                  "Alias": "ModifierOwnerEntity"
                },
                "ModifierName": "Monster_Company_Coin"
              },
              "FailedTaskList": [
                {
                  "$type": "RPG.GameCore.AddModifier",
                  "TargetType": {
                    "$type": "RPG.GameCore.TargetAlias",
                    "Alias": "ModifierOwnerEntity"
                  },
                  "ModifierName": "Monster_Company_Coin",
                  "DynamicValues": {
                    "MDF_DamageUpRatio": {
                      "IsDynamic": true,
                      "PostfixExpr": {
                        "OpCodes": "AQAK",
                        "FixedValues": [],
                        "DynamicHashes": [
                          889233808
                        ]
                      }
                    }
                  }
                }
              ]
            }
          ]
        }
      ]
    }
  }
}