{
  "AbilityList": [
    {
      "Modifiers": {
        "MMonster_W2_Beast01_02_EffectController": {
          "_CallbackList": [
            {
              "Event": "OnCreate",
              "CallbackConfig": [
                {
                  "$type": "RPG.GameCore.TriggerEffect",
                  "TargetType": {
                    "$type": "RPG.GameCore.TargetAlias",
                    "Alias": "Caster"
                  },
                  "IsAttachToTargetEntity": true,
                  "Flags": [
                    "Resident"
                  ],
                  "EffectPath": "Effects/Eff_Prefab/Eff_Monster/Eff_W2_Beast01_02/Eff_Monster_W2_Beast01_02_Common_Trail01.prefab"
                },
                {
                  "$type": "RPG.GameCore.TriggerEffect",
                  "TargetType": {
                    "$type": "RPG.GameCore.TargetAlias",
                    "Alias": "Caster"
                  },
                  "IsAttachToTargetEntity": true,
                  "Flags": [
                    "Resident"
                  ],
                  "EffectPath": "Effects/Eff_Prefab/Eff_Monster/Eff_W2_Beast01_02/Eff_Monster_W2_Beast01_02_Common_Trail02.prefab"
                }
              ]
            },
            {
              "Event": "OnBeforeBeingAttacked",
              "CallbackConfig": [
                {
                  "$type": "RPG.GameCore.PredicateTaskList",
                  "Predicate": {
                    "$type": "RPG.GameCore.ByContainBehaviorFlag",
                    "TargetType": {
                      "$type": "RPG.GameCore.TargetAlias",
                      "Alias": "Caster"
                    },
                    "Flag": "STAT_Confine"
                  },
                  "SuccessTaskList": [
                    {
                      "$type": "RPG.GameCore.CharacterChangePhase",
                      "TargetType": {
                        "$type": "RPG.GameCore.TargetAlias",
                        "Alias": "Caster"
                      },
                      "PhaseName": "Phase0",
                      "PhaseAnimConfig": {
                        "FlyHit": "Confine_Hit"
                      }
                    }
                  ],
                  "FailedTaskList": [
                    {
                      "$type": "RPG.GameCore.CharacterChangePhase",
                      "TargetType": {
                        "$type": "RPG.GameCore.TargetAlias",
                        "Alias": "Caster"
                      },
                      "PhaseName": "Phase1",
                      "PhaseAnimConfig": {
                        "FlyHit": "Fly_Hit"
                      }
                    }
                  ]
                }
              ]
            },
            {
              "Event": "OnBeingBreak",
              "CallbackConfig": [
                {
                  "$type": "RPG.GameCore.RemoveEffect",
                  "TargetType": {
                    "$type": "RPG.GameCore.TargetAlias",
                    "Alias": "Caster"
                  },
                  "EffectPath": "Effects/Eff_Prefab/Eff_Monster/Eff_W2_Beast01_02/Eff_Monster_W2_Beast01_02_Common_Trail01.prefab"
                },
                {
                  "$type": "RPG.GameCore.RemoveEffect",
                  "TargetType": {
                    "$type": "RPG.GameCore.TargetAlias",
                    "Alias": "Caster"
                  },
                  "EffectPath": "Effects/Eff_Prefab/Eff_Monster/Eff_W2_Beast01_02/Eff_Monster_W2_Beast01_02_Common_Trail02.prefab"
                }
              ]
            },
            {
              "Event": "OnEndBreak",
              "CallbackConfig": [
                {
                  "$type": "RPG.GameCore.PredicateTaskList",
                  "Predicate": {
                    "$type": "RPG.GameCore.ByAnd",
                    "PredicateList": [
                      {
                        "$type": "RPG.GameCore.ByContainBehaviorFlag",
                        "TargetType": {
                          "$type": "RPG.GameCore.TargetAlias",
                          "Alias": "Caster"
                        },
                        "Flag": "STAT_CTRL",
                        "Inverse": true
                      }
                    ]
                  },
                  "SuccessTaskList": [
                    {
                      "$type": "RPG.GameCore.TriggerEffect",
                      "TargetType": {
                        "$type": "RPG.GameCore.TargetAlias",
                        "Alias": "Caster"
                      },
                      "IsAttachToTargetEntity": true,
                      "Flags": [
                        "Resident"
                      ],
                      "EffectPath": "Effects/Eff_Prefab/Eff_Monster/Eff_W2_Beast01_02/Eff_Monster_W2_Beast01_02_Common_Trail01.prefab"
                    },
                    {
                      "$type": "RPG.GameCore.TriggerEffect",
                      "TargetType": {
                        "$type": "RPG.GameCore.TargetAlias",
                        "Alias": "Caster"
                      },
                      "IsAttachToTargetEntity": true,
                      "Flags": [
                        "Resident"
                      ],
                      "EffectPath": "Effects/Eff_Prefab/Eff_Monster/Eff_W2_Beast01_02/Eff_Monster_W2_Beast01_02_Common_Trail02.prefab"
                    }
                  ]
                }
              ]
            },
            {
              "Event": "OnModifierAdd",
              "CallbackConfig": [
                {
                  "$type": "RPG.GameCore.PredicateTaskList",
                  "Predicate": {
                    "$type": "RPG.GameCore.ByAnd",
                    "PredicateList": [
                      {
                        "$type": "RPG.GameCore.ByContainBehaviorFlag",
                        "TargetType": {
                          "$type": "RPG.GameCore.TargetAlias",
                          "Alias": "Caster"
                        },
                        "Flag": "STAT_CTRL",
                        "Inverse": true
                      },
                      {
                        "$type": "RPG.GameCore.ByContainBehaviorFlag",
                        "TargetType": {
                          "$type": "RPG.GameCore.TargetAlias",
                          "Alias": "Caster"
                        },
                        "Flag": "Break",
                        "Inverse": true
                      }
                    ]
                  },
                  "SuccessTaskList": [],
                  "FailedTaskList": [
                    {
                      "$type": "RPG.GameCore.RemoveEffect",
                      "TargetType": {
                        "$type": "RPG.GameCore.TargetAlias",
                        "Alias": "Caster"
                      },
                      "EffectPath": "Effects/Eff_Prefab/Eff_Monster/Eff_W2_Beast01_02/Eff_Monster_W2_Beast01_02_Common_Trail01.prefab"
                    },
                    {
                      "$type": "RPG.GameCore.RemoveEffect",
                      "TargetType": {
                        "$type": "RPG.GameCore.TargetAlias",
                        "Alias": "Caster"
                      },
                      "EffectPath": "Effects/Eff_Prefab/Eff_Monster/Eff_W2_Beast01_02/Eff_Monster_W2_Beast01_02_Common_Trail02.prefab"
                    }
                  ]
                }
              ]
            },
            {
              "Event": "OnModifierRemove",
              "CallbackConfig": [
                {
                  "$type": "RPG.GameCore.PredicateTaskList",
                  "Predicate": {
                    "$type": "RPG.GameCore.ByAnd",
                    "PredicateList": [
                      {
                        "$type": "RPG.GameCore.ByContainBehaviorFlag",
                        "TargetType": {
                          "$type": "RPG.GameCore.TargetAlias",
                          "Alias": "Caster"
                        },
                        "Flag": "STAT_CTRL",
                        "Inverse": true
                      },
                      {
                        "$type": "RPG.GameCore.ByIsTargetValid",
                        "TargetType": {
                          "$type": "RPG.GameCore.TargetAlias",
                          "Alias": "ModifierOwnerEntity"
                        },
                        "AliveOnly": true
                      },
                      {
                        "$type": "RPG.GameCore.ByContainBehaviorFlag",
                        "TargetType": {
                          "$type": "RPG.GameCore.TargetAlias",
                          "Alias": "Caster"
                        },
                        "Flag": "Break",
                        "Inverse": true
                      }
                    ]
                  },
                  "SuccessTaskList": [
                    {
                      "$type": "RPG.GameCore.TriggerEffect",
                      "TargetType": {
                        "$type": "RPG.GameCore.TargetAlias",
                        "Alias": "Caster"
                      },
                      "IsAttachToTargetEntity": true,
                      "Flags": [
                        "Resident"
                      ],
                      "EffectPath": "Effects/Eff_Prefab/Eff_Monster/Eff_W2_Beast01_02/Eff_Monster_W2_Beast01_02_Common_Trail01.prefab"
                    },
                    {
                      "$type": "RPG.GameCore.TriggerEffect",
                      "TargetType": {
                        "$type": "RPG.GameCore.TargetAlias",
                        "Alias": "Caster"
                      },
                      "IsAttachToTargetEntity": true,
                      "Flags": [
                        "Resident"
                      ],
                      "EffectPath": "Effects/Eff_Prefab/Eff_Monster/Eff_W2_Beast01_02/Eff_Monster_W2_Beast01_02_Common_Trail02.prefab"
                    }
                  ],
                  "FailedTaskList": []
                }
              ]
            }
          ]
        }
      },
      "Name": "Monster_W2_Beast01_02_SkillP01_Initiate",
      "TargetInfo": {
        "TargetType": "Caster"
      },
      "OnAdd": [
        {
          "$type": "RPG.GameCore.AddModifier",
          "TargetType": {
            "$type": "RPG.GameCore.TargetAlias",
            "Alias": "Caster"
          },
          "ModifierName": "MMonster_W2_Beast01_02_EffectController"
        }
      ]
    },
    {
      "Name": "Monster_W2_Beast01_02_Skill01_Phase01",
      "TargetInfo": {
        "TargetType": "SkillTargetEntityList"
      },
      "OnStart": [
        {
          "$type": "RPG.GameCore.TriggerAbility",
          "TargetType": {
            "$type": "RPG.GameCore.TargetAlias",
            "Alias": "Caster"
          },
          "AbilityName": "Monster_W2_Beast01_02_Skill01_Phase02",
          "IsSkillPerform": true
        },
        {
          "$type": "RPG.GameCore.TriggerAbility",
          "TargetType": {
            "$type": "RPG.GameCore.TargetAlias",
            "Alias": "Caster"
          },
          "AbilityName": "Monster_W2_Beast01_02_Skill01_Camera",
          "IsSkillPerform": true
        },
        {
          "$type": "RPG.GameCore.LookAt",
          "TargetType": "AbilityTargetEntity",
          "AngleOffset": 5
        },
        {
          "$type": "RPG.GameCore.MoveToTargetList",
          "TargetType": {
            "$type": "RPG.GameCore.TargetAlias",
            "Alias": "Caster"
          },
          "AnimStateName": "Skill01",
          "NormalizedTimeEnd": {
            "IsDynamic": false,
            "FixedValue": {
              "Value": 1
            }
          },
          "NormalizedTimeWait": {
            "IsDynamic": false,
            "FixedValue": {
              "Value": 0.9000000008381903
            }
          },
          "MovingRangeList": [
            {
              "TargetType": {
                "$type": "RPG.GameCore.TargetAlias",
                "Alias": "AbilityTargetEntity"
              },
              "IgnoreRadius": true,
              "OffsetTargetDistance": {
                "IsDynamic": false,
                "FixedValue": {
                  "Value": 3
                }
              },
              "NormalizedTimeStart": {
                "IsDynamic": false,
                "FixedValue": {
                  "Value": 0.058999999426305294
                }
              },
              "NormalizedTimeEnd": {
                "IsDynamic": false,
                "FixedValue": {
                  "Value": 0.12699999962933362
                }
              }
            },
            {
              "TargetType": {
                "$type": "RPG.GameCore.TargetAlias",
                "Alias": "TeamFormation"
              },
              "IgnoreRadius": true,
              "OffsetTargetDistance": {
                "IsDynamic": false,
                "FixedValue": {
                  "Value": 0
                }
              },
              "NormalizedTimeStart": {
                "IsDynamic": false,
                "FixedValue": {
                  "Value": 0.5850000001955777
                }
              },
              "NormalizedTimeEnd": {
                "IsDynamic": false,
                "FixedValue": {
                  "Value": 0.6870000001508743
                }
              }
            }
          ]
        },
        {
          "$type": "RPG.GameCore.TriggerAnimState",
          "AnimLogicState": "Idle"
        }
      ]
    },
    {
      "Name": "Monster_W2_Beast01_02_Skill01_Phase02",
      "TargetInfo": {
        "TargetType": "SkillTargetEntityList"
      },
      "OnStart": [
        {
          "$type": "RPG.GameCore.WaitAnimState",
          "TargetType": {
            "$type": "RPG.GameCore.TargetAlias",
            "Alias": "Caster"
          },
          "AnimStateName": "Skill01",
          "NormalizedTimeEnd": {
            "IsDynamic": false,
            "FixedValue": {
              "Value": 0.24200000008568168
            }
          }
        },
        {
          "$type": "RPG.GameCore.SkillExecutionStart"
        },
        {
          "$type": "RPG.GameCore.DamageByAttackProperty",
          "TargetType": {
            "$type": "RPG.GameCore.TargetAlias",
            "Alias": "AbilityTargetEntity"
          },
          "AttackProperty": {
            "DamageType": "Thunder",
            "DamagePercentage": {
              "IsDynamic": true,
              "PostfixExpr": {
                "OpCodes": "AQAK",
                "FixedValues": [],
                "DynamicHashes": [
                  -1126825319
                ]
              }
            },
            "SPHitRatio": {
              "IsDynamic": false,
              "FixedValue": {
                "Value": 1
              }
            },
            "HitAnimation": "Hit",
            "HitEffect": "Effects/Eff_Prefab/Eff_Monster/Eff_W2_Beast01_01/Eff_Monster_W2_Beast01_01_Skill01_Hit.prefab",
            "HitEffectHeight": 0.88,
            "HitTimeSlowType": "Slash"
          },
          "TriggerHitSound": true,
          "DisplayData": {
            "UIMessageHeight": 1
          }
        },
        {
          "$type": "RPG.GameCore.DamagePerformFinish"
        },
        {
          "$type": "RPG.GameCore.AddModifier",
          "TargetType": {
            "$type": "RPG.GameCore.TargetAlias",
            "Alias": "AbilityTargetEntity"
          },
          "ModifierName": "MCommon_DOT_Electric",
          "Chance": {
            "IsDynamic": false,
            "FixedValue": {
              "Value": 1
            }
          },
          "LifeTime": {
            "IsDynamic": true,
            "PostfixExpr": {
              "OpCodes": "AQAK",
              "FixedValues": [],
              "DynamicHashes": [
                -1476159857
              ]
            }
          },
          "DynamicValues": {
            "Modifier_Electric_DamagePercentage": {
              "IsDynamic": true,
              "PostfixExpr": {
                "OpCodes": "AQAK",
                "FixedValues": [],
                "DynamicHashes": [
                  261917116
                ]
              }
            }
          }
        },
        {
          "$type": "RPG.GameCore.WaitSecond",
          "WaitTime": 0.05
        },
        {
          "$type": "RPG.GameCore.SkillPerformFinish"
        }
      ]
    }
  ]
}