{
  "AbilityList": [
    {
      "Name": "Monster_W2_Valkyrie02_00_RLElite_PassiveSkillInitiate",
      "TargetInfo": {
        "TargetType": "Caster"
      },
      "OnStart": [
        {
          "$type": "RPG.GameCore.AddModifier",
          "TargetType": {
            "$type": "RPG.GameCore.TargetAlias",
            "Alias": "Caster"
          },
          "ModifierName": "OneMorePerTurn"
        },
        {
          "$type": "RPG.GameCore.AddModifier",
          "TargetType": {
            "$type": "RPG.GameCore.TargetAlias",
            "Alias": "Caster"
          },
          "ModifierName": "MMonster_W2_Valkyrie02_00_RLElite_RemoveOneMore"
        },
        {
          "$type": "RPG.GameCore.AddModifier",
          "TargetType": {
            "$type": "RPG.GameCore.TargetAlias",
            "Alias": "Caster"
          },
          "ModifierName": "MMonster_Common_MuteHitFly"
        },
        {
          "$type": "RPG.GameCore.DefineDynamicValue",
          "TargetType": {
            "$type": "RPG.GameCore.TargetAlias",
            "Alias": "Caster"
          },
          "DynamicKey": "W2_Valkyrie02_00_AICounter",
          "ResetValue": {
            "IsDynamic": false,
            "FixedValue": {
              "Value": 1
            }
          },
          "ContextScope": "TargetEntity"
        },
        {
          "$type": "RPG.GameCore.DefineDynamicValue",
          "TargetType": {
            "$type": "RPG.GameCore.TargetAlias",
            "Alias": "Caster"
          },
          "DynamicKey": "W2_Valkyrie02_00_Skill04_TriggerFlag",
          "ContextScope": "TargetEntity"
        }
      ]
    },
    {
      "Name": "Monster_W2_Valkyrie02_00_RLElite_SkillP01",
      "TargetInfo": {
        "TargetType": "Caster"
      },
      "OnStart": []
    },
    {
      "Name": "Monster_W2_Valkyrie02_00_RLElite_Skill01_Phase01",
      "TargetInfo": {
        "TargetType": "SkillTargetEntityList"
      },
      "OnStart": [
        {
          "$type": "RPG.GameCore.TriggerAbility",
          "TargetType": {
            "$type": "RPG.GameCore.TargetAlias",
            "Alias": "Caster"
          },
          "AbilityName": "Monster_W2_Valkyrie02_00_RLElite_Skill01_Phase02",
          "IsSkillPerform": true
        },
        {
          "$type": "RPG.GameCore.TriggerAbility",
          "TargetType": {
            "$type": "RPG.GameCore.TargetAlias",
            "Alias": "Caster"
          },
          "AbilityName": "Monster_W2_Valkyrie02_00_RLElite_Skill01_Camera",
          "IsSkillPerform": true
        },
        {
          "$type": "RPG.GameCore.LookAt",
          "TargetType": "AbilityTargetEntity"
        },
        {
          "$type": "RPG.GameCore.TriggerAnimStateWithMove",
          "TargetType": {
            "$type": "RPG.GameCore.TargetAlias",
            "Alias": "Caster"
          },
          "AnimStateName": "Skill01",
          "NormalizedTimeEnd": {
            "IsDynamic": false,
            "FixedValue": {
              "Value": 1
            }
          },
          "MovingRangeList": [
            {
              "TargetType": {
                "$type": "RPG.GameCore.TargetAlias",
                "Alias": "AbilityTargetEntity"
              },
              "IgnoreRadius": true,
              "OffsetTargetDistance": {
                "IsDynamic": false,
                "FixedValue": {
                  "Value": 2.050000000046566
                }
              },
              "NormalizedTimeStart": {
                "IsDynamic": false,
                "FixedValue": {
                  "Value": 0.17699999967589974
                }
              },
              "NormalizedTimeEnd": {
                "IsDynamic": false,
                "FixedValue": {
                  "Value": 0.24399999994784594
                }
              }
            },
            {
              "TargetType": {
                "$type": "RPG.GameCore.TargetAlias",
                "Alias": "TeamFormation"
              },
              "OffsetTargetDistance": {
                "IsDynamic": false,
                "FixedValue": {
                  "Value": 0
                }
              },
              "NormalizedTimeStart": {
                "IsDynamic": false,
                "FixedValue": {
                  "Value": 0.6520000004675239
                }
              },
              "NormalizedTimeEnd": {
                "IsDynamic": false,
                "FixedValue": {
                  "Value": 0.7890000001061708
                }
              }
            }
          ]
        },
        {
          "$type": "RPG.GameCore.TriggerAnimState",
          "AnimLogicState": "Idle",
          "AnimStateName": "StandBy"
        },
        {
          "$type": "RPG.GameCore.LookAt",
          "TargetType": "TeamFormation"
        }
      ]
    },
    {
      "Name": "Monster_W2_Valkyrie02_00_RLElite_Skill01_Phase02",
      "TargetInfo": {
        "TargetType": "SkillTargetEntityList"
      },
      "OnStart": [
        {
          "$type": "RPG.GameCore.WaitAnimState",
          "TargetType": {
            "$type": "RPG.GameCore.TargetAlias",
            "Alias": "Caster"
          },
          "AnimStateName": "Skill01",
          "NormalizedTimeEnd": {
            "IsDynamic": false,
            "FixedValue": {
              "Value": 0.10000000009313226
            }
          }
        },
        {
          "$type": "RPG.GameCore.SkillExecutionStart"
        },
        {
          "$type": "RPG.GameCore.RemoveModifier",
          "TargetType": {
            "$type": "RPG.GameCore.TargetAlias",
            "Alias": "AllLightTeam"
          },
          "ModifierName": "MMonster_W2_Valkyrie02_00_RLElite_AimMark",
          "OnlyRemoveCasterAdded": true
        },
        {
          "$type": "RPG.GameCore.WaitAnimState",
          "TargetType": {
            "$type": "RPG.GameCore.TargetAlias",
            "Alias": "Caster"
          },
          "AnimStateName": "Skill01",
          "NormalizedTimeEnd": {
            "IsDynamic": false,
            "FixedValue": {
              "Value": 0.28100000019185245
            }
          }
        },
        {
          "$type": "RPG.GameCore.DamageByAttackProperty",
          "TargetType": {
            "$type": "RPG.GameCore.TargetAlias",
            "Alias": "AbilityTargetEntity"
          },
          "AttackProperty": {
            "DamagePercentage": {
              "IsDynamic": true,
              "PostfixExpr": {
                "OpCodes": "AQAAAAQK",
                "FixedValues": [
                  {
                    "Value": 0.5000000004656613
                  }
                ],
                "DynamicHashes": [
                  -1126825319
                ]
              }
            },
            "SPHitRatio": {
              "IsDynamic": false,
              "FixedValue": {
                "Value": 0.5000000004656613
              }
            },
            "AttackType": "Normal",
            "HitAnimation": "Hit",
            "HitEffect": "Effects/Eff_Prefab/Eff_Monster/Eff_W2_Valkyrie02_00/Eff_Monster_W2_Valkyrie02_00_Skill01_Hit01.prefab",
            "HitEffectHeight": 1.5
          },
          "DisplayData": {
            "UIMessageHeight": 1.1,
            "DitherRangeX": 0.02,
            "DitherRangeY": 0.02
          }
        },
        {
          "$type": "RPG.GameCore.VCameraConfigChange",
          "CameraConfig": {
            "ShakeTemplateName": "Common_Rapid_Light"
          }
        },
        {
          "$type": "RPG.GameCore.WaitAnimState",
          "TargetType": {
            "$type": "RPG.GameCore.TargetAlias",
            "Alias": "Caster"
          },
          "AnimStateName": "Skill01",
          "NormalizedTimeEnd": {
            "IsDynamic": false,
            "FixedValue": {
              "Value": 0.40100000030361116
            }
          }
        },
        {
          "$type": "RPG.GameCore.DamageByAttackProperty",
          "TargetType": {
            "$type": "RPG.GameCore.TargetAlias",
            "Alias": "AbilityTargetEntity"
          },
          "AttackProperty": {
            "DamagePercentage": {
              "IsDynamic": true,
              "PostfixExpr": {
                "OpCodes": "AQAAAAQK",
                "FixedValues": [
                  {
                    "Value": 0.5000000004656613
                  }
                ],
                "DynamicHashes": [
                  -1126825319
                ]
              }
            },
            "SPHitRatio": {
              "IsDynamic": false,
              "FixedValue": {
                "Value": 0.5000000004656613
              }
            },
            "AttackType": "Normal",
            "HitAnimation": "Hit",
            "HitEffect": "Effects/Eff_Prefab/Eff_Monster/Eff_W2_Valkyrie02_00/Eff_Monster_W2_Valkyrie02_00_Skill01_Hit02.prefab",
            "HitEffectHeight": 0.45
          },
          "CanTriggerLastKill": true,
          "DisplayData": {
            "UIMessageHeight": 0.9,
            "DitherRangeX": 0.02,
            "DitherRangeY": 0.02
          }
        },
        {
          "$type": "RPG.GameCore.DamagePerformFinish"
        },
        {
          "$type": "RPG.GameCore.VCameraConfigChange",
          "CameraConfig": {
            "ShakeTemplateName": "Common_Rapid_Middle"
          }
        },
        {
          "$type": "RPG.GameCore.SkillPerformFinish"
        }
      ]
    },
    {
      "Name": "Monster_W2_Valkyrie02_00_RLElite_Skill02_Phase01",
      "TargetInfo": {
        "TargetType": "SkillTargetEntityList"
      },
      "OnStart": [
        {
          "$type": "RPG.GameCore.SetSkillTargetFormationByPos",
          "Team": "TeamDark",
          "CustomTargetType": {
            "$type": "RPG.GameCore.TargetAlias",
            "Alias": "AllTeamMember"
          },
          "IgnoreHitBoxRadius": true,
          "TargetFormation": {},
          "LeftSideFormations": [
            {},
            {},
            {},
            {}
          ],
          "RightSideFormations": [
            {},
            {},
            {},
            {}
          ]
        },
        {
          "$type": "RPG.GameCore.SetSkillTargetFormationByPos",
          "Team": "TeamLight",
          "CustomCenterTargetType": {
            "$type": "RPG.GameCore.TargetAlias",
            "Alias": "DarkTeamCenter"
          },
          "IgnoreHitBoxRadius": true,
          "TargetFormation": {
            "LocalDelta": {
              "X": 0,
              "Y": 0,
              "Z": 7
            },
            "Yaw": 180
          },
          "LeftSideFormations": [],
          "RightSideFormations": []
        },
        {
          "$type": "RPG.GameCore.TriggerAbility",
          "TargetType": {
            "$type": "RPG.GameCore.TargetAlias",
            "Alias": "Caster"
          },
          "AbilityName": "Monster_W2_Valkyrie02_00_RLElite_Skill02_Phase02",
          "IsSkillPerform": true
        },
        {
          "$type": "RPG.GameCore.TriggerAbility",
          "TargetType": {
            "$type": "RPG.GameCore.TargetAlias",
            "Alias": "Caster"
          },
          "AbilityName": "Monster_W2_Valkyrie02_00_RLElite_Skill02_Camera",
          "IsSkillPerform": true
        },
        {
          "$type": "RPG.GameCore.TriggerAnimStateWithMove",
          "TargetType": {
            "$type": "RPG.GameCore.TargetAlias",
            "Alias": "Caster"
          },
          "AnimStateName": "Skill02",
          "NormalizedTimeEnd": {
            "IsDynamic": false,
            "FixedValue": {
              "Value": 1
            }
          },
          "MovingRangeList": [
            {
              "TargetType": {
                "$type": "RPG.GameCore.TargetAlias",
                "Alias": "AbilityTargetEntity"
              },
              "IgnoreRadius": true,
              "OffsetTargetDistance": {
                "IsDynamic": false,
                "FixedValue": {
                  "Value": 1.1000000000931323
                }
              },
              "NormalizedTimeStart": {
                "IsDynamic": false,
                "FixedValue": {
                  "Value": 0.4326000006403774
                }
              },
              "NormalizedTimeEnd": {
                "IsDynamic": false,
                "FixedValue": {
                  "Value": 0.46190000092610717
                }
              }
            },
            {
              "TargetType": {
                "$type": "RPG.GameCore.TargetAlias",
                "Alias": "TeamFormation"
              },
              "IgnoreRadius": true,
              "OffsetTargetDistance": {
                "IsDynamic": false,
                "FixedValue": {
                  "Value": 0
                }
              },
              "NormalizedTimeStart": {
                "IsDynamic": false,
                "FixedValue": {
                  "Value": 0.7424000008031726
                }
              },
              "NormalizedTimeEnd": {
                "IsDynamic": false,
                "FixedValue": {
                  "Value": 0.8522000007797033
                }
              }
            }
          ]
        },
        {
          "$type": "RPG.GameCore.TriggerAnimState",
          "AnimLogicState": "Idle",
          "AnimStateName": "StandBy"
        },
        {
          "$type": "RPG.GameCore.LookAt",
          "TargetType": "TeamFormation"
        }
      ]
    },
    {
      "Name": "Monster_W2_Valkyrie02_00_RLElite_Skill02_Phase02",
      "TargetInfo": {
        "TargetType": "SkillTargetEntityList"
      },
      "OnStart": [
        {
          "$type": "RPG.GameCore.LookAt",
          "TargetType": "AbilityTargetEntity"
        },
        {
          "$type": "RPG.GameCore.WaitAnimState",
          "TargetType": {
            "$type": "RPG.GameCore.TargetAlias",
            "Alias": "Caster"
          },
          "AnimStateName": "Skill02",
          "NormalizedTimeEnd": {
            "IsDynamic": false,
            "FixedValue": {
              "Value": 0.1500000001396984
            }
          }
        },
        {
          "$type": "RPG.GameCore.SkillExecutionStart"
        },
        {
          "$type": "RPG.GameCore.WaitAnimState",
          "TargetType": {
            "$type": "RPG.GameCore.TargetAlias",
            "Alias": "Caster"
          },
          "AnimStateName": "Skill02",
          "NormalizedTimeEnd": {
            "IsDynamic": false,
            "FixedValue": {
              "Value": 0.46190000092610717
            }
          }
        },
        {
          "$type": "RPG.GameCore.DamageByAttackProperty",
          "TargetType": {
            "$type": "RPG.GameCore.TargetAlias",
            "Alias": "AbilityTargetEntity"
          },
          "AttackProperty": {
            "DamagePercentage": {
              "IsDynamic": true,
              "PostfixExpr": {
                "OpCodes": "AQAK",
                "FixedValues": [],
                "DynamicHashes": [
                  -1847083384
                ]
              }
            },
            "SPHitRatio": {
              "IsDynamic": false,
              "FixedValue": {
                "Value": 1
              }
            },
            "AttackType": "Normal",
            "HitAnimation": "Hit_H",
            "HitEffect": "Effects/Eff_Prefab/Eff_Monster/Eff_W2_Valkyrie02_00/Eff_Monster_W2_Valkyrie02_00_Skill02_Hit01.prefab",
            "HitEffectHeight": 1.135,
            "HitEffectOffsetAngle": -45,
            "HitTimeSlowType": "Impact"
          }
        },
        {
          "$type": "RPG.GameCore.DamagePerformFinish"
        },
        {
          "$type": "RPG.GameCore.RadialBlurEffect",
          "Duration": 0.22,
          "BlurX": 0.4,
          "BlurStart": 0
        },
        {
          "$type": "RPG.GameCore.PredicateTaskList",
          "Predicate": {
            "$type": "RPG.GameCore.ByAnd",
            "PredicateList": [
              {
                "$type": "RPG.GameCore.ByIsContainModifier",
                "TargetType": {
                  "$type": "RPG.GameCore.TargetAlias",
                  "Alias": "AbilityTargetEntity"
                },
                "ModifierName": "MCommon_Unstable",
                "Inverse": true
              },
              {
                "$type": "RPG.GameCore.ByIsContainModifier",
                "TargetType": {
                  "$type": "RPG.GameCore.TargetAlias",
                  "Alias": "AbilityTargetEntity"
                },
                "ModifierName": "MCommon_Shake",
                "Inverse": true
              }
            ]
          },
          "SuccessTaskList": [
            {
              "$type": "RPG.GameCore.AddModifier",
              "TargetType": {
                "$type": "RPG.GameCore.TargetAlias",
                "Alias": "AbilityTargetEntity"
              },
              "ModifierName": "MCommon_Unstable",
              "Chance": {
                "IsDynamic": true,
                "PostfixExpr": {
                  "OpCodes": "AQAK",
                  "FixedValues": [],
                  "DynamicHashes": [
                    1210035749
                  ]
                }
              },
              "LifeTime": {
                "IsDynamic": true,
                "PostfixExpr": {
                  "OpCodes": "AQAK",
                  "FixedValues": [],
                  "DynamicHashes": [
                    -1180851863
                  ]
                }
              }
            }
          ]
        },
        {
          "$type": "RPG.GameCore.WaitAnimState",
          "TargetType": {
            "$type": "RPG.GameCore.TargetAlias",
            "Alias": "Caster"
          },
          "AnimStateName": "Skill02",
          "NormalizedTimeEnd": {
            "IsDynamic": false,
            "FixedValue": {
              "Value": 0.7320000005420297
            }
          }
        },
        {
          "$type": "RPG.GameCore.SkillPerformFinish"
        }
      ]
    },
    {
      "Name": "Monster_W2_Valkyrie02_00_RLElite_Skill03_Phase01",
      "TargetInfo": {
        "TargetType": "AllEnemy"
      },
      "OnStart": [
        {
          "$type": "RPG.GameCore.SetTeamFormation",
          "Team": "TeamLight",
          "FormationType": "LightTeamNormal",
          "CustomFormationIgnoreDying": false
        },
        {
          "$type": "RPG.GameCore.MoveToTargetPosition",
          "TargetType": {
            "$type": "RPG.GameCore.TargetAlias",
            "Alias": "LightTeamCenter"
          },
          "IgnoreRadius": true,
          "OffsetTargetDistance": {
            "IsDynamic": false,
            "FixedValue": {
              "Value": 6.750000000698492
            }
          },
          "OffsetCoord": "Target"
        },
        {
          "$type": "RPG.GameCore.LookAt",
          "TargetType": "TeamFormation"
        },
        {
          "$type": "RPG.GameCore.TriggerAbility",
          "TargetType": {
            "$type": "RPG.GameCore.TargetAlias",
            "Alias": "Caster"
          },
          "AbilityName": "Monster_W2_Valkyrie02_00_RLElite_Skill03_Phase02",
          "IsSkillPerform": true
        },
        {
          "$type": "RPG.GameCore.TriggerAbility",
          "TargetType": {
            "$type": "RPG.GameCore.TargetAlias",
            "Alias": "Caster"
          },
          "AbilityName": "Monster_W2_Valkyrie02_00_RLElite_Skill03_Camera",
          "IsSkillPerform": true
        },
        {
          "$type": "RPG.GameCore.TriggerAnimState",
          "AnimStateName": "Skill03",
          "NormalizedTimeEnd": {
            "IsDynamic": false,
            "FixedValue": {
              "Value": 1
            }
          },
          "NormalizedTimeWait": {
            "IsDynamic": false,
            "FixedValue": {
              "Value": 0.9000000008381903
            }
          }
        },
        {
          "$type": "RPG.GameCore.TriggerAnimState",
          "AnimLogicState": "Idle",
          "AnimStateName": "StandBy"
        },
        {
          "$type": "RPG.GameCore.LookAt",
          "TargetType": "TeamFormation"
        }
      ]
    },
    {
      "Name": "Monster_W2_Valkyrie02_00_RLElite_Skill03_Phase02",
      "TargetInfo": {
        "TargetType": "AllEnemy"
      },
      "OnStart": [
        {
          "$type": "RPG.GameCore.WaitAnimState",
          "TargetType": {
            "$type": "RPG.GameCore.TargetAlias",
            "Alias": "Caster"
          },
          "AnimStateName": "Skill03",
          "NormalizedTimeEnd": {
            "IsDynamic": false,
            "FixedValue": {
              "Value": 0.1500000001396984
            }
          }
        },
        {
          "$type": "RPG.GameCore.SkillExecutionStart"
        },
        {
          "$type": "RPG.GameCore.WaitAnimState",
          "TargetType": {
            "$type": "RPG.GameCore.TargetAlias",
            "Alias": "Caster"
          },
          "AnimStateName": "Skill03",
          "NormalizedTimeEnd": {
            "IsDynamic": false,
            "FixedValue": {
              "Value": 0.5330000002868474
            }
          }
        },
        {
          "$type": "RPG.GameCore.DamageByAttackProperty",
          "TargetType": {
            "$type": "RPG.GameCore.TargetAlias",
            "Alias": "AllEnemy"
          },
          "AttackProperty": {
            "DamagePercentage": {
              "IsDynamic": true,
              "PostfixExpr": {
                "OpCodes": "AQAK",
                "FixedValues": [],
                "DynamicHashes": [
                  -56289053
                ]
              }
            },
            "HitSplitRatio": {
              "IsDynamic": false,
              "FixedValue": {
                "Value": 0.5000000004656613
              }
            },
            "SPHitRatio": {
              "IsDynamic": false,
              "FixedValue": {
                "Value": 1
              }
            },
            "AttackType": "Normal",
            "HitEffect": "Effects/Eff_Prefab/Eff_Monster/Eff_W2_Valkyrie02_00/Eff_Monster_W2_Valkyrie02_00_Skill03_Hit01.prefab",
            "HitEffectHeight": 0.95
          },
          "CanTriggerLastKill": true,
          "DisplayData": {
            "UIMessageHeight": 1.15,
            "DitherRangeX": 0.02,
            "DitherRangeY": 0.02
          }
        },
        {
          "$type": "RPG.GameCore.DamageByAttackProperty",
          "TargetType": {
            "$type": "RPG.GameCore.TargetAlias",
            "Alias": "AllEnemy"
          },
          "AttackProperty": {
            "DamagePercentage": {
              "IsDynamic": true,
              "PostfixExpr": {
                "OpCodes": "AQAK",
                "FixedValues": [],
                "DynamicHashes": [
                  -56289053
                ]
              }
            },
            "HitSplitRatio": {
              "IsDynamic": false,
              "FixedValue": {
                "Value": 0.5000000004656613
              }
            },
            "SPHitRatio": {
              "IsDynamic": false,
              "FixedValue": {
                "Value": 1
              }
            },
            "AttackType": "Normal",
            "HitAnimation": "Hit_H",
            "HitEffectHeight": 0.95
          },
          "CanTriggerLastKill": true,
          "DisplayData": {
            "UIMessageHeight": 0.75,
            "DitherRangeX": 0.02,
            "DitherRangeY": 0.02
          }
        },
        {
          "$type": "RPG.GameCore.DamagePerformFinish"
        },
        {
          "$type": "RPG.GameCore.VCameraConfigChange",
          "CameraConfig": {
            "ShakeTemplateName": "Common_Explode_Big"
          }
        },
        {
          "$type": "RPG.GameCore.PredicateTaskList",
          "Predicate": {
            "$type": "RPG.GameCore.ByCompareCharacterNumber",
            "TargetType": {
              "$type": "RPG.GameCore.TargetAlias",
              "Alias": "AllEnemy"
            },
            "Predicate": {
              "$type": "RPG.GameCore.ByAnd",
              "PredicateList": [
                {
                  "$type": "RPG.GameCore.ByIsContainModifier",
                  "TargetType": {
                    "$type": "RPG.GameCore.TargetAlias",
                    "Alias": "ParamEntity"
                  },
                  "ModifierName": "MCommon_Unstable",
                  "Inverse": true
                },
                {
                  "$type": "RPG.GameCore.ByIsContainModifier",
                  "TargetType": {
                    "$type": "RPG.GameCore.TargetAlias",
                    "Alias": "ParamEntity"
                  },
                  "ModifierName": "MCommon_Shake",
                  "Inverse": true
                }
              ]
            },
            "CompareType": "GreaterEqual",
            "CompareNumber": {
              "IsDynamic": false,
              "FixedValue": {
                "Value": 3
              }
            }
          },
          "SuccessTaskList": [
            {
              "$type": "RPG.GameCore.Retarget",
              "TargetType": {
                "$type": "RPG.GameCore.TargetAlias",
                "Alias": "AllEnemy"
              },
              "Predicate": {
                "$type": "RPG.GameCore.ByAnd",
                "PredicateList": [
                  {
                    "$type": "RPG.GameCore.ByIsContainModifier",
                    "TargetType": {
                      "$type": "RPG.GameCore.TargetAlias",
                      "Alias": "ParamEntity"
                    },
                    "ModifierName": "MCommon_Unstable",
                    "Inverse": true
                  },
                  {
                    "$type": "RPG.GameCore.ByIsContainModifier",
                    "TargetType": {
                      "$type": "RPG.GameCore.TargetAlias",
                      "Alias": "ParamEntity"
                    },
                    "ModifierName": "MCommon_Shake",
                    "Inverse": true
                  }
                ]
              },
              "MaxNumber": {
                "IsDynamic": false,
                "FixedValue": {
                  "Value": 2
                }
              },
              "TaskList": [
                {
                  "$type": "RPG.GameCore.AddModifier",
                  "TargetType": {
                    "$type": "RPG.GameCore.TargetAlias",
                    "Alias": "ParamEntity"
                  },
                  "ModifierName": "MCommon_Unstable",
                  "Chance": {
                    "IsDynamic": true,
                    "PostfixExpr": {
                      "OpCodes": "AQAK",
                      "FixedValues": [],
                      "DynamicHashes": [
                        551394026
                      ]
                    }
                  },
                  "LifeTime": {
                    "IsDynamic": true,
                    "PostfixExpr": {
                      "OpCodes": "AQAK",
                      "FixedValues": [],
                      "DynamicHashes": [
                        1245172814
                      ]
                    }
                  }
                }
              ]
            }
          ],
          "FailedTaskList": [
            {
              "$type": "RPG.GameCore.Retarget",
              "TargetType": {
                "$type": "RPG.GameCore.TargetAlias",
                "Alias": "AllEnemy"
              },
              "Predicate": {
                "$type": "RPG.GameCore.ByAnd",
                "PredicateList": [
                  {
                    "$type": "RPG.GameCore.ByIsContainModifier",
                    "TargetType": {
                      "$type": "RPG.GameCore.TargetAlias",
                      "Alias": "ParamEntity"
                    },
                    "ModifierName": "MCommon_Unstable",
                    "Inverse": true
                  },
                  {
                    "$type": "RPG.GameCore.ByIsContainModifier",
                    "TargetType": {
                      "$type": "RPG.GameCore.TargetAlias",
                      "Alias": "ParamEntity"
                    },
                    "ModifierName": "MCommon_Shake",
                    "Inverse": true
                  }
                ]
              },
              "MaxNumber": {
                "IsDynamic": false,
                "FixedValue": {
                  "Value": 1
                }
              },
              "TaskList": [
                {
                  "$type": "RPG.GameCore.AddModifier",
                  "TargetType": {
                    "$type": "RPG.GameCore.TargetAlias",
                    "Alias": "ParamEntity"
                  },
                  "ModifierName": "MCommon_Unstable",
                  "Chance": {
                    "IsDynamic": true,
                    "PostfixExpr": {
                      "OpCodes": "AQAK",
                      "FixedValues": [],
                      "DynamicHashes": [
                        551394026
                      ]
                    }
                  },
                  "LifeTime": {
                    "IsDynamic": true,
                    "PostfixExpr": {
                      "OpCodes": "AQAK",
                      "FixedValues": [],
                      "DynamicHashes": [
                        1245172814
                      ]
                    }
                  }
                }
              ]
            }
          ]
        },
        {
          "$type": "RPG.GameCore.SkillPerformFinish"
        }
      ]
    },
    {
      "Name": "Monster_W2_Valkyrie02_00_RLElite_Skill04_Phase01",
      "TargetInfo": {
        "TargetType": "SkillTargetEntityList"
      },
      "OnStart": [
        {
          "$type": "RPG.GameCore.SetSkillTargetFormationByPos",
          "Team": "TeamDark",
          "CustomTargetType": {
            "$type": "RPG.GameCore.TargetAlias",
            "Alias": "AllTeamMember"
          },
          "IgnoreHitBoxRadius": true,
          "TargetFormation": {},
          "LeftSideFormations": [
            {},
            {},
            {},
            {}
          ],
          "RightSideFormations": [
            {},
            {},
            {},
            {}
          ]
        },
        {
          "$type": "RPG.GameCore.SetSkillTargetFormationByPos",
          "Team": "TeamLight",
          "CustomTargetType": {
            "$type": "RPG.GameCore.TargetAlias",
            "Alias": "AbilityTargetEntity"
          },
          "CustomCenterTargetType": {
            "$type": "RPG.GameCore.TargetAlias",
            "Alias": "DarkTeamCenter"
          },
          "IgnoreHitBoxRadius": true,
          "TargetFormation": {
            "LocalDelta": {
              "X": 0,
              "Y": 0,
              "Z": 7
            },
            "Yaw": 180
          },
          "LeftSideFormations": [],
          "RightSideFormations": []
        },
        {
          "$type": "RPG.GameCore.TriggerAbility",
          "TargetType": {
            "$type": "RPG.GameCore.TargetAlias",
            "Alias": "Caster"
          },
          "AbilityName": "Monster_W2_Valkyrie02_00_RLElite_Skill04_Phase02",
          "IsSkillPerform": true
        },
        {
          "$type": "RPG.GameCore.TriggerAbility",
          "TargetType": {
            "$type": "RPG.GameCore.TargetAlias",
            "Alias": "Caster"
          },
          "AbilityName": "Monster_W2_Valkyrie02_00_RLElite_Skill04_Camera",
          "IsSkillPerform": true
        },
        {
          "$type": "RPG.GameCore.LookAt",
          "TargetType": "AbilityTargetEntity"
        },
        {
          "$type": "RPG.GameCore.TriggerAnimStateWithMove",
          "TargetType": {
            "$type": "RPG.GameCore.TargetAlias",
            "Alias": "Caster"
          },
          "AnimStateName": "Skill04",
          "NormalizedTimeEnd": {
            "IsDynamic": false,
            "FixedValue": {
              "Value": 1
            }
          },
          "MovingRangeList": [
            {
              "TargetType": {
                "$type": "RPG.GameCore.TargetAlias",
                "Alias": "AbilityTargetEntity"
              },
              "IgnoreRadius": true,
              "OffsetTargetDistance": {
                "IsDynamic": false,
                "FixedValue": {
                  "Value": 2.3000000002793968
                }
              },
              "NormalizedTimeStart": {
                "IsDynamic": false,
                "FixedValue": {
                  "Value": 0.25399999995715916
                }
              },
              "NormalizedTimeEnd": {
                "IsDynamic": false,
                "FixedValue": {
                  "Value": 0.28116000071167946
                }
              }
            },
            {
              "TargetType": {
                "$type": "RPG.GameCore.TargetAlias",
                "Alias": "TeamFormation"
              },
              "IgnoreRadius": true,
              "OffsetTargetDistance": {
                "IsDynamic": false,
                "FixedValue": {
                  "Value": 0
                }
              },
              "NormalizedTimeStart": {
                "IsDynamic": false,
                "FixedValue": {
                  "Value": 0.8180000002030283
                }
              },
              "NormalizedTimeEnd": {
                "IsDynamic": false,
                "FixedValue": {
                  "Value": 0.8910000007599592
                }
              }
            }
          ]
        },
        {
          "$type": "RPG.GameCore.TriggerAnimState",
          "AnimLogicState": "Idle",
          "AnimStateName": "StandBy"
        },
        {
          "$type": "RPG.GameCore.LookAt",
          "TargetType": "TeamFormation"
        }
      ]
    },
    {
      "Name": "Monster_W2_Valkyrie02_00_RLElite_Skill04_Phase02",
      "TargetInfo": {
        "TargetType": "SkillTargetEntityList"
      },
      "OnStart": [
        {
          "$type": "RPG.GameCore.WaitAnimState",
          "TargetType": {
            "$type": "RPG.GameCore.TargetAlias",
            "Alias": "Caster"
          },
          "AnimStateName": "Skill04",
          "NormalizedTimeEnd": {
            "IsDynamic": false,
            "FixedValue": {
              "Value": 0.13000000012107193
            }
          }
        },
        {
          "$type": "RPG.GameCore.SkillExecutionStart"
        },
        {
          "$type": "RPG.GameCore.RemoveModifier",
          "TargetType": {
            "$type": "RPG.GameCore.TargetAlias",
            "Alias": "Caster"
          },
          "ModifierName": "MMonster_W2_Valkyrie02_00_DynamicAI_ToastAndEffect"
        },
        {
          "$type": "RPG.GameCore.WaitAnimState",
          "TargetType": {
            "$type": "RPG.GameCore.TargetAlias",
            "Alias": "Caster"
          },
          "AnimStateName": "Skill04",
          "NormalizedTimeEnd": {
            "IsDynamic": false,
            "FixedValue": {
              "Value": 0.28499999991618097
            }
          }
        },
        {
          "$type": "RPG.GameCore.DamageByAttackProperty",
          "TargetType": {
            "$type": "RPG.GameCore.TargetAlias",
            "Alias": "AbilityTargetEntity"
          },
          "AttackProperty": {
            "DamagePercentage": {
              "IsDynamic": true,
              "PostfixExpr": {
                "OpCodes": "AQAK",
                "FixedValues": [],
                "DynamicHashes": [
                  -190305622
                ]
              }
            },
            "HitSplitRatio": {
              "IsDynamic": false,
              "FixedValue": {
                "Value": 0.25000000023283064
              }
            },
            "SPHitRatio": {
              "IsDynamic": false,
              "FixedValue": {
                "Value": 0.5000000004656613
              }
            },
            "AttackType": "Normal",
            "HitAnimation": "Hit",
            "HitEffect": "Effects/Eff_Prefab/Eff_Monster/Eff_W2_Valkyrie02_00/Eff_Monster_W2_Valkyrie02_00_Skill04_Hit01_01.prefab",
            "HitEffectHeight": 1.2
          },
          "DisplayData": {
            "UIMessageHeight": 1.2
          }
        },
        {
          "$type": "RPG.GameCore.VCameraConfigChange",
          "CameraConfig": {
            "ShakeTemplateName": "Common_Rapid_Light"
          }
        },
        {
          "$type": "RPG.GameCore.WaitAnimState",
          "TargetType": {
            "$type": "RPG.GameCore.TargetAlias",
            "Alias": "Caster"
          },
          "AnimStateName": "Skill04",
          "NormalizedTimeEnd": {
            "IsDynamic": false,
            "FixedValue": {
              "Value": 0.31799999973736703
            }
          }
        },
        {
          "$type": "RPG.GameCore.DamageByAttackProperty",
          "TargetType": {
            "$type": "RPG.GameCore.TargetAlias",
            "Alias": "AbilityTargetEntity"
          },
          "AttackProperty": {
            "DamagePercentage": {
              "IsDynamic": true,
              "PostfixExpr": {
                "OpCodes": "AQAK",
                "FixedValues": [],
                "DynamicHashes": [
                  -190305622
                ]
              }
            },
            "HitSplitRatio": {
              "IsDynamic": false,
              "FixedValue": {
                "Value": 0.25000000023283064
              }
            },
            "SPHitRatio": {
              "IsDynamic": false,
              "FixedValue": {
                "Value": 0.5000000004656613
              }
            },
            "AttackType": "Normal",
            "HitAnimation": "Hit",
            "HitEffect": "Effects/Eff_Prefab/Eff_Monster/Eff_W2_Valkyrie02_00/Eff_Monster_W2_Valkyrie02_00_Skill04_Hit01_02.prefab",
            "HitEffectHeight": 0.75
          },
          "DisplayData": {
            "UIMessageHeight": 1.2
          }
        },
        {
          "$type": "RPG.GameCore.VCameraConfigChange",
          "CameraConfig": {
            "ShakeTemplateName": "Common_Rapid_Light"
          }
        },
        {
          "$type": "RPG.GameCore.WaitAnimState",
          "TargetType": {
            "$type": "RPG.GameCore.TargetAlias",
            "Alias": "Caster"
          },
          "AnimStateName": "Skill04",
          "NormalizedTimeEnd": {
            "IsDynamic": false,
            "FixedValue": {
              "Value": 0.3379999997559935
            }
          }
        },
        {
          "$type": "RPG.GameCore.DamageByAttackProperty",
          "TargetType": {
            "$type": "RPG.GameCore.TargetAlias",
            "Alias": "AbilityTargetEntity"
          },
          "AttackProperty": {
            "DamagePercentage": {
              "IsDynamic": true,
              "PostfixExpr": {
                "OpCodes": "AQAK",
                "FixedValues": [],
                "DynamicHashes": [
                  -190305622
                ]
              }
            },
            "HitSplitRatio": {
              "IsDynamic": false,
              "FixedValue": {
                "Value": 0.25000000023283064
              }
            },
            "SPHitRatio": {
              "IsDynamic": false,
              "FixedValue": {
                "Value": 0.5000000004656613
              }
            },
            "AttackType": "Normal",
            "HitAnimation": "Hit",
            "HitEffect": "Effects/Eff_Prefab/Eff_Monster/Eff_W2_Valkyrie02_00/Eff_Monster_W2_Valkyrie02_00_Skill04_Hit01_03.prefab",
            "HitEffectHeight": 1.54
          },
          "DisplayData": {
            "UIMessageHeight": 1.2
          }
        },
        {
          "$type": "RPG.GameCore.VCameraConfigChange",
          "CameraConfig": {
            "ShakeTemplateName": "Common_Rapid_Light"
          }
        },
        {
          "$type": "RPG.GameCore.WaitAnimState",
          "TargetType": {
            "$type": "RPG.GameCore.TargetAlias",
            "Alias": "Caster"
          },
          "AnimStateName": "Skill04",
          "NormalizedTimeEnd": {
            "IsDynamic": false,
            "FixedValue": {
              "Value": 0.3930000001564622
            }
          }
        },
        {
          "$type": "RPG.GameCore.DamageByAttackProperty",
          "TargetType": {
            "$type": "RPG.GameCore.TargetAlias",
            "Alias": "AbilityTargetEntity"
          },
          "AttackProperty": {
            "DamagePercentage": {
              "IsDynamic": true,
              "PostfixExpr": {
                "OpCodes": "AQAK",
                "FixedValues": [],
                "DynamicHashes": [
                  -190305622
                ]
              }
            },
            "HitSplitRatio": {
              "IsDynamic": false,
              "FixedValue": {
                "Value": 0.25000000023283064
              }
            },
            "SPHitRatio": {
              "IsDynamic": false,
              "FixedValue": {
                "Value": 0.5000000004656613
              }
            },
            "AttackType": "Normal",
            "FrameHalt": {
              "IsDynamic": false,
              "FixedValue": {
                "Value": 0.030000000027939677
              }
            },
            "HitAnimation": "Hit",
            "HitEffect": "Effects/Eff_Prefab/Eff_Monster/Eff_W2_Valkyrie02_00/Eff_Monster_W2_Valkyrie02_00_Skill04_Hit01_04.prefab",
            "HitEffectHeight": 1.1
          },
          "DisplayData": {
            "UIMessageHeight": 1.2
          }
        },
        {
          "$type": "RPG.GameCore.VCameraConfigChange",
          "CameraConfig": {
            "ShakeTemplateName": "Common_Rapid_Light"
          }
        },
        {
          "$type": "RPG.GameCore.WaitAnimState",
          "TargetType": {
            "$type": "RPG.GameCore.TargetAlias",
            "Alias": "Caster"
          },
          "AnimStateName": "Skill04",
          "NormalizedTimeEnd": {
            "IsDynamic": false,
            "FixedValue": {
              "Value": 0.43799999984912574
            }
          }
        },
        {
          "$type": "RPG.GameCore.GlobalMainIntensityEffect",
          "TargetIntensity": 0.3,
          "FadeDuration": 0.385
        },
        {
          "$type": "RPG.GameCore.WaitAnimState",
          "TargetType": {
            "$type": "RPG.GameCore.TargetAlias",
            "Alias": "Caster"
          },
          "AnimStateName": "Skill04",
          "NormalizedTimeEnd": {
            "IsDynamic": false,
            "FixedValue": {
              "Value": 0.5855071544647217
            }
          }
        },
        {
          "$type": "RPG.GameCore.RadialBlurEffect",
          "Duration": 0.3,
          "BlurY": 0.4,
          "BlurStart": 0,
          "BlurFeather": 0.2
        },
        {
          "$type": "RPG.GameCore.WaitAnimState",
          "TargetType": {
            "$type": "RPG.GameCore.TargetAlias",
            "Alias": "Caster"
          },
          "AnimStateName": "Skill04",
          "NormalizedTimeEnd": {
            "IsDynamic": false,
            "FixedValue": {
              "Value": 0.5860000001266599
            }
          }
        },
        {
          "$type": "RPG.GameCore.DamageByAttackProperty",
          "TargetType": {
            "$type": "RPG.GameCore.TargetAlias",
            "Alias": "AbilityTargetEntity"
          },
          "AttackProperty": {
            "DamagePercentage": {
              "IsDynamic": true,
              "PostfixExpr": {
                "OpCodes": "AQAK",
                "FixedValues": [],
                "DynamicHashes": [
                  -2140259462
                ]
              }
            },
            "SPHitRatio": {
              "IsDynamic": false,
              "FixedValue": {
                "Value": 0.5000000004656613
              }
            },
            "AttackType": "Normal",
            "HitAnimation": "Hit_H",
            "HitEffect": "Effects/Eff_Prefab/Eff_Monster/Eff_W2_Valkyrie02_00/Eff_Monster_W2_Valkyrie02_00_Skill04_Hit01_06.prefab"
          },
          "DisplayData": {
            "UIMessageHeight": 1.2
          }
        },
        {
          "$type": "RPG.GameCore.DamagePerformFinish"
        },
        {
          "$type": "RPG.GameCore.VCameraConfigChange",
          "CameraConfig": {
            "ShakeTemplateName": "OneShake_Heavy_03s_Z",
            "OverrideShakeConfigV2": {
              "ShakeScale": 1,
              "ShakeTime": 0.2,
              "ShakeDir": {
                "X": -0.5,
                "Y": -0.2,
                "Z": -0.8
              },
              "RangeAttenuationDelay": 999
            }
          }
        },
        {
          "$type": "RPG.GameCore.WaitAnimState",
          "TargetType": {
            "$type": "RPG.GameCore.TargetAlias",
            "Alias": "Caster"
          },
          "AnimStateName": "Skill04",
          "NormalizedTimeEnd": {
            "IsDynamic": false,
            "FixedValue": {
              "Value": 0.5971014490351081
            }
          }
        },
        {
          "$type": "RPG.GameCore.GlobalMainIntensityEffect",
          "IsRevert": true,
          "FadeDuration": 1
        },
        {
          "$type": "RPG.GameCore.WaitAnimState",
          "TargetType": {
            "$type": "RPG.GameCore.TargetAlias",
            "Alias": "Caster"
          },
          "AnimStateName": "Skill04",
          "NormalizedTimeEnd": {
            "IsDynamic": false,
            "FixedValue": {
              "Value": 0.7670000002253801
            }
          }
        },
        {
          "$type": "RPG.GameCore.RemoveModifier",
          "TargetType": {
            "$type": "RPG.GameCore.TargetAlias",
            "Alias": "AbilityTargetEntity"
          },
          "ModifierName": "MCommon_Shake"
        },
        {
          "$type": "RPG.GameCore.RemoveModifier",
          "TargetType": {
            "$type": "RPG.GameCore.TargetAlias",
            "Alias": "AllEnemy"
          },
          "ModifierName": "MMonster_W2_Valkyrie02_00_Skill04_Target",
          "OnlyRemoveCasterAdded": true
        },
        {
          "$type": "RPG.GameCore.DefineDynamicValue",
          "TargetType": {
            "$type": "RPG.GameCore.TargetAlias",
            "Alias": "Caster"
          },
          "DynamicKey": "W2_Valkyrie02_00_Skill04_TriggerFlag",
          "ContextScope": "TargetEntity"
        },
        {
          "$type": "RPG.GameCore.SkillPerformFinish"
        }
      ]
    },
    {
      "Name": "Monster_W2_Valkyrie02_00_RLElite_Skill04_Insert_Phase01",
      "TargetInfo": {
        "TargetType": "InherentTargetEntity"
      },
      "OnStart": [
        {
          "$type": "RPG.GameCore.SetSkillTargetFormationByPos",
          "Team": "TeamDark",
          "CustomTargetType": {
            "$type": "RPG.GameCore.TargetAlias",
            "Alias": "AllTeamMember"
          },
          "IgnoreHitBoxRadius": true,
          "TargetFormation": {},
          "LeftSideFormations": [
            {},
            {},
            {},
            {}
          ],
          "RightSideFormations": [
            {},
            {},
            {},
            {}
          ]
        },
        {
          "$type": "RPG.GameCore.SetSkillTargetFormationByPos",
          "Team": "TeamLight",
          "CustomTargetType": {
            "$type": "RPG.GameCore.TargetAlias",
            "Alias": "AbilityTargetEntity"
          },
          "CustomCenterTargetType": {
            "$type": "RPG.GameCore.TargetAlias",
            "Alias": "DarkTeamCenter"
          },
          "IgnoreHitBoxRadius": true,
          "TargetFormation": {
            "LocalDelta": {
              "X": 0,
              "Y": 0,
              "Z": 6
            },
            "Yaw": 180
          },
          "LeftSideFormations": [],
          "RightSideFormations": []
        },
        {
          "$type": "RPG.GameCore.TriggerAbility",
          "TargetType": {
            "$type": "RPG.GameCore.TargetAlias",
            "Alias": "Caster"
          },
          "AbilityInherentTargetType": {
            "$type": "RPG.GameCore.TargetAlias",
            "Alias": "AbilityTargetEntity"
          },
          "AbilityName": "Monster_W2_Valkyrie02_00_RLElite_Skill04_Insert_Phase02",
          "IsSkillPerform": true
        },
        {
          "$type": "RPG.GameCore.TriggerAbility",
          "TargetType": {
            "$type": "RPG.GameCore.TargetAlias",
            "Alias": "Caster"
          },
          "AbilityInherentTargetType": {
            "$type": "RPG.GameCore.TargetAlias",
            "Alias": "AbilityTargetEntity"
          },
          "AbilityName": "Monster_W2_Valkyrie02_00_RLElite_Skill04_Insert_Camera",
          "IsSkillPerform": true
        },
        {
          "$type": "RPG.GameCore.LookAt",
          "TargetType": "AbilityTargetEntity"
        },
        {
          "$type": "RPG.GameCore.TriggerAnimState",
          "AnimStateName": "Skill05",
          "NormalizedTimeEnd": {
            "IsDynamic": false,
            "FixedValue": {
              "Value": 1
            }
          }
        },
        {
          "$type": "RPG.GameCore.TriggerAnimState",
          "AnimLogicState": "Idle",
          "AnimStateName": "StandBy"
        },
        {
          "$type": "RPG.GameCore.LookAt",
          "TargetType": "TeamFormation"
        }
      ]
    },
    {
      "Name": "Monster_W2_Valkyrie02_00_RLElite_Skill04_Insert_Phase02",
      "TargetInfo": {
        "TargetType": "InherentTargetEntity"
      },
      "OnStart": [
        {
          "$type": "RPG.GameCore.WaitAnimState",
          "TargetType": {
            "$type": "RPG.GameCore.TargetAlias",
            "Alias": "Caster"
          },
          "AnimStateName": "Skill05",
          "NormalizedTimeEnd": {
            "IsDynamic": false,
            "FixedValue": {
              "Value": 0.47799999988637865
            }
          }
        },
        {
          "$type": "RPG.GameCore.AddModifier",
          "TargetType": {
            "$type": "RPG.GameCore.TargetAlias",
            "Alias": "Caster"
          },
          "ModifierName": "MMonster_W2_Valkyrie02_00_DynamicAI_ToastAndEffect"
        },
        {
          "$type": "RPG.GameCore.AddModifier",
          "TargetType": {
            "$type": "RPG.GameCore.TargetAlias",
            "Alias": "AbilityTargetEntity"
          },
          "ModifierName": "MMonster_W2_Valkyrie02_00_Skill04_Target"
        },
        {
          "$type": "RPG.GameCore.RemoveModifier",
          "TargetType": {
            "$type": "RPG.GameCore.TargetAlias",
            "Alias": "ModifierOwnerEntity"
          },
          "ModifierName": "OneMorePerTurn"
        }
      ]
    },
    {
      "Name": "Monster_W2_Valkyrie02_00_RLElite_Skill05_Phase01",
      "TargetInfo": {
        "TargetType": "Caster"
      },
      "OnStart": [
        {
          "$type": "RPG.GameCore.TriggerAbility",
          "TargetType": {
            "$type": "RPG.GameCore.TargetAlias",
            "Alias": "Caster"
          },
          "AbilityName": "Monster_W2_Valkyrie02_00_RLElite_Skill05_Phase02",
          "IsSkillPerform": true
        },
        {
          "$type": "RPG.GameCore.TriggerAbility",
          "TargetType": {
            "$type": "RPG.GameCore.TargetAlias",
            "Alias": "Caster"
          },
          "AbilityName": "Monster_W2_Valkyrie02_00_RLElite_Skill05_Camera",
          "IsSkillPerform": true
        },
        {
          "$type": "RPG.GameCore.LookAt",
          "TargetType": "AbilityTargetEntity"
        },
        {
          "$type": "RPG.GameCore.TriggerAnimState",
          "AnimStateName": "Skill05",
          "NormalizedTimeEnd": {
            "IsDynamic": false,
            "FixedValue": {
              "Value": 1
            }
          }
        },
        {
          "$type": "RPG.GameCore.TriggerAnimState",
          "AnimLogicState": "Idle",
          "AnimStateName": "StandBy"
        },
        {
          "$type": "RPG.GameCore.LookAt",
          "TargetType": "TeamFormation"
        }
      ]
    },
    {
      "Name": "Monster_W2_Valkyrie02_00_RLElite_Skill05_Phase02",
      "TargetInfo": {
        "TargetType": "Caster"
      },
      "OnStart": [
        {
          "$type": "RPG.GameCore.WaitAnimState",
          "TargetType": {
            "$type": "RPG.GameCore.TargetAlias",
            "Alias": "Caster"
          },
          "AnimStateName": "Skill05",
          "NormalizedTimeEnd": {
            "IsDynamic": false,
            "FixedValue": {
              "Value": 0.10000000009313226
            }
          }
        },
        {
          "$type": "RPG.GameCore.SkillExecutionStart"
        },
        {
          "$type": "RPG.GameCore.WaitAnimState",
          "TargetType": {
            "$type": "RPG.GameCore.TargetAlias",
            "Alias": "Caster"
          },
          "AnimStateName": "Skill05",
          "NormalizedTimeEnd": {
            "IsDynamic": false,
            "FixedValue": {
              "Value": 0.47799999988637865
            }
          }
        },
        {
          "$type": "RPG.GameCore.PredicateTaskList",
          "Predicate": {
            "$type": "RPG.GameCore.ByCompareCharacterNumber",
            "TargetType": {
              "$type": "RPG.GameCore.TargetAlias",
              "Alias": "CasterSummonedMinions"
            },
            "CompareType": "Less",
            "CompareNumber": {
              "IsDynamic": false,
              "FixedValue": {
                "Value": 1
              }
            }
          },
          "SuccessTaskList": [
            {
              "$type": "RPG.GameCore.SummonMonster",
              "SummonMonsterDataList": [
                {
                  "MonsterID": {
                    "IsDynamic": false,
                    "FixedValue": {
                      "Value": 200203201
                    }
                  },
                  "LocationType": "First",
                  "InitAnimStateName": "Appear"
                }
              ],
              "DelayRatio": {
                "IsDynamic": false,
                "FixedValue": {
                  "Value": 0
                }
              },
              "AlignYawWithCaster": true
            },
            {
              "$type": "RPG.GameCore.SummonMonster",
              "SummonMonsterDataList": [
                {
                  "MonsterID": {
                    "IsDynamic": false,
                    "FixedValue": {
                      "Value": 200203202
                    }
                  },
                  "LocationType": "Last",
                  "InitAnimStateName": "Appear"
                }
              ],
              "DelayRatio": {
                "IsDynamic": false,
                "FixedValue": {
                  "Value": 0
                }
              },
              "AlignYawWithCaster": true
            }
          ],
          "FailedTaskList": [
            {
              "$type": "RPG.GameCore.PredicateTaskList",
              "Predicate": {
                "$type": "RPG.GameCore.ByCompareCharacterNumber",
                "TargetType": {
                  "$type": "RPG.GameCore.TargetAlias",
                  "Alias": "CasterSummonedMinions"
                },
                "CompareType": "Equal",
                "CompareNumber": {
                  "IsDynamic": false,
                  "FixedValue": {
                    "Value": 1
                  }
                }
              },
              "SuccessTaskList": [
                {
                  "$type": "RPG.GameCore.PredicateTaskList",
                  "Predicate": {
                    "$type": "RPG.GameCore.ByIsTeamLocationIndexType",
                    "TargetType": {
                      "$type": "RPG.GameCore.TargetAlias",
                      "Alias": "Caster"
                    },
                    "TeamType": "TeamDark",
                    "Type": "Left"
                  },
                  "SuccessTaskList": [
                    {
                      "$type": "RPG.GameCore.SummonMonster",
                      "SummonMonsterDataList": [
                        {
                          "MonsterID": {
                            "IsDynamic": false,
                            "FixedValue": {
                              "Value": 200203201
                            }
                          },
                          "LocationType": "First",
                          "InitAnimStateName": "Appear"
                        }
                      ],
                      "AlignYawWithCaster": true
                    }
                  ],
                  "FailedTaskList": [
                    {
                      "$type": "RPG.GameCore.SummonMonster",
                      "SummonMonsterDataList": [
                        {
                          "MonsterID": {
                            "IsDynamic": false,
                            "FixedValue": {
                              "Value": 200203202
                            }
                          },
                          "LocationType": "Last",
                          "InitAnimStateName": "Appear"
                        }
                      ],
                      "AlignYawWithCaster": true
                    }
                  ]
                }
              ]
            }
          ]
        },
        {
          "$type": "RPG.GameCore.AddModifier",
          "TargetType": {
            "$type": "RPG.GameCore.TargetAlias",
            "Alias": "CasterSummonedMinions"
          },
          "ModifierName": "MCommon_Servant"
        },
        {
          "$type": "RPG.GameCore.WaitAnimState",
          "TargetType": {
            "$type": "RPG.GameCore.TargetAlias",
            "Alias": "Caster"
          },
          "AnimStateName": "Skill05",
          "NormalizedTimeEnd": {
            "IsDynamic": false,
            "FixedValue": {
              "Value": 0.5750000001862645
            }
          }
        },
        {
          "$type": "RPG.GameCore.WaitAnimState",
          "TargetType": {
            "$type": "RPG.GameCore.TargetAlias",
            "Alias": "Caster"
          },
          "AnimStateName": "Skill05",
          "NormalizedTimeEnd": {
            "IsDynamic": false,
            "FixedValue": {
              "Value": 1
            }
          }
        },
        {
          "$type": "RPG.GameCore.SkillPerformFinish"
        }
      ]
    },
    {
      "Name": "Monster_W2_Valkyrie02_00_RLElite_Skill06_Phase01",
      "TargetInfo": {
        "TargetType": "SkillTargetEntityList"
      },
      "OnStart": [
        {
          "$type": "RPG.GameCore.SetSkillTargetFormationByPos",
          "Team": "TeamDark",
          "CustomTargetType": {
            "$type": "RPG.GameCore.TargetAlias",
            "Alias": "AllTeamMember"
          },
          "IgnoreHitBoxRadius": true,
          "TargetFormation": {},
          "LeftSideFormations": [
            {},
            {},
            {},
            {}
          ],
          "RightSideFormations": [
            {},
            {},
            {},
            {}
          ]
        },
        {
          "$type": "RPG.GameCore.SetSkillTargetFormationByPos",
          "Team": "TeamLight",
          "CustomTargetType": {
            "$type": "RPG.GameCore.TargetAlias",
            "Alias": "AbilityTargetEntity"
          },
          "CustomCenterTargetType": {
            "$type": "RPG.GameCore.TargetAlias",
            "Alias": "DarkTeamCenter"
          },
          "IgnoreHitBoxRadius": true,
          "TargetFormation": {
            "LocalDelta": {
              "X": 0,
              "Y": 0,
              "Z": 7
            },
            "Yaw": 180
          },
          "LeftSideFormations": [],
          "RightSideFormations": []
        },
        {
          "$type": "RPG.GameCore.TriggerAbility",
          "TargetType": {
            "$type": "RPG.GameCore.TargetAlias",
            "Alias": "Caster"
          },
          "AbilityName": "Monster_W2_Valkyrie02_00_RLElite_Skill06_Phase02",
          "IsSkillPerform": true
        },
        {
          "$type": "RPG.GameCore.TriggerAbility",
          "TargetType": {
            "$type": "RPG.GameCore.TargetAlias",
            "Alias": "Caster"
          },
          "AbilityName": "Monster_W2_Valkyrie02_00_RLElite_Skill06_Camera",
          "IsSkillPerform": true
        },
        {
          "$type": "RPG.GameCore.LookAt",
          "TargetType": "AbilityTargetEntity"
        },
        {
          "$type": "RPG.GameCore.TriggerAnimStateWithMove",
          "TargetType": {
            "$type": "RPG.GameCore.TargetAlias",
            "Alias": "Caster"
          },
          "AnimStateName": "Skill06",
          "NormalizedTimeEnd": {
            "IsDynamic": false,
            "FixedValue": {
              "Value": 1
            }
          },
          "MovingRangeList": [
            {
              "TargetType": {
                "$type": "RPG.GameCore.TargetAlias",
                "Alias": "AbilityTargetEntity"
              },
              "IgnoreRadius": true,
              "OffsetTargetDistance": {
                "IsDynamic": false,
                "FixedValue": {
                  "Value": 2.1000000000931323
                }
              },
              "NormalizedTimeStart": {
                "IsDynamic": false,
                "FixedValue": {
                  "Value": 0.29399999999441206
                }
              },
              "NormalizedTimeEnd": {
                "IsDynamic": false,
                "FixedValue": {
                  "Value": 0.32660000026226044
                }
              }
            },
            {
              "TargetType": {
                "$type": "RPG.GameCore.TargetAlias",
                "Alias": "TeamFormation"
              },
              "IgnoreRadius": true,
              "OffsetTargetDistance": {
                "IsDynamic": false,
                "FixedValue": {
                  "Value": 0
                }
              },
              "NormalizedTimeStart": {
                "IsDynamic": false,
                "FixedValue": {
                  "Value": 0.7390000000596046
                }
              },
              "NormalizedTimeEnd": {
                "IsDynamic": false,
                "FixedValue": {
                  "Value": 0.8380000002216548
                }
              }
            }
          ]
        },
        {
          "$type": "RPG.GameCore.TriggerAnimState",
          "AnimLogicState": "Idle",
          "AnimStateName": "StandBy"
        },
        {
          "$type": "RPG.GameCore.LookAt",
          "TargetType": "TeamFormation"
        }
      ]
    },
    {
      "Name": "Monster_W2_Valkyrie02_00_RLElite_Skill06_Phase02",
      "TargetInfo": {
        "TargetType": "SkillTargetEntityList"
      },
      "OnStart": [
        {
          "$type": "RPG.GameCore.WaitAnimState",
          "TargetType": {
            "$type": "RPG.GameCore.TargetAlias",
            "Alias": "Caster"
          },
          "AnimStateName": "Skill06",
          "NormalizedTimeEnd": {
            "IsDynamic": false,
            "FixedValue": {
              "Value": 0.13000000012107193
            }
          }
        },
        {
          "$type": "RPG.GameCore.SkillExecutionStart"
        },
        {
          "$type": "RPG.GameCore.RemoveModifier",
          "TargetType": {
            "$type": "RPG.GameCore.TargetAlias",
            "Alias": "Caster"
          },
          "ModifierName": "MMonster_W2_Valkyrie02_00_DynamicAI_ToastAndEffect"
        },
        {
          "$type": "RPG.GameCore.WaitAnimState",
          "TargetType": {
            "$type": "RPG.GameCore.TargetAlias",
            "Alias": "Caster"
          },
          "AnimStateName": "Skill06",
          "NormalizedTimeEnd": {
            "IsDynamic": false,
            "FixedValue": {
              "Value": 0.3289999996777624
            }
          }
        },
        {
          "$type": "RPG.GameCore.DamageByAttackProperty",
          "TargetType": {
            "$type": "RPG.GameCore.TargetAlias",
            "Alias": "AbilityTargetEntity"
          },
          "AttackProperty": {
            "DamagePercentage": {
              "IsDynamic": true,
              "PostfixExpr": {
                "OpCodes": "AQAK",
                "FixedValues": [],
                "DynamicHashes": [
                  -1122549516
                ]
              }
            },
            "HitSplitRatio": {
              "IsDynamic": false,
              "FixedValue": {
                "Value": 0.25000000023283064
              }
            },
            "SPHitRatio": {
              "IsDynamic": false,
              "FixedValue": {
                "Value": 1
              }
            },
            "AttackType": "Normal",
            "HitAnimation": "Hit",
            "HitEffect": "Effects/Eff_Prefab/Eff_Monster/Eff_W2_Valkyrie02_00/Eff_Monster_W2_Valkyrie02_00_Skill06_Hit01_01.prefab",
            "HitEffectHeight": 0.95
          },
          "DisplayData": {
            "UIMessageHeight": 1.2
          }
        },
        {
          "$type": "RPG.GameCore.VCameraConfigChange",
          "CameraConfig": {
            "ShakeTemplateName": "Common_Rapid_Light"
          }
        },
        {
          "$type": "RPG.GameCore.WaitAnimState",
          "TargetType": {
            "$type": "RPG.GameCore.TargetAlias",
            "Alias": "Caster"
          },
          "AnimStateName": "Skill06",
          "NormalizedTimeEnd": {
            "IsDynamic": false,
            "FixedValue": {
              "Value": 0.3530000001192093
            }
          }
        },
        {
          "$type": "RPG.GameCore.DamageByAttackProperty",
          "TargetType": {
            "$type": "RPG.GameCore.TargetAlias",
            "Alias": "AbilityTargetEntity"
          },
          "AttackProperty": {
            "DamagePercentage": {
              "IsDynamic": true,
              "PostfixExpr": {
                "OpCodes": "AQAK",
                "FixedValues": [],
                "DynamicHashes": [
                  -1122549516
                ]
              }
            },
            "HitSplitRatio": {
              "IsDynamic": false,
              "FixedValue": {
                "Value": 0.25000000023283064
              }
            },
            "SPHitRatio": {
              "IsDynamic": false,
              "FixedValue": {
                "Value": 1
              }
            },
            "AttackType": "Normal",
            "HitAnimation": "Hit",
            "HitEffect": "Effects/Eff_Prefab/Eff_Monster/Eff_W2_Valkyrie02_00/Eff_Monster_W2_Valkyrie02_00_Skill06_Hit01_02.prefab",
            "HitEffectHeight": 0.95
          },
          "DisplayData": {
            "UIMessageHeight": 1.2
          }
        },
        {
          "$type": "RPG.GameCore.VCameraConfigChange",
          "CameraConfig": {
            "ShakeTemplateName": "Common_Rapid_Light"
          }
        },
        {
          "$type": "RPG.GameCore.WaitAnimState",
          "TargetType": {
            "$type": "RPG.GameCore.TargetAlias",
            "Alias": "Caster"
          },
          "AnimStateName": "Skill06",
          "NormalizedTimeEnd": {
            "IsDynamic": false,
            "FixedValue": {
              "Value": 0.44000000040978193
            }
          }
        },
        {
          "$type": "RPG.GameCore.DamageByAttackProperty",
          "TargetType": {
            "$type": "RPG.GameCore.TargetAlias",
            "Alias": "AbilityTargetEntity"
          },
          "AttackProperty": {
            "DamagePercentage": {
              "IsDynamic": true,
              "PostfixExpr": {
                "OpCodes": "AQAK",
                "FixedValues": [],
                "DynamicHashes": [
                  -1122549516
                ]
              }
            },
            "HitSplitRatio": {
              "IsDynamic": false,
              "FixedValue": {
                "Value": 0.25000000023283064
              }
            },
            "SPHitRatio": {
              "IsDynamic": false,
              "FixedValue": {
                "Value": 1
              }
            },
            "AttackType": "Normal",
            "HitAnimation": "Hit",
            "HitEffect": "Effects/Eff_Prefab/Eff_Monster/Eff_W2_Valkyrie02_00/Eff_Monster_W2_Valkyrie02_00_Skill06_Hit01_04.prefab",
            "HitEffectHeight": 1.1
          },
          "DisplayData": {
            "UIMessageHeight": 1.2
          }
        },
        {
          "$type": "RPG.GameCore.VCameraConfigChange",
          "CameraConfig": {
            "ShakeTemplateName": "Common_Rapid_Light"
          }
        },
        {
          "$type": "RPG.GameCore.WaitAnimState",
          "TargetType": {
            "$type": "RPG.GameCore.TargetAlias",
            "Alias": "Caster"
          },
          "AnimStateName": "Skill06",
          "NormalizedTimeEnd": {
            "IsDynamic": false,
            "FixedValue": {
              "Value": 0.4769999999552965
            }
          }
        },
        {
          "$type": "RPG.GameCore.DamageByAttackProperty",
          "TargetType": {
            "$type": "RPG.GameCore.TargetAlias",
            "Alias": "AbilityTargetEntity"
          },
          "AttackProperty": {
            "DamagePercentage": {
              "IsDynamic": true,
              "PostfixExpr": {
                "OpCodes": "AQAK",
                "FixedValues": [],
                "DynamicHashes": [
                  -1122549516
                ]
              }
            },
            "HitSplitRatio": {
              "IsDynamic": false,
              "FixedValue": {
                "Value": 0.25000000023283064
              }
            },
            "SPHitRatio": {
              "IsDynamic": false,
              "FixedValue": {
                "Value": 1
              }
            },
            "AttackType": "Normal",
            "HitAnimation": "Hit",
            "HitEffect": "Effects/Eff_Prefab/Eff_Monster/Eff_W2_Valkyrie02_00/Eff_Monster_W2_Valkyrie02_00_Skill06_Hit01_05.prefab",
            "HitEffectHeight": 1.1
          },
          "DisplayData": {
            "UIMessageHeight": 1.2
          }
        },
        {
          "$type": "RPG.GameCore.DamagePerformFinish"
        },
        {
          "$type": "RPG.GameCore.VCameraConfigChange",
          "CameraConfig": {
            "ShakeTemplateName": "Common_Rapid_Middle"
          }
        },
        {
          "$type": "RPG.GameCore.RemoveModifier",
          "TargetType": {
            "$type": "RPG.GameCore.TargetAlias",
            "Alias": "AllEnemy"
          },
          "ModifierName": "MMonster_W2_Valkyrie02_00_Skill04_Target",
          "OnlyRemoveCasterAdded": true
        },
        {
          "$type": "RPG.GameCore.DefineDynamicValue",
          "TargetType": {
            "$type": "RPG.GameCore.TargetAlias",
            "Alias": "Caster"
          },
          "DynamicKey": "W2_Valkyrie02_00_Skill04_TriggerFlag",
          "ContextScope": "TargetEntity"
        },
        {
          "$type": "RPG.GameCore.WaitAnimState",
          "TargetType": {
            "$type": "RPG.GameCore.TargetAlias",
            "Alias": "Caster"
          },
          "AnimStateName": "Skill06",
          "NormalizedTimeEnd": {
            "IsDynamic": false,
            "FixedValue": {
              "Value": 0.8030000005383044
            }
          }
        },
        {
          "$type": "RPG.GameCore.SkillPerformFinish"
        }
      ]
    }
  ],
  "GlobalModifiers": {
    "MMonster_W2_Valkyrie02_00_RLElite_RemoveOneMore": {
      "_CallbackList": [
        {
          "Event": "OnPhase2",
          "CallbackConfig": [
            {
              "$type": "RPG.GameCore.PredicateTaskList",
              "Predicate": {
                "$type": "RPG.GameCore.ByAnd",
                "PredicateList": [
                  {
                    "$type": "RPG.GameCore.ByTargetListAny",
                    "TargetType": {
                      "$type": "RPG.GameCore.TargetAlias",
                      "Alias": "AllEnemy"
                    },
                    "Predicate": {
                      "$type": "RPG.GameCore.ByIsContainModifier",
                      "TargetType": {
                        "$type": "RPG.GameCore.TargetAlias",
                        "Alias": "ParamEntity"
                      },
                      "ModifierName": "MCommon_Shake"
                    }
                  },
                  {
                    "$type": "RPG.GameCore.ByIsContainModifier",
                    "TargetType": {
                      "$type": "RPG.GameCore.TargetAlias",
                      "Alias": "ModifierOwnerEntity"
                    },
                    "ModifierName": "MMonster_W2_Valkyrie02_00_DynamicAI_ToastAndEffect",
                    "Inverse": true
                  },
                  {
                    "$type": "RPG.GameCore.ByContainBehaviorFlag",
                    "TargetType": {
                      "$type": "RPG.GameCore.TargetAlias",
                      "Alias": "ModifierOwnerEntity"
                    },
                    "Flag": "STAT_CTRL",
                    "Inverse": true
                  },
                  {
                    "$type": "RPG.GameCore.ByContainBehaviorFlag",
                    "TargetType": {
                      "$type": "RPG.GameCore.TargetAlias",
                      "Alias": "ModifierOwnerEntity"
                    },
                    "Flag": "DisableAction",
                    "Inverse": true
                  },
                  {
                    "$type": "RPG.GameCore.ByContainBehaviorFlag",
                    "TargetType": {
                      "$type": "RPG.GameCore.TargetAlias",
                      "Alias": "ModifierOwnerEntity"
                    },
                    "Flag": "Break",
                    "Inverse": true
                  },
                  {
                    "$type": "RPG.GameCore.ByCompareDynamicValue",
                    "TargetType": {
                      "$type": "RPG.GameCore.TargetAlias",
                      "Alias": "ModifierOwnerEntity"
                    },
                    "DynamicKey": "W2_Valkyrie02_00_Skill04_TriggerFlag",
                    "ContextScope": "TargetEntity",
                    "CompareType": "Equal",
                    "CompareValue": {
                      "IsDynamic": false,
                      "FixedValue": {
                        "Value": 0
                      }
                    }
                  }
                ]
              },
              "SuccessTaskList": [
                {
                  "$type": "RPG.GameCore.DefineDynamicValue",
                  "TargetType": {
                    "$type": "RPG.GameCore.TargetAlias",
                    "Alias": "Caster"
                  },
                  "DynamicKey": "W2_Valkyrie02_00_Skill04_TriggerFlag",
                  "ResetValue": {
                    "IsDynamic": false,
                    "FixedValue": {
                      "Value": 1
                    }
                  },
                  "ContextScope": "TargetEntity"
                },
                {
                  "$type": "RPG.GameCore.SetDynamicValueByProperty",
                  "DynamicKey": "W2_Valkyrie02_00_Skill04_CurrentActionDelay",
                  "ReadTargetType": {
                    "$type": "RPG.GameCore.TargetAlias",
                    "Alias": "ModifierOwnerEntity"
                  },
                  "Value": "ActionDelay"
                },
                {
                  "$type": "RPG.GameCore.Retarget",
                  "TargetType": {
                    "$type": "RPG.GameCore.TargetAlias",
                    "Alias": "AllEnemy"
                  },
                  "Predicate": {
                    "$type": "RPG.GameCore.ByAny",
                    "PredicateList": [
                      {
                        "$type": "RPG.GameCore.ByAnd",
                        "PredicateList": [
                          {
                            "$type": "RPG.GameCore.ByCompareAbilityProperty",
                            "TargetType": {
                              "$type": "RPG.GameCore.TargetAlias",
                              "Alias": "ParamEntity"
                            },
                            "Property": "ActionDelay",
                            "CompareType": "Greater",
                            "CompareValue": {
                              "IsDynamic": true,
                              "PostfixExpr": {
                                "OpCodes": "AQAK",
                                "FixedValues": [],
                                "DynamicHashes": [
                                  -1719715961
                                ]
                              }
                            }
                          },
                          {
                            "$type": "RPG.GameCore.ByIsContainModifier",
                            "TargetType": {
                              "$type": "RPG.GameCore.TargetAlias",
                              "Alias": "ParamEntity"
                            },
                            "ModifierName": "MCommon_Shake"
                          }
                        ]
                      },
                      {
                        "$type": "RPG.GameCore.ByIsContainModifier",
                        "TargetType": {
                          "$type": "RPG.GameCore.TargetAlias",
                          "Alias": "ParamEntity"
                        },
                        "ModifierName": "MCommon_Shake"
                      }
                    ]
                  },
                  "MaxNumber": {
                    "IsDynamic": false,
                    "FixedValue": {
                      "Value": 1
                    }
                  },
                  "TaskList": [
                    {
                      "$type": "RPG.GameCore.TurnInsertAbility",
                      "AbilityName": "Monster_W2_Valkyrie02_00_RLElite_Skill04_Insert_Phase01",
                      "AbilityTarget": {
                        "$type": "RPG.GameCore.TargetAlias",
                        "Alias": "ParamEntity"
                      },
                      "AbortBehaviorFlags": [
                        "STAT_CTRL",
                        "DisableAction",
                        "Break"
                      ],
                      "InsertAbilityPriority": "MonsterChangeState",
                      "ShowInActionBar": true
                    }
                  ]
                }
              ],
              "FailedTaskList": [
                {
                  "$type": "RPG.GameCore.PredicateTaskList",
                  "Predicate": {
                    "$type": "RPG.GameCore.ByIsContainModifier",
                    "TargetType": {
                      "$type": "RPG.GameCore.TargetAlias",
                      "Alias": "ModifierOwnerEntity"
                    },
                    "ModifierName": "OneMorePerTurn"
                  },
                  "SuccessTaskList": [],
                  "FailedTaskList": [
                    {
                      "$type": "RPG.GameCore.AddModifier",
                      "TargetType": {
                        "$type": "RPG.GameCore.TargetAlias",
                        "Alias": "ModifierOwnerEntity"
                      },
                      "ModifierName": "OneMorePerTurn"
                    }
                  ]
                }
              ]
            },
            {
              "$type": "RPG.GameCore.PredicateTaskList",
              "Predicate": {
                "$type": "RPG.GameCore.ByIsContainModifier",
                "TargetType": {
                  "$type": "RPG.GameCore.TargetAlias",
                  "Alias": "ModifierOwnerEntity"
                },
                "ModifierName": "MMonster_W2_Valkyrie02_00_DynamicAI_ToastAndEffect"
              },
              "SuccessTaskList": [
                {
                  "$type": "RPG.GameCore.RemoveModifier",
                  "TargetType": {
                    "$type": "RPG.GameCore.TargetAlias",
                    "Alias": "ModifierOwnerEntity"
                  },
                  "ModifierName": "OneMorePerTurn"
                }
              ]
            }
          ]
        },
        {
          "Event": "OnListenCharacterDie",
          "CallbackConfig": [
            {
              "$type": "RPG.GameCore.PredicateTaskList",
              "Predicate": {
                "$type": "RPG.GameCore.ByCompareCharacterNumber",
                "TargetType": {
                  "$type": "RPG.GameCore.TargetAlias",
                  "Alias": "CasterSummonedMinions"
                },
                "CompareType": "Less",
                "CompareNumber": {
                  "IsDynamic": false,
                  "FixedValue": {
                    "Value": 1
                  }
                }
              },
              "SuccessTaskList": [
                {
                  "$type": "RPG.GameCore.RemoveModifier",
                  "TargetType": {
                    "$type": "RPG.GameCore.TargetAlias",
                    "Alias": "AllLightTeam"
                  },
                  "ModifierName": "MMonster_W2_Valkyrie02_00_RLElite_AimMark",
                  "OnlyRemoveCasterAdded": true
                }
              ]
            }
          ]
        },
        {
          "Event": "OnBeingBreak",
          "CallbackConfig": [
            {
              "$type": "RPG.GameCore.PredicateTaskList",
              "Predicate": {
                "$type": "RPG.GameCore.ByAny",
                "PredicateList": [
                  {
                    "$type": "RPG.GameCore.ByCompareDynamicValue",
                    "TargetType": {
                      "$type": "RPG.GameCore.TargetAlias",
                      "Alias": "ModifierOwnerEntity"
                    },
                    "DynamicKey": "W2_Valkyrie02_00_AICounter",
                    "ContextScope": "TargetEntity",
                    "CompareType": "Equal",
                    "CompareValue": {
                      "IsDynamic": false,
                      "FixedValue": {
                        "Value": 2
                      }
                    }
                  },
                  {
                    "$type": "RPG.GameCore.ByCompareDynamicValue",
                    "TargetType": {
                      "$type": "RPG.GameCore.TargetAlias",
                      "Alias": "ModifierOwnerEntity"
                    },
                    "DynamicKey": "W2_Valkyrie02_00_AICounter",
                    "ContextScope": "TargetEntity",
                    "CompareType": "Equal",
                    "CompareValue": {
                      "IsDynamic": false,
                      "FixedValue": {
                        "Value": 4
                      }
                    }
                  }
                ]
              },
              "SuccessTaskList": [
                {
                  "$type": "RPG.GameCore.SetDynamicValueByAddValue",
                  "TargetType": {
                    "$type": "RPG.GameCore.TargetAlias",
                    "Alias": "ModifierOwnerEntity"
                  },
                  "Key": "W2_Valkyrie02_00_AICounter",
                  "AddValue": {
                    "IsDynamic": false,
                    "FixedValue": {
                      "Value": -1
                    }
                  },
                  "Min": {
                    "IsDynamic": false,
                    "FixedValue": {
                      "Value": 0
                    }
                  },
                  "Max": {
                    "IsDynamic": false,
                    "FixedValue": {
                      "Value": 8
                    }
                  },
                  "ContextScope": "TargetEntity"
                }
              ],
              "FailedTaskList": []
            },
            {
              "$type": "RPG.GameCore.PredicateTaskList",
              "Predicate": {
                "$type": "RPG.GameCore.ByIsContainModifier",
                "TargetType": {
                  "$type": "RPG.GameCore.TargetAlias",
                  "Alias": "ModifierOwnerEntity"
                },
                "ModifierName": "OneMorePerTurn"
              },
              "FailedTaskList": [
                {
                  "$type": "RPG.GameCore.AddModifier",
                  "TargetType": {
                    "$type": "RPG.GameCore.TargetAlias",
                    "Alias": "ModifierOwnerEntity"
                  },
                  "ModifierName": "OneMorePerTurn"
                }
              ]
            },
            {
              "$type": "RPG.GameCore.RemoveModifier",
              "TargetType": {
                "$type": "RPG.GameCore.TargetAlias",
                "Alias": "Caster"
              },
              "ModifierName": "MMonster_W2_Valkyrie02_00_DynamicAI_ToastAndEffect"
            },
            {
              "$type": "RPG.GameCore.RemoveModifier",
              "TargetType": {
                "$type": "RPG.GameCore.TargetAlias",
                "Alias": "AllEnemy"
              },
              "ModifierName": "MMonster_W2_Valkyrie02_00_Skill04_Target"
            },
            {
              "$type": "RPG.GameCore.RemoveModifier",
              "TargetType": {
                "$type": "RPG.GameCore.TargetAlias",
                "Alias": "AllEnemy"
              },
              "ModifierName": "MMonster_W2_Valkyrie02_00_RLElite_AimMark"
            },
            {
              "$type": "RPG.GameCore.DefineDynamicValue",
              "TargetType": {
                "$type": "RPG.GameCore.TargetAlias",
                "Alias": "Caster"
              },
              "DynamicKey": "W2_Valkyrie02_00_Skill04_TriggerFlag",
              "ContextScope": "TargetEntity"
            }
          ]
        },
        {
          "Event": "OnListenModifierAdd",
          "CallbackConfig": [
            {
              "$type": "RPG.GameCore.PredicateTaskList",
              "Predicate": {
                "$type": "RPG.GameCore.ByAnd",
                "PredicateList": [
                  {
                    "$type": "RPG.GameCore.ByIsTurnActionEntity",
                    "TargetType": {
                      "$type": "RPG.GameCore.TargetAlias",
                      "Alias": "ModifierOwnerEntity"
                    },
                    "Inverse": true
                  },
                  {
                    "$type": "RPG.GameCore.ByIsContainModifier",
                    "TargetType": {
                      "$type": "RPG.GameCore.TargetAlias",
                      "Alias": "ParamEntity"
                    },
                    "ModifierName": "MCommon_Shake"
                  },
                  {
                    "$type": "RPG.GameCore.ByIsContainModifier",
                    "TargetType": {
                      "$type": "RPG.GameCore.TargetAlias",
                      "Alias": "ModifierOwnerEntity"
                    },
                    "ModifierName": "MMonster_W2_Valkyrie02_00_DynamicAI_ToastAndEffect",
                    "Inverse": true
                  },
                  {
                    "$type": "RPG.GameCore.ByContainBehaviorFlag",
                    "TargetType": {
                      "$type": "RPG.GameCore.TargetAlias",
                      "Alias": "ModifierOwnerEntity"
                    },
                    "Flag": "STAT_CTRL",
                    "Inverse": true
                  },
                  {
                    "$type": "RPG.GameCore.ByContainBehaviorFlag",
                    "TargetType": {
                      "$type": "RPG.GameCore.TargetAlias",
                      "Alias": "ModifierOwnerEntity"
                    },
                    "Flag": "DisableAction",
                    "Inverse": true
                  },
                  {
                    "$type": "RPG.GameCore.ByContainBehaviorFlag",
                    "TargetType": {
                      "$type": "RPG.GameCore.TargetAlias",
                      "Alias": "ModifierOwnerEntity"
                    },
                    "Flag": "Break",
                    "Inverse": true
                  },
                  {
                    "$type": "RPG.GameCore.ByCompareDynamicValue",
                    "TargetType": {
                      "$type": "RPG.GameCore.TargetAlias",
                      "Alias": "ModifierOwnerEntity"
                    },
                    "DynamicKey": "W2_Valkyrie02_00_Skill04_TriggerFlag",
                    "ContextScope": "TargetEntity",
                    "CompareType": "Equal",
                    "CompareValue": {
                      "IsDynamic": false,
                      "FixedValue": {
                        "Value": 0
                      }
                    }
                  }
                ]
              },
              "SuccessTaskList": [
                {
                  "$type": "RPG.GameCore.DefineDynamicValue",
                  "TargetType": {
                    "$type": "RPG.GameCore.TargetAlias",
                    "Alias": "Caster"
                  },
                  "DynamicKey": "W2_Valkyrie02_00_Skill04_TriggerFlag",
                  "ResetValue": {
                    "IsDynamic": false,
                    "FixedValue": {
                      "Value": 1
                    }
                  },
                  "ContextScope": "TargetEntity"
                },
                {
                  "$type": "RPG.GameCore.SetDynamicValueByProperty",
                  "DynamicKey": "W2_Valkyrie02_00_Skill04_CurrentActionDelay",
                  "ReadTargetType": {
                    "$type": "RPG.GameCore.TargetAlias",
                    "Alias": "ModifierOwnerEntity"
                  },
                  "Value": "ActionDelay"
                },
                {
                  "$type": "RPG.GameCore.Retarget",
                  "TargetType": {
                    "$type": "RPG.GameCore.TargetAlias",
                    "Alias": "AllEnemy"
                  },
                  "Predicate": {
                    "$type": "RPG.GameCore.ByAny",
                    "PredicateList": [
                      {
                        "$type": "RPG.GameCore.ByAnd",
                        "PredicateList": [
                          {
                            "$type": "RPG.GameCore.ByCompareAbilityProperty",
                            "TargetType": {
                              "$type": "RPG.GameCore.TargetAlias",
                              "Alias": "ParamEntity"
                            },
                            "Property": "ActionDelay",
                            "CompareType": "Greater",
                            "CompareValue": {
                              "IsDynamic": true,
                              "PostfixExpr": {
                                "OpCodes": "AQAK",
                                "FixedValues": [],
                                "DynamicHashes": [
                                  -1719715961
                                ]
                              }
                            }
                          },
                          {
                            "$type": "RPG.GameCore.ByIsContainModifier",
                            "TargetType": {
                              "$type": "RPG.GameCore.TargetAlias",
                              "Alias": "ParamEntity"
                            },
                            "ModifierName": "MCommon_Shake"
                          }
                        ]
                      },
                      {
                        "$type": "RPG.GameCore.ByIsContainModifier",
                        "TargetType": {
                          "$type": "RPG.GameCore.TargetAlias",
                          "Alias": "ParamEntity"
                        },
                        "ModifierName": "MCommon_Shake"
                      }
                    ]
                  },
                  "MaxNumber": {
                    "IsDynamic": false,
                    "FixedValue": {
                      "Value": 1
                    }
                  },
                  "TaskList": [
                    {
                      "$type": "RPG.GameCore.TurnInsertAbility",
                      "AbilityName": "Monster_W2_Valkyrie02_00_RLElite_Skill04_Insert_Phase01",
                      "AbilityTarget": {
                        "$type": "RPG.GameCore.TargetAlias",
                        "Alias": "ParamEntity"
                      },
                      "AbortBehaviorFlags": [
                        "STAT_CTRL",
                        "DisableAction",
                        "Break"
                      ],
                      "InsertAbilityPriority": "MonsterChangeState",
                      "ShowInActionBar": true
                    }
                  ]
                }
              ]
            }
          ]
        }
      ]
    },
    "MMonster_W2_Valkyrie02_00_RLElite_AimMark": {
      "BehaviorFlagList": [
        "RemoveWhenCasterDead",
        "AttackSign"
      ],
      "UIConfig": {
        "UIEffectPath": "UI/Battle/Widget/TeamInfoStatusEff/TeamInfoStatus_Aimed.prefab",
        "UIPosition": "UI_TOP",
        "ModifierUIPriority": "Debuff"
      },
      "_CallbackList": [
        {
          "Event": "OnCreate",
          "CallbackConfig": [
            {
              "$type": "RPG.GameCore.TriggerEffect",
              "TargetType": {
                "$type": "RPG.GameCore.TargetAlias",
                "Alias": "ModifierOwnerEntity"
              },
              "EffectPath": "Effects/Eff_Prefab/Eff_Monster/Eff_W2_Valkyrie02_00/Eff_Monster_W2_Valkyrie02_00_Skill05_Hit01.prefab"
            }
          ]
        }
      ],
      "Stacking": "ReplaceByCaster"
    }
  }
}