{
  "AbilityList": [
    {
      "Modifiers": {
        "Monster_AetherDivide_W1_Soldier01_01_BreakEffectController": {
          "_CallbackList": [
            {
              "Event": "OnCreate",
              "CallbackConfig": [
                {
                  "$type": "RPG.GameCore.PredicateTaskList",
                  "Predicate": {
                    "$type": "RPG.GameCore.ByIsContainModifier",
                    "TargetType": {
                      "$type": "RPG.GameCore.TargetAlias",
                      "Alias": "Caster"
                    },
                    "ModifierName": "StanceBreakState"
                  },
                  "SuccessTaskList": [],
                  "FailedTaskList": [
                    {
                      "$type": "RPG.GameCore.AddModifier",
                      "TargetType": {
                        "$type": "RPG.GameCore.TargetAlias",
                        "Alias": "ModifierOwnerEntity"
                      },
                      "ModifierName": "Monster_AetherDivide_W1_Soldier01_01_FireEffectController"
                    }
                  ]
                }
              ]
            },
            {
              "Event": "OnBeingBreak",
              "CallbackConfig": [
                {
                  "$type": "RPG.GameCore.RemoveModifier",
                  "TargetType": {
                    "$type": "RPG.GameCore.TargetAlias",
                    "Alias": "ModifierOwnerEntity"
                  },
                  "ModifierName": "Monster_AetherDivide_W1_Soldier01_01_FireEffectController"
                }
              ]
            },
            {
              "Event": "OnEndBreak",
              "CallbackConfig": [
                {
                  "$type": "RPG.GameCore.AddModifier",
                  "TargetType": {
                    "$type": "RPG.GameCore.TargetAlias",
                    "Alias": "ModifierOwnerEntity"
                  },
                  "ModifierName": "Monster_AetherDivide_W1_Soldier01_01_FireEffectController"
                }
              ]
            }
          ]
        },
        "Monster_AetherDivide_W1_Soldier01_01_FireEffectController": {
          "_CallbackList": [
            {
              "Event": "OnCreate",
              "CallbackConfig": [
                {
                  "$type": "RPG.GameCore.ModifierAttachEffect",
                  "TargetType": {
                    "$type": "RPG.GameCore.TargetAlias",
                    "Alias": "ModifierOwnerEntity"
                  },
                  "EffectPath": "Effects/Eff_Prefab/Eff_Monster/Eff_W1_Soldier01_01/Eff_Monster_W1_Soldier01_01_Common_Chest_M.prefab",
                  "MinMutexTime": -1,
                  "MutexType": "Entity"
                },
                {
                  "$type": "RPG.GameCore.ModifierAttachEffect",
                  "TargetType": {
                    "$type": "RPG.GameCore.TargetAlias",
                    "Alias": "ModifierOwnerEntity"
                  },
                  "EffectPath": "Effects/Eff_Prefab/Eff_Monster/Eff_W1_Soldier01_01/Eff_Monster_W1_Soldier01_01_Common_Head_M.prefab",
                  "MinMutexTime": -1,
                  "MutexType": "Entity"
                },
                {
                  "$type": "RPG.GameCore.ModifierAttachEffect",
                  "TargetType": {
                    "$type": "RPG.GameCore.TargetAlias",
                    "Alias": "ModifierOwnerEntity"
                  },
                  "EffectPath": "Effects/Eff_Prefab/Eff_Monster/Eff_W1_Soldier01_01/Eff_Monster_W1_Soldier01_01_Common_Knee_R.prefab",
                  "MinMutexTime": -1,
                  "MutexType": "Entity"
                },
                {
                  "$type": "RPG.GameCore.ModifierAttachEffect",
                  "TargetType": {
                    "$type": "RPG.GameCore.TargetAlias",
                    "Alias": "ModifierOwnerEntity"
                  },
                  "EffectPath": "Effects/Eff_Prefab/Eff_Monster/Eff_W1_Soldier01_01/Eff_Monster_W1_Soldier01_01_Common_Weapon.prefab",
                  "MinMutexTime": -1,
                  "MutexType": "Entity"
                }
              ]
            },
            {
              "Event": "OnDestroy",
              "CallbackConfig": [
                {
                  "$type": "RPG.GameCore.TriggerEffect",
                  "TargetType": {
                    "$type": "RPG.GameCore.TargetAlias",
                    "Alias": "ModifierOwnerEntity"
                  },
                  "EffectPath": "Effects/Eff_Prefab/Eff_Monster/Eff_W1_Soldier01_01/Eff_Monster_W1_Soldier01_01_Common_Remove.prefab"
                }
              ]
            }
          ]
        }
      },
      "Name": "Monster_AetherDivide_W1_Soldier01_01_PassiveSkillInitiate",
      "TargetInfo": {
        "TargetType": "Caster"
      },
      "OnStart": [
        {
          "$type": "RPG.GameCore.AddModifier",
          "TargetType": {
            "$type": "RPG.GameCore.TargetAlias",
            "Alias": "Caster"
          },
          "ModifierName": "Monster_AetherDivide_W1_Soldier01_01_BreakEffectController"
        },
        {
          "$type": "RPG.GameCore.AddModifier",
          "TargetType": {
            "$type": "RPG.GameCore.TargetAlias",
            "Alias": "Caster"
          },
          "ModifierName": "Monster_AetherDivide_Common_Ultra"
        }
      ]
    },
    {
      "Name": "Monster_AetherDivide_W1_Soldier01_01_Skill01_Phase01",
      "TargetInfo": {
        "TargetType": "SkillTargetEntityList"
      },
      "OnStart": [
        {
          "$type": "RPG.GameCore.TriggerAbility",
          "TargetType": {
            "$type": "RPG.GameCore.TargetAlias",
            "Alias": "Caster"
          },
          "AbilityName": "Monster_AetherDivide_W1_Soldier01_01_Skill01_Phase02",
          "IsSkillPerform": true
        },
        {
          "$type": "RPG.GameCore.TriggerAbility",
          "TargetType": {
            "$type": "RPG.GameCore.TargetAlias",
            "Alias": "Caster"
          },
          "AbilityName": "Monster_W1_Soldier01_01_Skill01_Camera",
          "IsSkillPerform": true
        },
        {
          "$type": "RPG.GameCore.TriggerAnimState",
          "AnimStateName": "Skill05_Charge",
          "NormalizedTimeEnd": {
            "IsDynamic": false,
            "FixedValue": {
              "Value": 1
            }
          },
          "NormalizedTransitionDuration": {
            "IsDynamic": false,
            "FixedValue": {
              "Value": 0.1500000001396984
            }
          }
        },
        {
          "$type": "RPG.GameCore.LookAt",
          "TargetType": "AbilityTargetEntity"
        },
        {
          "$type": "RPG.GameCore.MoveToTargetList",
          "TargetType": {
            "$type": "RPG.GameCore.TargetAlias",
            "Alias": "Caster"
          },
          "AnimStateName": "Skill05_Attack",
          "NormalizedTimeEnd": {
            "IsDynamic": false,
            "FixedValue": {
              "Value": 1
            }
          },
          "NormalizedTimeWait": {
            "IsDynamic": false,
            "FixedValue": {
              "Value": 0.8000000007450581
            }
          },
          "MovingRangeList": [
            {
              "TargetType": {
                "$type": "RPG.GameCore.TargetAlias",
                "Alias": "AbilityTargetEntity"
              },
              "OffsetTargetDistance": {
                "IsDynamic": false,
                "FixedValue": {
                  "Value": 0.40000000037252903
                }
              },
              "NormalizedTimeStart": {
                "IsDynamic": false,
                "FixedValue": {
                  "Value": 0.162999999942258
                }
              },
              "NormalizedTimeEnd": {
                "IsDynamic": false,
                "FixedValue": {
                  "Value": 0.3449999999720603
                }
              }
            },
            {
              "TargetType": {
                "$type": "RPG.GameCore.TargetAlias",
                "Alias": "TeamFormation"
              },
              "IgnoreRadius": true,
              "OffsetTargetDistance": {
                "IsDynamic": false,
                "FixedValue": {
                  "Value": 0
                }
              },
              "NormalizedTimeStart": {
                "IsDynamic": false,
                "FixedValue": {
                  "Value": 0.6260000001639128
                }
              },
              "NormalizedTimeEnd": {
                "IsDynamic": false,
                "FixedValue": {
                  "Value": 0.7630000005010515
                }
              }
            }
          ]
        },
        {
          "$type": "RPG.GameCore.TriggerAnimState",
          "AnimLogicState": "Idle",
          "NormalizedTransitionDuration": {
            "IsDynamic": false,
            "FixedValue": {
              "Value": 0.25000000023283064
            }
          }
        }
      ]
    },
    {
      "Name": "Monster_AetherDivide_W1_Soldier01_01_Skill01_Phase02",
      "TargetInfo": {
        "TargetType": "SkillTargetEntityList"
      },
      "OnStart": [
        {
          "$type": "RPG.GameCore.WaitAnimState",
          "TargetType": {
            "$type": "RPG.GameCore.TargetAlias",
            "Alias": "Caster"
          },
          "AnimStateName": "Skill05_Attack",
          "NormalizedTimeEnd": {
            "IsDynamic": false,
            "FixedValue": {
              "Value": 0.09000000008381903
            }
          }
        },
        {
          "$type": "RPG.GameCore.SkillExecutionStart"
        },
        {
          "$type": "RPG.GameCore.WaitAnimState",
          "TargetType": {
            "$type": "RPG.GameCore.TargetAlias",
            "Alias": "Caster"
          },
          "AnimStateName": "Skill05_Attack",
          "NormalizedTimeEnd": {
            "IsDynamic": false,
            "FixedValue": {
              "Value": 0.3469999998342246
            }
          }
        },
        {
          "$type": "RPG.GameCore.SetDynamicValue",
          "DynamicKey": "_UltraCharge",
          "Value": {
            "IsDynamic": true,
            "PostfixExpr": {
              "OpCodes": "AQAAAAIK",
              "FixedValues": [
                {
                  "Value": 1
                }
              ],
              "DynamicHashes": [
                24444579
              ]
            }
          }
        },
        {
          "$type": "RPG.GameCore.DamageByAttackProperty",
          "TargetType": {
            "$type": "RPG.GameCore.TargetAlias",
            "Alias": "AbilityTargetEntity"
          },
          "AttackProperty": {
            "DamageType": "Fire",
            "DamagePercentage": {
              "IsDynamic": true,
              "PostfixExpr": {
                "OpCodes": "AQAK",
                "FixedValues": [],
                "DynamicHashes": [
                  -1126825319
                ]
              }
            },
            "SPHitRatio": {
              "IsDynamic": false,
              "FixedValue": {
                "Value": 1
              }
            },
            "HitAnimation": "Hit_H",
            "HitTimeSlowType": "Slash",
            "HitTimeSlowIntensity": "Middle"
          },
          "TriggerHitSound": true,
          "SpecialHitSoundEvent": "Ev_sfx_monster_skill_01_hit_firesoldier",
          "DisplayData": {
            "UIMessageHeight": 1,
            "DitherRangeX": 0.02,
            "DitherRangeY": 0.02
          }
        },
        {
          "$type": "RPG.GameCore.DamagePerformFinish"
        },
        {
          "$type": "RPG.GameCore.AddModifier",
          "TargetType": {
            "$type": "RPG.GameCore.TargetAlias",
            "Alias": "AbilityTargetEntity"
          },
          "ModifierName": "MCommon_DOT_Burn",
          "Chance": {
            "IsDynamic": true,
            "PostfixExpr": {
              "OpCodes": "AQAK",
              "FixedValues": [],
              "DynamicHashes": [
                834560291
              ]
            }
          },
          "LifeTime": {
            "IsDynamic": true,
            "PostfixExpr": {
              "OpCodes": "AQAK",
              "FixedValues": [],
              "DynamicHashes": [
                -1012230101
              ]
            }
          },
          "DynamicValues": {
            "Modifier_Burn_DamagePercentage": {
              "IsDynamic": true,
              "PostfixExpr": {
                "OpCodes": "AQAK",
                "FixedValues": [],
                "DynamicHashes": [
                  -328771816
                ]
              }
            }
          }
        },
        {
          "$type": "RPG.GameCore.SkillPerformFinish"
        }
      ]
    },
    {
      "Name": "Monster_AetherDivide_W1_Soldier01_01_Skill02_Phase01",
      "TargetInfo": {
        "TargetType": "SkillTargetEntityList"
      },
      "OnStart": [
        {
          "$type": "RPG.GameCore.ShowSkillCutIn",
          "SkillTriggerKey": "Skill02",
          "TargetType": {
            "$type": "RPG.GameCore.TargetAlias",
            "Alias": "Caster"
          }
        },
        {
          "$type": "RPG.GameCore.TriggerAbility",
          "TargetType": {
            "$type": "RPG.GameCore.TargetAlias",
            "Alias": "Caster"
          },
          "AbilityName": "Monster_AetherDivide_W1_Soldier01_01_Skill02_Phase02",
          "IsSkillPerform": true
        },
        {
          "$type": "RPG.GameCore.TriggerAbility",
          "TargetType": {
            "$type": "RPG.GameCore.TargetAlias",
            "Alias": "Caster"
          },
          "AbilityName": "Monster_W1_Soldier01_01_Skill01_Camera",
          "IsSkillPerform": true
        },
        {
          "$type": "RPG.GameCore.TriggerAnimState",
          "AnimStateName": "Skill05_Charge",
          "NormalizedTimeEnd": {
            "IsDynamic": false,
            "FixedValue": {
              "Value": 1
            }
          },
          "NormalizedTransitionDuration": {
            "IsDynamic": false,
            "FixedValue": {
              "Value": 0.1500000001396984
            }
          }
        },
        {
          "$type": "RPG.GameCore.LookAt",
          "TargetType": "AbilityTargetEntity"
        },
        {
          "$type": "RPG.GameCore.MoveToTargetList",
          "TargetType": {
            "$type": "RPG.GameCore.TargetAlias",
            "Alias": "Caster"
          },
          "AnimStateName": "Skill05_Attack",
          "NormalizedTimeEnd": {
            "IsDynamic": false,
            "FixedValue": {
              "Value": 1
            }
          },
          "NormalizedTimeWait": {
            "IsDynamic": false,
            "FixedValue": {
              "Value": 0.8000000007450581
            }
          },
          "MovingRangeList": [
            {
              "TargetType": {
                "$type": "RPG.GameCore.TargetAlias",
                "Alias": "AbilityTargetEntity"
              },
              "OffsetTargetDistance": {
                "IsDynamic": false,
                "FixedValue": {
                  "Value": 0.40000000037252903
                }
              },
              "NormalizedTimeStart": {
                "IsDynamic": false,
                "FixedValue": {
                  "Value": 0.162999999942258
                }
              },
              "NormalizedTimeEnd": {
                "IsDynamic": false,
                "FixedValue": {
                  "Value": 0.3449999999720603
                }
              }
            },
            {
              "TargetType": {
                "$type": "RPG.GameCore.TargetAlias",
                "Alias": "TeamFormation"
              },
              "IgnoreRadius": true,
              "OffsetTargetDistance": {
                "IsDynamic": false,
                "FixedValue": {
                  "Value": 0
                }
              },
              "NormalizedTimeStart": {
                "IsDynamic": false,
                "FixedValue": {
                  "Value": 0.6260000001639128
                }
              },
              "NormalizedTimeEnd": {
                "IsDynamic": false,
                "FixedValue": {
                  "Value": 0.7630000005010515
                }
              }
            }
          ]
        },
        {
          "$type": "RPG.GameCore.TriggerAnimState",
          "AnimLogicState": "Idle",
          "NormalizedTransitionDuration": {
            "IsDynamic": false,
            "FixedValue": {
              "Value": 0.25000000023283064
            }
          }
        }
      ]
    },
    {
      "Name": "Monster_AetherDivide_W1_Soldier01_01_Skill02_Phase02",
      "TargetInfo": {
        "TargetType": "SkillTargetEntityList"
      },
      "OnStart": [
        {
          "$type": "RPG.GameCore.SetDynamicValue",
          "DynamicKey": "_UltraCharge",
          "Value": {
            "IsDynamic": false,
            "FixedValue": {
              "Value": 0
            }
          }
        },
        {
          "$type": "RPG.GameCore.WaitAnimState",
          "TargetType": {
            "$type": "RPG.GameCore.TargetAlias",
            "Alias": "Caster"
          },
          "AnimStateName": "Skill05_Attack",
          "NormalizedTimeEnd": {
            "IsDynamic": false,
            "FixedValue": {
              "Value": 0.09000000008381903
            }
          }
        },
        {
          "$type": "RPG.GameCore.SkillExecutionStart"
        },
        {
          "$type": "RPG.GameCore.WaitAnimState",
          "TargetType": {
            "$type": "RPG.GameCore.TargetAlias",
            "Alias": "Caster"
          },
          "AnimStateName": "Skill05_Attack",
          "NormalizedTimeEnd": {
            "IsDynamic": false,
            "FixedValue": {
              "Value": 0.3469999998342246
            }
          }
        },
        {
          "$type": "RPG.GameCore.DamageByAttackProperty",
          "TargetType": {
            "$type": "RPG.GameCore.TargetAlias",
            "Alias": "AbilityTargetEntity"
          },
          "AttackProperty": {
            "DamageType": "Fire",
            "DamagePercentage": {
              "IsDynamic": true,
              "PostfixExpr": {
                "OpCodes": "AQAK",
                "FixedValues": [],
                "DynamicHashes": [
                  -1847083384
                ]
              }
            },
            "SPHitRatio": {
              "IsDynamic": false,
              "FixedValue": {
                "Value": 1
              }
            },
            "HitAnimation": "Hit_H",
            "HitTimeSlowType": "Slash",
            "HitTimeSlowIntensity": "Middle"
          },
          "TriggerHitSound": true,
          "SpecialHitSoundEvent": "Ev_sfx_monster_skill_01_hit_firesoldier",
          "DisplayData": {
            "UIMessageHeight": 1,
            "DitherRangeX": 0.02,
            "DitherRangeY": 0.02
          }
        },
        {
          "$type": "RPG.GameCore.DamagePerformFinish"
        },
        {
          "$type": "RPG.GameCore.AddModifier",
          "TargetType": {
            "$type": "RPG.GameCore.TargetAlias",
            "Alias": "AbilityTargetEntity"
          },
          "ModifierName": "MCommon_DOT_Burn",
          "Chance": {
            "IsDynamic": true,
            "PostfixExpr": {
              "OpCodes": "AQAK",
              "FixedValues": [],
              "DynamicHashes": [
                92871060
              ]
            }
          },
          "LifeTime": {
            "IsDynamic": true,
            "PostfixExpr": {
              "OpCodes": "AQAK",
              "FixedValues": [],
              "DynamicHashes": [
                1780412752
              ]
            }
          },
          "DynamicValues": {
            "Modifier_Burn_DamagePercentage": {
              "IsDynamic": true,
              "PostfixExpr": {
                "OpCodes": "AQAK",
                "FixedValues": [],
                "DynamicHashes": [
                  -138934841
                ]
              }
            }
          }
        },
        {
          "$type": "RPG.GameCore.SkillPerformFinish"
        }
      ]
    }
  ]
}