{
  "MainMissionID": 4010130,
  "StartSubMissionList": [
    401011502
  ],
  "FinishSubMissionList": [
    401011502
  ],
  "SubMissionList": [
    {
      "ID": 401011502,
      "MainMissionID": 4010130,
      "LevelPlaneID": 20003,
      "LevelFloorID": 20003001,
      "TakeType": "Auto",
      "FinishType": "CocoonFinish",
      "ParamType": "ListContain",
      "ParamIntList": [
        1301,
        1302
      ],
      "ParamItemList": [],
      "Progress": 1,
      "IsShowFinishEffect": 1,
      "IsShowStartHint": "New",
      "WayPointType": "Prop",
      "WayPointFloorID": 20003001,
      "WayPointGroupID": 34,
      "WayPointEntityID": 300001,
      "MapNPCList": [],
      "MapPropList": []
    }
  ]
}