{
  "OnInitSequece": [],
  "OnStartSequece": [
    {
      "TaskList": [
        {
          "$type": "RPG.GameCore.LevelPerformanceInitialize",
          "PerformanceType": "D",
          "CreateCharacterList": [],
          "CaptureNPCList": [],
          "EntityVisiableList": [],
          "HideMonster": false,
          "PropVisiableList": [],
          "StreamingSourcesInBlackMask": [],
          "StreamingSourcesAfterBlackMask": [],
          "MarkStreamingItems": []
        },
        {
          "$type": "RPG.GameCore.PropSetVisibility",
          "SpecifiedRelativePaths": [],
          "TargetType": {
            "$type": "RPG.GameCore.TargetFetchAdvPropEx",
            "FetchType": "SinglePropByPropID",
            "SinglePropID": {
              "GroupID": {
                "IsDynamic": false,
                "FixedValue": {
                  "Value": 89
                }
              },
              "ID": {
                "IsDynamic": false,
                "FixedValue": {
                  "Value": 300002
                }
              }
            }
          }
        },
        {
          "$type": "RPG.GameCore.PlayAndWaitSimpleTalk",
          "SimpleTalkList": [
            {
              "TalkSentenceID": 202040086,
              "ProtectTime": 0.3
            }
          ]
        },
        {
          "$type": "RPG.GameCore.PlayOptionTalk",
          "OptionList": [
            {
              "TalkSentenceID": 202040087,
              "OptionIconType": "ChatContinueIcon",
              "TriggerCustomString": "TalkSentence_202040095"
            }
          ]
        }
      ]
    },
    {
      "TaskList": [
        {
          "$type": "RPG.GameCore.WaitCustomString",
          "CustomString": {
            "Value": "TalkSentence_202040095"
          }
        },
        {
          "$type": "RPG.GameCore.TriggerCustomString",
          "CustomString": {
            "Custom": true,
            "Key": "OnNishastagaEffectOpen"
          }
        },
        {
          "$type": "RPG.GameCore.WaitSecond",
          "WaitTime": 0.8
        },
        {
          "$type": "RPG.GameCore.AdventureCameraLookAtSimple",
          "LookAtTarget": {
            "$type": "RPG.GameCore.TargetFetchAnchor",
            "GroupID": 89,
            "GroupInstanceID": 5
          },
          "CutIn": true,
          "LockCameraInput": true,
          "UnlockCameraAfterRecover": true,
          "LookAtDuration": -1,
          "LookAtRecoverDuration": 1.5,
          "LookAtRecoverCurvePath": "Camera/BlendCurve/Blend_FastToSlow.asset",
          "EnableOverrideLookAtOffset": true,
          "OverrideLookAtOffset": {
            "X": 0,
            "Y": 3,
            "Z": 6
          }
        },
        {
          "$type": "RPG.GameCore.AdvEntityFaceTo",
          "SourceType": {
            "$type": "RPG.GameCore.TargetFetchAdvLocalPlayer"
          },
          "TargetType": {
            "$type": "RPG.GameCore.TargetFetchAnchor",
            "GroupID": 89,
            "GroupInstanceID": 5
          },
          "EnableSteer": true,
          "ForceToStandBy": true
        },
        {
          "$type": "RPG.GameCore.PlayAndWaitSimpleTalk",
          "SimpleTalkList": [
            {
              "TalkSentenceID": 202040088,
              "ProtectTime": 0.3
            }
          ]
        },
        {
          "$type": "RPG.GameCore.AdventureCameraLookAtSimple",
          "Reset": true,
          "LookAtTarget": {
            "$type": "RPG.GameCore.TargetFetchAnchor",
            "GroupID": 89,
            "GroupInstanceID": 5
          },
          "LockCameraInput": true
        },
        {
          "$type": "RPG.GameCore.EndPerformance"
        }
      ]
    },
    {
      "TaskList": [
        {
          "$type": "RPG.GameCore.WaitPerformanceEnd"
        },
        {
          "$type": "RPG.GameCore.FinishLevelGraph"
        }
      ]
    }
  ],
  "ValueSource": {
    "Values": [
      {
        "$type": "RPG.GameCore.SharedString",
        "Key": "OnNishastagaEffectOpen"
      }
    ]
  }
}