{
  "OnInitSequece": [],
  "OnStartSequece": [
    {
      "TaskList": [
        {
          "$type": "RPG.GameCore.WaitCustomString",
          "CustomString": {
            "Value": "43103404"
          },
          "WaitOwnerOnly": true
        },
        {
          "$type": "RPG.GameCore.TriggerAetherDivideBattle",
          "EventID": {
            "IsDynamic": false,
            "FixedValue": {
              "Value": 43103404
            }
          },
          "GroupID": {
            "IsDynamic": false,
            "FixedValue": {
              "Value": 2
            }
          },
          "BattleAreaID": {
            "IsDynamic": false,
            "FixedValue": {
              "Value": 1
            }
          }
        }
      ]
    },
    {
      "TaskList": [
        {
          "$type": "RPG.GameCore.WaitCustomString",
          "CustomString": {
            "Value": "43103405"
          },
          "WaitOwnerOnly": true
        },
        {
          "$type": "RPG.GameCore.TriggerAetherDivideBattle",
          "EventID": {
            "IsDynamic": false,
            "FixedValue": {
              "Value": 43103405
            }
          },
          "GroupID": {
            "IsDynamic": false,
            "FixedValue": {
              "Value": 2
            }
          },
          "BattleAreaID": {
            "IsDynamic": false,
            "FixedValue": {
              "Value": 1
            }
          }
        }
      ]
    },
    {
      "TaskList": [
        {
          "$type": "RPG.GameCore.WaitCustomString",
          "CustomString": {
            "Value": "43103406"
          },
          "WaitOwnerOnly": true
        },
        {
          "$type": "RPG.GameCore.TriggerAetherDivideBattle",
          "EventID": {
            "IsDynamic": false,
            "FixedValue": {
              "Value": 43103406
            }
          },
          "GroupID": {
            "IsDynamic": false,
            "FixedValue": {
              "Value": 2
            }
          },
          "BattleAreaID": {
            "IsDynamic": false,
            "FixedValue": {
              "Value": 1
            }
          }
        }
      ]
    },
    {
      "TaskList": [
        {
          "$type": "RPG.GameCore.WaitCustomString",
          "CustomString": {
            "Value": "43103407"
          },
          "WaitOwnerOnly": true
        },
        {
          "$type": "RPG.GameCore.TriggerAetherDivideBattle",
          "EventID": {
            "IsDynamic": false,
            "FixedValue": {
              "Value": 43103407
            }
          },
          "GroupID": {
            "IsDynamic": false,
            "FixedValue": {
              "Value": 2
            }
          },
          "BattleAreaID": {
            "IsDynamic": false,
            "FixedValue": {
              "Value": 1
            }
          }
        }
      ]
    },
    {
      "TaskList": [
        {
          "$type": "RPG.GameCore.WaitCustomString",
          "CustomString": {
            "Value": "43103408"
          },
          "WaitOwnerOnly": true
        },
        {
          "$type": "RPG.GameCore.TriggerAetherDivideBattle",
          "EventID": {
            "IsDynamic": false,
            "FixedValue": {
              "Value": 43103408
            }
          },
          "GroupID": {
            "IsDynamic": false,
            "FixedValue": {
              "Value": 2
            }
          },
          "BattleAreaID": {
            "IsDynamic": false,
            "FixedValue": {
              "Value": 1
            }
          }
        }
      ]
    },
    {
      "TaskList": [
        {
          "$type": "RPG.GameCore.TriggerCustomString",
          "CustomString": {
            "Value": "DataReady"
          }
        }
      ]
    },
    {
      "TaskList": [
        {
          "$type": "RPG.GameCore.WaitSecond",
          "WaitTime": 1
        },
        {
          "$type": "RPG.GameCore.PropStateExecute",
          "TargetType": {
            "$type": "RPG.GameCore.TargetFetchAdvPropEx"
          },
          "Execute": [
            {
              "$type": "RPG.GameCore.PropSetupTrigger",
              "TargetType": {
                "$type": "RPG.GameCore.TargetFetchAdvPropEx"
              },
              "TargetTypes": [],
              "OnTriggerEnter": [
                {
                  "$type": "RPG.GameCore.ParallelConfig",
                  "TaskList": [
                    {
                      "$type": "RPG.GameCore.TriggerCustomString",
                      "CustomString": {
                        "Value": "InTrigger"
                      }
                    }
                  ]
                }
              ]
            }
          ]
        }
      ]
    },
    {
      "TaskList": [
        {
          "$type": "RPG.GameCore.WaitCustomString",
          "CustomString": {
            "Value": "InTrigger"
          },
          "WaitOwnerOnly": true
        },
        {
          "$type": "RPG.GameCore.TriggerPerformance",
          "ValueSource": {},
          "PerformanceType": "E",
          "PerformanceID": 801410802,
          "PerformanceID_DS": {
            "Custom": true,
            "Key": "TalkJson"
          }
        },
        {
          "$type": "RPG.GameCore.TriggerCustomString",
          "CustomString": {
            "Custom": true,
            "Key": "TriggerBattleString"
          }
        }
      ]
    },
    {
      "TaskList": [
        {
          "$type": "RPG.GameCore.WaitCustomString",
          "CustomString": {
            "Value": "InTrigger"
          },
          "WaitOwnerOnly": true
        },
        {
          "$type": "RPG.GameCore.AdventureCameraLookAtSimple",
          "LookAtTarget": {
            "$type": "RPG.GameCore.TargetFetchAdvNpcEx",
            "FetchType": "SingleNpcByNpcKey",
            "SingleNpcKey": {
              "Custom": true,
              "Key": "TargetMonster"
            }
          },
          "LookAtTransitionDuration": 1,
          "LockCameraInput": true,
          "LookAtDuration": -1,
          "LookAtRecoverDuration": -1,
          "EnableOverrideLookAtOffset": true,
          "OverrideLookAtOffset": {
            "X": 0.5,
            "Y": 0.3,
            "Z": 1
          }
        },
        {
          "$type": "RPG.GameCore.AdvNpcFaceToPlayer",
          "TryFaceToFace": false,
          "WaitFinishMode": "WaitAnimFinish"
        },
        {
          "$type": "RPG.GameCore.CaptureNPCToCharacter",
          "CharacterUniqueName": {
            "Value": "NPCBattle"
          },
          "TargetType": {
            "$type": "RPG.GameCore.TargetFetchAdvNpcEx",
            "FetchType": "SingleNpcByNpcKey",
            "SingleNpcKey": {
              "Custom": true,
              "Key": "TargetMonster"
            }
          }
        },
        {
          "$type": "RPG.GameCore.CharacterTriggerAnimState",
          "CharacterUniqueName": {
            "Value": "NPCBattle"
          },
          "TargetAlias": {
            "$type": "RPG.GameCore.TargetFetchAdvNpcEx",
            "FetchType": "SingleNpcByNpcKey",
            "SingleNpcKey": {
              "Custom": true,
              "Key": "TargetMonster"
            }
          },
          "AnimStateName": "Alert01BS"
        },
        {
          "$type": "RPG.GameCore.TriggerEffect",
          "TargetType": {
            "$type": "RPG.GameCore.TargetFetchAdvNpcEx",
            "FetchType": "SingleNpcByNpcKey",
            "SingleNpcKey": {
              "Custom": true,
              "Key": "TargetMonster"
            }
          },
          "IsAttachToTargetEntity": true,
          "Flags": [],
          "AliveOnly": true,
          "EffectPath": "Effects/Eff_Prefab/Eff_Common/Eff_Common_MazeSkill_ADFindPlayer.prefab",
          "AttachPoint": "0",
          "SubObjectModifyDataList": [],
          "IsAttachToCaster": true
        }
      ]
    },
    {
      "TaskList": [
        {
          "$type": "RPG.GameCore.PropStateChangeListenerConfig",
          "ToState": "Open",
          "FromAnyState": true,
          "OnChange": [
            {
              "$type": "RPG.GameCore.TriggerCustomString",
              "CustomString": {
                "Value": "PerformanceStart"
              }
            }
          ],
          "TargetType": {
            "$type": "RPG.GameCore.TargetFetchAdvPropEx"
          }
        }
      ]
    },
    {
      "TaskList": [
        {
          "$type": "RPG.GameCore.WaitCustomString",
          "CustomString": {
            "Value": "PerformanceStart"
          },
          "WaitOwnerOnly": true
        },
        {
          "$type": "RPG.GameCore.DestroyNPC",
          "Hide": true,
          "TargetType": {
            "$type": "RPG.GameCore.TargetFetchAdvNpcEx",
            "FetchType": "SingleNpcByNpcKey",
            "SingleNpcKey": {
              "Custom": true,
              "Key": "TargetNPC"
            }
          },
          "DestroyList": []
        },
        {
          "$type": "RPG.GameCore.CharacterStopFreeStyle",
          "TargetType": {
            "$type": "RPG.GameCore.TargetFetchAdvNpcEx",
            "FetchType": "SingleNpcByNpcKey",
            "SingleNpcKey": {
              "Custom": true,
              "Key": "TargetMonster"
            }
          }
        },
        {
          "$type": "RPG.GameCore.AdventureCameraLookAtSimple",
          "LookAtTarget": {
            "$type": "RPG.GameCore.TargetFetchAdvNpcEx",
            "FetchType": "SingleNpcByNpcKey",
            "SingleNpcKey": {
              "Custom": true,
              "Key": "TargetMonster"
            }
          },
          "CutIn": true,
          "LookAtTransitionDuration": 1,
          "LockCameraInput": true,
          "LookAtDuration": 1,
          "LookAtRecoverDuration": 1,
          "EnableOverrideLookAtOffset": true,
          "OverrideLookAtOffset": {
            "X": 0.5,
            "Y": 0.3,
            "Z": 1
          },
          "TaskEnabled": false
        },
        {
          "$type": "RPG.GameCore.TriggerPerformance",
          "ValueSource": {
            "Values": [
              {
                "$type": "RPG.GameCore.SharedFloat",
                "Key": "MazeDF_CurrentGroup"
              }
            ]
          },
          "PerformanceType": "E",
          "PerformanceID": 801410821,
          "PerformanceID_DS": {
            "Custom": true,
            "Key": "FinishJson"
          }
        },
        {
          "$type": "RPG.GameCore.TriggerCustomString",
          "CustomString": {
            "Value": "RewardGet"
          }
        }
      ]
    },
    {
      "TaskList": [
        {
          "$type": "RPG.GameCore.PropStateExecute",
          "TargetType": {
            "$type": "RPG.GameCore.TargetFetchAdvPropEx"
          },
          "State": "Open",
          "Execute": [
            {
              "$type": "RPG.GameCore.DestroyNPC",
              "Hide": true,
              "TargetType": {
                "$type": "RPG.GameCore.TargetFetchAdvNpcEx",
                "FetchType": "SingleNpcByNpcKey",
                "SingleNpcKey": {
                  "Custom": true,
                  "Key": "TargetNPC"
                }
              },
              "DestroyList": []
            },
            {
              "$type": "RPG.GameCore.CharacterStopFreeStyle",
              "TargetType": {
                "$type": "RPG.GameCore.TargetFetchAdvNpcEx",
                "FetchType": "SingleNpcByNpcKey",
                "SingleNpcKey": {
                  "Custom": true,
                  "Key": "TargetMonster"
                }
              }
            },
            {
              "$type": "RPG.GameCore.PropSetupTrigger",
              "TargetType": {
                "$type": "RPG.GameCore.TargetFetchAdvPropEx"
              },
              "TargetTypes": [],
              "DisableAfterTriggered": true,
              "OnTriggerEnter": [
                {
                  "$type": "RPG.GameCore.TriggerCustomString",
                  "CustomString": {
                    "Value": "PerformanceStart"
                  }
                }
              ]
            }
          ]
        }
      ]
    },
    {
      "TaskList": [
        {
          "$type": "RPG.GameCore.PropStateExecute",
          "TargetType": {
            "$type": "RPG.GameCore.TargetFetchAdvPropEx"
          },
          "State": "Locked",
          "Execute": [
            {
              "$type": "RPG.GameCore.DestroyNPC",
              "Hide": true,
              "TargetType": {
                "$type": "RPG.GameCore.TargetFetchAdvNpcEx",
                "FetchType": "SingleNpcByNpcKey",
                "SingleNpcKey": {
                  "Custom": true,
                  "Key": "TargetNPC"
                }
              },
              "DestroyList": []
            },
            {
              "$type": "RPG.GameCore.CharacterStopFreeStyle",
              "TargetType": {
                "$type": "RPG.GameCore.TargetFetchAdvNpcEx",
                "FetchType": "SingleNpcByNpcKey",
                "SingleNpcKey": {
                  "Custom": true,
                  "Key": "TargetMonster"
                }
              }
            }
          ]
        }
      ]
    },
    {
      "TaskList": [
        {
          "$type": "RPG.GameCore.WaitCustomString",
          "CustomString": {
            "Value": "RewardGet"
          },
          "WaitOwnerOnly": true
        },
        {
          "$type": "RPG.GameCore.PropReqInteract",
          "TargetType": {
            "$type": "RPG.GameCore.TargetFetchAdvPropEx"
          },
          "InteractID": {
            "IsDynamic": false,
            "FixedValue": {
              "Value": 1120
            }
          },
          "OnUICancel": [],
          "OnCheckItemFail": []
        }
      ]
    },
    {
      "TaskList": [
        {
          "$type": "RPG.GameCore.WaitCustomString",
          "CustomString": {
            "Value": "RewardGet"
          },
          "WaitOwnerOnly": true
        },
        {
          "$type": "RPG.GameCore.TutorialTaskUnlock",
          "TriggerParam": {
            "Value": "9903"
          }
        }
      ]
    }
  ],
  "ValueSource": {
    "Values": [
      {
        "$type": "RPG.GameCore.SharedString",
        "Key": "TargetMonster"
      },
      {
        "$type": "RPG.GameCore.SharedString",
        "Key": "TriggerBattleString"
      },
      {
        "$type": "RPG.GameCore.SharedString",
        "Key": "TargetNPC"
      },
      {
        "$type": "RPG.GameCore.SharedString",
        "Key": "TalkJson"
      },
      {
        "$type": "RPG.GameCore.SharedString",
        "Key": "FinishJson"
      }
    ]
  }
}