{
  "OnInitSequece": [],
  "OnStartSequece": [
    {
      "IsLoop": true,
      "TaskList": [
        {
          "$type": "RPG.GameCore.WaitCustomString",
          "CustomString": {
            "Custom": true,
            "Key": "ShowString"
          },
          "GoNextImmediately": true
        },
        {
          "$type": "RPG.GameCore.TriggerCustomString",
          "CustomString": {
            "Value": "StoveOpen"
          }
        }
      ]
    },
    {
      "IsLoop": true,
      "TaskList": [
        {
          "$type": "RPG.GameCore.PropStateExecute",
          "TargetType": {
            "$type": "RPG.GameCore.TargetFetchAdvPropEx",
            "SinglePropKey": {
              "Custom": true,
              "Key": "CheckPropState"
            },
            "SinglePropID": {
              "GroupID": {
                "IsDynamic": false,
                "FixedValue": {
                  "Value": 4
                }
              },
              "ID": {
                "IsDynamic": false,
                "FixedValue": {
                  "Value": 300001
                }
              }
            }
          },
          "Execute": [
            {
              "$type": "RPG.GameCore.WaitCustomString",
              "CustomString": {
                "Value": "StoveOpen"
              },
              "WaitOwnerOnly": true
            },
            {
              "$type": "RPG.GameCore.PredicateTaskList",
              "Predicate": {
                "$type": "RPG.GameCore.ByAnd",
                "PredicateList": [
                  {
                    "$type": "RPG.GameCore.ByComparePropState",
                    "TargetType": {
                      "$type": "RPG.GameCore.TargetFetchAdvPropEx",
                      "FetchType": "SinglePropByPropKey",
                      "SinglePropKey": {
                        "Custom": true,
                        "Key": "Stove1Open"
                      },
                      "SinglePropID": {
                        "GroupID": {
                          "IsDynamic": false,
                          "FixedValue": {
                            "Value": 4
                          }
                        },
                        "ID": {
                          "IsDynamic": false,
                          "FixedValue": {
                            "Value": 300001
                          }
                        }
                      }
                    },
                    "State": "Open"
                  },
                  {
                    "$type": "RPG.GameCore.ByComparePropState",
                    "TargetType": {
                      "$type": "RPG.GameCore.TargetFetchAdvPropEx",
                      "FetchType": "SinglePropByPropKey",
                      "SinglePropKey": {
                        "Custom": true,
                        "Key": "Stove2Open"
                      },
                      "SinglePropID": {
                        "GroupID": {
                          "IsDynamic": false,
                          "FixedValue": {
                            "Value": 4
                          }
                        },
                        "ID": {
                          "IsDynamic": false,
                          "FixedValue": {
                            "Value": 300001
                          }
                        }
                      }
                    },
                    "State": "Open"
                  }
                ]
              },
              "SuccessTaskList": [
                {
                  "$type": "RPG.GameCore.PlayScreenTransfer",
                  "Mode": "SwitchOut",
                  "CustomTime": 0.3
                },
                {
                  "$type": "RPG.GameCore.ActiveVirtualCamera",
                  "AreaName": "LevelArea_P43103_F43103001_G4",
                  "AnchorName": "Anchor8",
                  "DynamicParams": {}
                },
                {
                  "$type": "RPG.GameCore.PlayScreenTransfer",
                  "CustomTime": 0.3
                },
                {
                  "$type": "RPG.GameCore.LockPlayerControl"
                },
                {
                  "$type": "RPG.GameCore.ShowTalkUI",
                  "Show": true
                },
                {
                  "$type": "RPG.GameCore.PropTriggerAnimState",
                  "AnimStateName": "Activing",
                  "TargetType": {
                    "$type": "RPG.GameCore.TargetFetchAdvPropEx"
                  }
                },
                {
                  "$type": "RPG.GameCore.WaitSecond",
                  "WaitTime": 3
                },
                {
                  "$type": "RPG.GameCore.PlayScreenTransfer",
                  "Mode": "SwitchOut",
                  "CustomTime": 0.3
                },
                {
                  "$type": "RPG.GameCore.ActiveVirtualCamera",
                  "AreaName": "LevelArea_P43103_F43103001_G4",
                  "AnchorName": "Anchor8",
                  "IsActive": false,
                  "DynamicParams": {}
                },
                {
                  "$type": "RPG.GameCore.PlayScreenTransfer",
                  "CustomTime": 0.3
                },
                {
                  "$type": "RPG.GameCore.UnLockPlayerControl"
                },
                {
                  "$type": "RPG.GameCore.ShowTalkUI",
                  "ShowDialogControlUI": false
                },
                {
                  "$type": "RPG.GameCore.PropReqInteract",
                  "TargetType": {
                    "$type": "RPG.GameCore.TargetFetchAdvPropEx"
                  },
                  "InteractID": {
                    "IsDynamic": false,
                    "FixedValue": {
                      "Value": 1010
                    }
                  },
                  "OnUICancel": []
                }
              ]
            }
          ]
        }
      ]
    },
    {
      "TaskList": [
        {
          "$type": "RPG.GameCore.PropStateExecute",
          "TargetType": {
            "$type": "RPG.GameCore.TargetFetchAdvPropEx",
            "SinglePropKey": {
              "Custom": true,
              "Key": "CheckPropState"
            },
            "SinglePropID": {
              "GroupID": {
                "IsDynamic": false,
                "FixedValue": {
                  "Value": 4
                }
              },
              "ID": {
                "IsDynamic": false,
                "FixedValue": {
                  "Value": 300001
                }
              }
            }
          },
          "State": "Open",
          "Execute": [
            {
              "$type": "RPG.GameCore.PropTriggerAnimState",
              "AnimStateName": "Used",
              "TargetType": {
                "$type": "RPG.GameCore.TargetFetchAdvPropEx"
              }
            }
          ]
        }
      ]
    },
    {
      "TaskList": [
        {
          "$type": "RPG.GameCore.WaitSecond",
          "WaitTime": 4
        },
        {
          "$type": "RPG.GameCore.PropStateExecute",
          "TargetType": {
            "$type": "RPG.GameCore.TargetFetchAdvPropEx",
            "SinglePropKey": {
              "Custom": true,
              "Key": "CheckPropState"
            },
            "SinglePropID": {
              "GroupID": {
                "IsDynamic": false,
                "FixedValue": {
                  "Value": 4
                }
              },
              "ID": {
                "IsDynamic": false,
                "FixedValue": {
                  "Value": 300001
                }
              }
            }
          },
          "Execute": [
            {
              "$type": "RPG.GameCore.PredicateTaskList",
              "Predicate": {
                "$type": "RPG.GameCore.ByAnd",
                "PredicateList": [
                  {
                    "$type": "RPG.GameCore.ByComparePropState",
                    "TargetType": {
                      "$type": "RPG.GameCore.TargetFetchAdvPropEx",
                      "FetchType": "SinglePropByPropKey",
                      "SinglePropKey": {
                        "Custom": true,
                        "Key": "Stove1Open"
                      },
                      "SinglePropID": {
                        "GroupID": {
                          "IsDynamic": false,
                          "FixedValue": {
                            "Value": 4
                          }
                        },
                        "ID": {
                          "IsDynamic": false,
                          "FixedValue": {
                            "Value": 300001
                          }
                        }
                      }
                    },
                    "State": "Open"
                  },
                  {
                    "$type": "RPG.GameCore.ByComparePropState",
                    "TargetType": {
                      "$type": "RPG.GameCore.TargetFetchAdvPropEx",
                      "FetchType": "SinglePropByPropKey",
                      "SinglePropKey": {
                        "Custom": true,
                        "Key": "Stove2Open"
                      },
                      "SinglePropID": {
                        "GroupID": {
                          "IsDynamic": false,
                          "FixedValue": {
                            "Value": 4
                          }
                        },
                        "ID": {
                          "IsDynamic": false,
                          "FixedValue": {
                            "Value": 300001
                          }
                        }
                      }
                    },
                    "State": "Open"
                  }
                ]
              },
              "SuccessTaskList": [
                {
                  "$type": "RPG.GameCore.TriggerCustomString",
                  "CustomString": {
                    "Value": "Raid_Door2_Open"
                  }
                }
              ]
            }
          ]
        }
      ]
    },
    {
      "TaskList": [
        {
          "$type": "RPG.GameCore.WaitCustomString",
          "CustomString": {
            "Value": "Raid_Door2_Open"
          },
          "WaitOwnerOnly": true
        },
        {
          "$type": "RPG.GameCore.PropReqInteract",
          "TargetType": {
            "$type": "RPG.GameCore.TargetFetchAdvPropEx"
          },
          "InteractID": {
            "IsDynamic": false,
            "FixedValue": {
              "Value": 1010
            }
          },
          "OnUICancel": []
        }
      ]
    },
    {
      "TaskList": [
        {
          "$type": "RPG.GameCore.WaitCustomString",
          "CustomString": {
            "Value": "Raid_Door2_Open"
          },
          "WaitOwnerOnly": true
        },
        {
          "$type": "RPG.GameCore.PropTriggerAnimState",
          "AnimStateName": "Used",
          "TargetType": {
            "$type": "RPG.GameCore.TargetFetchAdvPropEx"
          }
        }
      ]
    }
  ],
  "ValueSource": {
    "Values": [
      {
        "$type": "RPG.GameCore.SharedString",
        "Key": "Stove1Open"
      },
      {
        "$type": "RPG.GameCore.SharedString",
        "Key": "Stove2Open"
      },
      {
        "$type": "RPG.GameCore.SharedString",
        "Key": "OpenCamera"
      },
      {
        "$type": "RPG.GameCore.SharedString",
        "Key": "ShowString"
      }
    ]
  }
}