{
  "OnInitSequece": [],
  "OnStartSequece": [
    {
      "TaskList": [
        {
          "$type": "RPG.GameCore.PropStateChangeListenerConfig",
          "FromState": "Open",
          "FromAnyState": true,
          "OnChange": [
            {
              "$type": "RPG.GameCore.PropEnableCollider",
              "OPType": "ColliderOnly",
              "Enabled": true,
              "SpecifiedRelativePaths": [],
              "TargetType": {
                "$type": "RPG.GameCore.TargetFetchAdvPropEx"
              }
            },
            {
              "$type": "RPG.GameCore.PropEnableCollider",
              "Enabled": true,
              "SpecifiedRelativePaths": [],
              "TargetType": {
                "$type": "RPG.GameCore.TargetFetchAdvPropEx",
                "FetchType": "SinglePropByPropKey",
                "SinglePropKey": {
                  "Custom": true,
                  "Key": "NextObj"
                },
                "SinglePropID": {}
              }
            },
            {
              "$type": "RPG.GameCore.PropEnableCollider",
              "SpecifiedRelativePaths": [],
              "TargetType": {
                "$type": "RPG.GameCore.TargetFetchAdvPropEx",
                "FetchType": "SinglePropByPropID",
                "SinglePropKey": {
                  "Custom": true,
                  "Key": "NextObj"
                },
                "SinglePropID": {
                  "GroupID": {
                    "IsDynamic": false,
                    "FixedValue": {
                      "Value": 14
                    }
                  },
                  "ID": {
                    "IsDynamic": false,
                    "FixedValue": {
                      "Value": 300009
                    }
                  }
                }
              }
            },
            {
              "$type": "RPG.GameCore.LockPlayerControl"
            },
            {
              "$type": "RPG.GameCore.ShowTalkUI",
              "Show": true
            },
            {
              "$type": "RPG.GameCore.PlayScreenTransfer",
              "Mode": "SwitchOut",
              "CustomTime": 0.25
            },
            {
              "$type": "RPG.GameCore.ActiveVirtualCamera",
              "AreaName": "LevelArea_P43103_F43103003_G14",
              "AnchorName": "Anchor1"
            },
            {
              "$type": "RPG.GameCore.PlayScreenTransfer",
              "CustomTime": 0.25
            },
            {
              "$type": "RPG.GameCore.WaitSecond",
              "WaitTime": 0.5
            },
            {
              "$type": "RPG.GameCore.TriggerEffect",
              "TargetType": {
                "$type": "RPG.GameCore.TargetFetchAdvPropEx",
                "FetchType": "SinglePropByPropKey",
                "SinglePropKey": {
                  "Custom": true,
                  "Key": "NextObj"
                },
                "SinglePropID": {}
              },
              "Flags": [],
              "AliveOnly": true,
              "EffectPath": "Effects/Eff_Prefab/Eff_Monster/Eff_XP_Minion04_00/Eff_Monster_XP_Minion04_00_Common_Maze_SpecialAppear.prefab",
              "TowardRotatePitchOnly": true,
              "SubObjectModifyDataList": []
            },
            {
              "$type": "RPG.GameCore.WaitSecond",
              "WaitTime": 0.1
            },
            {
              "$type": "RPG.GameCore.SetEntityVisible",
              "TargetType": {
                "$type": "RPG.GameCore.TargetFetchAdvPropEx",
                "FetchType": "SinglePropByPropKey",
                "SinglePropKey": {
                  "Custom": true,
                  "Key": "NextObj"
                },
                "SinglePropID": {}
              },
              "Visible": true
            },
            {
              "$type": "RPG.GameCore.WaitSecond",
              "WaitTime": 3
            },
            {
              "$type": "RPG.GameCore.PlayScreenTransfer",
              "Mode": "SwitchOut",
              "CustomTime": 0.25
            },
            {
              "$type": "RPG.GameCore.ActiveVirtualCamera",
              "AreaName": "LevelArea_P43103_F43103003_G14",
              "AnchorName": "Anchor1",
              "IsActive": false,
              "DynamicParams": {}
            },
            {
              "$type": "RPG.GameCore.PlayScreenTransfer",
              "CustomTime": 0.25
            },
            {
              "$type": "RPG.GameCore.ShowTalkUI"
            },
            {
              "$type": "RPG.GameCore.UnLockPlayerControl"
            },
            {
              "$type": "RPG.GameCore.TriggerCustomString",
              "CustomString": {
                "Value": "801410412_WWB_appear"
              }
            }
          ],
          "TargetType": {
            "$type": "RPG.GameCore.TargetFetchAdvPropEx"
          }
        }
      ]
    },
    {
      "TaskList": [
        {
          "$type": "RPG.GameCore.PropStateExecute",
          "TargetType": {
            "$type": "RPG.GameCore.TargetFetchAdvPropEx"
          },
          "State": "Open",
          "Execute": [
            {
              "$type": "RPG.GameCore.PropEnableCollider",
              "OPType": "ColliderOnly",
              "SpecifiedRelativePaths": [],
              "TargetType": {
                "$type": "RPG.GameCore.TargetFetchAdvPropEx"
              }
            },
            {
              "$type": "RPG.GameCore.SetEntityVisible",
              "TargetType": {
                "$type": "RPG.GameCore.TargetFetchAdvPropEx",
                "FetchType": "SinglePropByPropKey",
                "SinglePropKey": {
                  "Custom": true,
                  "Key": "NextObj"
                },
                "SinglePropID": {}
              }
            },
            {
              "$type": "RPG.GameCore.PropEnableCollider",
              "SpecifiedRelativePaths": [],
              "TargetType": {
                "$type": "RPG.GameCore.TargetFetchAdvPropEx",
                "FetchType": "SinglePropByPropKey",
                "SinglePropKey": {
                  "Custom": true,
                  "Key": "NextObj"
                },
                "SinglePropID": {}
              }
            }
          ]
        }
      ]
    },
    {
      "TaskList": [
        {
          "$type": "RPG.GameCore.PredicateTaskList",
          "Predicate": {
            "$type": "RPG.GameCore.ByComparePropState",
            "TargetType": {
              "$type": "RPG.GameCore.TargetFetchAdvPropEx",
              "SinglePropID": {
                "GroupID": {
                  "IsDynamic": false,
                  "FixedValue": {
                    "Value": 14
                  }
                },
                "ID": {
                  "IsDynamic": false,
                  "FixedValue": {
                    "Value": 300009
                  }
                }
              }
            },
            "State": "Open"
          },
          "SuccessTaskList": [
            {
              "$type": "RPG.GameCore.PropSetupUITrigger",
              "ButtonText": {
                "Hash": -82232668
              },
              "ButtonCallback": [
                {
                  "$type": "RPG.GameCore.ToastPile",
                  "DescTextID": {
                    "Hash": 592660061
                  }
                }
              ],
              "OverrideTargetTypes": [],
              "TargetType": {
                "$type": "RPG.GameCore.TargetFetchAdvPropEx",
                "FetchType": "SinglePropByPropID",
                "SinglePropID": {
                  "GroupID": {
                    "IsDynamic": false,
                    "FixedValue": {
                      "Value": 14
                    }
                  },
                  "ID": {
                    "IsDynamic": false,
                    "FixedValue": {
                      "Value": 300009
                    }
                  }
                }
              }
            }
          ]
        }
      ]
    },
    {
      "TaskList": [
        {
          "$type": "RPG.GameCore.PropStateExecute",
          "TargetType": {
            "$type": "RPG.GameCore.TargetFetchAdvPropEx"
          },
          "Execute": [
            {
              "$type": "RPG.GameCore.WaitSecond",
              "WaitTime": 1
            },
            {
              "$type": "RPG.GameCore.TriggerCustomString",
              "CustomString": {
                "Value": "801410412_WWB_appear"
              }
            }
          ]
        }
      ]
    }
  ],
  "ValueSource": {
    "Values": [
      {
        "$type": "RPG.GameCore.SharedString",
        "Key": "NextObj"
      }
    ]
  }
}