{
  "OnInitSequece": [],
  "OnStartSequece": [
    {
      "TaskList": [
        {
          "$type": "RPG.GameCore.PropSetupTrigger",
          "TargetType": {
            "$type": "RPG.GameCore.TargetFetchAdvPropEx"
          },
          "TargetTypes": [],
          "ColliderRelativePath": "CustomTrigger_01",
          "OnTriggerEnter": [],
          "OnTriggerExit": [
            {
              "$type": "RPG.GameCore.RemoveEffect",
              "TargetType": {
                "$type": "RPG.GameCore.TargetFetchAdvPropEx"
              },
              "EffectPath": "Effects/Eff_Prefab/Eff_Scene/Interactive Object/Eff_Chap01_MAZ_Furnace_01_NoLinkArea.prefab",
              "Flags": [],
              "IsNeedFadeOut": false
            }
          ]
        }
      ]
    },
    {
      "IsLoop": true,
      "TaskList": [
        {
          "$type": "RPG.GameCore.WaitCustomString",
          "CustomString": {
            "Value": "Open_Fail"
          },
          "WaitOwnerOnly": true
        },
        {
          "$type": "RPG.GameCore.EndPropInteract"
        }
      ]
    },
    {
      "TaskList": [
        {
          "$type": "RPG.GameCore.PropStateChangeListenerConfig",
          "ToState": "Open",
          "OnChange": [
            {
              "$type": "RPG.GameCore.TriggerCustomString",
              "CustomString": {
                "Value": "RobotFinish"
              }
            }
          ],
          "TargetType": {
            "$type": "RPG.GameCore.TargetFetchAdvPropEx",
            "FetchType": "SinglePropByPropKey",
            "SinglePropKey": {
              "Custom": true,
              "Key": "FinishProp"
            }
          }
        }
      ]
    },
    {
      "TaskList": [
        {
          "$type": "RPG.GameCore.WaitSecond",
          "WaitTime": 8
        },
        {
          "$type": "RPG.GameCore.PropStateExecute",
          "TargetType": {
            "$type": "RPG.GameCore.TargetFetchAdvPropEx",
            "FetchType": "SinglePropByPropKey",
            "SinglePropKey": {
              "Custom": true,
              "Key": "FinishProp"
            }
          },
          "State": "Open",
          "Execute": [
            {
              "$type": "RPG.GameCore.TriggerCustomString",
              "CustomString": {
                "Custom": true,
                "Key": "FinishMission"
              }
            }
          ]
        }
      ]
    },
    {
      "IsLoop": true,
      "TaskList": [
        {
          "$type": "RPG.GameCore.WaitCustomString",
          "CustomString": {
            "Value": "OpenCamera"
          },
          "WaitOwnerOnly": true
        },
        {
          "$type": "RPG.GameCore.PlayScreenTransfer",
          "Mode": "SwitchOut",
          "CustomTime": 0.3,
          "KeepDisplay": true
        },
        {
          "$type": "RPG.GameCore.ActiveVirtualCamera",
          "LevelAreaCameraKey": {
            "Custom": true,
            "Key": "ShowCamera"
          },
          "DynamicParams": {}
        },
        {
          "$type": "RPG.GameCore.ShowTalkUI",
          "Show": true
        },
        {
          "$type": "RPG.GameCore.PlayScreenTransfer",
          "CustomTime": 0.5
        },
        {
          "$type": "RPG.GameCore.LockPlayerControl"
        },
        {
          "$type": "RPG.GameCore.WaitCustomString",
          "CustomString": {
            "Value": "RobotFinish"
          },
          "WaitOwnerOnly": true,
          "GoNextImmediately": true
        },
        {
          "$type": "RPG.GameCore.WaitSecond",
          "WaitTime": 1.5
        },
        {
          "$type": "RPG.GameCore.PlayScreenTransfer",
          "Mode": "SwitchOut",
          "CustomTime": 0.3
        },
        {
          "$type": "RPG.GameCore.ActiveVirtualCamera",
          "LevelAreaCameraKey": {
            "Custom": true,
            "Key": "ShowCamera"
          },
          "IsActive": false,
          "DynamicParams": {}
        },
        {
          "$type": "RPG.GameCore.ActiveVirtualCamera",
          "LevelAreaCameraKey": {
            "Custom": true,
            "Key": "FinishCamera"
          },
          "DynamicParams": {}
        },
        {
          "$type": "RPG.GameCore.PlayScreenTransfer",
          "CustomTime": 0.3
        },
        {
          "$type": "RPG.GameCore.ToastPile",
          "DescTextID": {
            "Hash": 54048854
          }
        },
        {
          "$type": "RPG.GameCore.WaitSecond",
          "WaitTime": 3
        },
        {
          "$type": "RPG.GameCore.PlayScreenTransfer",
          "Mode": "SwitchOut",
          "CustomTime": 0.3,
          "KeepDisplay": true
        },
        {
          "$type": "RPG.GameCore.ActiveVirtualCamera",
          "LevelAreaCameraKey": {
            "Custom": true,
            "Key": "FinishCamera"
          },
          "IsActive": false,
          "DynamicParams": {}
        },
        {
          "$type": "RPG.GameCore.PlayScreenTransfer",
          "CustomTime": 0.3,
          "TaskEnabled": false
        },
        {
          "$type": "RPG.GameCore.UnLockPlayerControl"
        },
        {
          "$type": "RPG.GameCore.ShowTalkUI",
          "ShowDialogControlUI": false,
          "TaskEnabled": false
        },
        {
          "$type": "RPG.GameCore.TriggerCustomString",
          "CustomString": {
            "Custom": true,
            "Key": "FinishMission"
          }
        }
      ]
    },
    {
      "TaskList": [
        {
          "$type": "RPG.GameCore.PropStateExecute",
          "TargetType": {
            "$type": "RPG.GameCore.TargetFetchAdvPropEx",
            "SinglePropKey": {
              "Custom": true,
              "Key": "CheckPropState"
            },
            "SinglePropID": {}
          },
          "Execute": [
            {
              "$type": "RPG.GameCore.PropSetupUITrigger",
              "ButtonText": {
                "Hash": -659136645
              },
              "ButtonCallback": [
                {
                  "$type": "RPG.GameCore.StartPropInteractMode",
                  "TargetType": {
                    "$type": "RPG.GameCore.TargetFetchAdvPropEx"
                  },
                  "Mode": "UsePose02"
                },
                {
                  "$type": "RPG.GameCore.PropReqInteract",
                  "TargetType": {
                    "$type": "RPG.GameCore.TargetFetchAdvPropEx"
                  },
                  "InteractID": {
                    "IsDynamic": false,
                    "FixedValue": {
                      "Value": 1010
                    }
                  },
                  "OnUICancel": [
                    {
                      "$type": "RPG.GameCore.TriggerCustomString",
                      "CustomString": {
                        "Value": "Open_Fail"
                      }
                    }
                  ],
                  "OnCheckItemFail": [
                    {
                      "$type": "RPG.GameCore.TriggerCustomString",
                      "CustomString": {
                        "Value": "Open_Fail"
                      }
                    }
                  ]
                },
                {
                  "$type": "RPG.GameCore.EndPropInteract"
                },
                {
                  "$type": "RPG.GameCore.PropEnableCollider",
                  "OPType": "TriggerOnly",
                  "SpecifiedRelativePaths": [],
                  "TriggerSelect": "PropInteractionTrigger",
                  "CustomTriggerName": "02",
                  "TargetType": {
                    "$type": "RPG.GameCore.TargetFetchAdvPropEx"
                  }
                }
              ],
              "OverrideTargetTypes": [],
              "TargetType": {
                "$type": "RPG.GameCore.TargetFetchAdvPropEx"
              }
            }
          ]
        }
      ]
    },
    {
      "TaskList": [
        {
          "$type": "RPG.GameCore.WaitSecond",
          "WaitTime": 1
        },
        {
          "$type": "RPG.GameCore.PropStateExecute",
          "TargetType": {
            "$type": "RPG.GameCore.TargetFetchAdvPropEx",
            "SinglePropKey": {
              "Custom": true,
              "Key": "CheckPropState"
            },
            "SinglePropID": {}
          },
          "Execute": [
            {
              "$type": "RPG.GameCore.WaitCustomString",
              "CustomString": {
                "Custom": true,
                "Key": "MissionOpen"
              },
              "TaskEnabled": false
            },
            {
              "$type": "RPG.GameCore.PropEnableCollider",
              "OPType": "TriggerOnly",
              "SpecifiedRelativePaths": [],
              "TriggerSelect": "CustomTrigger",
              "CustomTriggerName": "CustomTrigger_02",
              "TargetType": {
                "$type": "RPG.GameCore.TargetFetchAdvPropEx"
              }
            },
            {
              "$type": "RPG.GameCore.PropEnableCollider",
              "OPType": "TriggerOnly",
              "SpecifiedRelativePaths": [],
              "TriggerSelect": "CustomTrigger",
              "CustomTriggerName": "02",
              "TargetType": {
                "$type": "RPG.GameCore.TargetFetchAdvPropEx"
              }
            }
          ]
        }
      ]
    },
    {
      "TaskList": [
        {
          "$type": "RPG.GameCore.PropSetupTrigger",
          "TargetType": {
            "$type": "RPG.GameCore.TargetFetchAdvPropEx"
          },
          "TargetTypes": [],
          "OnTriggerEnter": [
            {
              "$type": "RPG.GameCore.TriggerEffect",
              "TargetType": {
                "$type": "RPG.GameCore.TargetFetchAdvPropEx"
              },
              "IsAttachToTargetEntity": true,
              "Flags": [
                "Unknow"
              ],
              "AliveOnly": true,
              "EffectPath": "Effects/Eff_Prefab/Eff_Scene/Interactive Object/Eff_Chap01_MAZ_Furnace_01_NoLinkArea.prefab",
              "UniqueEffectName": "FireHint",
              "AttachPoint": "Root",
              "SubObjectModifyDataList": [],
              "IsAttachToCaster": true,
              "MinMutexTime": -1,
              "MinMutexType": "Entity"
            }
          ],
          "OnTriggerExit": []
        }
      ]
    },
    {
      "TaskList": [
        {
          "$type": "RPG.GameCore.PropSetupTrigger",
          "TargetType": {
            "$type": "RPG.GameCore.TargetFetchAdvPropEx"
          },
          "TargetTypes": [
            "Prop"
          ],
          "ColliderRelativePath": "CustomTrigger_02",
          "OnTriggerEnter": [
            {
              "$type": "RPG.GameCore.PropStateExecute",
              "TargetType": {
                "$type": "RPG.GameCore.TargetFetchTaskActionTarget"
              },
              "Execute": []
            },
            {
              "$type": "RPG.GameCore.PropStateExecute",
              "TargetType": {
                "$type": "RPG.GameCore.TargetFetchAdvPropEx"
              },
              "State": "Open",
              "Execute": [
                {
                  "$type": "RPG.GameCore.WaitSecond",
                  "WaitTime": 0.5
                },
                {
                  "$type": "RPG.GameCore.TriggerEffect",
                  "TargetType": {
                    "$type": "RPG.GameCore.TargetFetchAdvPropEx",
                    "SinglePropKey": {
                      "Custom": true,
                      "Key": "CheckPropState"
                    }
                  },
                  "Flags": [],
                  "EffectPath": "Effects/Eff_Prefab/Eff_Scene/Interactive Object/Eff_Common_MAZ_FireOrb_03_Trail.prefab",
                  "PositionOffset": {
                    "X": 0,
                    "Y": 1.5,
                    "Z": 0
                  },
                  "TowardTarget": {
                    "$type": "RPG.GameCore.TargetFetchTaskActionTarget"
                  },
                  "TowardMaxPitchAngle": 0,
                  "SubObjectModifyDataList": []
                },
                {
                  "$type": "RPG.GameCore.TriggerSound",
                  "SoundName": "Ev_sfx_belobog_furnace_core_fly",
                  "IsPropLodLoop": true
                },
                {
                  "$type": "RPG.GameCore.PropReqInteract",
                  "TargetType": {
                    "$type": "RPG.GameCore.TargetFetchTaskActionTarget"
                  },
                  "InteractID": {
                    "IsDynamic": false,
                    "FixedValue": {
                      "Value": 1010
                    }
                  }
                }
              ]
            }
          ],
          "OnTriggerExit": []
        }
      ]
    },
    {
      "TaskList": [
        {
          "$type": "RPG.GameCore.PropStateChangeListenerConfig",
          "ToState": "Open",
          "OnChange": [
            {
              "$type": "RPG.GameCore.TriggerCustomString",
              "CustomString": {
                "Value": "BrigheCamera"
              }
            },
            {
              "$type": "RPG.GameCore.TriggerSound",
              "SoundName": "Ev_sfx_belobog_furnace_01_open ",
              "IsPropLodLoop": true
            },
            {
              "$type": "RPG.GameCore.WaitSecond",
              "WaitTime": 0.5
            },
            {
              "$type": "RPG.GameCore.TriggerCustomString",
              "CustomString": {
                "Value": "OpenCamera"
              }
            },
            {
              "$type": "RPG.GameCore.WaitSecond",
              "WaitTime": 0.5
            },
            {
              "$type": "RPG.GameCore.TriggerSound",
              "SoundName": "Ev_sfx_belobog_furnace_effect_open ",
              "IsPropLodLoop": true
            },
            {
              "$type": "RPG.GameCore.TriggerEffectList",
              "TargetType": {
                "$type": "RPG.GameCore.TargetFetchAdvPropEx"
              },
              "EffectList": [
                {
                  "EffectPath": "Effects/Eff_Prefab/Eff_Scene/Interactive Object/Eff_Chap01_MAZ_Furnace_01_TriggerFire.prefab",
                  "AttachPoint": "Root"
                },
                {
                  "EffectPath": "Effects/Eff_Prefab/Eff_Scene/Interactive Object/Eff_Chap01_MAZ_Furnace_01_LoopFire.prefab",
                  "AttachPoint": "Root"
                }
              ]
            },
            {
              "$type": "RPG.GameCore.PropEnableCollider",
              "OPType": "TriggerOnly",
              "Enabled": true,
              "SpecifiedRelativePaths": [],
              "TriggerSelect": "CustomTrigger",
              "CustomTriggerName": "02",
              "TargetType": {
                "$type": "RPG.GameCore.TargetFetchAdvPropEx"
              }
            }
          ],
          "TargetType": {
            "$type": "RPG.GameCore.TargetFetchAdvPropEx"
          }
        }
      ]
    }
  ],
  "ValueSource": {
    "Values": [
      {
        "$type": "RPG.GameCore.SharedString",
        "Key": "CheckPropState1"
      },
      {
        "$type": "RPG.GameCore.SharedString",
        "Key": "CheckPropState2"
      },
      {
        "$type": "RPG.GameCore.SharedString",
        "Key": "ShowCamera"
      },
      {
        "$type": "RPG.GameCore.SharedString",
        "Key": "FinishProp"
      },
      {
        "$type": "RPG.GameCore.SharedString",
        "Key": "FinishCamera"
      },
      {
        "$type": "RPG.GameCore.SharedString",
        "Key": "FinishMission"
      }
    ]
  }
}