{
  "ModifierMap": {
    "ADV_Modifier_XP_Minion04_ListenTopazSkill": {
      "ModifierTaskList": [
        {
          "$type": "RPG.GameCore.ListenTargetUseSkill",
          "Owner": {
            "$type": "RPG.GameCore.TargetAlias",
            "Alias": "Caster"
          },
          "Target": {
            "$type": "RPG.GameCore.TargetAlias",
            "Alias": "AdvLocalPlayer"
          },
          "ListenSkillType": [
            "NormalAtk"
          ],
          "Distance": 8,
          "ListenCallback": [
            {
              "$type": "RPG.GameCore.AddAdventureModifier",
              "TargetType": {
                "$type": "RPG.GameCore.TargetAlias",
                "Alias": "ModifierOwnerEntity"
              },
              "ModifierName": "ADV_Modifier_XP_Minion04_MuteIgnoreVision"
            }
          ]
        }
      ]
    },
    "ADV_Modifier_XP_Minion04_MuteIgnoreVision": {
      "LifeTime": 8,
      "OnCreate": [
        {
          "$type": "RPG.GameCore.ModifyAiVisionExcludeTagRuntime",
          "Target": {
            "$type": "RPG.GameCore.TargetAlias",
            "Alias": "Caster"
          },
          "VisionID": "Default",
          "ModifyTag": [
            "TrotterLover"
          ]
        }
      ],
      "OnDestroy": [
        {
          "$type": "RPG.GameCore.ModifyAiVisionExcludeTagRuntime",
          "Target": {
            "$type": "RPG.GameCore.TargetAlias",
            "Alias": "Caster"
          },
          "VisionID": "Default",
          "IsAdd": true,
          "ModifyTag": [
            "TrotterLover"
          ]
        }
      ],
      "Stacking": "Refresh"
    }
  }
}