{
  "OnInitSequece": [
    {
      "TaskList": [
        {
          "$type": "RPG.GameCore.DefineDynamicValue",
          "TargetType": {
            "$type": "RPG.GameCore.TargetFetchCaster"
          },
          "DynamicKey": "BattleCollegeStage101",
          "ContextScope": "TargetEntity"
        }
      ]
    }
  ],
  "OnStartSequece": [
    {
      "TaskList": [
        {
          "$type": "RPG.GameCore.ShowTutorialUI",
          "AssociatedUIName": "BattleGamePageContext",
          "ForceShowDialog": true
        },
        {
          "$type": "RPG.GameCore.TutorialNotify",
          "Type": "PauseBattleToastWhenGamePause",
          "Param": "true"
        },
        {
          "$type": "RPG.GameCore.ForceShowActionDelay",
          "IsShow": true
        }
      ]
    },
    {
      "TaskList": [
        {
          "$type": "RPG.GameCore.WaitCustomString",
          "CustomString": {
            "Value": "Stage_InfoDetailPage_Start"
          },
          "GoNextImmediately": true
        },
        {
          "$type": "RPG.GameCore.ShowTutorialGuide",
          "GuideID": 7516,
          "WaitForExit": true
        },
        {
          "$type": "RPG.GameCore.TriggerCustomString",
          "CustomString": {
            "Value": "BattleCollegeTutorialPicClose"
          }
        },
        {
          "$type": "RPG.GameCore.ShowUI",
          "Name": "Ui.BattleCollege.BattleCollegeBattleFoldHintDialog"
        }
      ]
    },
    {
      "Order": 1,
      "TaskList": [
        {
          "$type": "RPG.GameCore.WaitTutorial",
          "Event": "LevelCharacterActionWithoutUltra",
          "Param": "1207"
        },
        {
          "$type": "RPG.GameCore.LockBattleOperation",
          "OperationWhiteList": [
            "AttackButton",
            "ActionButton"
          ]
        },
        {
          "$type": "RPG.GameCore.ShowGuide",
          "ID": 201,
          "GuideResID": 1,
          "NodeID": "BattleGamePhaseUI.SkillButton01",
          "Show": true,
          "CopyAnchorAndSale": true,
          "UseOriginRatio": true,
          "PCGuide": {},
          "AnimConfig": {
            "InitScale": 6,
            "TotalTime": 0.5
          }
        },
        {
          "$type": "RPG.GameCore.ShowGuideText",
          "ID": 101,
          "GuideResID": 9,
          "NodeID": "BattleGamePhaseUI.SkillButton01",
          "Show": true,
          "OffsetX": -30,
          "OffsetY": 70,
          "PCGuide": {}
        },
        {
          "$type": "RPG.GameCore.ShowTutorialUIMask",
          "NodeID": "BattleGamePhaseUI.SkillButton01",
          "Show": true,
          "Scale": 1.2,
          "PCGuide": {},
          "AnimConfig": {
            "UseAnim": true,
            "InitScale": 1.0001,
            "TotalTime": 0.25
          }
        },
        {
          "$type": "RPG.GameCore.WaitTutorial",
          "Event": "ClickAction"
        },
        {
          "$type": "RPG.GameCore.LockBattleOperation",
          "OperationWhiteList": [
            "ActionButton"
          ]
        },
        {
          "$type": "RPG.GameCore.ShowGuideText",
          "ID": 101,
          "Path": "BattleGamePhaseUI.SkillButton01",
          "PCGuide": {}
        },
        {
          "$type": "RPG.GameCore.ShowGuide",
          "ID": 201,
          "GuideResID": 1,
          "NodeID": "BattleGamePhaseUI.SkillButton01",
          "CopyAnchorAndSale": true,
          "UseOriginRatio": true,
          "PCGuide": {},
          "AnimConfig": {
            "InitScale": 6,
            "TotalTime": 0.5
          }
        },
        {
          "$type": "RPG.GameCore.ShowTutorialUIMask",
          "NodeID": "BattleGamePhaseUI.SkillButton01",
          "Scale": 1.2,
          "PCGuide": {},
          "AnimConfig": {
            "UseAnim": true,
            "InitScale": 1.0001,
            "TotalTime": 0.25
          }
        },
        {
          "$type": "RPG.GameCore.PauseGame"
        },
        {
          "$type": "RPG.GameCore.LockBattleOperation",
          "IsLock": false,
          "OperationWhiteList": []
        }
      ]
    },
    {
      "TaskList": [
        {
          "$type": "RPG.GameCore.WaitTutorial",
          "Event": "LevelTriggerBreak",
          "Param": "102202013"
        },
        {
          "$type": "RPG.GameCore.LockBattleOperation",
          "OperationWhiteList": []
        },
        {
          "$type": "RPG.GameCore.TutorialNotify",
          "Type": "NodeRename"
        },
        {
          "$type": "RPG.GameCore.WaitUINodeOpen",
          "NodeID": "DamageText.ElementDamage.102202013",
          "SkipCheck": true
        },
        {
          "$type": "RPG.GameCore.WaitSecond",
          "WaitTime": 0.2
        },
        {
          "$type": "RPG.GameCore.PauseGame",
          "Pause": true
        },
        {
          "$type": "RPG.GameCore.ShowGuide",
          "ID": 501,
          "GuideResID": 11,
          "NodeID": "DamageText.ElementDamage.102202013",
          "Show": true,
          "CopyAnchorAndSale": true,
          "Scale": 1.5,
          "PCGuide": {},
          "AnimConfig": {}
        },
        {
          "$type": "RPG.GameCore.ShowGuideText",
          "ID": 502,
          "GuideResID": 6,
          "NodeID": "DamageText.ElementDamage.102202013",
          "Show": true,
          "OffsetX": 85,
          "OffsetY": -45,
          "PCGuide": {
            "GuideResID": 5,
            "Path": "Page",
            "TextPath": "Contents/Text",
            "Text": "TutorialTextmap_100401_pc",
            "ActionName": "Battle_ReleaseUltra1"
          }
        },
        {
          "$type": "RPG.GameCore.ShowTutorialUIMask",
          "NodeID": "DamageText.ElementDamage.102202013",
          "Show": true,
          "Scale": 1.2,
          "PCGuide": {},
          "AnimConfig": {
            "UseAnim": true,
            "InitScale": 1.0001,
            "TotalTime": 0.25
          }
        },
        {
          "$type": "RPG.GameCore.WaitSecond",
          "WaitTime": 1.5
        },
        {
          "$type": "RPG.GameCore.WaitTutorial",
          "Event": "ActionPress"
        },
        {
          "$type": "RPG.GameCore.ShowTutorialUIMask",
          "NodeID": "DamageText.ElementDamage.8003020",
          "PCGuide": {},
          "AnimConfig": {
            "UseAnim": true,
            "InitScale": 1.0001,
            "TotalTime": 0.25
          }
        },
        {
          "$type": "RPG.GameCore.ShowGuideText",
          "ID": 502,
          "GuideResID": 6,
          "NodeID": "DamageText.ElementDamage.8003020",
          "Text": "TutorialTextmap_300401",
          "PCGuide": {
            "GuideResID": 5,
            "Path": "Page",
            "TextPath": "Contents/Text",
            "Text": "TutorialTextmap_100401_pc",
            "ActionName": "Battle_ReleaseUltra1"
          }
        },
        {
          "$type": "RPG.GameCore.ShowGuide",
          "ID": 501,
          "GuideResID": 10,
          "NodeID": "DamageText.ElementDamage.8003020",
          "CopyAnchorAndSale": true,
          "UseOriginRatio": true,
          "OffsetX": -10,
          "OffsetY": -40,
          "Scale": 0.8,
          "PCGuide": {},
          "AnimConfig": {}
        },
        {
          "$type": "RPG.GameCore.PauseGame"
        },
        {
          "$type": "RPG.GameCore.LockBattleOperation",
          "IsLock": false,
          "OperationWhiteList": []
        },
        {
          "$type": "RPG.GameCore.WaitUINodeOpen",
          "NodeID": "BuffIconCommon.102202013.30020025"
        },
        {
          "$type": "RPG.GameCore.PauseGame",
          "Pause": true
        },
        {
          "$type": "RPG.GameCore.ShowGuide",
          "ID": 501,
          "GuideResID": 11,
          "NodeID": "BuffIconCommon.102202013.30020025",
          "Show": true,
          "CopyAnchorAndSale": true,
          "PCGuide": {},
          "AnimConfig": {}
        },
        {
          "$type": "RPG.GameCore.ShowGuideText",
          "ID": 502,
          "GuideResID": 8,
          "NodeID": "BuffIconCommon.102202013.30020025",
          "Show": true,
          "OffsetX": -30,
          "OffsetY": -35,
          "PCGuide": {
            "GuideResID": 5,
            "Path": "Page",
            "TextPath": "Contents/Text",
            "Text": "TutorialTextmap_100401_pc",
            "ActionName": "Battle_ReleaseUltra1"
          }
        },
        {
          "$type": "RPG.GameCore.ShowTutorialUIMask",
          "NodeID": "BuffIconCommon.102202013.30020025",
          "Show": true,
          "Scale": 1.2,
          "PCGuide": {},
          "AnimConfig": {
            "UseAnim": true,
            "InitScale": 1.0001,
            "TotalTime": 0.25
          }
        },
        {
          "$type": "RPG.GameCore.WaitSecond",
          "WaitTime": 1.5
        },
        {
          "$type": "RPG.GameCore.WaitTutorial",
          "Event": "ActionPress"
        },
        {
          "$type": "RPG.GameCore.ShowTutorialUIMask",
          "NodeID": "BuffPanel",
          "PCGuide": {},
          "AnimConfig": {
            "UseAnim": true,
            "InitScale": 1.0001,
            "TotalTime": 0.25
          }
        },
        {
          "$type": "RPG.GameCore.ShowGuideText",
          "ID": 502,
          "GuideResID": 6,
          "NodeID": "BuffPanel",
          "Text": "TutorialTextmap_300401",
          "PCGuide": {
            "GuideResID": 5,
            "Path": "Page",
            "TextPath": "Contents/Text",
            "Text": "TutorialTextmap_100401_pc",
            "ActionName": "Battle_ReleaseUltra1"
          }
        },
        {
          "$type": "RPG.GameCore.ShowGuide",
          "ID": 501,
          "GuideResID": 10,
          "NodeID": "BuffPanel",
          "CopyAnchorAndSale": true,
          "UseOriginRatio": true,
          "OffsetX": -10,
          "OffsetY": -40,
          "Scale": 0.8,
          "PCGuide": {},
          "AnimConfig": {}
        },
        {
          "$type": "RPG.GameCore.WaitSecond",
          "WaitTime": 0.5
        },
        {
          "$type": "RPG.GameCore.TutorialNotify",
          "Type": "NodeRename"
        },
        {
          "$type": "RPG.GameCore.WaitUINodeOpen",
          "NodeID": "BattleGamePhaseUI.NormalMode.Append_Enemy_Normal_102202013"
        },
        {
          "$type": "RPG.GameCore.ShowGuide",
          "ID": 601,
          "GuideResID": 11,
          "NodeID": "BattleGamePhaseUI.NormalMode.Append_Enemy_Normal_102202013",
          "Show": true,
          "CopyAnchorAndSale": true,
          "PCGuide": {},
          "AnimConfig": {}
        },
        {
          "$type": "RPG.GameCore.ShowGuideText",
          "ID": 602,
          "GuideResID": 6,
          "NodeID": "BattleGamePhaseUI.NormalMode.Append_Enemy_Normal_102202013",
          "Show": true,
          "OffsetX": 60,
          "OffsetY": -45,
          "PCGuide": {
            "GuideResID": 5,
            "Path": "Page",
            "TextPath": "Contents/Text",
            "Text": "TutorialTextmap_100401_pc",
            "ActionName": "Battle_ReleaseUltra1"
          }
        },
        {
          "$type": "RPG.GameCore.ShowTutorialUIMask",
          "NodeID": "BattleGamePhaseUI.NormalMode.Append_Enemy_Normal_102202013",
          "Show": true,
          "PCGuide": {},
          "AnimConfig": {
            "UseAnim": true,
            "InitScale": 1.0001,
            "TotalTime": 0.25
          }
        },
        {
          "$type": "RPG.GameCore.WaitSecond",
          "WaitTime": 1.5
        },
        {
          "$type": "RPG.GameCore.WaitTutorial",
          "Event": "ActionPress"
        },
        {
          "$type": "RPG.GameCore.ShowTutorialUIMask",
          "NodeID": "BattleGamePhaseUI.NormalMode.Append_Enemy_Normal_800302013",
          "PCGuide": {},
          "AnimConfig": {
            "UseAnim": true,
            "InitScale": 1.0001,
            "TotalTime": 0.25
          }
        },
        {
          "$type": "RPG.GameCore.ShowGuideText",
          "ID": 602,
          "GuideResID": 6,
          "NodeID": "BattleGamePhaseUI.NormalMode.Append_Enemy_Normal_800302013",
          "Text": "TutorialTextmap_300401",
          "PCGuide": {
            "GuideResID": 5,
            "Path": "Page",
            "TextPath": "Contents/Text",
            "Text": "TutorialTextmap_100401_pc",
            "ActionName": "Battle_ReleaseUltra1"
          }
        },
        {
          "$type": "RPG.GameCore.ShowGuide",
          "ID": 601,
          "GuideResID": 10,
          "NodeID": "BattleGamePhaseUI.NormalMode.Append_Enemy_Normal_800302013",
          "CopyAnchorAndSale": true,
          "UseOriginRatio": true,
          "OffsetX": -10,
          "OffsetY": -40,
          "Scale": 0.8,
          "PCGuide": {},
          "AnimConfig": {}
        },
        {
          "$type": "RPG.GameCore.PauseGame"
        },
        {
          "$type": "RPG.GameCore.LockBattleOperation",
          "IsLock": false,
          "OperationWhiteList": []
        }
      ]
    }
  ],
  "ValueSource": {},
  "Type": "SubGraph"
}