{
  "AbilityList": [
    {
      "Name": "Avatar_RogueBattleevent127_Skill03_EnterReady",
      "TargetInfo": {
        "TargetType": "SkillTargetEntityList"
      },
      "OnStart": [
        {
          "$type": "RPG.GameCore.ShowSkillTextDialog",
          "SkillName": {
            "Hash": -450533277
          }
        },
        {
          "$type": "RPG.GameCore.SyncCharLightAndCameraDir"
        },
        {
          "$type": "RPG.GameCore.TriggerAnimState",
          "TargetType": {
            "$type": "RPG.GameCore.TargetAlias",
            "Alias": "AllLightTeam"
          },
          "AnimLogicState": "Idle",
          "AnimStateName": "StandBy"
        },
        {
          "$type": "RPG.GameCore.GlobalMainIntensityEffect",
          "TargetIntensity": 0.3,
          "FadeDuration": 0.5
        },
        {
          "$type": "RPG.GameCore.TriggerEffect",
          "TargetType": {
            "$type": "RPG.GameCore.TargetAlias",
            "Alias": "LightTeamCenter"
          },
          "EffectPath": "Effects/Eff_Prefab/Eff_BattleEvent/Eff_Rogue_Breeding/Eff_BattleEvent_Rogue_Breeding_01.prefab"
        },
        {
          "$type": "RPG.GameCore.TriggerEffect",
          "TargetType": {
            "$type": "RPG.GameCore.TargetAlias",
            "Alias": "LightTeamCenter"
          },
          "EffectPath": "Effects/Eff_Prefab/Eff_BattleEvent/Eff_Rogue_Breeding/Eff_BattleEvent_Rogue_Breeding_01_Cam.prefab"
        },
        {
          "$type": "RPG.GameCore.IncludeGlobalTaskListTemplate",
          "Name": "PositionConfigByFormationIndex"
        },
        {
          "$type": "RPG.GameCore.VCameraConfigChange",
          "CameraConfig": {
            "NormalConfig": {
              "CameraState": "UseSkillPerform",
              "AnchorTargetType": {
                "$type": "RPG.GameCore.TargetAlias",
                "Alias": "LightTeamCenter"
              },
              "IsLocalOffset": true,
              "AimTargetType": {
                "$type": "RPG.GameCore.TargetAlias",
                "Alias": "LightTeamCenter"
              },
              "AimOffset": {
                "X": -2.12,
                "Y": 0.28,
                "Z": 0
              },
              "FollowPoleAngle": 448.56,
              "FollowElevationAngle": 2,
              "FollowRadius": 4.1,
              "FOV": 50
            },
            "BlendConfig": {
              "BlendType": "Cut"
            },
            "ShowEntityConfig": {
              "ShowTargetType": {
                "$type": "RPG.GameCore.TargetAlias",
                "Alias": "AllLightTeam"
              },
              "IsTargetIgnoreCameraDither": true
            }
          }
        },
        {
          "$type": "RPG.GameCore.WaitSecond",
          "WaitTime": 0.1
        },
        {
          "$type": "RPG.GameCore.VCameraConfigChange",
          "CameraConfig": {
            "NormalConfig": {
              "CameraState": "UseSkillPerform",
              "AnchorTargetType": {
                "$type": "RPG.GameCore.TargetAlias",
                "Alias": "LightTeamCenter"
              },
              "IsLocalOffset": true,
              "AnchorOffset": {
                "X": 0,
                "Y": 1,
                "Z": 0.5
              },
              "AimTargetType": {
                "$type": "RPG.GameCore.TargetAlias",
                "Alias": "LightTeamCenter"
              },
              "AimOffset": {
                "X": 0,
                "Y": 1,
                "Z": 0
              },
              "FollowPoleAngle": 90,
              "FollowRadius": 3,
              "FollowDamp": 1.8,
              "AimDamp": 1.8,
              "FOV": 50
            },
            "ShowEntityConfig": {
              "ShowTargetType": {
                "$type": "RPG.GameCore.TargetAlias",
                "Alias": "AllLightTeam"
              },
              "IsTargetIgnoreCameraDither": true
            }
          }
        },
        {
          "$type": "RPG.GameCore.WaitSecond",
          "WaitTime": 1
        }
      ]
    },
    {
      "Name": "Avatar_RogueBattleevent127_Skill03_Phase01",
      "TargetInfo": {
        "TargetType": "SkillTargetEntityList"
      },
      "OnStart": [
        {
          "$type": "RPG.GameCore.TriggerAbility",
          "TargetType": {
            "$type": "RPG.GameCore.TargetAlias",
            "Alias": "Caster"
          },
          "AbilityName": "Avatar_RogueBattleevent127_Skill03_Phase02",
          "IsSkillPerform": true
        },
        {
          "$type": "RPG.GameCore.TriggerAbility",
          "TargetType": {
            "$type": "RPG.GameCore.TargetAlias",
            "Alias": "Caster"
          },
          "AbilityName": "Avatar_RogueBattleevent127_Skill03_Camera",
          "IsSkillPerform": true
        }
      ]
    },
    {
      "Modifiers": {
        "MAvatar_RogueBattleevent127_Levelup4": {
          "BehaviorFlagList": [
            "BlockDamageExcludeDot"
          ],
          "_CallbackList": [
            {
              "Event": "OnBeforeBeingHitAll",
              "CallbackConfig": [
                {
                  "$type": "RPG.GameCore.PredicateTaskList",
                  "Predicate": {
                    "$type": "RPG.GameCore.ByNot",
                    "Predicate": {
                      "$type": "RPG.GameCore.ByAttackType",
                      "AttackTypes": [
                        "DOT"
                      ]
                    }
                  },
                  "SuccessTaskList": [
                    {
                      "$type": "RPG.GameCore.TriggerEffectList",
                      "TargetType": {
                        "$type": "RPG.GameCore.TargetAlias",
                        "Alias": "ModifierOwnerEntity"
                      },
                      "EffectList": [
                        {
                          "EffectPath": "Effects/Eff_Prefab/Eff_Avatar/Eff_PlayerBoy_10/Eff_Avatar_PlayerBoy_10_Common_BeAttack_02.prefab"
                        },
                        {
                          "EffectPath": "Effects/Eff_Prefab/Eff_Avatar/Eff_PlayerBoy_10/Eff_Avatar_PlayerBoy_10_Common_BeAttack.prefab"
                        }
                      ]
                    }
                  ]
                }
              ]
            },
            {
              "Event": "OnAfterBeingAttacked",
              "CallbackConfig": [
                {
                  "$type": "RPG.GameCore.SetModifierValue",
                  "ModifyFunction": "Add"
                }
              ]
            }
          ],
          "Count": 1,
          "Stacking": "Replace"
        },
        "MAvatar_RogueBattleevent127_GetBP": {
          "_CallbackList": [
            {
              "Event": "OnStack",
              "CallbackConfig": [
                {
                  "$type": "RPG.GameCore.ModifyTeamBoostPoint",
                  "ModifyFunction": "Add",
                  "ModifyValue": {
                    "IsDynamic": true,
                    "PostfixExpr": {
                      "OpCodes": "AQAK",
                      "FixedValues": [],
                      "DynamicHashes": [
                        -1810153648
                      ]
                    }
                  }
                },
                {
                  "$type": "RPG.GameCore.PredicateTaskList",
                  "Predicate": {
                    "$type": "RPG.GameCore.ByIsContainModifier",
                    "TargetType": {
                      "$type": "RPG.GameCore.TargetAlias",
                      "Alias": "LevelEntity"
                    },
                    "ModifierName": "StageAbility_612724_Modifier"
                  },
                  "SuccessTaskList": [
                    {
                      "$type": "RPG.GameCore.PredicateTaskList",
                      "Predicate": {
                        "$type": "RPG.GameCore.ByCompareHPRatio",
                        "TargetType": {
                          "$type": "RPG.GameCore.TargetAlias",
                          "Alias": "ModifierOwnerEntity"
                        },
                        "CompareType": "Less",
                        "CompareValue": {
                          "IsDynamic": true,
                          "PostfixExpr": {
                            "OpCodes": "AQAK",
                            "FixedValues": [],
                            "DynamicHashes": [
                              263137009
                            ]
                          }
                        }
                      },
                      "SuccessTaskList": [
                        {
                          "$type": "RPG.GameCore.ModifyTeamBoostPoint",
                          "ModifyFunction": "Add",
                          "ModifyValue": {
                            "IsDynamic": true,
                            "PostfixExpr": {
                              "OpCodes": "AQAK",
                              "FixedValues": [],
                              "DynamicHashes": [
                                639696940
                              ]
                            }
                          }
                        }
                      ]
                    }
                  ]
                }
              ]
            }
          ],
          "Stacking": "ReplaceByCaster",
          "DynamicValues": {
            "Values": {
              "-1810153648": {},
              "639696940": {},
              "263137009": {}
            }
          }
        },
        "MAvatar_RogueBattleevent127_Power_Base": {
          "_CallbackList": [
            {
              "Event": "OnAllowAction",
              "CallbackConfig": [
                {
                  "$type": "RPG.GameCore.SetDynamicValue",
                  "DynamicKey": "MDF_BP_Count_All",
                  "Value": {
                    "IsDynamic": false,
                    "FixedValue": {
                      "Value": 0
                    }
                  }
                }
              ]
            },
            {
              "Event": "OnBeforeHitAll",
              "CallbackConfig": [
                {
                  "$type": "RPG.GameCore.PredicateTaskList",
                  "Predicate": {
                    "$type": "RPG.GameCore.ByCompareDynamicValue",
                    "DynamicKey": "Attack_Flag",
                    "CompareType": "Equal",
                    "CompareValue": {
                      "IsDynamic": false,
                      "FixedValue": {
                        "Value": 1
                      }
                    }
                  },
                  "SuccessTaskList": [
                    {
                      "$type": "RPG.GameCore.ModifyDamageData",
                      "Defender_AllDamageTypeResistance": {
                        "IsDynamic": true,
                        "PostfixExpr": {
                          "OpCodes": "AAAHAQAEAQEECg==",
                          "FixedValues": [
                            {
                              "Value": 1
                            }
                          ],
                          "DynamicHashes": [
                            909827942,
                            165799174
                          ]
                        }
                      }
                    }
                  ]
                }
              ]
            },
            {
              "Event": "OnStack",
              "CallbackConfig": [
                {
                  "$type": "RPG.GameCore.PredicateTaskList",
                  "Predicate": {
                    "$type": "RPG.GameCore.ByIsContainModifier",
                    "TargetType": {
                      "$type": "RPG.GameCore.TargetAlias",
                      "Alias": "LevelEntity"
                    },
                    "ModifierName": "StageAbility_612723_Modifier"
                  },
                  "SuccessTaskList": [
                    {
                      "$type": "RPG.GameCore.AddModifier",
                      "TargetType": {
                        "$type": "RPG.GameCore.TargetAlias",
                        "Alias": "ModifierOwnerEntity"
                      },
                      "ModifierName": "MAvatar_RogueBattleevent127_Power",
                      "LifeStepImmediately": true,
                      "LifeTime": {
                        "IsDynamic": true,
                        "PostfixExpr": {
                          "OpCodes": "AQAK",
                          "FixedValues": [],
                          "DynamicHashes": [
                            1438199856
                          ]
                        }
                      }
                    },
                    {
                      "$type": "RPG.GameCore.StackProperty",
                      "TargetType": {
                        "$type": "RPG.GameCore.TargetAlias",
                        "Alias": "ModifierOwnerEntity"
                      },
                      "Property": "AllDamageTypeAddedRatio",
                      "PropertyValue": {
                        "IsDynamic": true,
                        "PostfixExpr": {
                          "OpCodes": "AQAK",
                          "FixedValues": [],
                          "DynamicHashes": [
                            195489229
                          ]
                        }
                      }
                    }
                  ]
                },
                {
                  "$type": "RPG.GameCore.ModifierAttachEffect",
                  "TargetType": {
                    "$type": "RPG.GameCore.TargetAlias",
                    "Alias": "ModifierOwnerEntity"
                  },
                  "EffectPath": "Effects/Eff_Prefab/Eff_BattleEvent/Eff_Rogue_Breeding/Eff_BattleEvent_Rogue_Breeding_Buff.prefab",
                  "MinMutexTime": -1,
                  "MutexType": "Entity"
                }
              ]
            },
            {
              "Event": "OnTriggerDeath",
              "CallbackConfig": [
                {
                  "$type": "RPG.GameCore.PredicateTaskList",
                  "Predicate": {
                    "$type": "RPG.GameCore.ByIsContainModifier",
                    "TargetType": {
                      "$type": "RPG.GameCore.TargetAlias",
                      "Alias": "LevelEntity"
                    },
                    "ModifierName": "StageAbility_612721_Modifier"
                  },
                  "SuccessTaskList": [
                    {
                      "$type": "RPG.GameCore.SetDynamicValueByProperty",
                      "DynamicKey": "_MaxSP",
                      "ReadTargetType": {
                        "$type": "RPG.GameCore.TargetAlias",
                        "Alias": "Caster"
                      },
                      "Value": "MaxSP"
                    },
                    {
                      "$type": "RPG.GameCore.ModifySPNew",
                      "TargetType": {
                        "$type": "RPG.GameCore.TargetAlias",
                        "Alias": "Caster"
                      },
                      "FixedAddValue": {
                        "IsDynamic": true,
                        "PostfixExpr": {
                          "OpCodes": "AQABAQQK",
                          "FixedValues": [],
                          "DynamicHashes": [
                            -86835773,
                            -1309867864
                          ]
                        }
                      }
                    }
                  ]
                }
              ]
            },
            {
              "Event": "OnListenBpChange",
              "CallbackConfig": [
                {
                  "$type": "RPG.GameCore.PredicateTaskList",
                  "Predicate": {
                    "$type": "RPG.GameCore.ByAnd",
                    "PredicateList": [
                      {
                        "$type": "RPG.GameCore.ByCompareTarget",
                        "TargetType": {
                          "$type": "RPG.GameCore.TargetAlias",
                          "Alias": "ParamEntity"
                        },
                        "CompareType": {
                          "$type": "RPG.GameCore.TargetAlias",
                          "Alias": "ModifierOwnerEntity"
                        }
                      },
                      {
                        "$type": "RPG.GameCore.ByCompareParamValue",
                        "CompareType": "Less",
                        "CompareValue": {
                          "IsDynamic": false,
                          "FixedValue": {
                            "Value": 0
                          }
                        }
                      }
                    ]
                  },
                  "SuccessTaskList": [
                    {
                      "$type": "RPG.GameCore.SetDynamicValueByVariateType",
                      "DynamicKey": "MDF_BPCount",
                      "VariateType": "ParamValue"
                    },
                    {
                      "$type": "RPG.GameCore.SetDynamicValue",
                      "DynamicKey": "MDF_BP_Count_All",
                      "Value": {
                        "IsDynamic": true,
                        "PostfixExpr": {
                          "OpCodes": "AQABAQAABwQCCg==",
                          "FixedValues": [
                            {
                              "Value": 1
                            }
                          ],
                          "DynamicHashes": [
                            165799174,
                            -1369667111
                          ]
                        }
                      }
                    }
                  ]
                },
                {
                  "$type": "RPG.GameCore.PredicateTaskList",
                  "Predicate": {
                    "$type": "RPG.GameCore.ByAnd",
                    "PredicateList": [
                      {
                        "$type": "RPG.GameCore.ByCompareTarget",
                        "TargetType": {
                          "$type": "RPG.GameCore.TargetAlias",
                          "Alias": "ParamEntity"
                        },
                        "CompareType": {
                          "$type": "RPG.GameCore.TargetAlias",
                          "Alias": "ModifierOwnerEntity"
                        }
                      },
                      {
                        "$type": "RPG.GameCore.ByCompareParamValue",
                        "CompareType": "Greater",
                        "CompareValue": {
                          "IsDynamic": false,
                          "FixedValue": {
                            "Value": 0
                          }
                        }
                      }
                    ]
                  },
                  "SuccessTaskList": [
                    {
                      "$type": "RPG.GameCore.SetDynamicValueByVariateType",
                      "DynamicKey": "MDF_BPCount",
                      "VariateType": "ParamValue"
                    },
                    {
                      "$type": "RPG.GameCore.SetDynamicValue",
                      "DynamicKey": "MDF_BP_Count_All",
                      "Value": {
                        "IsDynamic": true,
                        "PostfixExpr": {
                          "OpCodes": "AQABAQIK",
                          "FixedValues": [],
                          "DynamicHashes": [
                            165799174,
                            -1369667111
                          ]
                        }
                      }
                    }
                  ]
                },
                {
                  "$type": "RPG.GameCore.PredicateTaskList",
                  "Predicate": {
                    "$type": "RPG.GameCore.ByCompareDynamicValue",
                    "DynamicKey": "MDF_BP_Count_All",
                    "CompareType": "GreaterEqual",
                    "CompareValue": {
                      "IsDynamic": true,
                      "PostfixExpr": {
                        "OpCodes": "AQAK",
                        "FixedValues": [],
                        "DynamicHashes": [
                          909827943
                        ]
                      }
                    }
                  },
                  "SuccessTaskList": [
                    {
                      "$type": "RPG.GameCore.SetDynamicValue",
                      "DynamicKey": "MDF_BP_Count_All",
                      "Value": {
                        "IsDynamic": true,
                        "PostfixExpr": {
                          "OpCodes": "AQAK",
                          "FixedValues": [],
                          "DynamicHashes": [
                            909827943
                          ]
                        }
                      }
                    }
                  ]
                }
              ]
            },
            {
              "Event": "OnBeforeAttack",
              "CallbackConfig": [
                {
                  "$type": "RPG.GameCore.PredicateTaskList",
                  "Predicate": {
                    "$type": "RPG.GameCore.ByAttackType",
                    "AttackTypes": [
                      "Insert"
                    ]
                  },
                  "SuccessTaskList": [
                    {
                      "$type": "RPG.GameCore.SetDynamicValue",
                      "DynamicKey": "MDF_BP_Count_All",
                      "Value": {
                        "IsDynamic": false,
                        "FixedValue": {
                          "Value": 0
                        }
                      }
                    }
                  ]
                },
                {
                  "$type": "RPG.GameCore.SetDynamicValue",
                  "DynamicKey": "BPCount_Flag",
                  "Value": {
                    "IsDynamic": false,
                    "FixedValue": {
                      "Value": 1
                    }
                  }
                },
                {
                  "$type": "RPG.GameCore.SetDynamicValue",
                  "DynamicKey": "Attack_Flag",
                  "Value": {
                    "IsDynamic": false,
                    "FixedValue": {
                      "Value": 1
                    }
                  }
                }
              ]
            },
            {
              "Event": "OnAfterAttack",
              "CallbackConfig": [
                {
                  "$type": "RPG.GameCore.SetDynamicValue",
                  "DynamicKey": "MDF_BP_Count_All",
                  "Value": {
                    "IsDynamic": false,
                    "FixedValue": {
                      "Value": 0
                    }
                  }
                },
                {
                  "$type": "RPG.GameCore.SetDynamicValue",
                  "DynamicKey": "BPCount_Flag",
                  "Value": {
                    "IsDynamic": false,
                    "FixedValue": {
                      "Value": 0
                    }
                  }
                },
                {
                  "$type": "RPG.GameCore.SetDynamicValue",
                  "DynamicKey": "Attack_Flag",
                  "Value": {
                    "IsDynamic": false,
                    "FixedValue": {
                      "Value": 0
                    }
                  }
                }
              ]
            },
            {
              "Event": "OnBeforeSkillUse",
              "CallbackConfig": []
            },
            {
              "Event": "OnAfterSkillUse",
              "CallbackConfig": [
                {
                  "$type": "RPG.GameCore.SetDynamicValue",
                  "DynamicKey": "MDF_BP_Count_All",
                  "Value": {
                    "IsDynamic": false,
                    "FixedValue": {
                      "Value": 0
                    }
                  }
                },
                {
                  "$type": "RPG.GameCore.SetDynamicValue",
                  "DynamicKey": "BPCount_Flag",
                  "Value": {
                    "IsDynamic": false,
                    "FixedValue": {
                      "Value": 0
                    }
                  }
                }
              ]
            }
          ],
          "DynamicValues": {
            "Values": {
              "-1369667111": {},
              "165799174": {},
              "-965335230": {},
              "1376599763": {},
              "-1309867864": {},
              "289414381": {},
              "1438199856": {}
            }
          }
        },
        "MAvatar_RogueBattleevent127_Power": {
          "Stacking": "ReplaceByCaster"
        }
      },
      "Name": "Avatar_RogueBattleevent127_Skill03_Phase02",
      "TargetInfo": {
        "TargetType": "AllLightTeamMember"
      },
      "OnStart": [
        {
          "$type": "RPG.GameCore.RemoveEffect",
          "TargetType": {
            "$type": "RPG.GameCore.TargetAlias",
            "Alias": "LightTeamCenter"
          },
          "EffectPath": "Effects/Eff_Prefab/Eff_BattleEvent/Eff_Rogue_Breeding/Eff_BattleEvent_Rogue_Breeding_01.prefab"
        },
        {
          "$type": "RPG.GameCore.RemoveEffect",
          "TargetType": {
            "$type": "RPG.GameCore.TargetAlias",
            "Alias": "LightTeamCenter"
          },
          "EffectPath": "Effects/Eff_Prefab/Eff_BattleEvent/Eff_Rogue_Breeding/Eff_BattleEvent_Rogue_Breeding_01_Cam.prefab"
        },
        {
          "$type": "RPG.GameCore.RemoveEffect",
          "TargetType": {
            "$type": "RPG.GameCore.TargetAlias",
            "Alias": "SkillTargetEntityList"
          },
          "EffectPath": "Effects/Eff_Prefab/Eff_BattleEvent/Eff_Rogue_Breeding/Eff_BattleEvent_Rogue_Breeding_02.prefab",
          "IsNeedFadeOut": false
        },
        {
          "$type": "RPG.GameCore.TriggerEffect",
          "TargetType": {
            "$type": "RPG.GameCore.TargetAlias",
            "Alias": "SkillTargetEntityList"
          },
          "EffectPath": "Effects/Eff_Prefab/Eff_BattleEvent/Eff_Rogue_Breeding/Eff_BattleEvent_Rogue_Breeding_03.prefab"
        },
        {
          "$type": "RPG.GameCore.TriggerEffect",
          "TargetType": {
            "$type": "RPG.GameCore.TargetAlias",
            "Alias": "SkillTargetEntityList"
          },
          "EffectPath": "Effects/Eff_Prefab/Eff_BattleEvent/Eff_Rogue_Breeding/Eff_BattleEvent_Rogue_Breeding_03_01.prefab"
        },
        {
          "$type": "RPG.GameCore.TriggerEffect",
          "TargetType": {
            "$type": "RPG.GameCore.TargetAlias",
            "Alias": "SkillTargetEntityList"
          },
          "EffectPath": "Effects/Eff_Prefab/Eff_BattleEvent/Eff_Rogue_Breeding/Eff_BattleEvent_Rogue_Breeding_03_Cam.prefab"
        },
        {
          "$type": "RPG.GameCore.WaitSecond",
          "WaitTime": 0.8
        },
        {
          "$type": "RPG.GameCore.PredicateTaskList",
          "Predicate": {
            "$type": "RPG.GameCore.ByIsContainModifier",
            "TargetType": {
              "$type": "RPG.GameCore.TargetAlias",
              "Alias": "LevelEntity"
            },
            "ModifierName": "StageAbility_612721_Modifier"
          },
          "SuccessTaskList": [
            {
              "$type": "RPG.GameCore.SetDynamicValue",
              "DynamicKey": "Extra_Use_Count",
              "Value": {
                "IsDynamic": false,
                "FixedValue": {
                  "Value": 1
                }
              }
            }
          ]
        },
        {
          "$type": "RPG.GameCore.RemoveModifier",
          "TargetType": {
            "$type": "RPG.GameCore.TargetAlias",
            "Alias": "AllLightTeam"
          },
          "ModifierName": "MAvatar_RogueBattleevent127_Power_Base"
        },
        {
          "$type": "RPG.GameCore.SetActionDelay",
          "TargetType": {
            "$type": "RPG.GameCore.TargetAlias",
            "Alias": "SkillTargetEntityList"
          },
          "Value": {
            "IsDynamic": false,
            "FixedValue": {
              "Value": 0
            }
          }
        },
        {
          "$type": "RPG.GameCore.AddModifier",
          "TargetType": {
            "$type": "RPG.GameCore.TargetAlias",
            "Alias": "SkillTargetEntityList"
          },
          "ModifierName": "MAvatar_RogueBattleevent127_Power_Base",
          "LifeStepImmediately": true,
          "LifeTime": {
            "IsDynamic": true,
            "PostfixExpr": {
              "OpCodes": "AAABAAIK",
              "FixedValues": [
                {
                  "Value": 1
                }
              ],
              "DynamicHashes": [
                643988952
              ]
            }
          },
          "DynamicValues": {
            "Max_Use_Count": {
              "IsDynamic": true,
              "PostfixExpr": {
                "OpCodes": "AAABAAIK",
                "FixedValues": [
                  {
                    "Value": 1
                  }
                ],
                "DynamicHashes": [
                  643988952
                ]
              }
            }
          }
        },
        {
          "$type": "RPG.GameCore.AddModifier",
          "TargetType": {
            "$type": "RPG.GameCore.TargetAlias",
            "Alias": "SkillTargetEntityList"
          },
          "ModifierName": "MAvatar_RogueBattleevent127_GetBP",
          "DynamicValues": {
            "GetBP_Count": {
              "IsDynamic": true,
              "PostfixExpr": {
                "OpCodes": "AQAK",
                "FixedValues": [],
                "DynamicHashes": [
                  909827945
                ]
              }
            },
            "GetBP_Count_Levelup4": {
              "IsDynamic": true,
              "PostfixExpr": {
                "OpCodes": "AQAK",
                "FixedValues": [],
                "DynamicHashes": [
                  -2109906623
                ]
              }
            },
            "HPRatio_Levelup4": {
              "IsDynamic": true,
              "PostfixExpr": {
                "OpCodes": "AQAK",
                "FixedValues": [],
                "DynamicHashes": [
                  618976732
                ]
              }
            }
          },
          "InheritCaster": "TargetSelf"
        },
        {
          "$type": "RPG.GameCore.PredicateTaskList",
          "Predicate": {
            "$type": "RPG.GameCore.ByIsContainModifier",
            "TargetType": {
              "$type": "RPG.GameCore.TargetAlias",
              "Alias": "LevelEntity"
            },
            "ModifierName": "StageAbility_612724_Modifier"
          },
          "SuccessTaskList": [
            {
              "$type": "RPG.GameCore.AddModifier",
              "TargetType": {
                "$type": "RPG.GameCore.TargetAlias",
                "Alias": "SkillTargetEntityList"
              },
              "ModifierName": "MAvatar_RogueBattleevent127_Levelup4"
            }
          ]
        },
        {
          "$type": "RPG.GameCore.PredicateTaskList",
          "Predicate": {
            "$type": "RPG.GameCore.ByIsContainModifier",
            "TargetType": {
              "$type": "RPG.GameCore.TargetAlias",
              "Alias": "LevelEntity"
            },
            "ModifierName": "StageAbility_612725_Modifier"
          },
          "SuccessTaskList": [
            {
              "$type": "RPG.GameCore.SetDynamicValueByProperty",
              "DynamicKey": "MaxHP_Levelup5",
              "ReadTargetType": {
                "$type": "RPG.GameCore.TargetAlias",
                "Alias": "SkillTargetEntityList"
              },
              "Value": "MaxHP"
            },
            {
              "$type": "RPG.GameCore.AddModifier",
              "TargetType": {
                "$type": "RPG.GameCore.TargetAlias",
                "Alias": "SkillTargetEntityList"
              },
              "ModifierName": "MCommon_Protect_Shield",
              "LifeTime": {
                "IsDynamic": true,
                "PostfixExpr": {
                  "OpCodes": "AQAK",
                  "FixedValues": [],
                  "DynamicHashes": [
                    881098758
                  ]
                }
              },
              "DynamicValues": {
                "MDF_ShowValue": {
                  "IsDynamic": true,
                  "PostfixExpr": {
                    "OpCodes": "AQABAQQK",
                    "FixedValues": [],
                    "DynamicHashes": [
                      477814231,
                      -650927451
                    ]
                  }
                }
              }
            }
          ]
        },
        {
          "$type": "RPG.GameCore.WaitSecond",
          "WaitTime": 1.53
        },
        {
          "$type": "RPG.GameCore.RemoveEffect",
          "TargetType": {
            "$type": "RPG.GameCore.TargetAlias",
            "Alias": "SkillTargetEntityList"
          },
          "EffectPath": "Effects/Eff_Prefab/Eff_BattleEvent/Eff_Rogue_Breeding/Eff_BattleEvent_Rogue_Breeding_03.prefab"
        },
        {
          "$type": "RPG.GameCore.RemoveEffect",
          "TargetType": {
            "$type": "RPG.GameCore.TargetAlias",
            "Alias": "SkillTargetEntityList"
          },
          "EffectPath": "Effects/Eff_Prefab/Eff_BattleEvent/Eff_Rogue_Breeding/Eff_BattleEvent_Rogue_Breeding_03_01.prefab"
        },
        {
          "$type": "RPG.GameCore.TriggerEffect",
          "TargetType": {
            "$type": "RPG.GameCore.TargetAlias",
            "Alias": "SkillTargetEntityList"
          },
          "EffectPath": "Effects/Eff_Prefab/Eff_BattleEvent/Eff_Rogue_Breeding/Eff_BattleEvent_Rogue_Breeding_03_End.prefab"
        },
        {
          "$type": "RPG.GameCore.SkillPerformFinish"
        }
      ],
      "DynamicValues": {
        "Values": {
          "643988952": {},
          "-650927451": {}
        }
      }
    },
    {
      "Name": "Avatar_RogueBattleevent127_Skill03_Camera",
      "TargetInfo": {
        "TargetType": "Caster"
      },
      "OnStart": [
        {
          "$type": "RPG.GameCore.VCameraConfigChange",
          "CameraConfig": {
            "NormalConfig": {
              "CameraState": "UseSkillPerform",
              "AnchorTargetType": {
                "$type": "RPG.GameCore.TargetAlias",
                "Alias": "SkillTargetEntityList"
              },
              "IsLocalOffset": true,
              "AimOffset": {
                "X": 0.02,
                "Y": -0.201,
                "Z": 0.07
              },
              "FollowPoleAngle": 397.452,
              "FollowElevationAngle": -9,
              "FollowRadius": 2.646978
            },
            "BlendConfig": {
              "BlendType": "Cut"
            },
            "ShowEntityConfig": {
              "ShowTargetType": {
                "$type": "RPG.GameCore.TargetAlias",
                "Alias": "SkillTargetEntityList"
              }
            }
          }
        },
        {
          "$type": "RPG.GameCore.WaitSecond",
          "WaitTime": 0.01
        },
        {
          "$type": "RPG.GameCore.VCameraConfigChange",
          "CameraConfig": {
            "NormalConfig": {
              "CameraState": "UseSkillPerform",
              "AnchorTargetType": {
                "$type": "RPG.GameCore.TargetAlias",
                "Alias": "SkillTargetEntityList"
              },
              "IsLocalOffset": true,
              "AimOffset": {
                "X": 0.02,
                "Y": -0.201,
                "Z": 0.07
              },
              "FollowPoleAngle": 398,
              "FollowElevationAngle": -6,
              "FollowRadius": 2.9
            },
            "BlendConfig": {
              "BlendType": "Linear",
              "BlendTime": 0.7
            },
            "ShowEntityConfig": {
              "ShowTargetType": {
                "$type": "RPG.GameCore.TargetAlias",
                "Alias": "SkillTargetEntityList"
              }
            }
          }
        },
        {
          "$type": "RPG.GameCore.WaitSecond",
          "WaitTime": 0.7
        },
        {
          "$type": "RPG.GameCore.RadialBlurCurveEffect",
          "BlurRadius": 0.6,
          "Iteration": 8,
          "BlurStart": 0.01,
          "BlurFeather": 0.015,
          "Duration": 0.3,
          "CurveName": "ChargeBlurCurve"
        },
        {
          "$type": "RPG.GameCore.VCameraConfigChange",
          "CameraConfig": {
            "NormalConfig": {
              "CameraState": "UseSkillPerform",
              "AnchorTargetType": {
                "$type": "RPG.GameCore.TargetAlias",
                "Alias": "SkillTargetEntityList"
              },
              "IsLocalOffset": true,
              "AimOffset": {
                "X": 0.02,
                "Y": -0.2,
                "Z": 0.07
              },
              "FollowPoleAngle": 409.7723,
              "FollowElevationAngle": 8.91,
              "FollowRadius": 6.327277
            },
            "BlendConfig": {
              "BlendType": "Custom",
              "CustomCurveName": "BlendCut05",
              "BlendTime": 1.27
            },
            "ShowEntityConfig": {
              "ShowTargetType": {
                "$type": "RPG.GameCore.TargetAlias",
                "Alias": "SkillTargetEntityList"
              }
            }
          }
        },
        {
          "$type": "RPG.GameCore.GlobalMainIntensityEffect",
          "IsRevert": true,
          "FadeDuration": 1
        },
        {
          "$type": "RPG.GameCore.WaitSecond",
          "WaitTime": 1.3
        }
      ]
    },
    {
      "Modifiers": {
        "MAvatar_RogueBattleevent127_SetDynamicValue": {
          "_CallbackList": [
            {
              "Event": "OnListenCharacterCreate",
              "CallbackConfig": [
                {
                  "$type": "RPG.GameCore.PredicateTaskList",
                  "Predicate": {
                    "$type": "RPG.GameCore.ByTargetTeam",
                    "TargetType": {
                      "$type": "RPG.GameCore.TargetAlias",
                      "Alias": "ParamEntity"
                    },
                    "Team": "TeamLight"
                  },
                  "SuccessTaskList": [
                    {
                      "$type": "RPG.GameCore.DefineDynamicValue",
                      "TargetType": {
                        "$type": "RPG.GameCore.TargetAlias",
                        "Alias": "ParamEntity"
                      },
                      "DynamicKey": "RogueBattleevent127_Damage_Value",
                      "ResetValue": {
                        "IsDynamic": true,
                        "PostfixExpr": {
                          "OpCodes": "AQAK",
                          "FixedValues": [],
                          "DynamicHashes": [
                            -1370594712
                          ]
                        }
                      },
                      "ContextScope": "TargetEntity"
                    },
                    {
                      "$type": "RPG.GameCore.DefineDynamicValue",
                      "TargetType": {
                        "$type": "RPG.GameCore.TargetAlias",
                        "Alias": "ParamEntity"
                      },
                      "DynamicKey": "RogueBattleevent127_Damage_MaxCount",
                      "ResetValue": {
                        "IsDynamic": true,
                        "PostfixExpr": {
                          "OpCodes": "AQAK",
                          "FixedValues": [],
                          "DynamicHashes": [
                            1358288643
                          ]
                        }
                      },
                      "ContextScope": "TargetEntity"
                    }
                  ]
                }
              ]
            }
          ]
        },
        "MAvatar_RogueBattleevent127_LevelUp2": {
          "_CallbackList": [
            {
              "Event": "OnListenCharacterCreate",
              "CallbackConfig": [
                {
                  "$type": "RPG.GameCore.PredicateTaskList",
                  "Predicate": {
                    "$type": "RPG.GameCore.ByIsContainModifier",
                    "TargetType": {
                      "$type": "RPG.GameCore.TargetAlias",
                      "Alias": "LevelEntity"
                    },
                    "ModifierName": "StageAbility_612722_Modifier"
                  },
                  "SuccessTaskList": [
                    {
                      "$type": "RPG.GameCore.PredicateTaskList",
                      "Predicate": {
                        "$type": "RPG.GameCore.ByCompareDynamicValue",
                        "DynamicKey": "Change_MaxSP_Flag",
                        "CompareType": "Equal",
                        "CompareValue": {
                          "IsDynamic": false,
                          "FixedValue": {
                            "Value": 0
                          }
                        }
                      },
                      "SuccessTaskList": [
                        {
                          "$type": "RPG.GameCore.SetDynamicValue",
                          "DynamicKey": "Change_MaxSP_Flag",
                          "Value": {
                            "IsDynamic": false,
                            "FixedValue": {
                              "Value": 1
                            }
                          }
                        },
                        {
                          "$type": "RPG.GameCore.StackProperty",
                          "TargetType": {
                            "$type": "RPG.GameCore.TargetAlias",
                            "Alias": "Caster"
                          },
                          "Property": "MaxSP",
                          "PropertyValue": {
                            "IsDynamic": false,
                            "FixedValue": {
                              "Value": 100
                            }
                          }
                        }
                      ]
                    },
                    {
                      "$type": "RPG.GameCore.PredicateTaskList",
                      "Predicate": {
                        "$type": "RPG.GameCore.ByTargetTeam",
                        "TargetType": {
                          "$type": "RPG.GameCore.TargetAlias",
                          "Alias": "ParamEntity"
                        },
                        "Team": "TeamLight"
                      },
                      "SuccessTaskList": [
                        {
                          "$type": "RPG.GameCore.AddModifier",
                          "TargetType": {
                            "$type": "RPG.GameCore.TargetAlias",
                            "Alias": "ParamEntity"
                          },
                          "ModifierName": "MAvatar_RogueBattleevent127_LevelUp2_1"
                        }
                      ]
                    }
                  ]
                }
              ]
            }
          ],
          "DynamicValues": {
            "Values": {
              "718504461": {},
              "-1309867864": {}
            }
          }
        },
        "MAvatar_RogueBattleevent127_LevelUp2_1": {
          "_CallbackList": [
            {
              "Event": "OnListenBpChange",
              "CallbackConfig": [
                {
                  "$type": "RPG.GameCore.PredicateTaskList",
                  "Predicate": {
                    "$type": "RPG.GameCore.ByAnd",
                    "PredicateList": [
                      {
                        "$type": "RPG.GameCore.ByCompareTarget",
                        "TargetType": {
                          "$type": "RPG.GameCore.TargetAlias",
                          "Alias": "ParamEntity"
                        },
                        "CompareType": {
                          "$type": "RPG.GameCore.TargetAlias",
                          "Alias": "ModifierOwnerEntity"
                        }
                      },
                      {
                        "$type": "RPG.GameCore.ByCompareParamValue",
                        "CompareType": "Less",
                        "CompareValue": {
                          "IsDynamic": false,
                          "FixedValue": {
                            "Value": 0
                          }
                        }
                      }
                    ]
                  },
                  "SuccessTaskList": [
                    {
                      "$type": "RPG.GameCore.SetDynamicValueByVariateType",
                      "DynamicKey": "MDF_BPCount",
                      "VariateType": "ParamValue"
                    },
                    {
                      "$type": "RPG.GameCore.SetDynamicValueByProperty",
                      "DynamicKey": "_MaxSP",
                      "ReadTargetType": {
                        "$type": "RPG.GameCore.TargetAlias",
                        "Alias": "Caster"
                      },
                      "Value": "MaxSP"
                    },
                    {
                      "$type": "RPG.GameCore.ModifySPNew",
                      "TargetType": {
                        "$type": "RPG.GameCore.TargetAlias",
                        "Alias": "Caster"
                      },
                      "FixedAddValue": {
                        "IsDynamic": true,
                        "PostfixExpr": {
                          "OpCodes": "AQABAQQBAgQAAAcECg==",
                          "FixedValues": [
                            {
                              "Value": 1
                            }
                          ],
                          "DynamicHashes": [
                            336651730,
                            -1309867864,
                            -1369667111
                          ]
                        }
                      }
                    }
                  ]
                },
                {
                  "$type": "RPG.GameCore.PredicateTaskList",
                  "Predicate": {
                    "$type": "RPG.GameCore.ByAnd",
                    "PredicateList": [
                      {
                        "$type": "RPG.GameCore.ByCompareTarget",
                        "TargetType": {
                          "$type": "RPG.GameCore.TargetAlias",
                          "Alias": "ParamEntity"
                        },
                        "CompareType": {
                          "$type": "RPG.GameCore.TargetAlias",
                          "Alias": "ModifierOwnerEntity"
                        }
                      },
                      {
                        "$type": "RPG.GameCore.ByCompareParamValue",
                        "CompareType": "Greater",
                        "CompareValue": {
                          "IsDynamic": false,
                          "FixedValue": {
                            "Value": 0
                          }
                        }
                      }
                    ]
                  },
                  "SuccessTaskList": [
                    {
                      "$type": "RPG.GameCore.SetDynamicValueByVariateType",
                      "DynamicKey": "MDF_BPCount",
                      "VariateType": "ParamValue"
                    },
                    {
                      "$type": "RPG.GameCore.SetDynamicValueByProperty",
                      "DynamicKey": "_MaxSP",
                      "ReadTargetType": {
                        "$type": "RPG.GameCore.TargetAlias",
                        "Alias": "Caster"
                      },
                      "Value": "MaxSP"
                    },
                    {
                      "$type": "RPG.GameCore.ModifySPNew",
                      "TargetType": {
                        "$type": "RPG.GameCore.TargetAlias",
                        "Alias": "Caster"
                      },
                      "FixedAddValue": {
                        "IsDynamic": true,
                        "PostfixExpr": {
                          "OpCodes": "AQABAQQBAgQK",
                          "FixedValues": [],
                          "DynamicHashes": [
                            336651730,
                            -1309867864,
                            -1369667111
                          ]
                        }
                      }
                    }
                  ]
                }
              ]
            }
          ],
          "DynamicValues": {
            "Values": {
              "-1309867864": {},
              "-1369667111": {}
            }
          }
        },
        "MAvatar_RogueBattleevent127_StatusProbability": {
          "_CallbackList": [
            {
              "Event": "OnStack",
              "CallbackConfig": [
                {
                  "$type": "RPG.GameCore.SetDynamicValueByHardLevelProperty",
                  "TargetType": {
                    "$type": "RPG.GameCore.TargetAlias",
                    "Alias": "ModifierOwnerEntity"
                  },
                  "Property": "StatusResistance",
                  "DynamicKey": "_Hardlevel_StatusResistance"
                },
                {
                  "$type": "RPG.GameCore.StackProperty",
                  "TargetType": {
                    "$type": "RPG.GameCore.TargetAlias",
                    "Alias": "ModifierOwnerEntity"
                  },
                  "Property": "StatusProbabilityBase",
                  "PropertyValue": {
                    "IsDynamic": true,
                    "PostfixExpr": {
                      "OpCodes": "AAAAAAEAAwUAAAMK",
                      "FixedValues": [
                        {
                          "Value": 1
                        }
                      ],
                      "DynamicHashes": [
                        -1421098314
                      ]
                    }
                  }
                }
              ]
            }
          ],
          "DynamicValues": {
            "Values": {
              "-1421098314": {}
            }
          }
        },
        "FirstBattle_Charge": {
          "_CallbackList": [
            {
              "Event": "OnListenCharacterCreate",
              "CallbackConfig": [
                {
                  "$type": "RPG.GameCore.PredicateTaskList",
                  "Predicate": {
                    "$type": "RPG.GameCore.ByCompareDynamicValue",
                    "DynamicKey": "FirstBattle_Flag",
                    "CompareType": "Equal",
                    "CompareValue": {
                      "IsDynamic": false,
                      "FixedValue": {
                        "Value": 0
                      }
                    }
                  },
                  "SuccessTaskList": [
                    {
                      "$type": "RPG.GameCore.SetDynamicValueByProperty",
                      "DynamicKey": "MDF_MaxSP",
                      "ReadTargetType": {
                        "$type": "RPG.GameCore.TargetAlias",
                        "Alias": "ModifierOwnerEntity"
                      },
                      "Value": "MaxSP"
                    },
                    {
                      "$type": "RPG.GameCore.ModifySPNew",
                      "TargetType": {
                        "$type": "RPG.GameCore.TargetAlias",
                        "Alias": "ModifierOwnerEntity"
                      },
                      "AddValue": {
                        "IsDynamic": true,
                        "PostfixExpr": {
                          "OpCodes": "AQAK",
                          "FixedValues": [],
                          "DynamicHashes": [
                            -1657931065
                          ]
                        }
                      }
                    },
                    {
                      "$type": "RPG.GameCore.RemoveSelfModifier"
                    }
                  ]
                }
              ]
            }
          ],
          "DynamicValues": {
            "Values": {
              "-1657931065": {}
            }
          }
        },
        "MAvatar_RogueBattleevent127_PassiveAbility": {
          "BehaviorFlagList": [
            "BlockDamage",
            "Stealth"
          ],
          "_CallbackList": [
            {
              "Event": "OnCreate",
              "CallbackConfig": [
                {
                  "$type": "RPG.GameCore.SetEntityUnselectable",
                  "TargetType": {
                    "$type": "RPG.GameCore.TargetAlias",
                    "Alias": "ModifierOwnerEntity"
                  },
                  "Unselectable": true
                }
              ]
            },
            {
              "Event": "OnModifierAdd",
              "CallbackConfig": [
                {
                  "$type": "RPG.GameCore.DispelStatus",
                  "TargetType": {
                    "$type": "RPG.GameCore.TargetAlias",
                    "Alias": "ModifierOwnerEntity"
                  },
                  "BuffType": "Buff"
                },
                {
                  "$type": "RPG.GameCore.DispelStatus",
                  "TargetType": {
                    "$type": "RPG.GameCore.TargetAlias",
                    "Alias": "ModifierOwnerEntity"
                  }
                },
                {
                  "$type": "RPG.GameCore.DispelStatus",
                  "TargetType": {
                    "$type": "RPG.GameCore.TargetAlias",
                    "Alias": "ModifierOwnerEntity"
                  },
                  "BuffType": "Other"
                }
              ]
            }
          ]
        },
        "MAvatar_RogueBattleevent127_Charge": {
          "_CallbackList": [
            {
              "Event": "OnListenCharacterCreate",
              "CallbackConfig": [
                {
                  "$type": "RPG.GameCore.PredicateTaskList",
                  "Predicate": {
                    "$type": "RPG.GameCore.ByAny",
                    "PredicateList": [
                      {
                        "$type": "RPG.GameCore.ByTargetTeam",
                        "TargetType": {
                          "$type": "RPG.GameCore.TargetAlias",
                          "Alias": "ParamEntity"
                        },
                        "Team": "TeamLight"
                      },
                      {
                        "$type": "RPG.GameCore.ByTargetTeam",
                        "TargetType": {
                          "$type": "RPG.GameCore.TargetAlias",
                          "Alias": "ParamEntity"
                        },
                        "Team": "TeamDark"
                      }
                    ]
                  },
                  "SuccessTaskList": [
                    {
                      "$type": "RPG.GameCore.AddModifier",
                      "TargetType": {
                        "$type": "RPG.GameCore.TargetAlias",
                        "Alias": "ParamEntity"
                      },
                      "ModifierName": "MAvatar_RogueBattleevent127_Charge_Sub"
                    }
                  ]
                }
              ]
            }
          ]
        },
        "MAvatar_RogueBattleevent127_Charge_Sub": {
          "_CallbackList": [
            {
              "Event": "OnBeforeSkillUse",
              "CallbackConfig": [
                {
                  "$type": "RPG.GameCore.ModifySPNew",
                  "TargetType": {
                    "$type": "RPG.GameCore.TargetAlias",
                    "Alias": "Caster"
                  },
                  "FixedAddValue": {
                    "IsDynamic": false,
                    "FixedValue": {
                      "Value": 5
                    }
                  }
                }
              ]
            }
          ]
        }
      },
      "Name": "Avatar_RogueBattleevent127_PassiveSkill01",
      "TargetInfo": {
        "TargetType": "Caster"
      },
      "OnStart": [
        {
          "$type": "RPG.GameCore.AddModifier",
          "TargetType": {
            "$type": "RPG.GameCore.TargetAlias",
            "Alias": "Caster"
          },
          "ModifierName": "MAvatar_RogueBattleevent127_StatusProbability"
        },
        {
          "$type": "RPG.GameCore.AddModifier",
          "TargetType": {
            "$type": "RPG.GameCore.TargetAlias",
            "Alias": "Caster"
          },
          "ModifierName": "MAvatar_RogueBattleevent127_LevelUp2"
        },
        {
          "$type": "RPG.GameCore.ShowBattleEventButton",
          "IsShow": true
        },
        {
          "$type": "RPG.GameCore.AddModifier",
          "TargetType": {
            "$type": "RPG.GameCore.TargetAlias",
            "Alias": "Caster"
          },
          "ModifierName": "MAvatar_RogueBattleevent127_PassiveAbility"
        },
        {
          "$type": "RPG.GameCore.AddModifier",
          "TargetType": {
            "$type": "RPG.GameCore.TargetAlias",
            "Alias": "Caster"
          },
          "ModifierName": "MAvatar_RogueBattleevent127_Charge"
        },
        {
          "$type": "RPG.GameCore.AddModifier",
          "TargetType": {
            "$type": "RPG.GameCore.TargetAlias",
            "Alias": "Caster"
          },
          "ModifierName": "FirstBattle_Charge"
        },
        {
          "$type": "RPG.GameCore.AddModifier",
          "TargetType": {
            "$type": "RPG.GameCore.TargetAlias",
            "Alias": "Caster"
          },
          "ModifierName": "MAvatar_RogueBattleevent127_SetDynamicValue"
        },
        {
          "$type": "RPG.GameCore.AddModifier",
          "TargetType": {
            "$type": "RPG.GameCore.TargetAlias",
            "Alias": "Caster"
          },
          "ModifierName": "MAvatar_RogueBattleevent127_AimTarget_Main"
        },
        {
          "$type": "RPG.GameCore.AddModifier",
          "TargetType": {
            "$type": "RPG.GameCore.TargetAlias",
            "Alias": "Caster"
          },
          "ModifierName": "MAvatar_RogueBattleevent127_AimTarget_Main2"
        }
      ],
      "DynamicValues": {
        "Values": {
          "1052654560": {}
        }
      }
    }
  ],
  "GlobalModifiers": {
    "MAvatar_RogueBattleevent127_AimTarget": {
      "_CallbackList": [
        {
          "Event": "OnListenCharacterCreate",
          "CallbackConfig": [
            {
              "$type": "RPG.GameCore.PredicateTaskList",
              "Predicate": {
                "$type": "RPG.GameCore.ByTargetTeam",
                "TargetType": {
                  "$type": "RPG.GameCore.TargetAlias",
                  "Alias": "ParamEntity"
                },
                "Team": "TeamLight"
              },
              "SuccessTaskList": [
                {
                  "$type": "RPG.GameCore.AddModifier",
                  "TargetType": {
                    "$type": "RPG.GameCore.TargetAlias",
                    "Alias": "ParamEntity"
                  },
                  "ModifierName": "MAvatar_RogueBattleevent127_AimTarget_Sub"
                }
              ]
            }
          ]
        }
      ]
    },
    "MAvatar_RogueBattleevent127_AimTarget_Main": {
      "_CallbackList": [
        {
          "Event": "OnAimAtTargetsRefresh_CL",
          "CallbackConfig": [
            {
              "$type": "RPG.GameCore.TriggerEffect",
              "TargetType": {
                "$type": "RPG.GameCore.TargetAlias",
                "Alias": "CurrentAimAtTarget"
              },
              "EffectPath": "Effects/Eff_Prefab/Eff_BattleEvent/Eff_Rogue_Breeding/Eff_BattleEvent_Rogue_Breeding_02.prefab"
            }
          ]
        }
      ]
    },
    "MAvatar_RogueBattleevent127_AimTarget_Main2": {
      "_CallbackList": [
        {
          "Event": "OnBeforeSkillUse",
          "CallbackConfig": [
            {
              "$type": "RPG.GameCore.RemoveEffect",
              "TargetType": {
                "$type": "RPG.GameCore.TargetAlias",
                "Alias": "AllLightTeam"
              },
              "EffectPath": "Effects/Eff_Prefab/Eff_BattleEvent/Eff_Rogue_Breeding/Eff_BattleEvent_Rogue_Breeding_01_01.prefab"
            }
          ]
        },
        {
          "Event": "OnAimAtTargetsRefresh_CL",
          "CallbackConfig": [
            {
              "$type": "RPG.GameCore.TriggerEffect",
              "TargetType": {
                "$type": "RPG.GameCore.TargetAlias",
                "Alias": "CurrentAimAtTarget"
              },
              "EffectPath": "Effects/Eff_Prefab/Eff_BattleEvent/Eff_Rogue_Breeding/Eff_BattleEvent_Rogue_Breeding_01_01.prefab",
              "MinMutexTime": -1
            }
          ]
        }
      ]
    },
    "MAvatar_RogueBattleevent127_AimTarget_Sub": {
      "_CallbackList": [
        {
          "Event": "OnListenAimAtTargetsRefresh_CL",
          "CallbackConfig": [
            {
              "$type": "RPG.GameCore.PredicateTaskList",
              "Predicate": {
                "$type": "RPG.GameCore.ByCompareTarget",
                "TargetType": {
                  "$type": "RPG.GameCore.TargetAlias",
                  "Alias": "ModifierOwnerEntity"
                },
                "CompareType": {
                  "$type": "RPG.GameCore.TargetAlias",
                  "Alias": "CurrentAimAtTarget"
                }
              },
              "SuccessTaskList": [],
              "FailedTaskList": [
                {
                  "$type": "RPG.GameCore.RemoveEffect",
                  "TargetType": {
                    "$type": "RPG.GameCore.TargetAlias",
                    "Alias": "ModifierOwnerEntity"
                  },
                  "EffectPath": "Effects/Eff_Prefab/Eff_BattleEvent/Eff_Rogue_Breeding/Eff_BattleEvent_Rogue_Breeding_02.prefab"
                }
              ]
            }
          ]
        }
      ]
    }
  }
}