{
  "AbilityList": [
    {
      "Modifiers": {
        "Modifier_Achievement30067_Character": {
          "_CallbackList": [
            {
              "Event": "OnAfterBeingHitAll",
              "CallbackConfig": [
                {
                  "$type": "RPG.GameCore.SetDynamicValueByDamageDataProperty",
                  "DynamicKey": "DamageAmount",
                  "ReadTargetType": {
                    "$type": "RPG.GameCore.TargetAlias",
                    "Alias": "ParamEntity"
                  }
                },
                {
                  "$type": "RPG.GameCore.PredicateTaskList",
                  "Predicate": {
                    "$type": "RPG.GameCore.ByCompareDynamicValue",
                    "TargetType": {
                      "$type": "RPG.GameCore.TargetAlias",
                      "Alias": "ModifierOwnerEntity"
                    },
                    "DynamicKey": "DamageAmount",
                    "CompareType": "Greater",
                    "CompareValue": {
                      "IsDynamic": false,
                      "FixedValue": {
                        "Value": 0
                      }
                    }
                  },
                  "SuccessTaskList": [
                    {
                      "$type": "RPG.GameCore.RemoveModifier",
                      "TargetType": {
                        "$type": "RPG.GameCore.TargetAlias",
                        "Alias": "LevelEntity"
                      },
                      "ModifierName": "Modifier_Achievement30067"
                    },
                    {
                      "$type": "RPG.GameCore.RemoveModifier",
                      "TargetType": {
                        "$type": "RPG.GameCore.TargetAlias",
                        "Alias": "AllLightTeam"
                      },
                      "ModifierName": "Modifier_Achievement30067_Character"
                    }
                  ]
                }
              ]
            }
          ],
          "DynamicValues": {
            "Values": {
              "96687079": {}
            }
          }
        },
        "Modifier_Achievement30067": {
          "_CallbackList": [
            {
              "Event": "OnListenCharacterCreate",
              "CallbackConfig": [
                {
                  "$type": "RPG.GameCore.PredicateTaskList",
                  "Predicate": {
                    "$type": "RPG.GameCore.ByTargetTeam",
                    "TargetType": {
                      "$type": "RPG.GameCore.TargetAlias",
                      "Alias": "ParamEntity"
                    },
                    "Team": "TeamLight"
                  },
                  "SuccessTaskList": [
                    {
                      "$type": "RPG.GameCore.AddModifier",
                      "TargetType": {
                        "$type": "RPG.GameCore.TargetAlias",
                        "Alias": "ParamEntity"
                      },
                      "ModifierName": "Modifier_Achievement30067_Character"
                    }
                  ]
                }
              ]
            },
            {
              "Event": "OnLeaveBattle",
              "CallbackConfig": [
                {
                  "$type": "RPG.GameCore.PredicateTaskList",
                  "Predicate": {
                    "$type": "RPG.GameCore.ByLocalWin"
                  },
                  "SuccessTaskList": [
                    {
                      "$type": "RPG.GameCore.SetBattleAchievement",
                      "AchievementID": 30067
                    }
                  ]
                }
              ]
            }
          ]
        },
        "Modifier_Heliobus_Action_Ability": {
          "BehaviorFlagList": [
            "ListenBattleEventSkill"
          ],
          "_CallbackList": [
            {
              "Event": "OnCreate",
              "CallbackConfig": [
                {
                  "$type": "RPG.GameCore.ChangeIncomingActionCountDown",
                  "Offset": {
                    "IsDynamic": false,
                    "FixedValue": {
                      "Value": 0
                    }
                  }
                },
                {
                  "$type": "RPG.GameCore.ActionCountDownPreview",
                  "Mode": "TurnWithUltra"
                }
              ]
            },
            {
              "Event": "OnListenActionEnd",
              "CallbackConfig": [
                {
                  "$type": "RPG.GameCore.SetDynamicValueByActionCountDown",
                  "DynamicKey": "_CurrentCountDown"
                },
                {
                  "$type": "RPG.GameCore.PredicateTaskList",
                  "Predicate": {
                    "$type": "RPG.GameCore.ByAnd",
                    "PredicateList": [
                      {
                        "$type": "RPG.GameCore.ByCompareDynamicValue",
                        "DynamicKey": "_CountFlag",
                        "CompareType": "Equal",
                        "CompareValue": {
                          "IsDynamic": false,
                          "FixedValue": {
                            "Value": 0
                          }
                        }
                      },
                      {
                        "$type": "RPG.GameCore.ByHaveInsertUltraWait"
                      }
                    ]
                  },
                  "SuccessTaskList": [
                    {
                      "$type": "RPG.GameCore.PredicateTaskList",
                      "Predicate": {
                        "$type": "RPG.GameCore.ByAnd",
                        "PredicateList": [
                          {
                            "$type": "RPG.GameCore.ByContainBehaviorFlag",
                            "TargetType": {
                              "$type": "RPG.GameCore.TargetAlias",
                              "Alias": "ParamEntity"
                            },
                            "Flag": "OneMore",
                            "Inverse": true
                          }
                        ]
                      },
                      "SuccessTaskList": [
                        {
                          "$type": "RPG.GameCore.ConsumeActionCountDown"
                        },
                        {
                          "$type": "RPG.GameCore.SetDynamicValue",
                          "TargetType": {
                            "$type": "RPG.GameCore.TargetAlias",
                            "Alias": "ModifierOwnerEntity"
                          },
                          "DynamicKey": "_CountFlag",
                          "Value": {
                            "IsDynamic": false,
                            "FixedValue": {
                              "Value": 1
                            }
                          }
                        }
                      ],
                      "FailedTaskList": [
                        {
                          "$type": "RPG.GameCore.PredicateTaskList",
                          "Predicate": {
                            "$type": "RPG.GameCore.ByAnd",
                            "PredicateList": [
                              {
                                "$type": "RPG.GameCore.ByCompareDynamicValue",
                                "DynamicKey": "_CurrentCountDown",
                                "CompareType": "Equal",
                                "CompareValue": {
                                  "IsDynamic": false,
                                  "FixedValue": {
                                    "Value": 1
                                  }
                                }
                              }
                            ]
                          },
                          "SuccessTaskList": [
                            {
                              "$type": "RPG.GameCore.ChangeIncomingActionCountDown",
                              "Offset": {
                                "IsDynamic": true,
                                "PostfixExpr": {
                                  "OpCodes": "AQAAAAIK",
                                  "FixedValues": [
                                    {
                                      "Value": 1
                                    }
                                  ],
                                  "DynamicHashes": [
                                    1020727647
                                  ]
                                }
                              }
                            },
                            {
                              "$type": "RPG.GameCore.ConsumeActionCountDown"
                            }
                          ]
                        }
                      ]
                    }
                  ]
                }
              ]
            },
            {
              "Event": "OnListenTurnEnd",
              "CallbackConfig": [
                {
                  "$type": "RPG.GameCore.PredicateTaskList",
                  "Predicate": {
                    "$type": "RPG.GameCore.ByAnd",
                    "PredicateList": [
                      {
                        "$type": "RPG.GameCore.ByCompareDynamicValue",
                        "DynamicKey": "_CountFlag",
                        "CompareType": "Equal",
                        "CompareValue": {
                          "IsDynamic": false,
                          "FixedValue": {
                            "Value": 0
                          }
                        }
                      },
                      {
                        "$type": "RPG.GameCore.ByNot",
                        "Predicate": {
                          "$type": "RPG.GameCore.ByIsBattleEventEntity",
                          "TargetType": {
                            "$type": "RPG.GameCore.TargetAlias",
                            "Alias": "CurrentTurnOwnerEntity"
                          },
                          "ExpectSubType": "ChallengerEvent"
                        }
                      }
                    ]
                  },
                  "SuccessTaskList": [
                    {
                      "$type": "RPG.GameCore.ConsumeActionCountDown"
                    }
                  ]
                },
                {
                  "$type": "RPG.GameCore.SetDynamicValue",
                  "TargetType": {
                    "$type": "RPG.GameCore.TargetAlias",
                    "Alias": "ModifierOwnerEntity"
                  },
                  "DynamicKey": "_CountFlag",
                  "Value": {
                    "IsDynamic": false,
                    "FixedValue": {
                      "Value": 0
                    }
                  }
                }
              ]
            },
            {
              "Event": "OnListenAfterSkillUse",
              "CallbackConfig": [
                {
                  "$type": "RPG.GameCore.PredicateTaskList",
                  "Predicate": {
                    "$type": "RPG.GameCore.ByAnd",
                    "PredicateList": [
                      {
                        "$type": "RPG.GameCore.ByCurrentSkillType",
                        "SkillType": "Ultra"
                      }
                    ]
                  },
                  "SuccessTaskList": [
                    {
                      "$type": "RPG.GameCore.PredicateTaskList",
                      "Predicate": {
                        "$type": "RPG.GameCore.ByAnd",
                        "PredicateList": [
                          {
                            "$type": "RPG.GameCore.ByHasInsertAbilityPending",
                            "Inverse": true
                          }
                        ]
                      },
                      "SuccessTaskList": [
                        {
                          "$type": "RPG.GameCore.ConsumeActionCountDown"
                        }
                      ],
                      "FailedTaskList": [
                        {
                          "$type": "RPG.GameCore.SetDynamicValue",
                          "TargetType": {
                            "$type": "RPG.GameCore.TargetAlias",
                            "Alias": "ModifierOwnerEntity"
                          },
                          "DynamicKey": "_InsertWaitFlag",
                          "Value": {
                            "IsDynamic": false,
                            "FixedValue": {
                              "Value": 1
                            }
                          }
                        }
                      ]
                    }
                  ]
                }
              ]
            },
            {
              "Event": "OnListenInsertUltraSkill",
              "CallbackConfig": [
                {
                  "$type": "RPG.GameCore.SetDynamicValueByWaitUltraCount",
                  "DynamicKey": "_CurrentUltraWait"
                },
                {
                  "$type": "RPG.GameCore.SetDynamicValue",
                  "DynamicKey": "_CurrentUltraWait",
                  "Value": {
                    "IsDynamic": true,
                    "PostfixExpr": {
                      "OpCodes": "AQAAAAMK",
                      "FixedValues": [
                        {
                          "Value": 1
                        }
                      ],
                      "DynamicHashes": [
                        1020727647
                      ]
                    }
                  }
                },
                {
                  "$type": "RPG.GameCore.SetDynamicValueByActionCountDown",
                  "DynamicKey": "_CurrentCountDown"
                },
                {
                  "$type": "RPG.GameCore.PredicateTaskList",
                  "Predicate": {
                    "$type": "RPG.GameCore.ByAnd",
                    "PredicateList": [
                      {
                        "$type": "RPG.GameCore.ByCompareDynamicValue",
                        "DynamicKey": "_CurrentUltraWait",
                        "CompareType": "Equal",
                        "CompareValue": {
                          "IsDynamic": true,
                          "PostfixExpr": {
                            "OpCodes": "AQAAAAMK",
                            "FixedValues": [
                              {
                                "Value": 1
                              }
                            ],
                            "DynamicHashes": [
                              -479902429
                            ]
                          }
                        }
                      }
                    ]
                  },
                  "SuccessTaskList": [
                    {
                      "$type": "RPG.GameCore.LoopExecuteTaskList",
                      "MaxLoopCount": {
                        "IsDynamic": true,
                        "PostfixExpr": {
                          "OpCodes": "AQAK",
                          "FixedValues": [],
                          "DynamicHashes": [
                            1020727647
                          ]
                        }
                      },
                      "TaskList": [
                        {
                          "$type": "RPG.GameCore.ConsumeActionCountDown"
                        }
                      ]
                    },
                    {
                      "$type": "RPG.GameCore.ChangeIncomingActionCountDown",
                      "Offset": {
                        "IsDynamic": true,
                        "PostfixExpr": {
                          "OpCodes": "AQAK",
                          "FixedValues": [],
                          "DynamicHashes": [
                            1020727647
                          ]
                        }
                      }
                    }
                  ]
                }
              ]
            },
            {
              "Event": "OnListenInsertAbilityFinish",
              "CallbackConfig": [
                {
                  "$type": "RPG.GameCore.PredicateTaskList",
                  "Predicate": {
                    "$type": "RPG.GameCore.ByAnd",
                    "PredicateList": [
                      {
                        "$type": "RPG.GameCore.ByHasInsertAbilityPending",
                        "Inverse": true
                      },
                      {
                        "$type": "RPG.GameCore.ByCompareDynamicValue",
                        "DynamicKey": "_InsertWaitFlag",
                        "CompareType": "Equal",
                        "CompareValue": {
                          "IsDynamic": false,
                          "FixedValue": {
                            "Value": 1
                          }
                        }
                      }
                    ]
                  },
                  "SuccessTaskList": [
                    {
                      "$type": "RPG.GameCore.ConsumeActionCountDown"
                    },
                    {
                      "$type": "RPG.GameCore.SetDynamicValue",
                      "TargetType": {
                        "$type": "RPG.GameCore.TargetAlias",
                        "Alias": "ModifierOwnerEntity"
                      },
                      "DynamicKey": "_InsertWaitFlag",
                      "Value": {
                        "IsDynamic": false,
                        "FixedValue": {
                          "Value": 0
                        }
                      }
                    }
                  ]
                }
              ]
            },
            {
              "Event": "OnListenActionCountActive",
              "CallbackConfig": [
                {
                  "$type": "RPG.GameCore.ChangeIncomingActionCountDown",
                  "Offset": {
                    "IsDynamic": false,
                    "FixedValue": {
                      "Value": 0
                    }
                  }
                },
                {
                  "$type": "RPG.GameCore.PredicateTaskList",
                  "Predicate": {
                    "$type": "RPG.GameCore.ByTargetTeam",
                    "TargetType": {
                      "$type": "RPG.GameCore.TargetAlias",
                      "Alias": "ParamEntity"
                    },
                    "Team": "TeamLight"
                  },
                  "SuccessTaskList": [
                    {
                      "$type": "RPG.GameCore.ShowUIPage",
                      "AssetPath": "UI/Common/Widget/BattleSelfStatusHint.prefab",
                      "UITextNodes": [
                        {
                          "TextPath": "AreaInfoPanel/Title/Text",
                          "TextContent": {
                            "Hash": 734039434
                          }
                        }
                      ],
                      "LifeTime": 2
                    },
                    {
                      "$type": "RPG.GameCore.PredicateTaskList",
                      "Predicate": {
                        "$type": "RPG.GameCore.ByCompareBattleEventID",
                        "TargetType": {
                          "$type": "RPG.GameCore.TargetAlias",
                          "Alias": "ParamEntity"
                        },
                        "TargetBattleEventID": {
                          "IsDynamic": true,
                          "PostfixExpr": {
                            "OpCodes": "AQAK",
                            "FixedValues": [],
                            "DynamicHashes": [
                              462955996
                            ]
                          }
                        }
                      },
                      "SuccessTaskList": [
                        {
                          "$type": "RPG.GameCore.AddModifier",
                          "TargetType": {
                            "$type": "RPG.GameCore.TargetAlias",
                            "Alias": "ParamEntity"
                          },
                          "ModifierName": "Modifier_ExtraSP"
                        }
                      ],
                      "FailedTaskList": [
                        {
                          "$type": "RPG.GameCore.Retarget",
                          "TargetType": {
                            "$type": "RPG.GameCore.TargetAlias",
                            "Alias": "BattleEventEntityList"
                          },
                          "Predicate": {
                            "$type": "RPG.GameCore.ByCompareBattleEventID",
                            "TargetType": {
                              "$type": "RPG.GameCore.TargetAlias",
                              "Alias": "ParamEntity"
                            },
                            "TargetBattleEventID": {
                              "IsDynamic": true,
                              "PostfixExpr": {
                                "OpCodes": "AQAK",
                                "FixedValues": [],
                                "DynamicHashes": [
                                  462955996
                                ]
                              }
                            }
                          },
                          "TaskList": [
                            {
                              "$type": "RPG.GameCore.SetDynamicValueByProperty",
                              "DynamicKey": "MDF_MaxSP",
                              "ReadTargetType": {
                                "$type": "RPG.GameCore.TargetAlias",
                                "Alias": "ParamEntity"
                              },
                              "Value": "MaxSP"
                            },
                            {
                              "$type": "RPG.GameCore.ModifySPNew",
                              "TargetType": {
                                "$type": "RPG.GameCore.TargetAlias",
                                "Alias": "ParamEntity"
                              },
                              "AddValue": {
                                "IsDynamic": true,
                                "PostfixExpr": {
                                  "OpCodes": "AQABAQUK",
                                  "FixedValues": [],
                                  "DynamicHashes": [
                                    -1657931065,
                                    59671469
                                  ]
                                }
                              }
                            }
                          ]
                        }
                      ]
                    }
                  ],
                  "FailedTaskList": [
                    {
                      "$type": "RPG.GameCore.ShowUIPage",
                      "AssetPath": "UI/Common/Widget/BattleAlertHint.prefab",
                      "UITextNodes": [
                        {
                          "TextPath": "AreaInfoPanel/Title/Text",
                          "TextContent": {
                            "Hash": 734039433
                          }
                        }
                      ],
                      "LifeTime": 2
                    }
                  ]
                }
              ]
            }
          ]
        },
        "Modifier_ExtraSP": {
          "_CallbackList": [
            {
              "Event": "OnAfterSkillUse",
              "CallbackConfig": [
                {
                  "$type": "RPG.GameCore.SetDynamicValueByProperty",
                  "DynamicKey": "MDF_MaxSP",
                  "ReadTargetType": {
                    "$type": "RPG.GameCore.TargetAlias",
                    "Alias": "ModifierOwnerEntity"
                  },
                  "Value": "MaxSP"
                },
                {
                  "$type": "RPG.GameCore.ModifySPNew",
                  "TargetType": {
                    "$type": "RPG.GameCore.TargetAlias",
                    "Alias": "ModifierOwnerEntity"
                  },
                  "AddValue": {
                    "IsDynamic": true,
                    "PostfixExpr": {
                      "OpCodes": "AQABAQUK",
                      "FixedValues": [],
                      "DynamicHashes": [
                        -1657931065,
                        59671469
                      ]
                    }
                  }
                },
                {
                  "$type": "RPG.GameCore.RemoveModifier",
                  "TargetType": {
                    "$type": "RPG.GameCore.TargetAlias",
                    "Alias": "ModifierOwnerEntity"
                  },
                  "ModifierName": "Modifier_ExtraSP"
                }
              ]
            }
          ]
        }
      },
      "Name": "Heliobus_Action_Ability",
      "OnAdd": [
        {
          "$type": "RPG.GameCore.CreateBattleEvent",
          "EventID": {
            "IsDynamic": true,
            "PostfixExpr": {
              "OpCodes": "AQAK",
              "FixedValues": [],
              "DynamicHashes": [
                462955996
              ]
            }
          },
          "Team": "TeamLight"
        },
        {
          "$type": "RPG.GameCore.AddModifier",
          "TargetType": {
            "$type": "RPG.GameCore.TargetAlias",
            "Alias": "Caster"
          },
          "ModifierName": "Modifier_Heliobus_Action_Ability"
        },
        {
          "$type": "RPG.GameCore.PredicateTaskList",
          "Predicate": {
            "$type": "RPG.GameCore.ByCompareStageType",
            "CurrentStageType": "Heliobus"
          },
          "SuccessTaskList": [
            {
              "$type": "RPG.GameCore.AddModifier",
              "TargetType": {
                "$type": "RPG.GameCore.TargetAlias",
                "Alias": "LevelEntity"
              },
              "ModifierName": "Modifier_Achievement30067"
            },
            {
              "$type": "RPG.GameCore.SetDynamicValueByVariateType",
              "DynamicKey": "_TurnLimit"
            },
            {
              "$type": "RPG.GameCore.SetLevelChallengeTurnLimit",
              "LimitCount": {
                "IsDynamic": true,
                "PostfixExpr": {
                  "OpCodes": "AQAK",
                  "FixedValues": [],
                  "DynamicHashes": [
                    1624418735
                  ]
                }
              }
            }
          ]
        }
      ],
      "DynamicValues": {
        "Values": {
          "-479902429": {},
          "1020727647": {},
          "-1657931065": {},
          "-866428488": {},
          "1810534175": {},
          "338133602": {},
          "1624418735": {}
        }
      }
    },
    {
      "Modifiers": {
        "Modifier_ActionEventAbility_Common_StatusUp": {
          "BehaviorFlagList": [
            "ListenBattleEventSkill"
          ],
          "_CallbackList": [
            {
              "Event": "OnListenAfterSkillUse",
              "CallbackConfig": [
                {
                  "$type": "RPG.GameCore.PredicateTaskList",
                  "Predicate": {
                    "$type": "RPG.GameCore.ByAny",
                    "PredicateList": [
                      {
                        "$type": "RPG.GameCore.ByCompareBattleEventID",
                        "TargetType": {
                          "$type": "RPG.GameCore.TargetAlias",
                          "Alias": "ParamEntity"
                        },
                        "TargetBattleEventID": {
                          "IsDynamic": false,
                          "FixedValue": {
                            "Value": 61001
                          }
                        }
                      },
                      {
                        "$type": "RPG.GameCore.ByCompareBattleEventID",
                        "TargetType": {
                          "$type": "RPG.GameCore.TargetAlias",
                          "Alias": "ParamEntity"
                        },
                        "TargetBattleEventID": {
                          "IsDynamic": false,
                          "FixedValue": {
                            "Value": 61002
                          }
                        }
                      },
                      {
                        "$type": "RPG.GameCore.ByCompareBattleEventID",
                        "TargetType": {
                          "$type": "RPG.GameCore.TargetAlias",
                          "Alias": "ParamEntity"
                        },
                        "TargetBattleEventID": {
                          "IsDynamic": false,
                          "FixedValue": {
                            "Value": 61003
                          }
                        }
                      },
                      {
                        "$type": "RPG.GameCore.ByCompareBattleEventID",
                        "TargetType": {
                          "$type": "RPG.GameCore.TargetAlias",
                          "Alias": "ParamEntity"
                        },
                        "TargetBattleEventID": {
                          "IsDynamic": false,
                          "FixedValue": {
                            "Value": 61004
                          }
                        }
                      },
                      {
                        "$type": "RPG.GameCore.ByCompareBattleEventID",
                        "TargetType": {
                          "$type": "RPG.GameCore.TargetAlias",
                          "Alias": "ParamEntity"
                        },
                        "TargetBattleEventID": {
                          "IsDynamic": false,
                          "FixedValue": {
                            "Value": 61005
                          }
                        }
                      },
                      {
                        "$type": "RPG.GameCore.ByCompareBattleEventID",
                        "TargetType": {
                          "$type": "RPG.GameCore.TargetAlias",
                          "Alias": "ParamEntity"
                        },
                        "TargetBattleEventID": {
                          "IsDynamic": false,
                          "FixedValue": {
                            "Value": 61006
                          }
                        }
                      },
                      {
                        "$type": "RPG.GameCore.ByCompareBattleEventID",
                        "TargetType": {
                          "$type": "RPG.GameCore.TargetAlias",
                          "Alias": "ParamEntity"
                        },
                        "TargetBattleEventID": {
                          "IsDynamic": false,
                          "FixedValue": {
                            "Value": 61007
                          }
                        }
                      },
                      {
                        "$type": "RPG.GameCore.ByCompareBattleEventID",
                        "TargetType": {
                          "$type": "RPG.GameCore.TargetAlias",
                          "Alias": "ParamEntity"
                        },
                        "TargetBattleEventID": {
                          "IsDynamic": false,
                          "FixedValue": {
                            "Value": 61008
                          }
                        }
                      }
                    ]
                  },
                  "SuccessTaskList": [
                    {
                      "$type": "RPG.GameCore.AddModifier",
                      "TargetType": {
                        "$type": "RPG.GameCore.TargetAlias",
                        "Alias": "AllLightTeam"
                      },
                      "ModifierName": "Modifier_ActionEventAbility_Common_StatusUp_Character"
                    }
                  ]
                }
              ]
            }
          ]
        },
        "Modifier_ActionEventAbility_Common_StatusUp_Character": {
          "LayerAddWhenStack": {
            "IsDynamic": false,
            "FixedValue": {
              "Value": 1
            }
          },
          "_CallbackList": [
            {
              "Event": "OnStack",
              "CallbackConfig": [
                {
                  "$type": "RPG.GameCore.SetDynamicValueByModifierValue",
                  "ReadTargetType": {
                    "$type": "RPG.GameCore.TargetAlias",
                    "Alias": "ModifierOwnerEntity"
                  },
                  "ValueType": "Layer",
                  "Multiplier": {
                    "IsDynamic": false,
                    "FixedValue": {
                      "Value": 1
                    }
                  },
                  "DynamicKey": "_Layer"
                },
                {
                  "$type": "RPG.GameCore.StackProperty",
                  "TargetType": {
                    "$type": "RPG.GameCore.TargetAlias",
                    "Alias": "ModifierOwnerEntity"
                  },
                  "Property": "AttackAddedRatio",
                  "PropertyValue": {
                    "IsDynamic": true,
                    "PostfixExpr": {
                      "OpCodes": "AQABAQQK",
                      "FixedValues": [],
                      "DynamicHashes": [
                        462955996,
                        1912601768
                      ]
                    }
                  }
                },
                {
                  "$type": "RPG.GameCore.StackProperty",
                  "TargetType": {
                    "$type": "RPG.GameCore.TargetAlias",
                    "Alias": "ModifierOwnerEntity"
                  },
                  "Property": "DefenceAddedRatio",
                  "PropertyValue": {
                    "IsDynamic": true,
                    "PostfixExpr": {
                      "OpCodes": "AQABAQQK",
                      "FixedValues": [],
                      "DynamicHashes": [
                        59671469,
                        1912601768
                      ]
                    }
                  }
                }
              ]
            }
          ],
          "Stacking": "ReplaceByCaster",
          "DynamicValues": {
            "Values": {
              "1912601768": {}
            }
          }
        }
      },
      "Name": "ActionEventAbility_Common_StatusUp",
      "TargetInfo": {
        "TargetType": "Caster"
      },
      "OnStart": [
        {
          "$type": "RPG.GameCore.AddModifier",
          "TargetType": {
            "$type": "RPG.GameCore.TargetAlias",
            "Alias": "Caster"
          },
          "ModifierName": "Modifier_ActionEventAbility_Common_StatusUp"
        }
      ]
    },
    {
      "Modifiers": {
        "Modifier_AutoUseUltraSkill": {
          "_CallbackList": [
            {
              "Event": "OnCreate",
              "CallbackConfig": [
                {
                  "$type": "RPG.GameCore.AutoUseUltraSkill",
                  "Target": {
                    "$type": "RPG.GameCore.TargetAlias",
                    "Alias": "AllDarkTeam"
                  },
                  "WaitCutinFinished": false
                }
              ]
            }
          ]
        }
      },
      "Name": "ActionEventAbility_Common_PassiveSkill",
      "TargetInfo": {
        "TargetType": "Caster"
      },
      "OnStart": [
        {
          "$type": "RPG.GameCore.ShowBattleEventButton",
          "IsShow": true
        },
        {
          "$type": "RPG.GameCore.AddModifier",
          "TargetType": {
            "$type": "RPG.GameCore.TargetAlias",
            "Alias": "Caster"
          },
          "ModifierName": "Modifier_AutoUseUltraSkill"
        }
      ]
    },
    {
      "Name": "ActionEventAbility_Camera_AllDarkTeam",
      "TargetInfo": {
        "TargetType": "InherentTargetEntity"
      },
      "OnStart": [
        {
          "$type": "RPG.GameCore.SetTeamFormation",
          "Team": "TeamLight",
          "CustomFormationName": "BattleEvent_ShenYuan_AllLightTeam",
          "CustomCenterTargetType": {
            "$type": "RPG.GameCore.TargetAlias",
            "Alias": "LightTeamEntity"
          },
          "CustomFormationIgnoreDying": false
        },
        {
          "$type": "RPG.GameCore.GlobalMainIntensityEffect",
          "TargetIntensity": 0.3,
          "FadeDuration": 0.55
        },
        {
          "$type": "RPG.GameCore.VCameraConfigChange",
          "CameraConfig": {
            "NormalConfig": {
              "CameraState": "UseSkillPerform",
              "AnchorTargetType": {
                "$type": "RPG.GameCore.TargetAlias",
                "Alias": "AllTeamCenter"
              },
              "IsLocalOffset": true,
              "AnchorOffset": {
                "X": 0.01,
                "Y": 6,
                "Z": 0.01
              },
              "AimTargetType": {
                "$type": "RPG.GameCore.TargetAlias",
                "Alias": "AllTeamCenter"
              },
              "AimOffset": {
                "X": 0.01,
                "Y": 7,
                "Z": 0.01
              },
              "FollowPoleAngle": 90,
              "FollowRadius": 2
            },
            "BlendConfig": {
              "BlendType": "Cut"
            }
          }
        },
        {
          "$type": "RPG.GameCore.WaitSecond",
          "WaitTime": 0.1
        },
        {
          "$type": "RPG.GameCore.VCameraConfigChange",
          "CameraConfig": {
            "NormalConfig": {
              "CameraState": "UseSkillPerform",
              "AnchorTargetType": {
                "$type": "RPG.GameCore.TargetAlias",
                "Alias": "AllTeamCenter"
              },
              "IsLocalOffset": true,
              "AnchorOffset": {
                "X": 0.01,
                "Y": 6,
                "Z": 0.01
              },
              "AimTargetType": {
                "$type": "RPG.GameCore.TargetAlias",
                "Alias": "AllTeamCenter"
              },
              "AimOffset": {
                "X": 0.01,
                "Y": 7.6,
                "Z": 0.01
              },
              "FollowPoleAngle": 90,
              "FollowRadius": 2,
              "FollowDamp": 1.4,
              "AimDamp": 1.4
            }
          }
        },
        {
          "$type": "RPG.GameCore.WaitSecond",
          "WaitTime": 1.2
        },
        {
          "$type": "RPG.GameCore.VCameraConfigChange",
          "CameraConfig": {
            "NormalConfig": {
              "CameraState": "UseSkillPerform",
              "AnchorTargetType": {
                "$type": "RPG.GameCore.TargetAlias",
                "Alias": "AllTeamCenter"
              },
              "IsLocalOffset": true,
              "AnchorOffset": {
                "X": 0.01,
                "Y": 2,
                "Z": 0.01
              },
              "AimTargetType": {
                "$type": "RPG.GameCore.TargetAlias",
                "Alias": "AllTeamCenter"
              },
              "AimOffset": {
                "X": 0.01,
                "Y": 5,
                "Z": 0.01
              },
              "FollowPoleAngle": 90,
              "FollowRadius": 3
            }
          }
        },
        {
          "$type": "RPG.GameCore.GlobalMainIntensityEffect",
          "IsRevert": true,
          "FadeDuration": 0.5
        },
        {
          "$type": "RPG.GameCore.VCameraConfigChange",
          "CameraConfig": {
            "NormalConfig": {
              "CameraState": "UseSkillPerform",
              "AnchorTargetType": {
                "$type": "RPG.GameCore.TargetAlias",
                "Alias": "DarkTeamCenter"
              },
              "IsLocalOffset": true,
              "AnchorOffset": {
                "X": 0.001,
                "Y": 2,
                "Z": 0.001
              },
              "AimTargetType": {
                "$type": "RPG.GameCore.TargetAlias",
                "Alias": "DarkTeamCenter"
              },
              "AimOffset": {
                "X": 0.001,
                "Y": 0.7,
                "Z": 0.001
              },
              "FollowPoleAngle": 90,
              "FollowRadius": 7.5
            },
            "BlendConfig": {
              "BlendType": "Cut"
            },
            "ShowEntityConfig": {
              "ShowTargetType": {
                "$type": "RPG.GameCore.TargetAlias",
                "Alias": "AllDarkTeam"
              },
              "IsAliveOnly": false
            }
          }
        },
        {
          "$type": "RPG.GameCore.WaitSecond",
          "WaitTime": 0.05
        },
        {
          "$type": "RPG.GameCore.VCameraConfigChange",
          "CameraConfig": {
            "NormalConfig": {
              "CameraState": "UseSkillPerform",
              "AnchorTargetType": {
                "$type": "RPG.GameCore.TargetAlias",
                "Alias": "DarkTeamCenter"
              },
              "IsLocalOffset": true,
              "AnchorOffset": {
                "X": 0.001,
                "Y": 2.5,
                "Z": 0.001
              },
              "AimTargetType": {
                "$type": "RPG.GameCore.TargetAlias",
                "Alias": "DarkTeamCenter"
              },
              "AimOffset": {
                "X": 0.001,
                "Y": 0.7,
                "Z": 0.001
              },
              "FollowPoleAngle": 90,
              "FollowRadius": 9.5,
              "FollowDamp": 0.5,
              "AimDamp": 0.5
            },
            "ShowEntityConfig": {
              "ShowTargetType": {
                "$type": "RPG.GameCore.TargetAlias",
                "Alias": "AllDarkTeam"
              },
              "IsAliveOnly": false
            }
          }
        },
        {
          "$type": "RPG.GameCore.WaitSecond",
          "WaitTime": 0.1
        },
        {
          "$type": "RPG.GameCore.VCameraConfigChange",
          "CameraConfig": {
            "ShakeTemplateName": "Punch_Middle",
            "OverrideShakeConfigV2": {
              "ShakeScale": 1,
              "ShakeTime": 0.22,
              "ShakeDir": {
                "X": 0,
                "Y": 0,
                "Z": 0.1
              }
            }
          }
        }
      ]
    },
    {
      "Name": "ActionEventAbility_Camera_AllLightTeam",
      "TargetInfo": {
        "TargetType": "InherentTargetEntity"
      },
      "OnStart": [
        {
          "$type": "RPG.GameCore.SetTeamFormation",
          "Team": "TeamLight",
          "CustomFormationName": "BattleEvent_ShenYuan_AllLightTeam",
          "CustomCenterTargetType": {
            "$type": "RPG.GameCore.TargetAlias",
            "Alias": "LightTeamEntity"
          },
          "CustomFormationIgnoreDying": false
        },
        {
          "$type": "RPG.GameCore.GlobalMainIntensityEffect",
          "TargetIntensity": 0.3,
          "FadeDuration": 0.55
        },
        {
          "$type": "RPG.GameCore.VCameraConfigChange",
          "CameraConfig": {
            "NormalConfig": {
              "CameraState": "UseSkillPerform",
              "AnchorTargetType": {
                "$type": "RPG.GameCore.TargetAlias",
                "Alias": "AllTeamCenter"
              },
              "IsLocalOffset": true,
              "AnchorOffset": {
                "X": 0.01,
                "Y": 6,
                "Z": 0.01
              },
              "AimTargetType": {
                "$type": "RPG.GameCore.TargetAlias",
                "Alias": "AllTeamCenter"
              },
              "AimOffset": {
                "X": 0.01,
                "Y": 7,
                "Z": 0.01
              },
              "FollowPoleAngle": 90,
              "FollowRadius": 2
            },
            "BlendConfig": {
              "BlendType": "Cut"
            },
            "ShowEntityConfig": {
              "ShowTargetType": {
                "$type": "RPG.GameCore.TargetAlias",
                "Alias": "AllLightTeam"
              },
              "IsTargetIgnoreCameraDither": true
            }
          }
        },
        {
          "$type": "RPG.GameCore.WaitSecond",
          "WaitTime": 0.1
        },
        {
          "$type": "RPG.GameCore.VCameraConfigChange",
          "CameraConfig": {
            "NormalConfig": {
              "CameraState": "UseSkillPerform",
              "AnchorTargetType": {
                "$type": "RPG.GameCore.TargetAlias",
                "Alias": "AllTeamCenter"
              },
              "IsLocalOffset": true,
              "AnchorOffset": {
                "X": 0.01,
                "Y": 6,
                "Z": 0.01
              },
              "AimTargetType": {
                "$type": "RPG.GameCore.TargetAlias",
                "Alias": "AllTeamCenter"
              },
              "AimOffset": {
                "X": 0.01,
                "Y": 7.6,
                "Z": 0.01
              },
              "FollowPoleAngle": 90,
              "FollowRadius": 2,
              "FollowDamp": 1.4,
              "AimDamp": 1.4
            },
            "ShowEntityConfig": {
              "ShowTargetType": {
                "$type": "RPG.GameCore.TargetAlias",
                "Alias": "AllLightTeam"
              },
              "IsTargetIgnoreCameraDither": true
            }
          }
        },
        {
          "$type": "RPG.GameCore.WaitSecond",
          "WaitTime": 1.2
        },
        {
          "$type": "RPG.GameCore.VCameraConfigChange",
          "CameraConfig": {
            "NormalConfig": {
              "CameraState": "UseSkillPerform",
              "AnchorTargetType": {
                "$type": "RPG.GameCore.TargetAlias",
                "Alias": "AllTeamCenter"
              },
              "IsLocalOffset": true,
              "AnchorOffset": {
                "X": 0.01,
                "Y": 2,
                "Z": 0.01
              },
              "AimTargetType": {
                "$type": "RPG.GameCore.TargetAlias",
                "Alias": "AllTeamCenter"
              },
              "AimOffset": {
                "X": 0.01,
                "Y": 4.46,
                "Z": 0.01
              },
              "FollowPoleAngle": 90,
              "FollowRadius": 3
            },
            "ShowEntityConfig": {
              "ShowTargetType": {
                "$type": "RPG.GameCore.TargetAlias",
                "Alias": "AllLightTeam"
              },
              "IsTargetIgnoreCameraDither": true
            }
          }
        },
        {
          "$type": "RPG.GameCore.GlobalMainIntensityEffect",
          "IsRevert": true,
          "FadeDuration": 0.5
        },
        {
          "$type": "RPG.GameCore.VCameraConfigChange",
          "CameraConfig": {
            "NormalConfig": {
              "CameraState": "UseSkillPerform",
              "AnchorTargetType": {
                "$type": "RPG.GameCore.TargetAlias",
                "Alias": "LightTeamCenter"
              },
              "IsLocalOffset": true,
              "AnchorOffset": {
                "X": 0.001,
                "Y": 2.6,
                "Z": 0.001
              },
              "AimTargetType": {
                "$type": "RPG.GameCore.TargetAlias",
                "Alias": "LightTeamCenter"
              },
              "AimOffset": {
                "X": 0.001,
                "Y": 1.1,
                "Z": 0.001
              },
              "FollowPoleAngle": 90,
              "FollowRadius": 3
            },
            "BlendConfig": {
              "BlendType": "Cut"
            },
            "ShowEntityConfig": {
              "ShowTargetType": {
                "$type": "RPG.GameCore.TargetAlias",
                "Alias": "AllLightTeam"
              },
              "IsTargetIgnoreCameraDither": true
            }
          }
        },
        {
          "$type": "RPG.GameCore.WaitSecond",
          "WaitTime": 0.05
        },
        {
          "$type": "RPG.GameCore.VCameraConfigChange",
          "CameraConfig": {
            "NormalConfig": {
              "CameraState": "UseSkillPerform",
              "AnchorTargetType": {
                "$type": "RPG.GameCore.TargetAlias",
                "Alias": "LightTeamCenter"
              },
              "IsLocalOffset": true,
              "AnchorOffset": {
                "X": 0.001,
                "Y": 3,
                "Z": 0.001
              },
              "AimTargetType": {
                "$type": "RPG.GameCore.TargetAlias",
                "Alias": "LightTeamCenter"
              },
              "AimOffset": {
                "X": 0.001,
                "Y": 1.2,
                "Z": 0.001
              },
              "FollowPoleAngle": 90,
              "FollowRadius": 4,
              "FollowDamp": 0.5,
              "AimDamp": 0.5
            },
            "ShowEntityConfig": {
              "ShowTargetType": {
                "$type": "RPG.GameCore.TargetAlias",
                "Alias": "AllLightTeam"
              },
              "IsTargetIgnoreCameraDither": true
            }
          }
        },
        {
          "$type": "RPG.GameCore.WaitSecond",
          "WaitTime": 0.1
        }
      ]
    }
  ]
}