{
  "OnInitSequece": [],
  "OnStartSequece": [
    {
      "TaskList": [
        {
          "$type": "RPG.GameCore.WaitCustomString",
          "CustomString": {
            "Value": "StartCountDown_5s"
          }
        },
        {
          "$type": "RPG.GameCore.WaitSecond",
          "WaitTime": 10
        },
        {
          "$type": "RPG.GameCore.PlayAndWaitSimpleTalk",
          "SimpleTalkList": [
            {
              "TalkSentenceID": 814106813
            }
          ]
        }
      ]
    },
    {
      "TaskList": [
        {
          "$type": "RPG.GameCore.PropStateExecute",
          "TargetType": {
            "$type": "RPG.GameCore.TargetFetchAdvPropEx"
          },
          "Execute": [
            {
              "$type": "RPG.GameCore.CreateCurvePropGroupPuzzle",
              "UniqueName": {
                "Value": "Tramcar_Load"
              },
              "PuzzleKey": "Tramcar_Mainline",
              "CurvePropGroupPrefabPath": "Props/Outputs/Chap01/Chap01_Prop_MineTramcar/Maze_Prop_AD_TramcarGamePlay.prefab",
              "Position": {
                "X": 202.895,
                "Y": 53.873,
                "Z": -181.133
              },
              "Rotation": {
                "X": 349.9812,
                "Y": 278.1601,
                "Z": 0.110742
              }
            }
          ]
        }
      ]
    },
    {
      "IsLoop": true,
      "TaskList": [
        {
          "$type": "RPG.GameCore.WaitCustomString",
          "CustomString": {
            "Value": "AD_Push_Begin"
          },
          "GoNextImmediately": true
        },
        {
          "$type": "RPG.GameCore.LockPlayerControl"
        },
        {
          "$type": "RPG.GameCore.ShowTalkUI",
          "Show": true
        },
        {
          "$type": "RPG.GameCore.WaitSecond",
          "WaitTime": 3
        },
        {
          "$type": "RPG.GameCore.PlayScreenTransfer",
          "Mode": "SwitchOut",
          "CustomTime": 0.5
        },
        {
          "$type": "RPG.GameCore.EndPropInteract"
        },
        {
          "$type": "RPG.GameCore.ActiveVirtualCamera",
          "AreaName": "LevelArea_P43103_F43103004_G28",
          "AnchorName": "Anchor1",
          "DynamicParams": {}
        },
        {
          "$type": "RPG.GameCore.PlayScreenTransfer",
          "CustomTime": 0.3
        },
        {
          "$type": "RPG.GameCore.WaitSecond",
          "WaitTime": 1
        },
        {
          "$type": "RPG.GameCore.AdvForceSetNpcAlertValue",
          "GroupID": 5,
          "NpcMonsterID": 200013,
          "AlertValue": 24
        },
        {
          "$type": "RPG.GameCore.TriggerCustomString",
          "CustomString": {
            "Value": "NPC1_FirstFind"
          }
        },
        {
          "$type": "RPG.GameCore.WaitSecond",
          "WaitTime": 1.2
        },
        {
          "$type": "RPG.GameCore.TriggerCustomString",
          "CustomString": {
            "Value": "NPC2_FirstFind"
          }
        },
        {
          "$type": "RPG.GameCore.AdvForceSetNpcAlertValue",
          "GroupID": 5,
          "NpcMonsterID": 200014,
          "AlertValue": 24
        },
        {
          "$type": "RPG.GameCore.WaitSecond",
          "WaitTime": 2.8
        },
        {
          "$type": "RPG.GameCore.PlayAndWaitSimpleTalk",
          "SimpleTalkList": [
            {
              "TalkSentenceID": 814106812
            }
          ]
        },
        {
          "$type": "RPG.GameCore.TriggerCustomString",
          "CustomString": {
            "Value": "StartCountDown_5s"
          }
        },
        {
          "$type": "RPG.GameCore.PlayOptionTalk",
          "OptionList": [
            {
              "TalkSentenceID": 814100148,
              "OptionIconType": "ChatContinueIcon",
              "TriggerCustomString": "AD_NextToKill"
            }
          ]
        }
      ]
    },
    {
      "TaskList": [
        {
          "$type": "RPG.GameCore.WaitCustomString",
          "CustomString": {
            "Value": "AD_NextToKill"
          }
        },
        {
          "$type": "RPG.GameCore.TriggerEffect",
          "TargetType": {
            "$type": "RPG.GameCore.TargetFetchAdvPropEx",
            "FetchType": "SinglePropByPropID",
            "SinglePropID": {
              "GroupID": {
                "IsDynamic": false,
                "FixedValue": {
                  "Value": 28
                }
              },
              "ID": {
                "IsDynamic": false,
                "FixedValue": {
                  "Value": 300003
                }
              }
            }
          },
          "IsAttachToTargetEntity": true,
          "Flags": [],
          "AliveOnly": true,
          "EffectPath": "Effects/Eff_Prefab/Eff_Scene/Interactive Object/Eff_Chap01_MAZ_Mecha01_AD_Explode.prefab",
          "SubObjectModifyDataList": []
        },
        {
          "$type": "RPG.GameCore.TriggerSound",
          "SoundName": "Ev_sfx_belobog_minetramcar_explo"
        },
        {
          "$type": "RPG.GameCore.VCameraConfigChange",
          "CharacterCameraTargetType": {
            "$type": "RPG.GameCore.TargetFetchAdvLocalPlayer"
          },
          "CameraConfig": {
            "ConfigType": "ShakeConfig",
            "ShakeTemplateName": "Common_Rapid_Middle",
            "OverrideShakeConfigV2": {
              "ShakeScale": 2,
              "ShakeTime": 2
            },
            "NoiseConfig": {},
            "Priority": 10
          }
        },
        {
          "$type": "RPG.GameCore.RadialBlurEffect",
          "TargetType": {
            "$type": "RPG.GameCore.TargetFetchAdvPropEx",
            "FetchType": "SinglePropByPropID",
            "SinglePropID": {
              "GroupID": {
                "IsDynamic": false,
                "FixedValue": {
                  "Value": 28
                }
              },
              "ID": {
                "IsDynamic": false,
                "FixedValue": {
                  "Value": 300003
                }
              }
            }
          },
          "Duration": 0.2,
          "Iteration": 4,
          "BlurStart": 0.005,
          "BlurFeather": 0.01
        },
        {
          "$type": "RPG.GameCore.CharacterTriggerAnimState",
          "TargetAlias": {
            "$type": "RPG.GameCore.TargetFetchAdvMonsterEx",
            "FetchType": "SingleByMonsterID",
            "SingleMonsterID": {
              "GroupID": {
                "IsDynamic": false,
                "FixedValue": {
                  "Value": 5
                }
              },
              "ID": {
                "IsDynamic": false,
                "FixedValue": {
                  "Value": 200013
                }
              }
            }
          },
          "AnimStateName": "Die"
        },
        {
          "$type": "RPG.GameCore.CharacterTriggerAnimState",
          "TargetAlias": {
            "$type": "RPG.GameCore.TargetFetchAdvMonsterEx",
            "FetchType": "SingleByMonsterID",
            "SingleMonsterID": {
              "GroupID": {
                "IsDynamic": false,
                "FixedValue": {
                  "Value": 5
                }
              },
              "ID": {
                "IsDynamic": false,
                "FixedValue": {
                  "Value": 200014
                }
              }
            }
          },
          "AnimStateName": "Die"
        },
        {
          "$type": "RPG.GameCore.EnableNPCMonsterAI",
          "GroupMonsterIDs": [],
          "TargetType": {
            "$type": "RPG.GameCore.TargetFetchAdvMonsterEx",
            "FetchType": "SingleByMonsterID",
            "SingleMonsterID": {
              "GroupID": {
                "IsDynamic": false,
                "FixedValue": {
                  "Value": 5
                }
              },
              "ID": {
                "IsDynamic": false,
                "FixedValue": {
                  "Value": 200013
                }
              }
            }
          },
          "UniqueNames": []
        },
        {
          "$type": "RPG.GameCore.EnableNPCMonsterAI",
          "GroupMonsterIDs": [],
          "TargetType": {
            "$type": "RPG.GameCore.TargetFetchAdvMonsterEx",
            "FetchType": "SingleByMonsterID",
            "SingleMonsterID": {
              "GroupID": {
                "IsDynamic": false,
                "FixedValue": {
                  "Value": 5
                }
              },
              "ID": {
                "IsDynamic": false,
                "FixedValue": {
                  "Value": 200014
                }
              }
            }
          },
          "UniqueNames": []
        },
        {
          "$type": "RPG.GameCore.WaitSecond",
          "WaitTime": 2
        },
        {
          "$type": "RPG.GameCore.PlayScreenTransfer",
          "Mode": "SwitchOut",
          "CustomTime": 1.5
        },
        {
          "$type": "RPG.GameCore.ActiveVirtualCamera",
          "AreaName": "LevelArea_P43103_F43103004_G28",
          "AnchorName": "Anchor1",
          "IsActive": false,
          "DynamicParams": {}
        },
        {
          "$type": "RPG.GameCore.ShowTalkUI"
        },
        {
          "$type": "RPG.GameCore.UnLockPlayerControl"
        },
        {
          "$type": "RPG.GameCore.DestroyCurvePropGroupPuzzle",
          "UniqueName": {
            "Value": "Tramcar_Load"
          }
        },
        {
          "$type": "RPG.GameCore.PlayScreenTransfer",
          "CustomTime": 1.5
        },
        {
          "$type": "RPG.GameCore.TriggerCustomString",
          "CustomString": {
            "Value": "BoomerGame06"
          }
        }
      ]
    },
    {
      "TaskList": [
        {
          "$type": "RPG.GameCore.PropSetupUITrigger",
          "DisableAfterTriggered": true,
          "IconType": "TriggerProp",
          "ButtonText": {
            "Hash": 1925149677
          },
          "ButtonCallback": [
            {
              "$type": "RPG.GameCore.TriggerCustomString",
              "CustomString": {
                "Value": "AD_Push_Begin"
              }
            },
            {
              "$type": "RPG.GameCore.StartPropInteractMode",
              "TargetType": {
                "$type": "RPG.GameCore.TargetFetchAdvPropEx"
              },
              "Mode": "UsePose02"
            }
          ],
          "OverrideTargetTypes": [],
          "TargetType": {
            "$type": "RPG.GameCore.TargetFetchAdvPropEx"
          }
        }
      ]
    },
    {
      "TaskList": [
        {
          "$type": "RPG.GameCore.WaitCustomString",
          "CustomString": {
            "Value": "NPC1_FirstFind"
          },
          "GoNextImmediately": true
        },
        {
          "$type": "RPG.GameCore.WaitSecond",
          "WaitTime": 2
        },
        {
          "$type": "RPG.GameCore.AdvForceSetNpcAlertValue",
          "GroupID": 5,
          "NpcMonsterID": 200013,
          "TaskEnabled": false
        },
        {
          "$type": "RPG.GameCore.AdvSetAIMoveTo",
          "TargetType": {
            "$type": "RPG.GameCore.TargetFetchAdvMonsterEx",
            "FetchType": "SingleByMonsterID",
            "SingleMonsterID": {
              "GroupID": {
                "IsDynamic": false,
                "FixedValue": {
                  "Value": 5
                }
              },
              "ID": {
                "IsDynamic": false,
                "FixedValue": {
                  "Value": 200013
                }
              }
            }
          },
          "GroupId": 28,
          "PointID": 2,
          "MotionFlag": "Walk",
          "OnReach": [
            {
              "$type": "RPG.GameCore.AdvForceSetNpcAlertValue",
              "GroupID": 5,
              "NpcMonsterID": 200013,
              "AlertValue": 24
            }
          ]
        }
      ]
    },
    {
      "TaskList": [
        {
          "$type": "RPG.GameCore.WaitCustomString",
          "CustomString": {
            "Value": "NPC2_FirstFind"
          },
          "GoNextImmediately": true
        },
        {
          "$type": "RPG.GameCore.WaitSecond",
          "WaitTime": 2
        },
        {
          "$type": "RPG.GameCore.AdvForceSetNpcAlertValue",
          "GroupID": 5,
          "NpcMonsterID": 200013,
          "TaskEnabled": false
        },
        {
          "$type": "RPG.GameCore.AdvSetAIMoveTo",
          "TargetType": {
            "$type": "RPG.GameCore.TargetFetchAdvMonsterEx",
            "FetchType": "SingleByMonsterID",
            "SingleMonsterID": {
              "GroupID": {
                "IsDynamic": false,
                "FixedValue": {
                  "Value": 5
                }
              },
              "ID": {
                "IsDynamic": false,
                "FixedValue": {
                  "Value": 200014
                }
              }
            }
          },
          "GroupId": 28,
          "PointID": 3,
          "MotionFlag": "Walk",
          "OnReach": [
            {
              "$type": "RPG.GameCore.AdvForceSetNpcAlertValue",
              "GroupID": 5,
              "NpcMonsterID": 200014,
              "AlertValue": 24
            }
          ]
        }
      ]
    }
  ]
}