{
  "OnInitSequece": [],
  "OnStartSequece": [
    {
      "IsLoop": true,
      "TaskList": [
        {
          "$type": "RPG.GameCore.WaitCustomString",
          "CustomString": {
            "Custom": true,
            "Key": "PuzzleStart"
          }
        },
        {
          "$type": "RPG.GameCore.DestroyCurvePropGroupPuzzle",
          "UniqueName": {
            "Value": "Tramcar_lv"
          }
        },
        {
          "$type": "RPG.GameCore.CreateCurvePropGroupPuzzle",
          "UniqueName": {
            "Value": "Tramcar_lv"
          },
          "CurvePropGroupPrefabParam": "Prefab_Path",
          "CurvePropGroupPrefabPath": "Props/DesignerBackup/Tramcar/Tramcar_Puzzle_Lv0.prefab"
        },
        {
          "$type": "RPG.GameCore.TriggerCustomString",
          "CustomString": {
            "Value": "Tramcar_Listen"
          }
        }
      ]
    },
    {
      "IsLoop": true,
      "TaskList": [
        {
          "$type": "RPG.GameCore.WaitCustomString",
          "CustomString": {
            "Custom": true,
            "Key": "Car1_Load"
          }
        },
        {
          "$type": "RPG.GameCore.LockPlayerControl"
        },
        {
          "$type": "RPG.GameCore.BlockInputController",
          "Enable": true,
          "ActionNameList": []
        },
        {
          "$type": "RPG.GameCore.PlayScreenTransfer",
          "Mode": "SwitchOut",
          "CustomTime": 0.5
        },
        {
          "$type": "RPG.GameCore.ModifyCurvePropGroupObjectState",
          "UniqueName": {
            "Value": "Tramcar_lv"
          },
          "ObjectUniqueName": "Car_1",
          "ModifyState": "Load"
        },
        {
          "$type": "RPG.GameCore.WaitSecond",
          "WaitTime": 1
        },
        {
          "$type": "RPG.GameCore.PlayScreenTransfer",
          "CustomTime": 0.5
        },
        {
          "$type": "RPG.GameCore.UnLockPlayerControl"
        },
        {
          "$type": "RPG.GameCore.BlockInputController",
          "ActionNameList": []
        }
      ]
    },
    {
      "IsLoop": true,
      "TaskList": [
        {
          "$type": "RPG.GameCore.WaitCustomString",
          "CustomString": {
            "Custom": true,
            "Key": "Car2_Load"
          }
        },
        {
          "$type": "RPG.GameCore.LockPlayerControl"
        },
        {
          "$type": "RPG.GameCore.BlockInputController",
          "Enable": true,
          "ActionNameList": []
        },
        {
          "$type": "RPG.GameCore.PlayScreenTransfer",
          "Mode": "SwitchOut",
          "CustomTime": 0.5
        },
        {
          "$type": "RPG.GameCore.ModifyCurvePropGroupObjectState",
          "UniqueName": {
            "Value": "Tramcar_lv"
          },
          "ObjectUniqueName": "Car_2",
          "ModifyState": "Load"
        },
        {
          "$type": "RPG.GameCore.WaitSecond",
          "WaitTime": 1
        },
        {
          "$type": "RPG.GameCore.PlayScreenTransfer",
          "CustomTime": 0.5
        },
        {
          "$type": "RPG.GameCore.UnLockPlayerControl"
        },
        {
          "$type": "RPG.GameCore.BlockInputController",
          "ActionNameList": []
        }
      ]
    },
    {
      "IsLoop": true,
      "TaskList": [
        {
          "$type": "RPG.GameCore.WaitCustomString",
          "CustomString": {
            "Custom": true,
            "Key": "ArriveHintA"
          }
        },
        {
          "$type": "RPG.GameCore.TriggerEffectList",
          "TargetType": {
            "$type": "RPG.GameCore.TargetFetchAdvPropEx",
            "FetchType": "SinglePropByPropKey",
            "SinglePropKey": {
              "Custom": true,
              "Key": "ArrivePropA"
            }
          },
          "EffectList": [
            {
              "EffectPath": "Effects/Eff_Prefab/Eff_Scene/Interactive Object/Eff_Common_TreasureBox02_Appear.prefab",
              "AttachPoint": "Root"
            }
          ]
        }
      ]
    },
    {
      "IsLoop": true,
      "TaskList": [
        {
          "$type": "RPG.GameCore.WaitCustomString",
          "CustomString": {
            "Custom": true,
            "Key": "ArriveHintB"
          }
        },
        {
          "$type": "RPG.GameCore.TriggerEffectList",
          "TargetType": {
            "$type": "RPG.GameCore.TargetFetchAdvPropEx",
            "FetchType": "SinglePropByPropKey",
            "SinglePropKey": {
              "Custom": true,
              "Key": "ArrivePropB"
            }
          },
          "EffectList": [
            {
              "EffectPath": "Effects/Eff_Prefab/Eff_Scene/Interactive Object/Eff_Common_TreasureBox02_Appear.prefab",
              "AttachPoint": "Root"
            }
          ]
        }
      ]
    },
    {
      "IsLoop": true,
      "TaskList": [
        {
          "$type": "RPG.GameCore.WaitCustomString",
          "CustomString": {
            "Value": "Tramcar_Listen"
          },
          "WaitOwnerOnly": true
        },
        {
          "$type": "RPG.GameCore.CurvePropGroupPuzzleFinishListener",
          "UniqueName": {
            "Value": "Tramcar_lv"
          }
        },
        {
          "$type": "RPG.GameCore.TriggerCustomString",
          "CustomString": {
            "Custom": true,
            "Key": "PuzzleEnd"
          }
        },
        {
          "$type": "RPG.GameCore.ToastPage",
          "MessageOne": {
            "Hash": 362442128
          },
          "MessageTwo": {
            "Hash": -265449639
          }
        },
        {
          "$type": "RPG.GameCore.PropReqInteract",
          "TargetType": {
            "$type": "RPG.GameCore.TargetFetchAdvPropEx",
            "FetchType": "SinglePropByPropKey",
            "SinglePropKey": {
              "Custom": true,
              "Key": "UnlockChest"
            }
          },
          "InteractID": {
            "IsDynamic": false,
            "FixedValue": {
              "Value": 120120
            }
          }
        }
      ]
    },
    {
      "TaskList": [
        {
          "$type": "RPG.GameCore.PropStateChangeListenerConfig",
          "FromState": "Hidden",
          "ToState": "ChestClosed",
          "OnChange": [
            {
              "$type": "RPG.GameCore.ShowWaypointByProp",
              "PropKey": {
                "Custom": true,
                "Key": "UnlockChest"
              },
              "MaxRange": 100,
              "IconPath": "SpriteOutput/MapPics/Billboard/IconBillboardBox.png",
              "Offset": {
                "X": 0,
                "Y": 1.6,
                "Z": 0
              }
            }
          ],
          "TargetType": {
            "$type": "RPG.GameCore.TargetFetchAdvPropEx",
            "FetchType": "SinglePropByPropKey",
            "SinglePropKey": {
              "Custom": true,
              "Key": "UnlockChest"
            }
          }
        }
      ]
    },
    {
      "TaskList": [
        {
          "$type": "RPG.GameCore.PropStateChangeListenerConfig",
          "FromState": "ChestClosed",
          "ToState": "ChestUsed",
          "OnChange": [
            {
              "$type": "RPG.GameCore.HideWaypointByProp",
              "PropKey": {
                "Custom": true,
                "Key": "UnlockChest"
              }
            },
            {
              "$type": "RPG.GameCore.DestroyCurvePropGroupPuzzle",
              "UniqueName": {
                "Value": "Tramcar_lv"
              }
            }
          ],
          "TargetType": {
            "$type": "RPG.GameCore.TargetFetchAdvPropEx",
            "FetchType": "SinglePropByPropKey",
            "SinglePropKey": {
              "Custom": true,
              "Key": "UnlockChest"
            }
          }
        }
      ]
    },
    {
      "TaskList": [
        {
          "$type": "RPG.GameCore.PropStateExecute",
          "TargetType": {
            "$type": "RPG.GameCore.TargetFetchAdvPropEx",
            "FetchType": "SinglePropByPropKey",
            "SinglePropKey": {
              "Custom": true,
              "Key": "UnlockChest"
            }
          },
          "State": "ChestClosed",
          "Execute": [
            {
              "$type": "RPG.GameCore.ShowWaypointByProp",
              "PropKey": {
                "Custom": true,
                "Key": "UnlockChest"
              },
              "MaxRange": 10,
              "IconPath": "SpriteOutput/MapPics/Billboard/IconBillboardBox.png",
              "Offset": {
                "X": 0,
                "Y": 1.6,
                "Z": 0
              }
            }
          ]
        }
      ]
    }
  ],
  "ValueSource": {
    "Values": [
      {
        "$type": "RPG.GameCore.SharedString",
        "Key": "PuzzleStart"
      },
      {
        "$type": "RPG.GameCore.SharedString",
        "Key": "PuzzleEnd"
      },
      {
        "$type": "RPG.GameCore.SharedString",
        "Key": "Car1_Load"
      },
      {
        "$type": "RPG.GameCore.SharedString",
        "Key": "Car2_Load"
      },
      {
        "$type": "RPG.GameCore.SharedString",
        "Key": "UnlockChest"
      },
      {
        "$type": "RPG.GameCore.SharedString",
        "Value": "Props/Outputs/Chap01/Chap01_Prop_MineTramcar/Tramcar_Puzzle_Lv0.prefab",
        "Key": "Prefab_Path"
      },
      {
        "$type": "RPG.GameCore.SharedString",
        "Value": "Tramcar_lv0_PointA",
        "Key": "ArriveHintA"
      },
      {
        "$type": "RPG.GameCore.SharedString",
        "Value": "Tramcar_lv0_PointB",
        "Key": "ArriveHintB"
      },
      {
        "$type": "RPG.GameCore.SharedString",
        "Key": "ArrivePropA"
      },
      {
        "$type": "RPG.GameCore.SharedString",
        "Key": "ArrivePropB"
      }
    ]
  }
}