{
  "MunicipalChatGroupDict": {
    "MunicipalChat01": {
      "CharacterSlotList": [
        {
          "GroupID": 58,
          "GroupNpcID": 400001,
          "SlotID": 1
        },
        {
          "GroupID": 58,
          "GroupNpcID": 400002,
          "SlotID": 2
        }
      ],
      "StartNodeName": "Node0",
      "RecoverMinTime": 50,
      "RecoverMaxTime": 60,
      "NodeList": [
        {
          "MunicipalNodeName": "NodeBreak",
          "Duration": 4,
          "NextNodes": [],
          "ActionList": [
            {
              "SlotID": 1
            },
            {
              "SlotID": 2
            }
          ]
        },
        {
          "MunicipalNodeName": "Node0",
          "Duration": 4,
          "NextNodes": [
            "Node1"
          ],
          "ActionList": [
            {
              "SlotID": 1,
              "TalkInfo": {
                "TalkSentenceID": 502250001
              }
            },
            {
              "SlotID": 2
            }
          ]
        },
        {
          "MunicipalNodeName": "Node1",
          "Duration": 4,
          "NextNodes": [
            "Node2"
          ],
          "ActionList": [
            {
              "SlotID": 1
            },
            {
              "SlotID": 2,
              "TalkInfo": {
                "TalkSentenceID": 502250002
              }
            }
          ]
        },
        {
          "MunicipalNodeName": "Node2",
          "Duration": 4,
          "NextNodes": [],
          "ActionList": [
            {
              "SlotID": 1,
              "TalkInfo": {
                "TalkSentenceID": 502250003
              }
            },
            {
              "SlotID": 2
            }
          ]
        }
      ]
    },
    "MunicipalChat02": {
      "CharacterSlotList": [
        {
          "GroupID": 58,
          "GroupNpcID": 400004,
          "SlotID": 1
        },
        {
          "GroupID": 58,
          "GroupNpcID": 400003,
          "SlotID": 2
        }
      ],
      "StartNodeName": "Node0",
      "RecoverMinTime": 50,
      "RecoverMaxTime": 60,
      "NodeList": [
        {
          "MunicipalNodeName": "NodeBreak",
          "Duration": 4,
          "NextNodes": [],
          "ActionList": [
            {
              "SlotID": 1
            },
            {
              "SlotID": 2
            }
          ]
        },
        {
          "MunicipalNodeName": "Node0",
          "Duration": 4,
          "NextNodes": [
            "Node1"
          ],
          "ActionList": [
            {
              "SlotID": 1,
              "TalkInfo": {
                "TalkSentenceID": 502250004
              }
            },
            {
              "SlotID": 2
            }
          ]
        },
        {
          "MunicipalNodeName": "Node1",
          "Duration": 4,
          "NextNodes": [
            "Node2"
          ],
          "ActionList": [
            {
              "SlotID": 1
            },
            {
              "SlotID": 2,
              "TalkInfo": {
                "TalkSentenceID": 502250005
              }
            }
          ]
        },
        {
          "MunicipalNodeName": "Node2",
          "Duration": 4,
          "NextNodes": [],
          "ActionList": [
            {
              "SlotID": 1,
              "TalkInfo": {
                "TalkSentenceID": 502250006
              }
            },
            {
              "SlotID": 2
            }
          ]
        }
      ]
    },
    "MunicipalChat03": {
      "CharacterSlotList": [
        {
          "GroupID": 58,
          "GroupNpcID": 400005,
          "SlotID": 1
        },
        {
          "GroupID": 58,
          "GroupNpcID": 400006,
          "SlotID": 2
        }
      ],
      "StartNodeName": "Node0",
      "RecoverMinTime": 50,
      "RecoverMaxTime": 60,
      "NodeList": [
        {
          "MunicipalNodeName": "NodeBreak",
          "Duration": 4,
          "NextNodes": [],
          "ActionList": [
            {
              "SlotID": 1
            },
            {
              "SlotID": 2
            }
          ]
        },
        {
          "MunicipalNodeName": "Node0",
          "Duration": 4,
          "NextNodes": [
            "Node1"
          ],
          "ActionList": [
            {
              "SlotID": 1,
              "TalkInfo": {
                "TalkSentenceID": 502250007
              }
            },
            {
              "SlotID": 2
            }
          ]
        },
        {
          "MunicipalNodeName": "Node1",
          "Duration": 4,
          "NextNodes": [],
          "ActionList": [
            {
              "SlotID": 1
            },
            {
              "SlotID": 2,
              "TalkInfo": {
                "TalkSentenceID": 502250008
              }
            }
          ]
        }
      ]
    },
    "MunicipalChat04": {
      "CharacterSlotList": [
        {
          "GroupID": 58,
          "GroupNpcID": 400007,
          "SlotID": 1
        },
        {
          "GroupID": 58,
          "GroupNpcID": 400008,
          "SlotID": 2
        }
      ],
      "StartNodeName": "Node0",
      "RecoverMinTime": 50,
      "RecoverMaxTime": 60,
      "NodeList": [
        {
          "MunicipalNodeName": "NodeBreak",
          "Duration": 4,
          "NextNodes": [],
          "ActionList": [
            {
              "SlotID": 1
            },
            {
              "SlotID": 2
            }
          ]
        },
        {
          "MunicipalNodeName": "Node0",
          "Duration": 4,
          "NextNodes": [
            "Node1"
          ],
          "ActionList": [
            {
              "SlotID": 1,
              "TalkInfo": {
                "TalkSentenceID": 502251001
              }
            },
            {
              "SlotID": 2
            }
          ]
        },
        {
          "MunicipalNodeName": "Node1",
          "Duration": 4,
          "NextNodes": [],
          "ActionList": [
            {
              "SlotID": 1
            },
            {
              "SlotID": 2,
              "TalkInfo": {
                "TalkSentenceID": 502251002
              }
            }
          ]
        }
      ]
    },
    "MunicipalChat05": {
      "CharacterSlotList": [
        {
          "GroupID": 58,
          "GroupNpcID": 400011,
          "SlotID": 1
        },
        {
          "GroupID": 58,
          "GroupNpcID": 400014,
          "SlotID": 2
        },
        {
          "GroupID": 58,
          "GroupNpcID": 400012,
          "SlotID": 3
        }
      ],
      "StartNodeName": "Node0",
      "RecoverMinTime": 50,
      "RecoverMaxTime": 60,
      "NodeList": [
        {
          "MunicipalNodeName": "NodeBreak",
          "Duration": 4,
          "NextNodes": [],
          "ActionList": [
            {
              "SlotID": 1
            },
            {
              "SlotID": 2
            },
            {
              "SlotID": 3
            }
          ]
        },
        {
          "MunicipalNodeName": "Node0",
          "Duration": 4,
          "NextNodes": [
            "Node1"
          ],
          "ActionList": [
            {
              "SlotID": 1,
              "TalkInfo": {
                "TalkSentenceID": 502251003
              }
            },
            {
              "SlotID": 2
            },
            {
              "SlotID": 3
            }
          ]
        },
        {
          "MunicipalNodeName": "Node1",
          "Duration": 4,
          "NextNodes": [
            "Node2"
          ],
          "ActionList": [
            {
              "SlotID": 1,
              "TalkInfo": {
                "TalkSentenceID": 502251004
              }
            },
            {
              "SlotID": 2
            },
            {
              "SlotID": 3
            }
          ]
        },
        {
          "MunicipalNodeName": "Node2",
          "Duration": 4,
          "NextNodes": [
            "Node3"
          ],
          "ActionList": [
            {
              "SlotID": 1
            },
            {
              "SlotID": 2,
              "TalkInfo": {
                "TalkSentenceID": 502251005
              }
            },
            {
              "SlotID": 3
            }
          ]
        },
        {
          "MunicipalNodeName": "Node3",
          "Duration": 4,
          "NextNodes": [],
          "ActionList": [
            {
              "SlotID": 1
            },
            {
              "SlotID": 2
            },
            {
              "SlotID": 3,
              "TalkInfo": {
                "TalkSentenceID": 502251006
              }
            }
          ]
        }
      ]
    },
    "MunicipalChat06": {
      "CharacterSlotList": [
        {
          "GroupID": 58,
          "GroupNpcID": 400011,
          "SlotID": 1
        },
        {
          "GroupID": 58,
          "GroupNpcID": 400013,
          "SlotID": 2
        }
      ],
      "StartNodeName": "Node0",
      "RecoverMinTime": 50,
      "RecoverMaxTime": 60,
      "NodeList": [
        {
          "MunicipalNodeName": "NodeBreak",
          "Duration": 4,
          "NextNodes": [],
          "ActionList": [
            {
              "SlotID": 1
            },
            {
              "SlotID": 2
            }
          ]
        },
        {
          "MunicipalNodeName": "Node0",
          "Duration": 4,
          "NextNodes": [
            "Node1"
          ],
          "ActionList": [
            {
              "SlotID": 1,
              "TalkInfo": {
                "TalkSentenceID": 502251007
              }
            },
            {
              "SlotID": 2
            }
          ]
        },
        {
          "MunicipalNodeName": "Node1",
          "Duration": 4,
          "NextNodes": [
            "Node2"
          ],
          "ActionList": [
            {
              "SlotID": 1
            },
            {
              "SlotID": 2,
              "TalkInfo": {
                "TalkSentenceID": 502251008
              }
            }
          ]
        },
        {
          "MunicipalNodeName": "Node2",
          "Duration": 4,
          "NextNodes": [
            "Node3"
          ],
          "ActionList": [
            {
              "SlotID": 1
            },
            {
              "SlotID": 2,
              "TalkInfo": {
                "TalkSentenceID": 502251009
              }
            }
          ]
        },
        {
          "MunicipalNodeName": "Node3",
          "Duration": 4,
          "NextNodes": [
            "Node4"
          ],
          "ActionList": [
            {
              "SlotID": 1,
              "TalkInfo": {
                "TalkSentenceID": 502251010
              }
            },
            {
              "SlotID": 2
            }
          ]
        },
        {
          "MunicipalNodeName": "Node4",
          "Duration": 4,
          "NextNodes": [],
          "ActionList": [
            {
              "SlotID": 1,
              "TalkInfo": {
                "TalkSentenceID": 502251011
              }
            },
            {
              "SlotID": 2
            }
          ]
        }
      ]
    },
    "MunicipalChat07": {
      "CharacterSlotList": [
        {
          "GroupID": 58,
          "GroupNpcID": 400015,
          "SlotID": 1
        },
        {
          "GroupID": 58,
          "GroupNpcID": 400016,
          "SlotID": 2
        }
      ],
      "StartNodeName": "Node0",
      "RecoverMinTime": 50,
      "RecoverMaxTime": 60,
      "NodeList": [
        {
          "MunicipalNodeName": "NodeBreak",
          "Duration": 4,
          "NextNodes": [],
          "ActionList": [
            {
              "SlotID": 1
            },
            {
              "SlotID": 2
            }
          ]
        },
        {
          "MunicipalNodeName": "Node0",
          "Duration": 4,
          "NextNodes": [
            "Node1"
          ],
          "ActionList": [
            {
              "SlotID": 1
            },
            {
              "SlotID": 2,
              "TalkInfo": {
                "TalkSentenceID": 502252001
              }
            }
          ]
        },
        {
          "MunicipalNodeName": "Node1",
          "Duration": 4,
          "NextNodes": [],
          "ActionList": [
            {
              "SlotID": 1,
              "TalkInfo": {
                "TalkSentenceID": 502252002
              }
            },
            {
              "SlotID": 2
            }
          ]
        }
      ]
    },
    "MunicipalChat08": {
      "CharacterSlotList": [
        {
          "GroupID": 58,
          "GroupNpcID": 400018,
          "SlotID": 1
        },
        {
          "GroupID": 58,
          "GroupNpcID": 400017,
          "SlotID": 2
        }
      ],
      "StartNodeName": "Node0",
      "RecoverMinTime": 50,
      "RecoverMaxTime": 60,
      "NodeList": [
        {
          "MunicipalNodeName": "NodeBreak",
          "Duration": 4,
          "NextNodes": [],
          "ActionList": [
            {
              "SlotID": 1
            },
            {
              "SlotID": 2
            }
          ]
        },
        {
          "MunicipalNodeName": "Node0",
          "Duration": 4,
          "NextNodes": [
            "Node1"
          ],
          "ActionList": [
            {
              "SlotID": 1,
              "TalkInfo": {
                "TalkSentenceID": 502252003
              }
            },
            {
              "SlotID": 2
            }
          ]
        },
        {
          "MunicipalNodeName": "Node1",
          "Duration": 4,
          "NextNodes": [
            "Node2"
          ],
          "ActionList": [
            {
              "SlotID": 1,
              "TalkInfo": {
                "TalkSentenceID": 502252004
              }
            },
            {
              "SlotID": 2
            }
          ]
        },
        {
          "MunicipalNodeName": "Node2",
          "Duration": 4,
          "NextNodes": [
            "Node3"
          ],
          "ActionList": [
            {
              "SlotID": 1
            },
            {
              "SlotID": 2,
              "TalkInfo": {
                "TalkSentenceID": 502252005
              }
            }
          ]
        },
        {
          "MunicipalNodeName": "Node3",
          "Duration": 4,
          "NextNodes": [
            "Node4"
          ],
          "ActionList": [
            {
              "SlotID": 1
            },
            {
              "SlotID": 2,
              "TalkInfo": {
                "TalkSentenceID": 502252006
              }
            }
          ]
        },
        {
          "MunicipalNodeName": "Node4",
          "Duration": 4,
          "NextNodes": [],
          "ActionList": [
            {
              "SlotID": 1
            },
            {
              "SlotID": 2,
              "TalkInfo": {
                "TalkSentenceID": 502252007
              }
            }
          ]
        }
      ]
    },
    "MunicipalChat09": {
      "CharacterSlotList": [
        {
          "GroupID": 58,
          "GroupNpcID": 400019,
          "SlotID": 1
        },
        {
          "GroupID": 58,
          "GroupNpcID": 400020,
          "SlotID": 2
        }
      ],
      "StartNodeName": "Node0",
      "RecoverMinTime": 50,
      "RecoverMaxTime": 60,
      "NodeList": [
        {
          "MunicipalNodeName": "NodeBreak",
          "Duration": 4,
          "NextNodes": [],
          "ActionList": [
            {
              "SlotID": 1
            },
            {
              "SlotID": 2
            }
          ]
        },
        {
          "MunicipalNodeName": "Node0",
          "Duration": 4,
          "NextNodes": [
            "Node1"
          ],
          "ActionList": [
            {
              "SlotID": 1
            },
            {
              "SlotID": 2,
              "TalkInfo": {
                "TalkSentenceID": 502252008
              }
            }
          ]
        },
        {
          "MunicipalNodeName": "Node1",
          "Duration": 4,
          "NextNodes": [
            "Node2"
          ],
          "ActionList": [
            {
              "SlotID": 1,
              "TalkInfo": {
                "TalkSentenceID": 502252009
              }
            },
            {
              "SlotID": 2
            }
          ]
        },
        {
          "MunicipalNodeName": "Node2",
          "Duration": 4,
          "NextNodes": [],
          "ActionList": [
            {
              "SlotID": 1,
              "TalkInfo": {
                "TalkSentenceID": 502252010
              }
            },
            {
              "SlotID": 2
            }
          ]
        }
      ]
    },
    "MunicipalChat10": {
      "CharacterSlotList": [
        {
          "GroupID": 58,
          "GroupNpcID": 400021,
          "SlotID": 1
        },
        {
          "GroupID": 58,
          "GroupNpcID": 400022,
          "SlotID": 2
        }
      ],
      "StartNodeName": "Node0",
      "RecoverMinTime": 50,
      "RecoverMaxTime": 60,
      "NodeList": [
        {
          "MunicipalNodeName": "NodeBreak",
          "Duration": 4,
          "NextNodes": [],
          "ActionList": [
            {
              "SlotID": 1
            },
            {
              "SlotID": 2
            }
          ]
        },
        {
          "MunicipalNodeName": "Node0",
          "Duration": 4,
          "NextNodes": [
            "Node1"
          ],
          "ActionList": [
            {
              "SlotID": 1,
              "TalkInfo": {
                "TalkSentenceID": 502253004
              }
            },
            {
              "SlotID": 2
            }
          ]
        },
        {
          "MunicipalNodeName": "Node1",
          "Duration": 4,
          "NextNodes": [
            "Node2"
          ],
          "ActionList": [
            {
              "SlotID": 1
            },
            {
              "SlotID": 2,
              "TalkInfo": {
                "TalkSentenceID": 502253005
              }
            }
          ]
        },
        {
          "MunicipalNodeName": "Node2",
          "Duration": 4,
          "NextNodes": [
            "Node3"
          ],
          "ActionList": [
            {
              "SlotID": 1,
              "TalkInfo": {
                "TalkSentenceID": 502253006
              }
            },
            {
              "SlotID": 2
            }
          ]
        },
        {
          "MunicipalNodeName": "Node3",
          "Duration": 4,
          "NextNodes": [],
          "ActionList": [
            {
              "SlotID": 1
            },
            {
              "SlotID": 2,
              "TalkInfo": {
                "TalkSentenceID": 502253007
              }
            }
          ]
        }
      ]
    },
    "MunicipalChat11": {
      "CharacterSlotList": [
        {
          "GroupID": 58,
          "GroupNpcID": 400023,
          "SlotID": 1
        }
      ],
      "StartNodeName": "Node0",
      "RecoverMinTime": 50,
      "RecoverMaxTime": 60,
      "NodeList": [
        {
          "MunicipalNodeName": "NodeBreak",
          "Duration": 4,
          "NextNodes": [],
          "ActionList": [
            {
              "SlotID": 1
            }
          ]
        },
        {
          "MunicipalNodeName": "Node0",
          "Duration": 4,
          "NextNodes": [],
          "ActionList": [
            {
              "SlotID": 1,
              "TalkInfo": {
                "TalkSentenceID": 502253003
              }
            }
          ]
        }
      ]
    },
    "MunicipalChat12": {
      "CharacterSlotList": [
        {
          "GroupID": 58,
          "GroupNpcID": 400024,
          "SlotID": 1
        },
        {
          "GroupID": 58,
          "GroupNpcID": 400025,
          "SlotID": 2
        }
      ],
      "StartNodeName": "Node0",
      "RecoverMinTime": 50,
      "RecoverMaxTime": 60,
      "NodeList": [
        {
          "MunicipalNodeName": "NodeBreak",
          "Duration": 4,
          "NextNodes": [],
          "ActionList": [
            {
              "SlotID": 1
            },
            {
              "SlotID": 2
            }
          ]
        },
        {
          "MunicipalNodeName": "Node0",
          "Duration": 4,
          "NextNodes": [
            "Node1"
          ],
          "ActionList": [
            {
              "SlotID": 1,
              "TalkInfo": {
                "TalkSentenceID": 502254001
              }
            },
            {
              "SlotID": 2
            }
          ]
        },
        {
          "MunicipalNodeName": "Node1",
          "Duration": 4,
          "NextNodes": [
            "Node2"
          ],
          "ActionList": [
            {
              "SlotID": 1
            },
            {
              "SlotID": 2,
              "TalkInfo": {
                "TalkSentenceID": 502254002
              }
            }
          ]
        },
        {
          "MunicipalNodeName": "Node2",
          "Duration": 4,
          "NextNodes": [
            "Node3"
          ],
          "ActionList": [
            {
              "SlotID": 1,
              "TalkInfo": {
                "TalkSentenceID": 502254003
              }
            },
            {
              "SlotID": 2
            }
          ]
        },
        {
          "MunicipalNodeName": "Node3",
          "Duration": 4,
          "NextNodes": [],
          "ActionList": [
            {
              "SlotID": 1
            },
            {
              "SlotID": 2,
              "TalkInfo": {
                "TalkSentenceID": 502254004
              }
            }
          ]
        }
      ]
    },
    "MunicipalChat13": {
      "CharacterSlotList": [
        {
          "GroupID": 58,
          "GroupNpcID": 400026,
          "SlotID": 1
        },
        {
          "GroupID": 58,
          "GroupNpcID": 400027,
          "SlotID": 2
        }
      ],
      "StartNodeName": "Node0",
      "RecoverMinTime": 50,
      "RecoverMaxTime": 60,
      "NodeList": [
        {
          "MunicipalNodeName": "NodeBreak",
          "Duration": 4,
          "NextNodes": [],
          "ActionList": [
            {
              "SlotID": 1
            },
            {
              "SlotID": 2
            }
          ]
        },
        {
          "MunicipalNodeName": "Node0",
          "Duration": 4,
          "NextNodes": [
            "Node1"
          ],
          "ActionList": [
            {
              "SlotID": 1
            },
            {
              "SlotID": 2,
              "TalkInfo": {
                "TalkSentenceID": 502255001
              }
            }
          ]
        },
        {
          "MunicipalNodeName": "Node1",
          "Duration": 4,
          "NextNodes": [
            "Node2"
          ],
          "ActionList": [
            {
              "SlotID": 1
            },
            {
              "SlotID": 2,
              "TalkInfo": {
                "TalkSentenceID": 502255002
              }
            }
          ]
        },
        {
          "MunicipalNodeName": "Node2",
          "Duration": 4,
          "NextNodes": [
            "Node3"
          ],
          "ActionList": [
            {
              "SlotID": 1,
              "TalkInfo": {
                "TalkSentenceID": 502255003
              }
            },
            {
              "SlotID": 2
            }
          ]
        },
        {
          "MunicipalNodeName": "Node3",
          "Duration": 4,
          "NextNodes": [
            "Node4"
          ],
          "ActionList": [
            {
              "SlotID": 1
            },
            {
              "SlotID": 2,
              "TalkInfo": {
                "TalkSentenceID": 502255004
              }
            }
          ]
        },
        {
          "MunicipalNodeName": "Node4",
          "Duration": 4,
          "NextNodes": [
            "Node5"
          ],
          "ActionList": [
            {
              "SlotID": 1,
              "TalkInfo": {
                "TalkSentenceID": 502255005
              }
            },
            {
              "SlotID": 2
            }
          ]
        },
        {
          "MunicipalNodeName": "Node5",
          "Duration": 4,
          "NextNodes": [],
          "ActionList": [
            {
              "SlotID": 1,
              "TalkInfo": {
                "TalkSentenceID": 502255006
              }
            },
            {
              "SlotID": 2
            }
          ]
        }
      ]
    },
    "MunicipalChat14": {
      "CharacterSlotList": [
        {
          "GroupID": 58,
          "GroupNpcID": 400028,
          "SlotID": 1
        }
      ],
      "StartNodeName": "Node0",
      "RecoverMinTime": 50,
      "RecoverMaxTime": 60,
      "NodeList": [
        {
          "MunicipalNodeName": "NodeBreak",
          "Duration": 4,
          "NextNodes": [],
          "ActionList": [
            {
              "SlotID": 1
            }
          ]
        },
        {
          "MunicipalNodeName": "Node0",
          "Duration": 4,
          "NextNodes": [
            "Node1"
          ],
          "ActionList": [
            {
              "SlotID": 1,
              "TalkInfo": {
                "TalkSentenceID": 502255007
              }
            }
          ]
        },
        {
          "MunicipalNodeName": "Node1",
          "Duration": 4,
          "NextNodes": [
            "Node2"
          ],
          "ActionList": [
            {
              "SlotID": 1,
              "TalkInfo": {
                "TalkSentenceID": 502255008
              }
            }
          ]
        },
        {
          "MunicipalNodeName": "Node2",
          "Duration": 4,
          "NextNodes": [
            "Node3"
          ],
          "ActionList": [
            {
              "SlotID": 1,
              "TalkInfo": {
                "TalkSentenceID": 502255009
              }
            }
          ]
        },
        {
          "MunicipalNodeName": "Node3",
          "Duration": 4,
          "NextNodes": [
            "Node4"
          ],
          "ActionList": [
            {
              "SlotID": 1,
              "TalkInfo": {
                "TalkSentenceID": 502255010
              }
            }
          ]
        },
        {
          "MunicipalNodeName": "Node4",
          "Duration": 4,
          "NextNodes": [
            "Node5"
          ],
          "ActionList": [
            {
              "SlotID": 1,
              "TalkInfo": {
                "TalkSentenceID": 502255011
              }
            }
          ]
        },
        {
          "MunicipalNodeName": "Node5",
          "Duration": 4,
          "NextNodes": [
            "Node6"
          ],
          "ActionList": [
            {
              "SlotID": 1,
              "TalkInfo": {
                "TalkSentenceID": 502255012
              }
            }
          ]
        },
        {
          "MunicipalNodeName": "Node6",
          "Duration": 4,
          "NextNodes": [],
          "ActionList": [
            {
              "SlotID": 1,
              "TalkInfo": {
                "TalkSentenceID": 502255013
              }
            }
          ]
        }
      ]
    },
    "MunicipalChat15": {
      "CharacterSlotList": [
        {
          "GroupID": 58,
          "GroupNpcID": 400029,
          "SlotID": 1
        },
        {
          "GroupID": 58,
          "GroupNpcID": 400030,
          "SlotID": 2
        }
      ],
      "StartNodeName": "Node0",
      "RecoverMinTime": 50,
      "RecoverMaxTime": 60,
      "NodeList": [
        {
          "MunicipalNodeName": "NodeBreak",
          "Duration": 4,
          "NextNodes": [],
          "ActionList": [
            {
              "SlotID": 1
            },
            {
              "SlotID": 2
            }
          ]
        },
        {
          "MunicipalNodeName": "Node0",
          "Duration": 4,
          "NextNodes": [
            "Node1"
          ],
          "ActionList": [
            {
              "SlotID": 1,
              "TalkInfo": {
                "TalkSentenceID": 502255014
              }
            },
            {
              "SlotID": 2
            }
          ]
        },
        {
          "MunicipalNodeName": "Node1",
          "Duration": 4,
          "NextNodes": [
            "Node2"
          ],
          "ActionList": [
            {
              "SlotID": 1,
              "TalkInfo": {
                "TalkSentenceID": 502255015
              }
            },
            {
              "SlotID": 2
            }
          ]
        },
        {
          "MunicipalNodeName": "Node2",
          "Duration": 4,
          "NextNodes": [
            "Node3"
          ],
          "ActionList": [
            {
              "SlotID": 1
            },
            {
              "SlotID": 2,
              "TalkInfo": {
                "TalkSentenceID": 502255016
              }
            }
          ]
        },
        {
          "MunicipalNodeName": "Node3",
          "Duration": 4,
          "NextNodes": [
            "Node4"
          ],
          "ActionList": [
            {
              "SlotID": 1,
              "TalkInfo": {
                "TalkSentenceID": 502255017
              }
            },
            {
              "SlotID": 2
            }
          ]
        },
        {
          "MunicipalNodeName": "Node4",
          "Duration": 4,
          "NextNodes": [],
          "ActionList": [
            {
              "SlotID": 1,
              "TalkInfo": {
                "TalkSentenceID": 502255018
              }
            },
            {
              "SlotID": 2
            }
          ]
        }
      ]
    },
    "MunicipalChat16": {
      "CharacterSlotList": [
        {
          "GroupID": 68,
          "GroupNpcID": 400001,
          "SlotID": 1
        },
        {
          "GroupID": 68,
          "GroupNpcID": 400002,
          "SlotID": 2
        }
      ],
      "StartNodeName": "Node0",
      "RecoverMinTime": 50,
      "RecoverMaxTime": 60,
      "NodeList": [
        {
          "MunicipalNodeName": "NodeBreak",
          "NextNodes": [],
          "ActionList": [
            {
              "SlotID": 1
            },
            {
              "SlotID": 2
            }
          ]
        },
        {
          "MunicipalNodeName": "Node0",
          "Duration": 4,
          "NextNodes": [
            "Node1"
          ],
          "ActionList": [
            {
              "SlotID": 1,
              "TalkInfo": {
                "TalkSentenceID": 502250009
              }
            },
            {
              "SlotID": 2
            }
          ]
        },
        {
          "MunicipalNodeName": "Node1",
          "Duration": 4,
          "NextNodes": [
            "Node2"
          ],
          "ActionList": [
            {
              "SlotID": 1,
              "TalkInfo": {
                "TalkSentenceID": 502250010
              }
            },
            {
              "SlotID": 2
            }
          ]
        },
        {
          "MunicipalNodeName": "Node2",
          "Duration": 4,
          "NextNodes": [
            "Node3"
          ],
          "ActionList": [
            {
              "SlotID": 1
            },
            {
              "SlotID": 2,
              "TalkInfo": {
                "TalkSentenceID": 502250011
              }
            }
          ]
        },
        {
          "MunicipalNodeName": "Node3",
          "Duration": 4,
          "NextNodes": [
            "Node4"
          ],
          "ActionList": [
            {
              "SlotID": 1,
              "TalkInfo": {
                "TalkSentenceID": 502250012
              }
            },
            {
              "SlotID": 2
            }
          ]
        },
        {
          "MunicipalNodeName": "Node4",
          "Duration": 4,
          "NextNodes": [
            "Node5"
          ],
          "ActionList": [
            {
              "SlotID": 1
            },
            {
              "SlotID": 2,
              "TalkInfo": {
                "TalkSentenceID": 502250013
              }
            }
          ]
        },
        {
          "MunicipalNodeName": "Node5",
          "Duration": 4,
          "NextNodes": [],
          "ActionList": [
            {
              "SlotID": 1,
              "TalkInfo": {
                "TalkSentenceID": 502250014
              }
            },
            {
              "SlotID": 2
            }
          ]
        }
      ]
    },
    "MunicipalChat17": {
      "CharacterSlotList": [
        {
          "GroupID": 68,
          "GroupNpcID": 400004,
          "SlotID": 1
        },
        {
          "GroupID": 68,
          "GroupNpcID": 400003,
          "SlotID": 2
        }
      ],
      "StartNodeName": "Node0",
      "RecoverMinTime": 50,
      "RecoverMaxTime": 60,
      "NodeList": [
        {
          "MunicipalNodeName": "NodeBreak",
          "NextNodes": [],
          "ActionList": [
            {
              "SlotID": 1
            },
            {
              "SlotID": 2
            }
          ]
        },
        {
          "MunicipalNodeName": "Node0",
          "Duration": 4,
          "NextNodes": [
            "Node1"
          ],
          "ActionList": [
            {
              "SlotID": 1,
              "TalkInfo": {
                "TalkSentenceID": 502252011,
                "BubbleDuration": 4
              }
            },
            {
              "SlotID": 2
            }
          ]
        },
        {
          "MunicipalNodeName": "Node1",
          "Duration": 4,
          "NextNodes": [
            "Node2"
          ],
          "ActionList": [
            {
              "SlotID": 1
            },
            {
              "SlotID": 2,
              "TalkInfo": {
                "TalkSentenceID": 502252012,
                "BubbleDuration": 4
              }
            }
          ]
        },
        {
          "MunicipalNodeName": "Node2",
          "Duration": 4,
          "NextNodes": [],
          "ActionList": [
            {
              "SlotID": 1,
              "TalkInfo": {
                "TalkSentenceID": 502252013
              }
            },
            {
              "SlotID": 2
            }
          ]
        }
      ]
    },
    "MunicipalChat18": {
      "CharacterSlotList": [
        {
          "GroupID": 68,
          "GroupNpcID": 400005,
          "SlotID": 1
        }
      ],
      "StartNodeName": "Node0",
      "RecoverMinTime": 50,
      "RecoverMaxTime": 60,
      "NodeList": [
        {
          "MunicipalNodeName": "NodeBreak",
          "NextNodes": [],
          "ActionList": [
            {
              "SlotID": 1
            }
          ]
        },
        {
          "MunicipalNodeName": "Node0",
          "Duration": 4,
          "NextNodes": [
            "Node1"
          ],
          "ActionList": [
            {
              "SlotID": 1,
              "TalkInfo": {
                "TalkSentenceID": 502253008,
                "BubbleDuration": 4
              }
            }
          ]
        },
        {
          "MunicipalNodeName": "Node1",
          "Duration": 4,
          "NextNodes": [
            "Node2"
          ],
          "ActionList": [
            {
              "SlotID": 1,
              "TalkInfo": {
                "TalkSentenceID": 502253009
              }
            }
          ]
        },
        {
          "MunicipalNodeName": "Node2",
          "Duration": 4,
          "NextNodes": [
            "Node3"
          ],
          "ActionList": [
            {
              "SlotID": 1,
              "TalkInfo": {
                "TalkSentenceID": 502253010
              }
            }
          ]
        },
        {
          "MunicipalNodeName": "Node3",
          "Duration": 4,
          "NextNodes": [],
          "ActionList": [
            {
              "SlotID": 1,
              "TalkInfo": {
                "TalkSentenceID": 502253011
              }
            }
          ]
        }
      ]
    },
    "MunicipalChat19": {
      "CharacterSlotList": [
        {
          "GroupID": 68,
          "GroupNpcID": 400006,
          "SlotID": 1
        },
        {
          "GroupID": 68,
          "GroupNpcID": 400007,
          "SlotID": 2
        }
      ],
      "StartNodeName": "Node0",
      "RecoverMinTime": 50,
      "RecoverMaxTime": 60,
      "NodeList": [
        {
          "MunicipalNodeName": "NodeBreak",
          "NextNodes": [],
          "ActionList": [
            {
              "SlotID": 1
            },
            {
              "SlotID": 2
            }
          ]
        },
        {
          "MunicipalNodeName": "Node0",
          "Duration": 4,
          "NextNodes": [
            "Node1"
          ],
          "ActionList": [
            {
              "SlotID": 1
            },
            {
              "SlotID": 2,
              "TalkInfo": {
                "TalkSentenceID": 502254008
              }
            }
          ]
        },
        {
          "MunicipalNodeName": "Node1",
          "Duration": 4,
          "NextNodes": [
            "Node2"
          ],
          "ActionList": [
            {
              "SlotID": 1,
              "TalkInfo": {
                "TalkSentenceID": 502254009
              }
            },
            {
              "SlotID": 2
            }
          ]
        },
        {
          "MunicipalNodeName": "Node2",
          "Duration": 4,
          "NextNodes": [
            "Node3"
          ],
          "ActionList": [
            {
              "SlotID": 1
            },
            {
              "SlotID": 2,
              "TalkInfo": {
                "TalkSentenceID": 502254010
              }
            }
          ]
        },
        {
          "MunicipalNodeName": "Node3",
          "Duration": 4,
          "NextNodes": [],
          "ActionList": [
            {
              "SlotID": 1,
              "TalkInfo": {
                "TalkSentenceID": 502254011
              }
            },
            {
              "SlotID": 2
            }
          ]
        }
      ]
    },
    "MunicipalChat20": {
      "CharacterSlotList": [
        {
          "GroupID": 68,
          "GroupNpcID": 400009,
          "SlotID": 1
        }
      ],
      "StartNodeName": "Node0",
      "RecoverMinTime": 50,
      "RecoverMaxTime": 60,
      "NodeList": [
        {
          "MunicipalNodeName": "NodeBreak",
          "NextNodes": [],
          "ActionList": [
            {
              "SlotID": 1
            }
          ]
        },
        {
          "MunicipalNodeName": "Node0",
          "Duration": 4,
          "NextNodes": [
            "Node1"
          ],
          "ActionList": [
            {
              "SlotID": 1,
              "TalkInfo": {
                "TalkSentenceID": 502255019,
                "BubbleDuration": 4
              }
            }
          ]
        },
        {
          "MunicipalNodeName": "Node1",
          "Duration": 4,
          "NextNodes": [
            "Node2"
          ],
          "ActionList": [
            {
              "SlotID": 1,
              "TalkInfo": {
                "TalkSentenceID": 502255020
              }
            }
          ]
        },
        {
          "MunicipalNodeName": "Node2",
          "Duration": 4,
          "NextNodes": [],
          "ActionList": [
            {
              "SlotID": 1,
              "TalkInfo": {
                "TalkSentenceID": 502255021
              }
            }
          ]
        }
      ]
    },
    "MunicipalChat21": {
      "CharacterSlotList": [
        {
          "GroupID": 69,
          "GroupNpcID": 400002,
          "SlotID": 1
        },
        {
          "GroupID": 69,
          "GroupNpcID": 400001,
          "SlotID": 2
        }
      ],
      "StartNodeName": "Node0",
      "RecoverMinTime": 50,
      "RecoverMaxTime": 60,
      "NodeList": [
        {
          "MunicipalNodeName": "NodeBreak",
          "NextNodes": [],
          "ActionList": [
            {
              "SlotID": 1
            },
            {
              "SlotID": 2
            }
          ]
        },
        {
          "MunicipalNodeName": "Node0",
          "Duration": 4,
          "NextNodes": [
            "Node1"
          ],
          "ActionList": [
            {
              "SlotID": 1,
              "TalkInfo": {
                "TalkSentenceID": 502250015
              }
            },
            {
              "SlotID": 2
            }
          ]
        },
        {
          "MunicipalNodeName": "Node1",
          "Duration": 4,
          "NextNodes": [
            "Node2"
          ],
          "ActionList": [
            {
              "SlotID": 1,
              "TalkInfo": {
                "TalkSentenceID": 502250016
              }
            },
            {
              "SlotID": 2
            }
          ]
        },
        {
          "MunicipalNodeName": "Node2",
          "Duration": 4,
          "NextNodes": [],
          "ActionList": [
            {
              "SlotID": 1
            },
            {
              "SlotID": 2,
              "TalkInfo": {
                "TalkSentenceID": 502250017
              }
            }
          ]
        }
      ]
    },
    "MunicipalChat22": {
      "CharacterSlotList": [
        {
          "GroupID": 69,
          "GroupNpcID": 400001,
          "SlotID": 1
        },
        {
          "GroupID": 69,
          "GroupNpcID": 400003,
          "SlotID": 2
        }
      ],
      "StartNodeName": "Node0",
      "RecoverMinTime": 50,
      "RecoverMaxTime": 60,
      "NodeList": [
        {
          "MunicipalNodeName": "NodeBreak",
          "NextNodes": [],
          "ActionList": [
            {
              "SlotID": 1
            },
            {
              "SlotID": 2
            }
          ]
        },
        {
          "MunicipalNodeName": "Node0",
          "Duration": 4,
          "NextNodes": [
            "Node1"
          ],
          "ActionList": [
            {
              "SlotID": 1,
              "TalkInfo": {
                "TalkSentenceID": 502252014,
                "BubbleDuration": 4
              }
            },
            {
              "SlotID": 2
            }
          ]
        },
        {
          "MunicipalNodeName": "Node1",
          "Duration": 4,
          "NextNodes": [
            "Node2"
          ],
          "ActionList": [
            {
              "SlotID": 1,
              "TalkInfo": {
                "TalkSentenceID": 502252015
              }
            },
            {
              "SlotID": 2
            }
          ]
        },
        {
          "MunicipalNodeName": "Node2",
          "Duration": 4,
          "NextNodes": [
            "Node3"
          ],
          "ActionList": [
            {
              "SlotID": 1
            },
            {
              "SlotID": 2,
              "TalkInfo": {
                "TalkSentenceID": 502252016
              }
            }
          ]
        },
        {
          "MunicipalNodeName": "Node3",
          "Duration": 4,
          "NextNodes": [
            "Node4"
          ],
          "ActionList": [
            {
              "SlotID": 1,
              "TalkInfo": {
                "TalkSentenceID": 502252017
              }
            },
            {
              "SlotID": 2
            }
          ]
        },
        {
          "MunicipalNodeName": "Node4",
          "Duration": 4,
          "NextNodes": [],
          "ActionList": [
            {
              "SlotID": 1,
              "TalkInfo": {
                "TalkSentenceID": 502252018
              }
            },
            {
              "SlotID": 2
            }
          ]
        }
      ]
    },
    "MunicipalChat23": {
      "CharacterSlotList": [
        {
          "GroupID": 69,
          "GroupNpcID": 400005,
          "SlotID": 1
        },
        {
          "GroupID": 69,
          "GroupNpcID": 400001,
          "SlotID": 2
        }
      ],
      "StartNodeName": "Node0",
      "NodeList": [
        {
          "MunicipalNodeName": "NodeBreak",
          "NextNodes": [],
          "ActionList": [
            {
              "SlotID": 1
            },
            {
              "SlotID": 2
            }
          ]
        },
        {
          "MunicipalNodeName": "Node0",
          "Duration": 4,
          "NextNodes": [
            "Node1"
          ],
          "ActionList": [
            {
              "SlotID": 1,
              "TalkInfo": {
                "TalkSentenceID": 502253012,
                "BubbleDuration": 4
              }
            },
            {
              "SlotID": 2
            }
          ]
        },
        {
          "MunicipalNodeName": "Node1",
          "Duration": 4,
          "NextNodes": [
            "Node2"
          ],
          "ActionList": [
            {
              "SlotID": 1,
              "TalkInfo": {
                "TalkSentenceID": 502253013,
                "BubbleDuration": 4
              }
            },
            {
              "SlotID": 2
            }
          ]
        },
        {
          "MunicipalNodeName": "Node2",
          "Duration": 4,
          "NextNodes": [
            "Node3"
          ],
          "ActionList": [
            {
              "SlotID": 1
            },
            {
              "SlotID": 2,
              "TalkInfo": {
                "TalkSentenceID": 502253014,
                "BubbleDuration": 4
              }
            }
          ]
        },
        {
          "MunicipalNodeName": "Node3",
          "Duration": 4,
          "NextNodes": [
            "Node4"
          ],
          "ActionList": [
            {
              "SlotID": 1,
              "TalkInfo": {
                "TalkSentenceID": 502253015
              }
            },
            {
              "SlotID": 2
            }
          ]
        },
        {
          "MunicipalNodeName": "Node4",
          "Duration": 4,
          "NextNodes": [
            "Node5"
          ],
          "ActionList": [
            {
              "SlotID": 1,
              "TalkInfo": {
                "TalkSentenceID": 502253016
              }
            },
            {
              "SlotID": 2
            }
          ]
        },
        {
          "MunicipalNodeName": "Node5",
          "Duration": 4,
          "NextNodes": [
            "Node6"
          ],
          "ActionList": [
            {
              "SlotID": 1
            },
            {
              "SlotID": 2,
              "TalkInfo": {
                "TalkSentenceID": 502253017
              }
            }
          ]
        },
        {
          "MunicipalNodeName": "Node6",
          "Duration": 4,
          "NextNodes": [],
          "ActionList": [
            {
              "SlotID": 1,
              "TalkInfo": {
                "TalkSentenceID": 502253018
              }
            },
            {
              "SlotID": 2
            }
          ]
        }
      ]
    },
    "MunicipalChat24": {
      "CharacterSlotList": [
        {
          "GroupID": 69,
          "GroupNpcID": 400003,
          "SlotID": 1
        },
        {
          "GroupID": 69,
          "GroupNpcID": 400004,
          "SlotID": 2
        }
      ],
      "StartNodeName": "Node0",
      "RecoverMinTime": 50,
      "RecoverMaxTime": 60,
      "NodeList": [
        {
          "MunicipalNodeName": "NodeBreak",
          "NextNodes": [],
          "ActionList": [
            {
              "SlotID": 1
            },
            {
              "SlotID": 2
            }
          ]
        },
        {
          "MunicipalNodeName": "Node0",
          "Duration": 4,
          "NextNodes": [
            "Node1"
          ],
          "ActionList": [
            {
              "SlotID": 1,
              "TalkInfo": {
                "TalkSentenceID": 502255022,
                "BubbleDuration": 4
              }
            },
            {
              "SlotID": 2
            }
          ]
        },
        {
          "MunicipalNodeName": "Node1",
          "Duration": 4,
          "NextNodes": [
            "Node2"
          ],
          "ActionList": [
            {
              "SlotID": 1
            },
            {
              "SlotID": 2,
              "TalkInfo": {
                "TalkSentenceID": 502255023,
                "BubbleDuration": 4
              }
            }
          ]
        },
        {
          "MunicipalNodeName": "Node2",
          "Duration": 4,
          "NextNodes": [
            "Node3"
          ],
          "ActionList": [
            {
              "SlotID": 1,
              "TalkInfo": {
                "TalkSentenceID": 502255024
              }
            },
            {
              "SlotID": 2
            }
          ]
        },
        {
          "MunicipalNodeName": "Node3",
          "Duration": 4,
          "NextNodes": [
            "Node4"
          ],
          "ActionList": [
            {
              "SlotID": 1
            },
            {
              "SlotID": 2,
              "TalkInfo": {
                "TalkSentenceID": 502255025
              }
            }
          ]
        },
        {
          "MunicipalNodeName": "Node4",
          "Duration": 4,
          "NextNodes": [],
          "ActionList": [
            {
              "SlotID": 1,
              "TalkInfo": {
                "TalkSentenceID": 502255026
              }
            },
            {
              "SlotID": 2
            }
          ]
        }
      ]
    },
    "MunicipalChat25": {
      "CharacterSlotList": [
        {
          "GroupID": 143,
          "GroupNpcID": 400001,
          "SlotID": 1
        }
      ],
      "StartNodeName": "Node0",
      "RecoverMinTime": 2,
      "RecoverMaxTime": 5,
      "NodeList": [
        {
          "MunicipalNodeName": "NodeBreak",
          "NextNodes": [],
          "ActionList": [
            {
              "SlotID": 1
            }
          ]
        },
        {
          "MunicipalNodeName": "Node0",
          "Duration": 6,
          "NextNodes": [],
          "ActionList": [
            {
              "SlotID": 1,
              "TalkInfo": {
                "TalkSentenceID": 407020120
              }
            }
          ]
        }
      ]
    },
    "MunicipalChat26": {
      "CharacterSlotList": [
        {
          "GroupID": 56,
          "GroupNpcID": 400001,
          "SlotID": 1
        }
      ],
      "StartNodeName": "Node0",
      "RecoverMinTime": 2,
      "RecoverMaxTime": 3,
      "NodeList": [
        {
          "MunicipalNodeName": "NodeBreak",
          "NextNodes": [],
          "ActionList": [
            {
              "SlotID": 1
            }
          ]
        },
        {
          "MunicipalNodeName": "Node0",
          "Duration": 5,
          "NextNodes": [],
          "ActionList": [
            {
              "SlotID": 1,
              "TalkInfo": {
                "TalkSentenceID": 407020116,
                "BubbleDuration": 3
              }
            }
          ]
        }
      ]
    },
    "MunicipalChat27": {
      "CharacterSlotList": [
        {
          "GroupID": 64,
          "GroupNpcID": 400001,
          "SlotID": 1
        }
      ],
      "StartNodeName": "Node0",
      "RecoverMinTime": 2,
      "RecoverMaxTime": 3,
      "NodeList": [
        {
          "MunicipalNodeName": "NodeBreak",
          "NextNodes": [],
          "ActionList": [
            {
              "SlotID": 1
            }
          ]
        },
        {
          "MunicipalNodeName": "Node0",
          "Duration": 5,
          "NextNodes": [],
          "ActionList": [
            {
              "SlotID": 1,
              "TalkInfo": {
                "TalkSentenceID": 407020116
              }
            }
          ]
        }
      ]
    },
    "MunicipalChat28": {
      "CharacterSlotList": [
        {
          "GroupID": 105,
          "GroupNpcID": 400001,
          "SlotID": 1
        }
      ],
      "StartNodeName": "Node0",
      "RecoverMinTime": 60,
      "RecoverMaxTime": 90,
      "NodeList": [
        {
          "MunicipalNodeName": "NodeBreak",
          "NextNodes": [],
          "ActionList": [
            {
              "SlotID": 1
            }
          ]
        },
        {
          "MunicipalNodeName": "Node0",
          "Duration": 4,
          "NextNodes": [],
          "ActionList": [
            {
              "SlotID": 1,
              "TalkInfo": {
                "TalkSentenceID": 800320101
              }
            }
          ]
        }
      ]
    }
  }
}