{
  "OnInitSequece": [],
  "OnStartSequece": [
    {
      "TaskList": [
        {
          "$type": "RPG.GameCore.WaitUIControllerClose",
          "UIControllerName": "TreasureDungeonResultDialog"
        },
        {
          "$type": "RPG.GameCore.ClosePage",
          "PageNames": [
            "TreasureDungeonEntrancePage"
          ],
          "PageRootNames": []
        },
        {
          "$type": "RPG.GameCore.WaitSecond",
          "WaitTime": 0.5,
          "TaskEnabled": false
        },
        {
          "$type": "RPG.GameCore.TriggerPerformance",
          "ValueSource": {},
          "PerformanceType": "E",
          "PerformanceID": 801210202
        },
        {
          "$type": "RPG.GameCore.TriggerCustomString",
          "CustomString": {
            "Value": "OpenUI_TreasureDungeon_Mission"
          }
        },
        {
          "$type": "RPG.GameCore.FinishPerformanceMission",
          "Key": "Mission_801210202"
        }
      ]
    }
  ]
}