{
  "OnInitSequece": [],
  "OnStartSequece": [
    {
      "Order": 1,
      "TaskList": [
        {
          "$type": "RPG.GameCore.SyncSubPropState",
          "TaskEnabled": true
        },
        {
          "$type": "RPG.GameCore.SyncSubPropState",
          "TaskEnabled": true
        }
      ]
    },
    {
      "TaskList": [
        {
          "$type": "RPG.GameCore.SyncAllSubPropState",
          "TaskEnabled": true
        }
      ]
    },
    {
      "TaskList": [
        {
          "$type": "RPG.GameCore.WaitSecond",
          "WaitTime": 1
        },
        {
          "$type": "RPG.GameCore.PropStateExecute",
          "TargetType": {
            "$type": "RPG.GameCore.TargetFetchAdvPropEx"
          },
          "State": "Open",
          "Execute": [
            {
              "$type": "RPG.GameCore.PropEnableCollider",
              "TargetType": {
                "$type": "RPG.GameCore.TargetFetchAdvPropEx"
              }
            }
          ]
        }
      ]
    },
    {
      "TaskList": [
        {
          "$type": "RPG.GameCore.PropSetupUITrigger",
          "ButtonText": {
            "Hash": 278713937
          },
          "ButtonCallback": [
            {
              "$type": "RPG.GameCore.TutorialTaskUnlock",
              "TriggerParam": {
                "Value": "6001"
              }
            },
            {
              "$type": "RPG.GameCore.PropStartPuzzle"
            },
            {
              "$type": "RPG.GameCore.PropStateExecute",
              "TargetType": {
                "$type": "RPG.GameCore.TargetFetchAdvPropEx"
              },
              "Execute": [
                {
                  "$type": "RPG.GameCore.TakenMazePuzzleChallenge",
                  "TargetType": {
                    "$type": "RPG.GameCore.TargetFetchAdvPropEx"
                  },
                  "MazePuzzleChallengeID": {
                    "Value": "1009"
                  },
                  "AutoClosePuzzle": false,
                  "AutoResetPuzzle": false
                }
              ]
            }
          ],
          "TargetType": {
            "$type": "RPG.GameCore.TargetFetchAdvPropEx"
          }
        }
      ]
    },
    {
      "TaskList": [
        {
          "$type": "RPG.GameCore.WaitSecond",
          "WaitTime": 1
        },
        {
          "$type": "RPG.GameCore.PropStateExecute",
          "TargetType": {
            "$type": "RPG.GameCore.TargetFetchAdvPropEx"
          },
          "Execute": [
            {
              "$type": "RPG.GameCore.PropInitPuzzle",
              "BoardPath": {
                "Custom": true,
                "Key": "PadsPuzzlePath"
              },
              "LocalPosition": {
                "X": 0,
                "Y": 0,
                "Z": 0
              },
              "LOD": true
            }
          ]
        }
      ]
    },
    {
      "TaskList": [
        {
          "$type": "RPG.GameCore.PropPuzzleEventListener",
          "FinishCallback": [
            {
              "$type": "RPG.GameCore.PropPuzzleCustomEventSender",
              "Event": "PadsPuzzleFinishPads"
            },
            {
              "$type": "RPG.GameCore.PropEnableCollider",
              "TargetType": {
                "$type": "RPG.GameCore.TargetFetchAdvPropEx"
              }
            },
            {
              "$type": "RPG.GameCore.PropReqInteract",
              "TargetType": {
                "$type": "RPG.GameCore.TargetFetchAdvPropEx",
                "FetchType": "SinglePropByPropKey",
                "SinglePropKey": {
                  "Custom": true,
                  "Key": "Bridge"
                }
              },
              "InteractID": {
                "IsDynamic": false,
                "FixedValue": {
                  "Value": 1010
                }
              }
            },
            {
              "$type": "RPG.GameCore.ToastPage",
              "MessageOne": {
                "Hash": 362442128
              },
              "MessageTwo": {
                "Hash": -193644920
              }
            },
            {
              "$type": "RPG.GameCore.PropClosePuzzle"
            },
            {
              "$type": "RPG.GameCore.FinishMazePuzzleChallenge",
              "MazePuzzleChallengeID": {
                "Value": "1009"
              }
            }
          ],
          "ResetCallback": [
            {
              "$type": "RPG.GameCore.LockPlayerControl"
            },
            {
              "$type": "RPG.GameCore.WaitSecond",
              "WaitTime": 1
            },
            {
              "$type": "RPG.GameCore.PlayScreenTransfer",
              "Type": "None",
              "Mode": "SwitchOut",
              "CustomTime": 0.5
            },
            {
              "$type": "RPG.GameCore.PropPuzzleCustomEventSender",
              "Event": "PadsPuzzleResetPads"
            },
            {
              "$type": "RPG.GameCore.PropPuzzleCustomEventSender",
              "Event": "PadsPuzzleResetTeleportBlend"
            },
            {
              "$type": "RPG.GameCore.PropStateExecute",
              "TargetType": {
                "$type": "RPG.GameCore.TargetFetchAdvPropEx"
              },
              "Execute": [
                {
                  "$type": "RPG.GameCore.CancelMazePuzzleChallenge",
                  "MazePuzzleChallengeID": {
                    "Value": "1009"
                  }
                },
                {
                  "$type": "RPG.GameCore.PlayScreenTransfer",
                  "Type": "None",
                  "CustomTime": 0.5
                },
                {
                  "$type": "RPG.GameCore.UnLockPlayerControl"
                }
              ]
            }
          ],
          "QuitCallback": [
            {
              "$type": "RPG.GameCore.PropPuzzleCustomEventSender",
              "Event": "PadsPuzzleResetPads"
            }
          ]
        }
      ]
    },
    {
      "TaskList": [
        {
          "$type": "RPG.GameCore.PropPuzzleCustomEventListener",
          "Event": "PadsPuzzleTeleport",
          "Callback": [
            {
              "$type": "RPG.GameCore.PropPuzzleCustomEventSender",
              "Event": "PadsPuzzleTeleport"
            }
          ]
        }
      ]
    }
  ],
  "ValueSource": {
    "Values": [
      {
        "$type": "RPG.GameCore.SharedString",
        "Key": "PadsPuzzlePath"
      },
      {
        "$type": "RPG.GameCore.SharedString",
        "Key": "Bridge"
      }
    ]
  }
}