{
  "OnInitSequece": [],
  "OnStartSequece": [
    {
      "TaskList": [
        {
          "$type": "RPG.GameCore.SetSimulationSpeedEnable"
        },
        {
          "$type": "RPG.GameCore.CreateLevelAreas",
          "AssetPath": {
            "Value": "Level/Mission/2011701/BattlePerform_LevelArea_2011701_4.prefab"
          }
        },
        {
          "$type": "RPG.GameCore.SetTeamFormation",
          "Team": "TeamLight",
          "CustomFormationName": "Stage_40123003_Light",
          "UseLevelAreaRoot": true
        },
        {
          "$type": "RPG.GameCore.PredicateTaskList",
          "Predicate": {
            "$type": "RPG.GameCore.ByTargetListIntersects",
            "FirstTargetType": {
              "$type": "RPG.GameCore.TargetAlias",
              "Alias": "AllDarkTeam"
            },
            "SecondTargetType": {
              "$type": "RPG.GameCore.TargetFetchMonsterByID",
              "MonsterID": 1012040
            }
          },
          "SuccessTaskList": [
            {
              "$type": "RPG.GameCore.SetTeamFormation",
              "Team": "TeamDark",
              "CustomFormationName": "Stage_40123003",
              "CustomCenterTargetType": {
                "$type": "RPG.GameCore.TargetAlias",
                "Alias": "DarkTeamCenter"
              }
            }
          ],
          "FailedTaskList": [
            {
              "$type": "RPG.GameCore.SetTeamFormation",
              "Team": "TeamDark",
              "CustomFormationName": "Stage_40123003_2",
              "CustomCenterTargetType": {
                "$type": "RPG.GameCore.TargetAlias",
                "Alias": "DarkTeamCenter"
              }
            }
          ]
        },
        {
          "$type": "RPG.GameCore.TriggerAnimState",
          "TargetType": {
            "$type": "RPG.GameCore.TargetFetchAvatarByID",
            "AvatarID": 1111
          },
          "AnimStateName": "Stun_Loop",
          "NormalizedTimeEnd": {
            "IsDynamic": false,
            "FixedValue": {
              "Value": 1
            }
          },
          "NormalizedTimeWait": {
            "IsDynamic": false,
            "FixedValue": {
              "Value": 0
            }
          },
          "ForceStart": true,
          "WaitAnimState": false
        },
        {
          "$type": "RPG.GameCore.ActiveVirtualCamera",
          "AreaName": "BattlePerform_LevelArea_2011701_4",
          "AnchorName": "Cam2",
          "BlendConfig": {
            "ExportToJson": true,
            "BlendType": "Cut",
            "BlendTime": 0.5
          },
          "DynamicParams": {}
        },
        {
          "$type": "RPG.GameCore.VCameraConfigChange",
          "CameraConfig": {
            "OverrideShakeConfigV2": {},
            "ShowEntityConfig": {
              "ExportToJson": true,
              "ShowTargetType": {
                "$type": "RPG.GameCore.TargetAlias",
                "Alias": "AllLightTeamWithAllDarkTeam"
              }
            },
            "NoiseConfig": {}
          }
        },
        {
          "$type": "RPG.GameCore.WaitSecond",
          "WaitTime": 0.2
        },
        {
          "$type": "RPG.GameCore.ActiveVirtualCamera",
          "AreaName": "BattlePerform_LevelArea_2011701_4",
          "AnchorName": "Cam4",
          "BlendConfig": {
            "ExportToJson": true,
            "BlendType": "Linear",
            "BlendTime": 0.5
          },
          "DynamicParams": {}
        },
        {
          "$type": "RPG.GameCore.WaitSecond",
          "WaitTime": 0.1
        },
        {
          "$type": "RPG.GameCore.ActiveVirtualCamera",
          "AreaName": "BattlePerform_LevelArea_2011701_4",
          "AnchorName": "Cam6",
          "BlendConfig": {
            "ExportToJson": true,
            "BlendType": "Linear",
            "BlendTime": 8
          },
          "DynamicParams": {}
        },
        {
          "$type": "RPG.GameCore.BattlePlayTalk",
          "TalkList": [
            {
              "AutoSkipTime": 2.5,
              "TalkSentenceID": 217019945
            }
          ]
        },
        {
          "$type": "RPG.GameCore.BattlePlayTalk",
          "TalkList": [
            {
              "AutoSkipTime": 2.5,
              "TalkSentenceID": 217019946
            }
          ]
        },
        {
          "$type": "RPG.GameCore.WaitSecond",
          "WaitTime": 0.3
        },
        {
          "$type": "RPG.GameCore.ActiveVirtualCamera",
          "AreaName": "BattlePerform_LevelArea_2011701_4",
          "AnchorName": "Cam1",
          "BlendConfig": {
            "ExportToJson": true,
            "BlendType": "Cut",
            "BlendTime": 0.5
          },
          "DynamicParams": {}
        },
        {
          "$type": "RPG.GameCore.WaitSecond",
          "WaitTime": 0.2
        },
        {
          "$type": "RPG.GameCore.ActiveVirtualCamera",
          "AreaName": "BattlePerform_LevelArea_2011701_4",
          "AnchorName": "Cam3",
          "BlendConfig": {
            "ExportToJson": true,
            "BlendType": "Linear",
            "BlendTime": 0.5
          },
          "DynamicParams": {}
        },
        {
          "$type": "RPG.GameCore.WaitSecond",
          "WaitTime": 0.1
        },
        {
          "$type": "RPG.GameCore.ActiveVirtualCamera",
          "AreaName": "BattlePerform_LevelArea_2011701_4",
          "AnchorName": "Cam5",
          "BlendConfig": {
            "ExportToJson": true,
            "BlendType": "EaseInOut",
            "BlendTime": 8
          },
          "DynamicParams": {}
        },
        {
          "$type": "RPG.GameCore.BattlePlayTalk",
          "TalkList": [
            {
              "AutoSkipTime": 2.5,
              "TalkSentenceID": 217019947
            }
          ]
        },
        {
          "$type": "RPG.GameCore.WaitSecond",
          "WaitTime": 0.3
        },
        {
          "$type": "RPG.GameCore.BattlePlayTalk",
          "TalkList": [
            {
              "AutoSkipTime": 2.5,
              "TalkSentenceID": 217019948
            }
          ]
        },
        {
          "$type": "RPG.GameCore.WaitSecond",
          "WaitTime": 0.3
        },
        {
          "$type": "RPG.GameCore.RemoveLevelAreas",
          "AreaName": {
            "Value": "BattlePerform_LevelArea_2011701_4"
          }
        },
        {
          "$type": "RPG.GameCore.SetSimulationSpeedEnable",
          "Enable": true
        },
        {
          "$type": "RPG.GameCore.LockBattleOperation",
          "IsLock": false,
          "OperationWhiteList": []
        },
        {
          "$type": "RPG.GameCore.FinishLevelGraph"
        }
      ]
    }
  ]
}