{
  "OnInitSequece": [
    {
      "TaskList": [
        {
          "$type": "RPG.GameCore.PropStateExecute",
          "TargetType": {
            "$type": "RPG.GameCore.TargetFetchAdvPropEx",
            "FetchType": "SinglePropByPropID",
            "SinglePropID": {
              "GroupID": {
                "IsDynamic": true,
                "PostfixExpr": {
                  "OpCodes": "AQAK",
                  "FixedValues": [],
                  "DynamicHashes": [
                    -1775083652
                  ]
                }
              },
              "ID": {
                "IsDynamic": true,
                "PostfixExpr": {
                  "OpCodes": "AQAK",
                  "FixedValues": [],
                  "DynamicHashes": [
                    -696914899
                  ]
                }
              }
            }
          },
          "State": "ChestClosed",
          "Execute": [
            {
              "$type": "RPG.GameCore.ShowWaypointByProp",
              "GroupID": {
                "IsDynamic": true,
                "PostfixExpr": {
                  "OpCodes": "AQAK",
                  "FixedValues": [],
                  "DynamicHashes": [
                    -1775083652
                  ]
                }
              },
              "InstanceID": {
                "IsDynamic": true,
                "PostfixExpr": {
                  "OpCodes": "AQAK",
                  "FixedValues": [],
                  "DynamicHashes": [
                    -696914899
                  ]
                }
              },
              "MaxRange": 20,
              "IconPath": "SpriteOutput/MapPics/Billboard/IconBillboardBox.png",
              "Offset": {
                "X": 0,
                "Y": 1.6,
                "Z": 0
              }
            }
          ]
        }
      ]
    }
  ],
  "OnStartSequece": [
    {
      "TaskList": [
        {
          "$type": "RPG.GameCore.PropStateChangeListenerConfig",
          "FromState": "ChestClosed",
          "ToState": "ChestUsed",
          "OnChange": [
            {
              "$type": "RPG.GameCore.HideWaypointByProp",
              "GroupID": {
                "IsDynamic": true,
                "PostfixExpr": {
                  "OpCodes": "AQAK",
                  "FixedValues": [],
                  "DynamicHashes": [
                    -1775083652
                  ]
                }
              },
              "InstanceID": {
                "IsDynamic": true,
                "PostfixExpr": {
                  "OpCodes": "AQAK",
                  "FixedValues": [],
                  "DynamicHashes": [
                    -696914899
                  ]
                }
              }
            }
          ],
          "TargetType": {
            "$type": "RPG.GameCore.TargetFetchAdvPropEx",
            "FetchType": "SinglePropByPropID",
            "SinglePropID": {
              "GroupID": {
                "IsDynamic": true,
                "PostfixExpr": {
                  "OpCodes": "AQAK",
                  "FixedValues": [],
                  "DynamicHashes": [
                    -1775083652
                  ]
                }
              },
              "ID": {
                "IsDynamic": true,
                "PostfixExpr": {
                  "OpCodes": "AQAK",
                  "FixedValues": [],
                  "DynamicHashes": [
                    -696914899
                  ]
                }
              }
            }
          }
        }
      ]
    },
    {
      "IsLoop": true,
      "TaskList": [
        {
          "$type": "RPG.GameCore.WaitCustomString",
          "CustomString": {
            "Value": "Pillar_BeHit"
          },
          "WaitOwnerOnly": true
        },
        {
          "$type": "RPG.GameCore.PredicateTaskList",
          "Predicate": {
            "$type": "RPG.GameCore.ByComparePropStateNumber",
            "GroupID": {
              "IsDynamic": true,
              "PostfixExpr": {
                "OpCodes": "AQAK",
                "FixedValues": [],
                "DynamicHashes": [
                  -1775083652
                ]
              }
            },
            "PropIDList": [
              {
                "IsDynamic": true,
                "PostfixExpr": {
                  "OpCodes": "AQAK",
                  "FixedValues": [],
                  "DynamicHashes": [
                    -1100352138
                  ]
                }
              },
              {
                "IsDynamic": true,
                "PostfixExpr": {
                  "OpCodes": "AQAK",
                  "FixedValues": [],
                  "DynamicHashes": [
                    -1503636665
                  ]
                }
              },
              {
                "IsDynamic": true,
                "PostfixExpr": {
                  "OpCodes": "AQAK",
                  "FixedValues": [],
                  "DynamicHashes": [
                    62447276
                  ]
                }
              }
            ],
            "State": "Open",
            "CompareType": "Equal",
            "CompareValue": 1
          },
          "SuccessTaskList": [
            {
              "$type": "RPG.GameCore.ToastPile",
              "DescTextID": {
                "Hash": -1130897470
              },
              "TextIDParam": "1/3"
            }
          ],
          "FailedTaskList": []
        },
        {
          "$type": "RPG.GameCore.PredicateTaskList",
          "Predicate": {
            "$type": "RPG.GameCore.ByComparePropStateNumber",
            "GroupID": {
              "IsDynamic": true,
              "PostfixExpr": {
                "OpCodes": "AQAK",
                "FixedValues": [],
                "DynamicHashes": [
                  -1775083652
                ]
              }
            },
            "PropIDList": [
              {
                "IsDynamic": true,
                "PostfixExpr": {
                  "OpCodes": "AQAK",
                  "FixedValues": [],
                  "DynamicHashes": [
                    -1100352138
                  ]
                }
              },
              {
                "IsDynamic": true,
                "PostfixExpr": {
                  "OpCodes": "AQAK",
                  "FixedValues": [],
                  "DynamicHashes": [
                    -1503636665
                  ]
                }
              },
              {
                "IsDynamic": true,
                "PostfixExpr": {
                  "OpCodes": "AQAK",
                  "FixedValues": [],
                  "DynamicHashes": [
                    62447276
                  ]
                }
              }
            ],
            "State": "Open",
            "CompareType": "Equal",
            "CompareValue": 2
          },
          "SuccessTaskList": [
            {
              "$type": "RPG.GameCore.ToastPile",
              "DescTextID": {
                "Hash": -1130897470
              },
              "TextIDParam": "2/3"
            }
          ]
        }
      ]
    },
    {
      "TaskList": [
        {
          "$type": "RPG.GameCore.PropStateChangeListenerConfig",
          "ToState": "Open",
          "OnChange": [
            {
              "$type": "RPG.GameCore.TriggerCustomString",
              "CustomString": {
                "Value": "Pillar_BeHit"
              }
            }
          ],
          "TargetType": {
            "$type": "RPG.GameCore.TargetFetchAdvPropEx",
            "FetchType": "SinglePropByPropID",
            "SinglePropID": {
              "GroupID": {
                "IsDynamic": true,
                "PostfixExpr": {
                  "OpCodes": "AQAK",
                  "FixedValues": [],
                  "DynamicHashes": [
                    -1775083652
                  ]
                }
              },
              "ID": {
                "IsDynamic": true,
                "PostfixExpr": {
                  "OpCodes": "AQAK",
                  "FixedValues": [],
                  "DynamicHashes": [
                    -1100352138
                  ]
                }
              }
            }
          }
        }
      ]
    },
    {
      "TaskList": [
        {
          "$type": "RPG.GameCore.PropStateChangeListenerConfig",
          "ToState": "Open",
          "OnChange": [
            {
              "$type": "RPG.GameCore.TriggerCustomString",
              "CustomString": {
                "Value": "Pillar_BeHit"
              }
            }
          ],
          "TargetType": {
            "$type": "RPG.GameCore.TargetFetchAdvPropEx",
            "FetchType": "SinglePropByPropID",
            "SinglePropID": {
              "GroupID": {
                "IsDynamic": true,
                "PostfixExpr": {
                  "OpCodes": "AQAK",
                  "FixedValues": [],
                  "DynamicHashes": [
                    -1775083652
                  ]
                }
              },
              "ID": {
                "IsDynamic": true,
                "PostfixExpr": {
                  "OpCodes": "AQAK",
                  "FixedValues": [],
                  "DynamicHashes": [
                    -1503636665
                  ]
                }
              }
            }
          }
        }
      ]
    },
    {
      "TaskList": [
        {
          "$type": "RPG.GameCore.PropStateChangeListenerConfig",
          "ToState": "Open",
          "OnChange": [
            {
              "$type": "RPG.GameCore.TriggerCustomString",
              "CustomString": {
                "Value": "Pillar_BeHit"
              }
            }
          ],
          "TargetType": {
            "$type": "RPG.GameCore.TargetFetchAdvPropEx",
            "FetchType": "SinglePropByPropID",
            "SinglePropID": {
              "GroupID": {
                "IsDynamic": true,
                "PostfixExpr": {
                  "OpCodes": "AQAK",
                  "FixedValues": [],
                  "DynamicHashes": [
                    -1775083652
                  ]
                }
              },
              "ID": {
                "IsDynamic": true,
                "PostfixExpr": {
                  "OpCodes": "AQAK",
                  "FixedValues": [],
                  "DynamicHashes": [
                    62447276
                  ]
                }
              }
            }
          }
        }
      ]
    },
    {
      "TaskList": [
        {
          "$type": "RPG.GameCore.PropStateChangeListenerConfig",
          "FromState": "ChestLocked",
          "ToState": "ChestClosed",
          "OnChange": [
            {
              "$type": "RPG.GameCore.TriggerCustomString",
              "CustomString": {
                "Value": "Puzzle_Chest_Open"
              }
            }
          ],
          "TargetType": {
            "$type": "RPG.GameCore.TargetFetchAdvPropEx",
            "FetchType": "SinglePropByPropID",
            "SinglePropID": {
              "GroupID": {
                "IsDynamic": true,
                "PostfixExpr": {
                  "OpCodes": "AQAK",
                  "FixedValues": [],
                  "DynamicHashes": [
                    -1775083652
                  ]
                }
              },
              "ID": {
                "IsDynamic": true,
                "PostfixExpr": {
                  "OpCodes": "AQAK",
                  "FixedValues": [],
                  "DynamicHashes": [
                    -696914899
                  ]
                }
              }
            }
          }
        }
      ]
    },
    {
      "TaskList": [
        {
          "$type": "RPG.GameCore.WaitCustomString",
          "CustomString": {
            "Value": "Puzzle_Chest_Open"
          },
          "WaitOwnerOnly": true
        },
        {
          "$type": "RPG.GameCore.LockPlayerControl"
        },
        {
          "$type": "RPG.GameCore.EnableNPCMonsterAI",
          "GroupMonsterIDs": [],
          "UniqueNames": []
        },
        {
          "$type": "RPG.GameCore.EnablePerformanceMode",
          "Enable": true
        },
        {
          "$type": "RPG.GameCore.BlockInputController",
          "Enable": true,
          "ActionNameList": []
        },
        {
          "$type": "RPG.GameCore.ShowTalkUI",
          "Show": true
        },
        {
          "$type": "RPG.GameCore.PlayScreenTransfer",
          "Type": "None",
          "Mode": "SwitchOut",
          "CustomTime": 0.8
        },
        {
          "$type": "RPG.GameCore.ActiveVirtualCamera",
          "LevelAreaCameraKey": {
            "Custom": true,
            "Key": "Puzzle_Camera"
          },
          "WaitBlendFinish": true,
          "BlendConfig": {
            "ExportToJson": true,
            "BlendType": "Cut"
          }
        },
        {
          "$type": "RPG.GameCore.PlayScreenTransfer",
          "Type": "None",
          "CustomTime": 0.8
        },
        {
          "$type": "RPG.GameCore.ToastPile",
          "DescTextID": {
            "Hash": -183944092
          }
        },
        {
          "$type": "RPG.GameCore.WaitSecond",
          "WaitTime": 0.5
        },
        {
          "$type": "RPG.GameCore.PropTriggerAnimState",
          "AnimStateName": "LockedToStandBy",
          "TargetType": {
            "$type": "RPG.GameCore.TargetFetchAdvPropEx",
            "FetchType": "SinglePropByPropID",
            "SinglePropID": {
              "GroupID": {
                "IsDynamic": true,
                "PostfixExpr": {
                  "OpCodes": "AQAK",
                  "FixedValues": [],
                  "DynamicHashes": [
                    -1775083652
                  ]
                }
              },
              "ID": {
                "IsDynamic": true,
                "PostfixExpr": {
                  "OpCodes": "AQAK",
                  "FixedValues": [],
                  "DynamicHashes": [
                    -696914899
                  ]
                }
              }
            }
          }
        },
        {
          "$type": "RPG.GameCore.WaitSecond",
          "WaitTime": 2
        },
        {
          "$type": "RPG.GameCore.PlayScreenTransfer",
          "Type": "None",
          "Mode": "SwitchOut",
          "CustomTime": 0.8
        },
        {
          "$type": "RPG.GameCore.ActiveVirtualCamera",
          "LevelAreaCameraKey": {
            "Custom": true,
            "Key": "Puzzle_Camera"
          },
          "IsActive": false,
          "BlendConfig": {
            "ExportToJson": true,
            "BlendType": "Cut",
            "BlendTime": 4
          },
          "VCameraDitherMaxDistance": 0
        },
        {
          "$type": "RPG.GameCore.PlayScreenTransfer",
          "Type": "None",
          "CustomTime": 0.8
        },
        {
          "$type": "RPG.GameCore.EnablePerformanceMode"
        },
        {
          "$type": "RPG.GameCore.EnableNPCMonsterAI",
          "Enable": true,
          "GroupMonsterIDs": [],
          "UniqueNames": []
        },
        {
          "$type": "RPG.GameCore.ShowTalkUI"
        },
        {
          "$type": "RPG.GameCore.UnLockPlayerControl"
        },
        {
          "$type": "RPG.GameCore.BlockInputController",
          "ActionNameList": []
        },
        {
          "$type": "RPG.GameCore.ShowWaypointByProp",
          "GroupID": {
            "IsDynamic": true,
            "PostfixExpr": {
              "OpCodes": "AQAK",
              "FixedValues": [],
              "DynamicHashes": [
                -1775083652
              ]
            }
          },
          "InstanceID": {
            "IsDynamic": true,
            "PostfixExpr": {
              "OpCodes": "AQAK",
              "FixedValues": [],
              "DynamicHashes": [
                -696914899
              ]
            }
          },
          "MaxRange": 20,
          "IconPath": "SpriteOutput/MapPics/Billboard/IconBillboardBox.png",
          "Offset": {
            "X": 0,
            "Y": 1.6,
            "Z": 0
          }
        },
        {
          "$type": "RPG.GameCore.TriggerCustomString",
          "CustomString": {
            "Value": "Chest_Unlocked"
          }
        }
      ]
    },
    {
      "TaskList": [
        {
          "$type": "RPG.GameCore.WaitCustomString",
          "CustomString": {
            "Value": "Chest_Unlocked"
          },
          "WaitOwnerOnly": true
        },
        {
          "$type": "RPG.GameCore.PropTriggerAnimState",
          "AnimStateName": "Closing",
          "TargetType": {
            "$type": "RPG.GameCore.TargetFetchAdvPropEx",
            "FetchType": "SinglePropByPropID",
            "SinglePropID": {
              "GroupID": {
                "IsDynamic": true,
                "PostfixExpr": {
                  "OpCodes": "AQAK",
                  "FixedValues": [],
                  "DynamicHashes": [
                    -1775083652
                  ]
                }
              },
              "ID": {
                "IsDynamic": true,
                "PostfixExpr": {
                  "OpCodes": "AQAK",
                  "FixedValues": [],
                  "DynamicHashes": [
                    -1100352138
                  ]
                }
              }
            }
          }
        },
        {
          "$type": "RPG.GameCore.PropTriggerAnimState",
          "AnimStateName": "Closing",
          "TargetType": {
            "$type": "RPG.GameCore.TargetFetchAdvPropEx",
            "FetchType": "SinglePropByPropID",
            "SinglePropID": {
              "GroupID": {
                "IsDynamic": true,
                "PostfixExpr": {
                  "OpCodes": "AQAK",
                  "FixedValues": [],
                  "DynamicHashes": [
                    -1775083652
                  ]
                }
              },
              "ID": {
                "IsDynamic": true,
                "PostfixExpr": {
                  "OpCodes": "AQAK",
                  "FixedValues": [],
                  "DynamicHashes": [
                    -1503636665
                  ]
                }
              }
            }
          }
        },
        {
          "$type": "RPG.GameCore.PropTriggerAnimState",
          "AnimStateName": "Closing",
          "TargetType": {
            "$type": "RPG.GameCore.TargetFetchAdvPropEx",
            "FetchType": "SinglePropByPropID",
            "SinglePropID": {
              "GroupID": {
                "IsDynamic": true,
                "PostfixExpr": {
                  "OpCodes": "AQAK",
                  "FixedValues": [],
                  "DynamicHashes": [
                    -1775083652
                  ]
                }
              },
              "ID": {
                "IsDynamic": true,
                "PostfixExpr": {
                  "OpCodes": "AQAK",
                  "FixedValues": [],
                  "DynamicHashes": [
                    62447276
                  ]
                }
              }
            }
          }
        }
      ]
    }
  ],
  "ValueSource": {
    "Values": [
      {
        "$type": "RPG.GameCore.SharedFloat",
        "Key": "OwnerGroup"
      },
      {
        "$type": "RPG.GameCore.SharedFloat",
        "Value": 300001,
        "Key": "Chest"
      },
      {
        "$type": "RPG.GameCore.SharedFloat",
        "Value": 300003,
        "Key": "Pillar_1"
      },
      {
        "$type": "RPG.GameCore.SharedFloat",
        "Value": 300004,
        "Key": "Pillar_2"
      },
      {
        "$type": "RPG.GameCore.SharedFloat",
        "Value": 300005,
        "Key": "Pillar_3"
      },
      {
        "$type": "RPG.GameCore.SharedString",
        "Key": "Puzzle_Camera"
      }
    ]
  }
}