{
  "OnInitSequece": [],
  "OnStartSequece": [
    {
      "IsLoop": true,
      "TaskList": [
        {
          "$type": "RPG.GameCore.WaitCustomString",
          "CustomString": {
            "Value": "Talk_801519402"
          }
        },
        {
          "$type": "RPG.GameCore.WaitSecond",
          "WaitTime": 0.5
        },
        {
          "$type": "RPG.GameCore.ShowTransitionLoadingUI",
          "Name": "Ui.Heliobus.Transition.HeliobusTransitionDialog"
        },
        {
          "$type": "RPG.GameCore.ShowUI",
          "Name": "Ui.Heliobus.SNS.SNSMain.HeliobusSNSMainPage",
          "OnUIEnter": [
            {
              "$type": "RPG.GameCore.ExitTransitionLoadingUI"
            }
          ]
        }
      ]
    }
  ]
}