{
  "OnInitSequece": [],
  "OnStartSequece": [
    {
      "TaskList": [
        {
          "$type": "RPG.GameCore.LevelPerformanceInitialize",
          "PerformanceType": "D",
          "CreateCharacterList": [],
          "EntityVisiableList": []
        },
        {
          "$type": "RPG.GameCore.PlayScreenTransfer",
          "Mode": "SwitchOut",
          "CustomTime": 0.5
        },
        {
          "$type": "RPG.GameCore.ActiveVirtualCamera",
          "AreaName": "Mission_1010201_TypeD",
          "AnchorName": "101020111_Camera01",
          "BlendConfig": {
            "ExportToJson": true,
            "BlendType": "Cut"
          }
        },
        {
          "$type": "RPG.GameCore.CreateNPC",
          "GroupID": {
            "IsDynamic": false,
            "FixedValue": {
              "Value": 92
            }
          },
          "GroupNpcID": {
            "IsDynamic": false,
            "FixedValue": {
              "Value": 400001
            }
          },
          "NPCUniqueName": {
            "Value": "7thMarch_101020111"
          }
        },
        {
          "$type": "RPG.GameCore.CreateNPC",
          "GroupID": {
            "IsDynamic": false,
            "FixedValue": {
              "Value": 92
            }
          },
          "GroupNpcID": {
            "IsDynamic": false,
            "FixedValue": {
              "Value": 400002
            }
          }
        },
        {
          "$type": "RPG.GameCore.SwitchCharacterAnchor",
          "IsLocalPlayer": true,
          "CharacterUniqueName": "LocalPlayer",
          "AreaName": {
            "Value": "LevelArea_P10101_F10101001_G33"
          },
          "AnchorName": {
            "Value": "Anchor5"
          }
        },
        {
          "$type": "RPG.GameCore.WaitSecond",
          "WaitTime": 0.5
        },
        {
          "$type": "RPG.GameCore.CharacterTriggerFreeStyle",
          "CharacterUniqueName": "7thMarch_101020111",
          "StoryAvatarID": "NPC_Avatar_Maid_Mar_7th_00",
          "StoryMotionID": 310010210
        },
        {
          "$type": "RPG.GameCore.PropSetVisibility",
          "SpecifiedRelativePaths": [],
          "TargetType": {
            "$type": "RPG.GameCore.TargetFetchAdvPropEx",
            "FetchType": "SinglePropByPropID",
            "SinglePropID": {
              "GroupID": {
                "IsDynamic": false,
                "FixedValue": {
                  "Value": 3
                }
              },
              "ID": {
                "IsDynamic": false,
                "FixedValue": {
                  "Value": 300020
                }
              }
            }
          }
        },
        {
          "$type": "RPG.GameCore.PlayScreenTransfer",
          "CustomTime": 0.5
        },
        {
          "$type": "RPG.GameCore.PlaySimpleTalk",
          "SimpleTalkList": [
            {
              "TalkSentenceID": 101011213,
              "ProtectTime": 0.3
            },
            {
              "TalkSentenceID": 101011214,
              "ProtectTime": 0.3
            },
            {
              "TalkSentenceID": 101011215,
              "ProtectTime": 0.3
            }
          ]
        },
        {
          "$type": "RPG.GameCore.WaitSimpleTalkFinish"
        },
        {
          "$type": "RPG.GameCore.ActiveVirtualCamera",
          "AreaName": "Mission_1010201_TypeD",
          "AnchorName": "101020111_Camera02",
          "BlendConfig": {
            "ExportToJson": true,
            "BlendType": "Cut"
          }
        },
        {
          "$type": "RPG.GameCore.CharacterTriggerFreeStyle",
          "CharacterUniqueName": "7thMarch_101020111",
          "StoryAvatarID": "NPC_Avatar_Maid_Mar_7th_00",
          "StoryMotionID": 310010000
        },
        {
          "$type": "RPG.GameCore.PlaySimpleTalk",
          "SimpleTalkList": [
            {
              "TalkSentenceID": 101011201,
              "ProtectTime": 0.3
            },
            {
              "TalkSentenceID": 101011202,
              "ProtectTime": 0.3
            },
            {
              "TalkSentenceID": 101011203,
              "ProtectTime": 0.3
            },
            {
              "TalkSentenceID": 101011204,
              "ProtectTime": 0.3
            }
          ]
        },
        {
          "$type": "RPG.GameCore.WaitSimpleTalkFinish"
        },
        {
          "$type": "RPG.GameCore.PlayOptionTalk",
          "OptionList": [
            {
              "TalkSentenceID": 101011205,
              "OptionIconType": "ChatContinueIcon",
              "TriggerCustomString": "TalkSentence_101011205",
              "FinishKey": "0"
            },
            {
              "TalkSentenceID": 101011207,
              "OptionIconType": "ChatContinueIcon",
              "TriggerCustomString": "TalkSentence_101011207",
              "FinishKey": "0"
            }
          ]
        }
      ]
    },
    {
      "TaskList": [
        {
          "$type": "RPG.GameCore.WaitCustomString",
          "CustomString": {
            "Value": "TalkSentence_101011205"
          }
        },
        {
          "$type": "RPG.GameCore.PlaySimpleTalk",
          "SimpleTalkList": [
            {
              "TalkSentenceID": 101011206,
              "ProtectTime": 0.3
            }
          ]
        },
        {
          "$type": "RPG.GameCore.WaitSimpleTalkFinish"
        },
        {
          "$type": "RPG.GameCore.TriggerCustomString",
          "CustomString": {
            "Value": "101020111_01End"
          }
        }
      ]
    },
    {
      "TaskList": [
        {
          "$type": "RPG.GameCore.WaitCustomString",
          "CustomString": {
            "Value": "TalkSentence_101011207"
          }
        },
        {
          "$type": "RPG.GameCore.PlaySimpleTalk",
          "SimpleTalkList": [
            {
              "TalkSentenceID": 101011208,
              "ProtectTime": 0.3
            },
            {
              "TalkSentenceID": 101011209,
              "ProtectTime": 0.3
            }
          ]
        },
        {
          "$type": "RPG.GameCore.WaitSimpleTalkFinish"
        },
        {
          "$type": "RPG.GameCore.TriggerCustomString",
          "CustomString": {
            "Value": "101020111_01End"
          }
        }
      ]
    },
    {
      "TaskList": [
        {
          "$type": "RPG.GameCore.WaitCustomString",
          "CustomString": {
            "Value": "101020111_01End"
          }
        },
        {
          "$type": "RPG.GameCore.PlaySimpleTalk",
          "SimpleTalkList": [
            {
              "TalkSentenceID": 101011210,
              "ProtectTime": 0.3
            },
            {
              "TalkSentenceID": 101011211,
              "ProtectTime": 0.3
            },
            {
              "TalkSentenceID": 101011212,
              "ProtectTime": 0.3
            }
          ]
        },
        {
          "$type": "RPG.GameCore.WaitSimpleTalkFinish"
        },
        {
          "$type": "RPG.GameCore.PerformanceTransition",
          "CreateNpcList": [],
          "CaptureNpcList": [],
          "DestroyNpcList": [
            {
              "GroupID": 92,
              "GroupNpcID": 400001,
              "DestroyList": []
            },
            {
              "GroupID": 92,
              "GroupNpcID": 400002,
              "DestroyList": []
            }
          ],
          "ActiveVirtualCamera": {
            "AreaName": "Mission_1010201_TypeD",
            "AnchorName": "101020111_Camera",
            "IsActive": false
          },
          "SwitchCharacterAnchor": {
            "TaskEnabled": false
          }
        },
        {
          "$type": "RPG.GameCore.EndPerformance"
        }
      ]
    },
    {
      "TaskList": [
        {
          "$type": "RPG.GameCore.WaitPerformanceEnd"
        },
        {
          "$type": "RPG.GameCore.FinishLevelGraph"
        }
      ]
    }
  ]
}