{
  "AbilityList": [
    {
      "Name": "Monster_W2_Abomi04_00_Skill01_Camera",
      "TargetInfo": {
        "TargetType": "SkillTargetEntityList"
      },
      "OnStart": [
        {
          "$type": "RPG.GameCore.VCameraConfigChange",
          "CameraConfig": {
            "NormalConfig": {
              "CameraState": "DarkEntityAttack",
              "AttackType": "MeleeAttack",
              "FollowDamp": 0.01,
              "AimDamp": 0.01
            },
            "AdditiveNormalConfig": {
              "AimOffset": {
                "X": -1.53,
                "Y": 0,
                "Z": 0
              }
            },
            "BlendConfig": {
              "BlendType": "Cut"
            }
          }
        },
        {
          "$type": "RPG.GameCore.WaitAnimState",
          "TargetType": {
            "$type": "RPG.GameCore.TargetAlias",
            "Alias": "Caster"
          },
          "AnimStateName": "Skill01",
          "NormalizedTimeEnd": {
            "IsDynamic": false,
            "FixedValue": {
              "Value": 0.00125000043772161
            }
          }
        },
        {
          "$type": "RPG.GameCore.VCameraConfigChange",
          "CameraConfig": {
            "NormalConfig": {
              "CameraState": "CameraMotion",
              "ResetToDefault": false
            },
            "BlendConfig": {
              "BlendType": "Cut",
              "BlendTime": 0.01
            }
          }
        },
        {
          "$type": "RPG.GameCore.WaitAnimState",
          "TargetType": {
            "$type": "RPG.GameCore.TargetAlias",
            "Alias": "Caster"
          },
          "AnimStateName": "Skill01",
          "NormalizedTimeEnd": {
            "IsDynamic": false,
            "FixedValue": {
              "Value": 0.22200000006705523
            }
          }
        },
        {
          "$type": "RPG.GameCore.VCameraConfigChange",
          "CameraConfig": {
            "ShakeTemplateName": "_SR0.14_T0.06_ST0.2：Monster_W1_Soldier03_00_Camera_1"
          }
        }
      ]
    },
    {
      "Name": "Monster_W2_Abomi04_00_Skill02_Camera",
      "TargetInfo": {
        "TargetType": "SkillTargetEntityList",
        "MaxTargetCount": 3
      },
      "OnStart": [
        {
          "$type": "RPG.GameCore.VCameraConfigChange",
          "CameraConfig": {
            "NormalConfig": {
              "CameraState": "UseSkillPerform",
              "IsLocalOffset": true,
              "AnchorOffset": {
                "X": -0.5,
                "Y": 0.01,
                "Z": 3.5
              },
              "AimTargetType": {
                "$type": "RPG.GameCore.TargetAlias",
                "Alias": "Caster"
              },
              "AimOffset": {
                "X": 0,
                "Y": -0.01,
                "Z": 0
              },
              "FollowPoleAngle": 90,
              "FollowRadius": 0.88,
              "ForbidChangeOffset": true
            },
            "BlendConfig": {
              "BlendType": "Custom",
              "CustomCurveName": "BlendCut_00to1"
            },
            "ShowEntityConfig": {
              "ShowTargetType": {
                "$type": "RPG.GameCore.TargetAlias",
                "Alias": "Caster"
              }
            }
          }
        },
        {
          "$type": "RPG.GameCore.WaitAnimState",
          "TargetType": {
            "$type": "RPG.GameCore.TargetFetchCaster"
          },
          "AnimStateName": "Skill02",
          "NormalizedTimeEnd": {
            "IsDynamic": false,
            "FixedValue": {
              "Value": 0.005556796910241246
            }
          }
        },
        {
          "$type": "RPG.GameCore.VCameraConfigChange",
          "CameraConfig": {
            "NormalConfig": {
              "CameraState": "UseSkillPerform",
              "IsLocalOffset": true,
              "AnchorOffset": {
                "X": -0.5,
                "Y": -0.1,
                "Z": 4
              },
              "AimTargetType": {
                "$type": "RPG.GameCore.TargetAlias",
                "Alias": "Caster"
              },
              "AimOffset": {
                "X": 0,
                "Y": -0.1,
                "Z": 0
              },
              "FollowPoleAngle": 90,
              "FollowRadius": 0.88,
              "ForbidChangeOffset": true
            },
            "BlendConfig": {
              "BlendType": "EaseInOut",
              "BlendTime": 0.845925
            },
            "ShowEntityConfig": {
              "ShowTargetType": {
                "$type": "RPG.GameCore.TargetAlias",
                "Alias": "Caster"
              }
            }
          }
        },
        {
          "$type": "RPG.GameCore.WaitAnimState",
          "TargetType": {
            "$type": "RPG.GameCore.TargetFetchCaster"
          },
          "AnimStateName": "Skill02",
          "NormalizedTimeEnd": {
            "IsDynamic": false,
            "FixedValue": {
              "Value": 0.17207936942577362
            }
          }
        },
        {
          "$type": "RPG.GameCore.VCameraConfigChange",
          "CameraConfig": {
            "NormalConfig": {
              "CameraState": "UseSkillPerform",
              "IsLocalOffset": true,
              "AnchorOffset": {
                "X": -0.5,
                "Y": -0.1,
                "Z": 5
              },
              "AimTargetType": {
                "$type": "RPG.GameCore.TargetAlias",
                "Alias": "Caster"
              },
              "AimOffset": {
                "X": 0,
                "Y": 1.3,
                "Z": 0
              },
              "FollowPoleAngle": 90,
              "FollowRadius": 0.88,
              "ForbidChangeOffset": true
            },
            "BlendConfig": {
              "BlendType": "Custom",
              "CustomCurveName": "BlendCut_00to1",
              "BlendTime": 0.718796
            },
            "ShowEntityConfig": {
              "ShowTargetType": {
                "$type": "RPG.GameCore.TargetAlias",
                "Alias": "CasterWithAbilityTargetAndAdjoinEntity"
              }
            }
          }
        },
        {
          "$type": "RPG.GameCore.WaitAnimState",
          "TargetType": {
            "$type": "RPG.GameCore.TargetFetchCaster"
          },
          "AnimStateName": "Skill02",
          "NormalizedTimeEnd": {
            "IsDynamic": false,
            "FixedValue": {
              "Value": 0.35316824936307967
            }
          }
        },
        {
          "$type": "RPG.GameCore.VCameraConfigChange",
          "CameraConfig": {
            "NormalConfig": {
              "CameraState": "CasterToTargetPerform",
              "TemplateName": "Monster_Common_Range_Adjoin",
              "AnchorTargetType": {
                "$type": "RPG.GameCore.TargetAlias",
                "Alias": "AbilityTargetEntity"
              },
              "IsLocalOffset": true,
              "AimTargetType": {
                "$type": "RPG.GameCore.TargetAlias",
                "Alias": "Caster"
              },
              "FollowDamp": 0.01,
              "AimDamp": 0.01,
              "Dutch": 2
            },
            "AdditiveNormalConfig": {
              "AnchorTargetType": {
                "$type": "RPG.GameCore.TargetAlias",
                "Alias": "AbilityTargetEntity"
              },
              "AnchorOffset": {
                "X": 1.4,
                "Y": -0.6,
                "Z": -4.7
              },
              "AimTargetType": {
                "$type": "RPG.GameCore.TargetAlias",
                "Alias": "Caster"
              },
              "AimOffset": {
                "X": 0.4,
                "Y": 0.1,
                "Z": 0
              },
              "Dutch": -2
            },
            "BlendConfig": {
              "BlendType": "EaseInOut",
              "CustomCurveName": "null",
              "BlendTime": 0.1
            },
            "ShowEntityConfig": {
              "ShowTargetType": {
                "$type": "RPG.GameCore.TargetAlias",
                "Alias": "CasterWithAbilityTargetAndAdjoinEntity"
              }
            }
          }
        },
        {
          "$type": "RPG.GameCore.WaitAnimState",
          "TargetType": {
            "$type": "RPG.GameCore.TargetFetchCaster"
          },
          "AnimStateName": "Skill02",
          "NormalizedTimeEnd": {
            "IsDynamic": false,
            "FixedValue": {
              "Value": 0.3610226521268487
            }
          }
        },
        {
          "$type": "RPG.GameCore.VCameraConfigChange",
          "CameraConfig": {
            "ShakeTemplateName": "OneShake_Heavy_03s_XY",
            "OverrideShakeConfigV2": {
              "ShakeScale": 1,
              "ShakeTime": 0.6,
              "ShakeDir": {
                "X": 0,
                "Y": -1,
                "Z": -0.3
              },
              "RangeAttenuationDelay": 999
            },
            "BlendConfig": {
              "BlendType": "Cut"
            }
          }
        }
      ]
    },
    {
      "Name": "Monster_W2_Abomi04_00_Skill03_Camera",
      "TargetInfo": {
        "TargetType": "SkillTargetEntityList"
      },
      "OnStart": [
        {
          "$type": "RPG.GameCore.VCameraConfigChange",
          "CameraConfig": {
            "NormalConfig": {
              "CameraState": "CastAnimation"
            },
            "BlendConfig": {
              "BlendType": "Cut"
            },
            "ShowEntityConfig": {
              "ShowTargetType": {
                "$type": "RPG.GameCore.TargetAlias",
                "Alias": "Caster"
              }
            }
          }
        },
        {
          "$type": "RPG.GameCore.WaitAnimState",
          "TargetType": {
            "$type": "RPG.GameCore.TargetFetchCaster"
          },
          "AnimStateName": "Skill03",
          "NormalizedTimeEnd": {
            "IsDynamic": false,
            "FixedValue": {
              "Value": 0.0490611819550395
            }
          }
        },
        {
          "$type": "RPG.GameCore.VCameraConfigChange",
          "CameraConfig": {
            "NormalConfig": {
              "CameraState": "UseSkillPerform",
              "IsLocalOffset": true,
              "AnchorOffset": {
                "X": -0.4,
                "Y": 0.25,
                "Z": 2
              },
              "AimTargetType": {
                "$type": "RPG.GameCore.TargetAlias",
                "Alias": "Caster"
              },
              "AimOffset": {
                "X": 0.55,
                "Y": 0.25,
                "Z": 0
              },
              "FollowPoleAngle": 90,
              "FollowRadius": 0.88,
              "ForbidChangeOffset": true
            },
            "BlendConfig": {
              "BlendType": "EaseInOut",
              "CustomCurveName": "null",
              "BlendTime": 1.908716
            },
            "ShowEntityConfig": {
              "ShowTargetType": {
                "$type": "RPG.GameCore.TargetAlias",
                "Alias": "Caster"
              }
            }
          }
        },
        {
          "$type": "RPG.GameCore.WaitAnimState",
          "TargetType": {
            "$type": "RPG.GameCore.TargetFetchCaster"
          },
          "AnimStateName": "Skill03",
          "NormalizedTimeEnd": {
            "IsDynamic": false,
            "FixedValue": {
              "Value": 0.41467091580852866
            }
          }
        },
        {
          "$type": "RPG.GameCore.VCameraConfigChange",
          "CameraConfig": {
            "NormalConfig": {
              "CameraState": "CasterToTargetPerform",
              "TemplateName": "Monster_Common_SoloRangeAttack",
              "IsLocalOffset": true,
              "AnchorOffset": {
                "X": -1.8,
                "Y": -0.4,
                "Z": 2
              },
              "AnchorRatio": 1,
              "AimOffset": {
                "X": 2.5,
                "Y": 0,
                "Z": 0
              },
              "AimRatio": 0.01,
              "FollowDamp": 0.01,
              "AimDamp": 0.01,
              "Dutch": 2
            },
            "AdditiveNormalConfig": {
              "AnchorOffset": {
                "X": 0.6,
                "Y": 0,
                "Z": 0.25
              },
              "AimOffset": {
                "X": 0.01,
                "Y": 0,
                "Z": 0
              }
            },
            "BlendConfig": {
              "BlendType": "EaseInOut",
              "BlendTime": 0.199999
            },
            "ShowEntityConfig": {
              "ShowTargetType": {
                "$type": "RPG.GameCore.TargetAlias",
                "Alias": "CasterWithAbilityTargetEntity"
              }
            }
          }
        },
        {
          "$type": "RPG.GameCore.WaitAnimState",
          "TargetType": {
            "$type": "RPG.GameCore.TargetFetchCaster"
          },
          "AnimStateName": "Skill03",
          "NormalizedTimeEnd": {
            "IsDynamic": false,
            "FixedValue": {
              "Value": 0.5500000005122274
            }
          }
        },
        {
          "$type": "RPG.GameCore.VCameraConfigChange",
          "CameraConfig": {
            "ShakeTemplateName": "OneShake_Normal_03s_Z",
            "OverrideShakeConfigV2": {
              "ShakeScale": 1.25,
              "ShakeTime": 0.45,
              "ShakeDir": {
                "X": 0.25,
                "Y": 0,
                "Z": 1
              }
            },
            "BlendConfig": {
              "BlendType": "Cut"
            }
          }
        }
      ]
    },
    {
      "Name": "Monster_W2_Abomi04_00_Skill04_Camera",
      "TargetInfo": {
        "TargetType": "Caster"
      },
      "OnStart": [
        {
          "$type": "RPG.GameCore.VCameraConfigChange",
          "CameraConfig": {
            "NormalConfig": {
              "CameraState": "CastAnimation"
            },
            "ShowEntityConfig": {
              "ShowTargetType": {
                "$type": "RPG.GameCore.TargetAlias",
                "Alias": "AllTeamMember"
              }
            }
          }
        },
        {
          "$type": "RPG.GameCore.WaitAnimState",
          "AnimStateName": "Skill04",
          "NormalizedTimeEnd": {
            "IsDynamic": false,
            "FixedValue": {
              "Value": 0.5000000004656613
            }
          }
        },
        {
          "$type": "RPG.GameCore.VCameraConfigChange",
          "CameraConfig": {
            "NormalConfig": {
              "CameraState": "CasterToTargetPerform",
              "TemplateName": "Monster_Common_Summon",
              "AnchorTargetType": {
                "$type": "RPG.GameCore.TargetAlias",
                "Alias": "AllEnemy"
              },
              "AimTargetType": {
                "$type": "RPG.GameCore.TargetAlias",
                "Alias": "AllTeamMember"
              }
            },
            "BlendConfig": {
              "BlendType": "Cut"
            },
            "ShowEntityConfig": {
              "ShowTargetType": {
                "$type": "RPG.GameCore.TargetAlias",
                "Alias": "AllTeamMember"
              }
            }
          }
        },
        {
          "$type": "RPG.GameCore.VCameraConfigChange",
          "CameraConfig": {
            "ShotAnimMovementConfig": {
              "AngleXY": 180,
              "DistanceZ": -1,
              "Damp": 8.5,
              "Duration": 2
            }
          }
        }
      ]
    },
    {
      "Name": "Monster_W2_Abomi04_00_Skill05_Camera",
      "TargetInfo": {
        "TargetType": "SkillTargetEntityList"
      },
      "OnStart": [
        {
          "$type": "RPG.GameCore.VCameraConfigChange",
          "CameraConfig": {
            "NormalConfig": {
              "CameraState": "CastAnimation"
            },
            "ShowEntityConfig": {
              "ShowTargetType": {
                "$type": "RPG.GameCore.TargetAlias",
                "Alias": "AllTeamMember"
              }
            }
          }
        },
        {
          "$type": "RPG.GameCore.WaitAnimState",
          "TargetType": {
            "$type": "RPG.GameCore.TargetFetchCaster"
          },
          "AnimStateName": "Skill04",
          "NormalizedTimeEnd": {
            "IsDynamic": false,
            "FixedValue": {
              "Value": 0.008374480763450265
            }
          }
        },
        {
          "$type": "RPG.GameCore.VCameraConfigChange",
          "CameraConfig": {
            "NormalConfig": {
              "CameraState": "UseSkillPerform",
              "IsLocalOffset": true,
              "AnchorOffset": {
                "X": -0.15,
                "Y": 0,
                "Z": 2
              },
              "AimTargetType": {
                "$type": "RPG.GameCore.TargetAlias",
                "Alias": "Caster"
              },
              "AimOffset": {
                "X": -0.09,
                "Y": 0.2,
                "Z": 0
              },
              "FollowPoleAngle": 90,
              "FollowRadius": 0.88
            },
            "BlendConfig": {
              "BlendType": "EaseInOut",
              "BlendTime": 0.740662
            },
            "ShowEntityConfig": {
              "ShowTargetType": {
                "$type": "RPG.GameCore.TargetAlias",
                "Alias": "AllTeamMember"
              }
            }
          }
        },
        {
          "$type": "RPG.GameCore.WaitAnimState",
          "TargetType": {
            "$type": "RPG.GameCore.TargetFetchCaster"
          },
          "AnimStateName": "Skill04",
          "NormalizedTimeEnd": {
            "IsDynamic": false,
            "FixedValue": {
              "Value": 0.2802543048746884
            }
          }
        },
        {
          "$type": "RPG.GameCore.VCameraConfigChange",
          "CameraConfig": {
            "NormalConfig": {
              "CameraState": "UseSkillPerform",
              "IsLocalOffset": true,
              "AnchorOffset": {
                "X": 0,
                "Y": -0.1,
                "Z": 3.5
              },
              "AimTargetType": {
                "$type": "RPG.GameCore.TargetAlias",
                "Alias": "Caster"
              },
              "AimOffset": {
                "X": 0,
                "Y": 0.1,
                "Z": 0
              },
              "FollowPoleAngle": 90,
              "FollowRadius": 0.88
            },
            "BlendConfig": {
              "BlendType": "EaseInOut",
              "BlendTime": 0.2
            },
            "ShowEntityConfig": {
              "ShowTargetType": {
                "$type": "RPG.GameCore.TargetAlias",
                "Alias": "Caster"
              }
            }
          }
        },
        {
          "$type": "RPG.GameCore.WaitAnimState",
          "TargetType": {
            "$type": "RPG.GameCore.TargetFetchCaster"
          },
          "AnimStateName": "Skill04",
          "NormalizedTimeEnd": {
            "IsDynamic": false,
            "FixedValue": {
              "Value": 0.40000000037252903
            }
          }
        },
        {
          "$type": "RPG.GameCore.VCameraConfigChange",
          "CameraConfig": {
            "ShowEntityConfig": {
              "ShowTargetType": {
                "$type": "RPG.GameCore.TargetAlias",
                "Alias": "Caster"
              }
            }
          }
        },
        {
          "$type": "RPG.GameCore.WaitAnimState",
          "TargetType": {
            "$type": "RPG.GameCore.TargetFetchCaster"
          },
          "AnimStateName": "Skill04",
          "NormalizedTimeEnd": {
            "IsDynamic": false,
            "FixedValue": {
              "Value": 0.5000000004656613
            }
          }
        },
        {
          "$type": "RPG.GameCore.VCameraConfigChange",
          "CameraConfig": {
            "NormalConfig": {
              "CameraState": "CasterToTargetPerform",
              "TemplateName": "Monster_Common_SoloRangeAttack",
              "IsLocalOffset": true,
              "AnchorOffset": {
                "X": -1.8,
                "Y": -0.4,
                "Z": 2
              },
              "AnchorRatio": 1,
              "AimOffset": {
                "X": 2.5,
                "Y": 0,
                "Z": 0
              },
              "AimRatio": 0.01,
              "FollowDamp": 0.01,
              "AimDamp": 0.01,
              "Dutch": 2,
              "ResetToDefault": false
            },
            "AdditiveNormalConfig": {
              "AnchorOffset": {
                "X": -0.8,
                "Y": 0.3,
                "Z": 1
              },
              "AimOffset": {
                "X": -1.45,
                "Y": 0,
                "Z": 0
              },
              "ResetToDefault": false
            },
            "BlendConfig": {
              "BlendType": "Cut"
            },
            "ShowEntityConfig": {
              "ShowTargetType": {
                "$type": "RPG.GameCore.TargetAlias",
                "Alias": "AllTeamMemberWithAbilityTargetEntity"
              }
            }
          }
        }
      ]
    }
  ]
}