{
  "AbilityList": [
    {
      "Name": "Monster_W2_Beast02_00_Skill01_Camera",
      "TargetInfo": {
        "TargetType": "SkillTargetEntityList",
        "MaxTargetCount": 3
      },
      "OnStart": [
        {
          "$type": "RPG.GameCore.WaitAnimState",
          "TargetType": {
            "$type": "RPG.GameCore.TargetFetchCaster"
          },
          "AnimStateName": "Skill01",
          "NormalizedTimeEnd": {
            "IsDynamic": false,
            "FixedValue": {
              "Value": 0.0032679743599146605
            }
          }
        },
        {
          "$type": "RPG.GameCore.VCameraConfigChange",
          "CameraConfig": {
            "NormalConfig": {
              "CameraState": "UseSkillPerform",
              "IsLocalOffset": true,
              "AnchorOffset": {
                "X": -1.69,
                "Y": 0.01,
                "Z": 3.5
              },
              "AimTargetType": {
                "$type": "RPG.GameCore.TargetAlias",
                "Alias": "Caster"
              },
              "AimOffset": {
                "X": -0.18,
                "Y": -0.01,
                "Z": 0
              },
              "AimRatio": 0.01,
              "FollowPoleAngle": 90,
              "FollowRadius": 0.88,
              "ForbidChangeOffset": true
            },
            "BlendConfig": {
              "BlendType": "Cut",
              "BlendTime": 0.01
            },
            "ShowEntityConfig": {
              "ShowTargetType": {
                "$type": "RPG.GameCore.TargetAlias",
                "Alias": "Caster"
              }
            }
          }
        },
        {
          "$type": "RPG.GameCore.WaitAnimState",
          "TargetType": {
            "$type": "RPG.GameCore.TargetFetchCaster"
          },
          "AnimStateName": "Skill01",
          "NormalizedTimeEnd": {
            "IsDynamic": false,
            "FixedValue": {
              "Value": 0.030065357452258468
            }
          }
        },
        {
          "$type": "RPG.GameCore.VCameraConfigChange",
          "CameraConfig": {
            "NormalConfig": {
              "CameraState": "UseSkillPerform",
              "IsLocalOffset": true,
              "AnchorOffset": {
                "X": -0.5,
                "Y": -2.14,
                "Z": 5.41
              },
              "AimTargetType": {
                "$type": "RPG.GameCore.TargetAlias",
                "Alias": "Caster"
              },
              "AimOffset": {
                "X": 0,
                "Y": 0.5,
                "Z": 0
              },
              "FollowPoleAngle": 90,
              "FollowRadius": 0.88,
              "ForbidChangeOffset": true
            },
            "BlendConfig": {
              "BlendType": "EaseInOut",
              "CustomCurveName": "Blend_FastToSlow",
              "BlendTime": 0.416965
            },
            "ShowEntityConfig": {
              "ShowTargetType": {
                "$type": "RPG.GameCore.TargetAlias",
                "Alias": "Caster"
              }
            }
          }
        },
        {
          "$type": "RPG.GameCore.WaitAnimState",
          "TargetType": {
            "$type": "RPG.GameCore.TargetFetchCaster"
          },
          "AnimStateName": "Skill01",
          "NormalizedTimeEnd": {
            "IsDynamic": false,
            "FixedValue": {
              "Value": 0.14248365256935358
            }
          }
        },
        {
          "$type": "RPG.GameCore.VCameraConfigChange",
          "CameraConfig": {
            "ShakeTemplateName": "Common_Rapid_Light",
            "OverrideShakeConfigV2": {
              "ShakeScale": 1,
              "ShakeTime": 0.1,
              "ShakeDir": {
                "X": 0,
                "Y": 0,
                "Z": 0.1
              },
              "RangeAttenuationDelay": 999,
              "RangeAttenuationTarget": 0
            },
            "BlendConfig": {
              "BlendType": "Cut"
            }
          }
        },
        {
          "$type": "RPG.GameCore.WaitAnimState",
          "TargetType": {
            "$type": "RPG.GameCore.TargetFetchCaster"
          },
          "AnimStateName": "Skill01",
          "NormalizedTimeEnd": {
            "IsDynamic": false,
            "FixedValue": {
              "Value": 0.34575161430984735
            }
          }
        },
        {
          "$type": "RPG.GameCore.VCameraConfigChange",
          "CameraConfig": {
            "NormalConfig": {
              "CameraState": "UseSkillPerform",
              "IsLocalOffset": true,
              "AnchorOffset": {
                "X": -0.08,
                "Y": -2.97,
                "Z": 4.68
              },
              "AimTargetType": {
                "$type": "RPG.GameCore.TargetAlias",
                "Alias": "Caster"
              },
              "AimOffset": {
                "X": 0,
                "Y": 2.63,
                "Z": 0
              },
              "FollowPoleAngle": 90,
              "FollowRadius": 0.88,
              "ForbidChangeOffset": true
            },
            "BlendConfig": {
              "BlendType": "EaseInOut",
              "CustomCurveName": "BlendCut_00to1",
              "BlendTime": 0.366667
            },
            "ShowEntityConfig": {
              "ShowTargetType": {
                "$type": "RPG.GameCore.TargetAlias",
                "Alias": "Caster"
              }
            }
          }
        },
        {
          "$type": "RPG.GameCore.WaitAnimState",
          "TargetType": {
            "$type": "RPG.GameCore.TargetFetchCaster"
          },
          "AnimStateName": "Skill01",
          "NormalizedTimeEnd": {
            "IsDynamic": false,
            "FixedValue": {
              "Value": 0.4117646529339254
            }
          }
        },
        {
          "$type": "RPG.GameCore.VCameraConfigChange",
          "CameraConfig": {
            "NormalConfig": {
              "CameraState": "UseSkillPerform",
              "IsLocalOffset": true,
              "AnchorOffset": {
                "X": 0.32,
                "Y": -2.28,
                "Z": 1.53
              },
              "AimTargetType": {
                "$type": "RPG.GameCore.TargetAlias",
                "Alias": "Caster"
              },
              "AimOffset": {
                "X": 0.79,
                "Y": 3.06,
                "Z": 0
              },
              "FollowPoleAngle": 90,
              "FollowRadius": 0.88,
              "ForbidChangeOffset": true
            },
            "BlendConfig": {
              "BlendType": "Linear",
              "BlendTime": 0.503334
            },
            "ShowEntityConfig": {
              "ShowTargetType": {
                "$type": "RPG.GameCore.TargetAlias",
                "Alias": "Caster"
              }
            }
          }
        },
        {
          "$type": "RPG.GameCore.WaitAnimState",
          "TargetType": {
            "$type": "RPG.GameCore.TargetFetchCaster"
          },
          "AnimStateName": "Skill01",
          "NormalizedTimeEnd": {
            "IsDynamic": false,
            "FixedValue": {
              "Value": 0.5477123856544495
            }
          }
        },
        {
          "$type": "RPG.GameCore.VCameraConfigChange",
          "CameraConfig": {
            "NormalConfig": {
              "CameraState": "UseSkillPerform",
              "IsLocalOffset": true,
              "AnchorOffset": {
                "X": -0.01,
                "Y": 0,
                "Z": 3.36
              },
              "AimTargetType": {
                "$type": "RPG.GameCore.TargetAlias",
                "Alias": "Caster"
              },
              "AimOffset": {
                "X": 0.97,
                "Y": 0,
                "Z": 0
              },
              "FollowPoleAngle": 90,
              "FollowRadius": 0.88,
              "ForbidChangeOffset": true
            },
            "BlendConfig": {
              "BlendType": "Cut",
              "BlendTime": 0.02
            },
            "ShowEntityConfig": {
              "ShowTargetType": {
                "$type": "RPG.GameCore.TargetAlias",
                "Alias": "CasterWithAbilityTargetEntity"
              }
            }
          }
        },
        {
          "$type": "RPG.GameCore.WaitAnimState",
          "TargetType": {
            "$type": "RPG.GameCore.TargetFetchCaster"
          },
          "AnimStateName": "Skill01",
          "NormalizedTimeEnd": {
            "IsDynamic": false,
            "FixedValue": {
              "Value": 0.5542483339086175
            }
          }
        },
        {
          "$type": "RPG.GameCore.VCameraConfigChange",
          "CameraConfig": {
            "NormalConfig": {
              "CameraState": "UseSkillPerform",
              "IsLocalOffset": true,
              "AnchorOffset": {
                "X": -0.01,
                "Y": 0,
                "Z": 8.3
              },
              "AimTargetType": {
                "$type": "RPG.GameCore.TargetAlias",
                "Alias": "Caster"
              },
              "AimOffset": {
                "X": 0.97,
                "Y": 0,
                "Z": 0
              },
              "FollowPoleAngle": 90,
              "FollowRadius": 0.88,
              "ForbidChangeOffset": true
            },
            "BlendConfig": {
              "BlendType": "EaseInOut",
              "BlendTime": 0.21
            },
            "ShowEntityConfig": {
              "ShowTargetType": {
                "$type": "RPG.GameCore.TargetAlias",
                "Alias": "CasterWithAbilityTargetEntity"
              }
            }
          }
        },
        {
          "$type": "RPG.GameCore.WaitAnimState",
          "TargetType": {
            "$type": "RPG.GameCore.TargetFetchCaster"
          },
          "AnimStateName": "Skill01",
          "NormalizedTimeEnd": {
            "IsDynamic": false,
            "FixedValue": {
              "Value": 0.5652771594468504
            }
          }
        },
        {
          "$type": "RPG.GameCore.VCameraConfigChange",
          "CameraConfig": {
            "ShakeTemplateName": "OneShake_Heavy_03s_XY",
            "OverrideShakeConfigV2": {
              "ShakeScale": 1,
              "ShakeTime": 0.6,
              "ShakeDir": {
                "X": 0,
                "Y": -1,
                "Z": -0.3
              },
              "RangeAttenuationDelay": 999
            },
            "BlendConfig": {
              "BlendType": "Cut"
            }
          }
        }
      ]
    },
    {
      "Name": "Monster_W2_Beast02_00_Skill02_Camera",
      "TargetInfo": {
        "TargetType": "SkillTargetEntityList",
        "MaxTargetCount": 3
      },
      "OnStart": [
        {
          "$type": "RPG.GameCore.WaitAnimState",
          "TargetType": {
            "$type": "RPG.GameCore.TargetFetchCaster"
          },
          "AnimStateName": "Skill02",
          "NormalizedTimeEnd": {
            "IsDynamic": false,
            "FixedValue": {
              "Value": 0.0020120718982070684
            }
          }
        },
        {
          "$type": "RPG.GameCore.VCameraConfigChange",
          "CameraConfig": {
            "NormalConfig": {
              "CameraState": "UseSkillPerform",
              "IsLocalOffset": true,
              "AnchorOffset": {
                "X": -1.74,
                "Y": 0.01,
                "Z": 3.5
              },
              "AimTargetType": {
                "$type": "RPG.GameCore.TargetAlias",
                "Alias": "Caster"
              },
              "AimOffset": {
                "X": -0.21,
                "Y": -0.01,
                "Z": 0
              },
              "FollowPoleAngle": 90,
              "FollowRadius": 0.88,
              "ForbidChangeOffset": true
            },
            "BlendConfig": {
              "BlendType": "Cut",
              "BlendTime": 0.016667
            },
            "ShowEntityConfig": {
              "ShowTargetType": {
                "$type": "RPG.GameCore.TargetAlias",
                "Alias": "Caster"
              }
            }
          }
        },
        {
          "$type": "RPG.GameCore.WaitAnimState",
          "TargetType": {
            "$type": "RPG.GameCore.TargetFetchCaster"
          },
          "AnimStateName": "Skill02",
          "NormalizedTimeEnd": {
            "IsDynamic": false,
            "FixedValue": {
              "Value": 0.023340038722380996
            }
          }
        },
        {
          "$type": "RPG.GameCore.VCameraConfigChange",
          "CameraConfig": {
            "NormalConfig": {
              "CameraState": "UseSkillPerform",
              "IsLocalOffset": true,
              "AnchorOffset": {
                "X": -0.5,
                "Y": -2.14,
                "Z": 5.41
              },
              "AimTargetType": {
                "$type": "RPG.GameCore.TargetAlias",
                "Alias": "Caster"
              },
              "AimOffset": {
                "X": 0,
                "Y": 0.5,
                "Z": 0
              },
              "FollowPoleAngle": 90,
              "FollowRadius": 0.88,
              "ForbidChangeOffset": true
            },
            "BlendConfig": {
              "BlendType": "EaseInOut",
              "CustomCurveName": "Blend_FastToSlow",
              "BlendTime": 0.366667
            },
            "ShowEntityConfig": {
              "ShowTargetType": {
                "$type": "RPG.GameCore.TargetAlias",
                "Alias": "Caster"
              }
            }
          }
        },
        {
          "$type": "RPG.GameCore.WaitAnimState",
          "TargetType": {
            "$type": "RPG.GameCore.TargetFetchCaster"
          },
          "AnimStateName": "Skill02",
          "NormalizedTimeEnd": {
            "IsDynamic": false,
            "FixedValue": {
              "Value": 0.08321024407632649
            }
          }
        },
        {
          "$type": "RPG.GameCore.VCameraConfigChange",
          "CameraConfig": {
            "ShakeTemplateName": "Common_Rapid_Light",
            "OverrideShakeConfigV2": {
              "ShakeScale": 1,
              "ShakeTime": 0.1,
              "ShakeDir": {
                "X": 0,
                "Y": 0,
                "Z": 0.1
              },
              "RangeAttenuationDelay": 999,
              "RangeAttenuationTarget": 0
            },
            "BlendConfig": {
              "BlendType": "Cut"
            }
          }
        },
        {
          "$type": "RPG.GameCore.WaitAnimState",
          "TargetType": {
            "$type": "RPG.GameCore.TargetFetchCaster"
          },
          "AnimStateName": "Skill02",
          "NormalizedTimeEnd": {
            "IsDynamic": false,
            "FixedValue": {
              "Value": 0.21267324686050415
            }
          }
        },
        {
          "$type": "RPG.GameCore.VCameraConfigChange",
          "CameraConfig": {
            "NormalConfig": {
              "CameraState": "UseSkillPerform",
              "IsLocalOffset": true,
              "AnchorOffset": {
                "X": -0.08,
                "Y": -2.97,
                "Z": 4.68
              },
              "AimTargetType": {
                "$type": "RPG.GameCore.TargetAlias",
                "Alias": "Caster"
              },
              "AimOffset": {
                "X": 0,
                "Y": 3.4,
                "Z": 0
              },
              "FollowPoleAngle": 90,
              "FollowRadius": 0.88,
              "ForbidChangeOffset": true
            },
            "BlendConfig": {
              "BlendType": "EaseInOut",
              "CustomCurveName": "BlendCut_00to1",
              "BlendTime": 0.368357
            },
            "ShowEntityConfig": {
              "ShowTargetType": {
                "$type": "RPG.GameCore.TargetAlias",
                "Alias": "Caster"
              }
            }
          }
        },
        {
          "$type": "RPG.GameCore.WaitAnimState",
          "TargetType": {
            "$type": "RPG.GameCore.TargetFetchCaster"
          },
          "AnimStateName": "Skill02",
          "NormalizedTimeEnd": {
            "IsDynamic": false,
            "FixedValue": {
              "Value": 0.25392350601032376
            }
          }
        },
        {
          "$type": "RPG.GameCore.VCameraConfigChange",
          "CameraConfig": {
            "NormalConfig": {
              "CameraState": "UseSkillPerform",
              "IsLocalOffset": true,
              "AnchorOffset": {
                "X": -0.08,
                "Y": -1.72,
                "Z": 2.25
              },
              "AimTargetType": {
                "$type": "RPG.GameCore.TargetAlias",
                "Alias": "Caster"
              },
              "AimOffset": {
                "X": 0,
                "Y": 3.48,
                "Z": 0
              },
              "FollowPoleAngle": 90,
              "FollowRadius": 0.88,
              "ForbidChangeOffset": true
            },
            "BlendConfig": {
              "BlendType": "Linear",
              "BlendTime": 0.639999
            },
            "ShowEntityConfig": {
              "ShowTargetType": {
                "$type": "RPG.GameCore.TargetAlias",
                "Alias": "Caster"
              }
            }
          }
        },
        {
          "$type": "RPG.GameCore.WaitAnimState",
          "TargetType": {
            "$type": "RPG.GameCore.TargetFetchCaster"
          },
          "AnimStateName": "Skill02",
          "NormalizedTimeEnd": {
            "IsDynamic": false,
            "FixedValue": {
              "Value": 0.34084504866041243
            }
          }
        },
        {
          "$type": "RPG.GameCore.VCameraConfigChange",
          "CameraConfig": {
            "NormalConfig": {
              "CameraState": "UseSkillPerform",
              "IsLocalOffset": true,
              "AnchorOffset": {
                "X": -0.01,
                "Y": 0,
                "Z": 1.63
              },
              "AimTargetType": {
                "$type": "RPG.GameCore.TargetAlias",
                "Alias": "Caster"
              },
              "AimOffset": {
                "X": 0.58,
                "Y": 0,
                "Z": 0
              },
              "FollowPoleAngle": 90,
              "FollowRadius": 0.88,
              "ForbidChangeOffset": true
            },
            "BlendConfig": {
              "BlendType": "EaseOut",
              "BlendTime": 0.006667
            },
            "ShowEntityConfig": {
              "ShowTargetType": {
                "$type": "RPG.GameCore.TargetAlias",
                "Alias": "CasterWithAbilityTargetEntity"
              }
            }
          }
        },
        {
          "$type": "RPG.GameCore.WaitAnimState",
          "TargetType": {
            "$type": "RPG.GameCore.TargetFetchCaster"
          },
          "AnimStateName": "Skill02",
          "NormalizedTimeEnd": {
            "IsDynamic": false,
            "FixedValue": {
              "Value": 0.34325951407663524
            }
          }
        },
        {
          "$type": "RPG.GameCore.VCameraConfigChange",
          "CameraConfig": {
            "NormalConfig": {
              "CameraState": "UseSkillPerform",
              "IsLocalOffset": true,
              "AnchorOffset": {
                "X": -0.01,
                "Y": 0,
                "Z": 7
              },
              "AimTargetType": {
                "$type": "RPG.GameCore.TargetAlias",
                "Alias": "Caster"
              },
              "AimOffset": {
                "X": 0.58,
                "Y": 0,
                "Z": 0
              },
              "FollowPoleAngle": 90,
              "FollowRadius": 0.88,
              "ForbidChangeOffset": true
            },
            "BlendConfig": {
              "BlendType": "EaseInOut",
              "CustomCurveName": "Blend_FastToSlow 1",
              "BlendTime": 0.196667
            },
            "ShowEntityConfig": {
              "ShowTargetType": {
                "$type": "RPG.GameCore.TargetAlias",
                "Alias": "CasterWithAbilityTargetEntity"
              }
            }
          }
        },
        {
          "$type": "RPG.GameCore.WaitAnimState",
          "TargetType": {
            "$type": "RPG.GameCore.TargetFetchCaster"
          },
          "AnimStateName": "Skill02",
          "NormalizedTimeEnd": {
            "IsDynamic": false,
            "FixedValue": {
              "Value": 0.3533555269241333
            }
          }
        },
        {
          "$type": "RPG.GameCore.VCameraConfigChange",
          "CameraConfig": {
            "ShakeTemplateName": "OneShake_Heavy_03s_XY",
            "OverrideShakeConfigV2": {
              "ShakeScale": 1,
              "ShakeTime": 0.6,
              "ShakeDir": {
                "X": 0,
                "Y": -1,
                "Z": -0.3
              },
              "RangeAttenuationDelay": 999
            },
            "BlendConfig": {
              "BlendType": "Cut"
            }
          }
        }
      ]
    },
    {
      "Name": "Monster_W2_Beast02_00_Skill03_Camera",
      "TargetInfo": {
        "TargetType": "Caster"
      },
      "OnStart": [
        {
          "$type": "RPG.GameCore.VCameraConfigChange",
          "CameraConfig": {
            "NormalConfig": {
              "CameraState": "UseSkillPerform",
              "UseLightTeamOffsetByTeamWidth": true,
              "AnchorOffset": {
                "X": -2.67,
                "Y": 0,
                "Z": -2.13
              },
              "AimTargetType": {
                "$type": "RPG.GameCore.TargetAlias",
                "Alias": "Caster"
              },
              "AimOffset": {
                "X": 0,
                "Y": -0.25,
                "Z": 0
              }
            },
            "BlendConfig": {
              "BlendType": "Cut"
            },
            "ShowEntityConfig": {
              "ShowTargetType": {
                "$type": "RPG.GameCore.TargetAlias",
                "Alias": "Caster"
              }
            }
          }
        },
        {
          "$type": "RPG.GameCore.WaitAnimState",
          "TargetType": {
            "$type": "RPG.GameCore.TargetFetchCaster"
          },
          "AnimStateName": "Skill03",
          "NormalizedTimeEnd": {
            "IsDynamic": false,
            "FixedValue": {
              "Value": 0.0107843151781708
            }
          }
        },
        {
          "$type": "RPG.GameCore.VCameraConfigChange",
          "CameraConfig": {
            "NormalConfig": {
              "CameraState": "UseSkillPerform",
              "UseLightTeamOffsetByTeamWidth": true,
              "AnchorOffset": {
                "X": -3.03,
                "Y": 0,
                "Z": 1
              },
              "AimTargetType": {
                "$type": "RPG.GameCore.TargetAlias",
                "Alias": "Caster"
              },
              "AimOffset": {
                "X": 0,
                "Y": 0.3,
                "Z": 0
              }
            },
            "BlendConfig": {
              "BlendType": "EaseInOut",
              "CustomCurveName": "Blend_FastToSlow",
              "BlendTime": 0.94
            },
            "ShowEntityConfig": {
              "ShowTargetType": {
                "$type": "RPG.GameCore.TargetAlias",
                "Alias": "Caster"
              }
            }
          }
        },
        {
          "$type": "RPG.GameCore.WaitAnimState",
          "TargetType": {
            "$type": "RPG.GameCore.TargetFetchCaster"
          },
          "AnimStateName": "Skill03",
          "NormalizedTimeEnd": {
            "IsDynamic": false,
            "FixedValue": {
              "Value": 0.31078428169712424
            }
          }
        },
        {
          "$type": "RPG.GameCore.VCameraConfigChange",
          "CameraConfig": {
            "NormalConfig": {
              "CameraState": "UseSkillPerform",
              "UseLightTeamOffsetByTeamWidth": true,
              "AnchorOffset": {
                "X": -3.03,
                "Y": 0,
                "Z": -1
              },
              "AimTargetType": {
                "$type": "RPG.GameCore.TargetAlias",
                "Alias": "Caster"
              },
              "AimOffset": {
                "X": 0,
                "Y": -0.25,
                "Z": 0
              }
            },
            "BlendConfig": {
              "BlendType": "Cut",
              "BlendTime": 0.013333
            },
            "ShowEntityConfig": {
              "ShowTargetType": {
                "$type": "RPG.GameCore.TargetAlias",
                "Alias": "Caster"
              }
            }
          }
        },
        {
          "$type": "RPG.GameCore.WaitAnimState",
          "TargetType": {
            "$type": "RPG.GameCore.TargetFetchCaster"
          },
          "AnimStateName": "Skill03",
          "NormalizedTimeEnd": {
            "IsDynamic": false,
            "FixedValue": {
              "Value": 0.31764706899411976
            }
          }
        },
        {
          "$type": "RPG.GameCore.VCameraConfigChange",
          "CameraConfig": {
            "ShakeTemplateName": "Punch_Light",
            "OverrideShakeConfigV2": {
              "ShakeScale": 4,
              "ShakeTime": 1,
              "ShakeDir": {
                "X": 0,
                "Y": 0,
                "Z": -0.2
              },
              "RangeAttenuationDelay": 999,
              "RangeAttenuationTarget": 0,
              "RangeAttenuationDuration": 1
            }
          }
        },
        {
          "$type": "RPG.GameCore.WaitAnimState",
          "TargetType": {
            "$type": "RPG.GameCore.TargetFetchCaster"
          },
          "AnimStateName": "Skill03",
          "NormalizedTimeEnd": {
            "IsDynamic": false,
            "FixedValue": {
              "Value": 0.3637254841160029
            }
          }
        },
        {
          "$type": "RPG.GameCore.VCameraConfigChange",
          "CameraConfig": {
            "NormalConfig": {
              "CameraState": "UseSkillPerform",
              "UseLightTeamOffsetByTeamWidth": true,
              "AnchorOffset": {
                "X": -3.03,
                "Y": 0,
                "Z": -2
              },
              "AimTargetType": {
                "$type": "RPG.GameCore.TargetAlias",
                "Alias": "Caster"
              },
              "AimOffset": {
                "X": 0,
                "Y": -0.25,
                "Z": 0
              }
            },
            "BlendConfig": {
              "BlendType": "EaseInOut",
              "CustomCurveName": "Blend_FastToSlow",
              "BlendTime": 2.046667
            },
            "ShowEntityConfig": {
              "ShowTargetType": {
                "$type": "RPG.GameCore.TargetAlias",
                "Alias": "Caster"
              }
            }
          }
        }
      ]
    },
    {
      "Name": "Monster_W2_Beast02_00_Skill04_Camera",
      "TargetInfo": {
        "TargetType": "Caster"
      },
      "OnStart": [
        {
          "$type": "RPG.GameCore.VCameraConfigChange",
          "CameraConfig": {
            "NormalConfig": {
              "CameraState": "UseSkillPerform",
              "IsLocalOffset": true,
              "AnchorOffset": {
                "X": 0,
                "Y": -0.18,
                "Z": 5.78
              },
              "AimTargetType": {
                "$type": "RPG.GameCore.TargetAlias",
                "Alias": "Caster"
              },
              "AimOffset": {
                "X": 0,
                "Y": -0.03,
                "Z": 0
              },
              "FollowPoleAngle": 90,
              "FollowRadius": 0.88,
              "ForbidChangeOffset": true
            },
            "BlendConfig": {
              "BlendType": "Cut",
              "BlendTime": 0.016667
            },
            "ShowEntityConfig": {
              "ShowTargetType": {
                "$type": "RPG.GameCore.TargetAlias",
                "Alias": "Caster"
              }
            }
          }
        },
        {
          "$type": "RPG.GameCore.WaitAnimState",
          "TargetType": {
            "$type": "RPG.GameCore.TargetFetchCaster"
          },
          "AnimStateName": "Skill04",
          "NormalizedTimeEnd": {
            "IsDynamic": false,
            "FixedValue": {
              "Value": 0.027421936625614762
            }
          }
        },
        {
          "$type": "RPG.GameCore.VCameraConfigChange",
          "CameraConfig": {
            "NormalConfig": {
              "CameraState": "UseSkillPerform",
              "IsLocalOffset": true,
              "AnchorOffset": {
                "X": 0,
                "Y": -0.18,
                "Z": 5
              },
              "AimTargetType": {
                "$type": "RPG.GameCore.TargetAlias",
                "Alias": "Caster"
              },
              "AimOffset": {
                "X": 0,
                "Y": -0.52,
                "Z": 0
              },
              "FollowPoleAngle": 90,
              "FollowRadius": 0.88,
              "ForbidChangeOffset": true
            },
            "BlendConfig": {
              "BlendType": "EaseInOut",
              "CustomCurveName": "Blend_FastToSlow",
              "BlendTime": 0.207734
            },
            "ShowEntityConfig": {
              "ShowTargetType": {
                "$type": "RPG.GameCore.TargetAlias",
                "Alias": "Caster"
              }
            }
          }
        },
        {
          "$type": "RPG.GameCore.WaitAnimState",
          "TargetType": {
            "$type": "RPG.GameCore.TargetFetchCaster"
          },
          "AnimStateName": "Skill04",
          "NormalizedTimeEnd": {
            "IsDynamic": false,
            "FixedValue": {
              "Value": 0.11111110402271152
            }
          }
        },
        {
          "$type": "RPG.GameCore.VCameraConfigChange",
          "CameraConfig": {
            "NormalConfig": {
              "CameraState": "UseSkillPerform",
              "IsLocalOffset": true,
              "AnchorOffset": {
                "X": 0,
                "Y": -0.18,
                "Z": 5
              },
              "AimTargetType": {
                "$type": "RPG.GameCore.TargetAlias",
                "Alias": "Caster"
              },
              "AimOffset": {
                "X": 0,
                "Y": 0.81,
                "Z": 0
              },
              "FollowPoleAngle": 90,
              "FollowRadius": 0.88,
              "ForbidChangeOffset": true
            },
            "BlendConfig": {
              "BlendType": "EaseInOut",
              "CustomCurveName": "Blend_FastToSlow",
              "BlendTime": 0.184438
            },
            "ShowEntityConfig": {
              "ShowTargetType": {
                "$type": "RPG.GameCore.TargetAlias",
                "Alias": "Caster"
              }
            }
          }
        },
        {
          "$type": "RPG.GameCore.WaitAnimState",
          "TargetType": {
            "$type": "RPG.GameCore.TargetFetchCaster"
          },
          "AnimStateName": "Skill04",
          "NormalizedTimeEnd": {
            "IsDynamic": false,
            "FixedValue": {
              "Value": 0.17965847277082503
            }
          }
        },
        {
          "$type": "RPG.GameCore.VCameraConfigChange",
          "CameraConfig": {
            "NormalConfig": {
              "CameraState": "UseSkillPerform",
              "IsLocalOffset": true,
              "AnchorOffset": {
                "X": 0,
                "Y": -0.18,
                "Z": 4.78
              },
              "AimTargetType": {
                "$type": "RPG.GameCore.TargetAlias",
                "Alias": "Caster"
              },
              "AimOffset": {
                "X": 0,
                "Y": 0.81,
                "Z": 0
              },
              "FollowPoleAngle": 90,
              "FollowRadius": 0.88,
              "ForbidChangeOffset": true
            },
            "BlendConfig": {
              "BlendType": "EaseInOut",
              "CustomCurveName": "Blend_FastToSlow",
              "BlendTime": 0.834586
            },
            "ShowEntityConfig": {
              "ShowTargetType": {
                "$type": "RPG.GameCore.TargetAlias",
                "Alias": "Caster"
              }
            }
          }
        },
        {
          "$type": "RPG.GameCore.WaitSecond",
          "WaitTime": 0.953146
        },
        {
          "$type": "RPG.GameCore.VCameraConfigChange",
          "CameraConfig": {
            "NormalConfig": {
              "CameraState": "UseSkillPerform",
              "AnchorTargetType": {
                "$type": "RPG.GameCore.TargetAlias",
                "Alias": "AllEnemy"
              },
              "AnchorOffset": {
                "X": -2.73,
                "Y": 0.37,
                "Z": -2
              },
              "AimTargetType": {
                "$type": "RPG.GameCore.TargetAlias",
                "Alias": "Caster"
              },
              "AimOffset": {
                "X": 0,
                "Y": 0.86,
                "Z": 0
              },
              "ForbidChangeOffset": true
            },
            "BlendConfig": {
              "BlendType": "Cut",
              "CustomCurveName": "BlendCut_MazeEnterBattle",
              "BlendTime": 0.088107
            },
            "ShowEntityConfig": {
              "ShowTargetType": {
                "$type": "RPG.GameCore.TargetAlias",
                "Alias": "CasterWithAllEnemy"
              },
              "IsTargetIgnoreCameraDither": true
            }
          }
        },
        {
          "$type": "RPG.GameCore.WaitSecond",
          "WaitTime": 0.163334
        },
        {
          "$type": "RPG.GameCore.VCameraConfigChange",
          "CameraConfig": {
            "NormalConfig": {
              "CameraState": "UseSkillPerform",
              "AnchorTargetType": {
                "$type": "RPG.GameCore.TargetAlias",
                "Alias": "AllEnemy"
              },
              "AnchorOffset": {
                "X": -2.73,
                "Y": 0.37,
                "Z": -2.41
              },
              "AimTargetType": {
                "$type": "RPG.GameCore.TargetAlias",
                "Alias": "Caster"
              },
              "AimOffset": {
                "X": 0,
                "Y": 0.86,
                "Z": 0
              },
              "ForbidChangeOffset": true
            },
            "BlendConfig": {
              "BlendType": "Custom",
              "CustomCurveName": "Blend_FastToSlow",
              "BlendTime": 1.874773
            },
            "ShowEntityConfig": {
              "ShowTargetType": {
                "$type": "RPG.GameCore.TargetAlias",
                "Alias": "CasterWithAllEnemy"
              },
              "IsTargetIgnoreCameraDither": true
            }
          }
        }
      ]
    },
    {
      "Name": "Monster_W2_Beast02_00_Skill05_Camera",
      "TargetInfo": {
        "TargetType": "SkillTargetEntityList"
      },
      "OnStart": [
        {
          "$type": "RPG.GameCore.VCameraConfigChange",
          "CameraConfig": {
            "NormalConfig": {
              "CameraState": "UseSkillPerform",
              "AnchorOffset": {
                "X": -0.8,
                "Y": 0,
                "Z": -0.93
              },
              "AimTargetType": {
                "$type": "RPG.GameCore.TargetAlias",
                "Alias": "Caster"
              },
              "AimOffset": {
                "X": 1.89,
                "Y": 0,
                "Z": 0.69
              },
              "FollowDamp": 0.01,
              "AimDamp": 0.01
            },
            "AdditiveNormalConfig": {
              "AnchorOffset": {
                "X": -0.23,
                "Y": 0,
                "Z": 0
              },
              "AimOffset": {
                "X": -1.53,
                "Y": 0,
                "Z": 0
              }
            },
            "BlendConfig": {
              "BlendType": "Cut"
            }
          }
        },
        {
          "$type": "RPG.GameCore.WaitAnimState",
          "TargetType": {
            "$type": "RPG.GameCore.TargetAlias",
            "Alias": "Caster"
          },
          "AnimStateName": "Weak_Recover",
          "NormalizedTimeEnd": {
            "IsDynamic": false,
            "FixedValue": {
              "Value": 0.00125000043772161
            }
          }
        },
        {
          "$type": "RPG.GameCore.VCameraConfigChange",
          "CameraConfig": {
            "NormalConfig": {
              "CameraState": "CameraMotion",
              "ResetToDefault": false
            },
            "BlendConfig": {
              "BlendType": "Cut",
              "BlendTime": 0.01
            }
          }
        },
        {
          "$type": "RPG.GameCore.WaitAnimState",
          "TargetType": {
            "$type": "RPG.GameCore.TargetAlias",
            "Alias": "Caster"
          },
          "AnimStateName": "Weak_Recover",
          "NormalizedTimeEnd": {
            "IsDynamic": false,
            "FixedValue": {
              "Value": 0.4669999999459833
            }
          }
        }
      ]
    }
  ]
}