{
  "MainMissionID": 8002231,
  "PrologueSubMssionID": 800223102,
  "StartSubMissionList": [
    800223101
  ],
  "FinishSubMissionList": [
    800223112
  ],
  "SubMissionList": [
    {
      "ID": 800223101,
      "MainMissionID": 8002231,
      "MissionJsonPath": "Config/Level/Mission/8002231/Mission_800223101.json",
      "LevelPlaneID": 10201,
      "LevelFloorID": 10201001,
      "TakeType": "Auto",
      "TakeParamIntList": [
        8002231
      ],
      "FinishType": "Talk",
      "ParamType": "Equal",
      "ParamStr1": "Mission_800223101",
      "FinishActionList": [],
      "Progress": 1,
      "CustomValueList": [],
      "CustomValueReward": [],
      "RequiredNPCSeriesIDList": [],
      "WayPointType": "NPC",
      "WayPointFloorID": 10201001,
      "WayPointGroupID": 20,
      "WayPointEntityID": 400001,
      "MapNPCList": [],
      "MapPropList": []
    },
    {
      "ID": 800223102,
      "MainMissionID": 8002231,
      "MissionJsonPath": "Config/Level/Mission/8002231/Mission_800223102.json",
      "LevelPlaneID": 20232,
      "LevelFloorID": 20232001,
      "TakeType": "AnySequence",
      "TakeParamIntList": [
        800223101
      ],
      "FinishType": "StageWin",
      "ParamType": "Equal",
      "ParamInt1": 20232208,
      "FinishActionList": [],
      "Progress": 1,
      "CustomValueList": [],
      "CustomValueReward": [],
      "RequiredNPCSeriesIDList": [],
      "IsShowStartHint": "New",
      "WayPointType": "NPC",
      "WayPointFloorID": 20232001,
      "WayPointGroupID": 88,
      "WayPointEntityID": 400001,
      "MapNPCList": [],
      "MapPropList": []
    },
    {
      "ID": 800223103,
      "MainMissionID": 8002231,
      "MissionJsonPath": "Config/Level/Mission/8002231/Mission_800223103.json",
      "LevelPlaneID": 20232,
      "LevelFloorID": 20232001,
      "TakeType": "AnySequence",
      "TakeParamIntList": [
        800223102
      ],
      "FinishType": "Talk",
      "ParamType": "Equal",
      "ParamStr1": "Mission_800223103",
      "FinishActionList": [],
      "Progress": 1,
      "CustomValueList": [],
      "CustomValueReward": [],
      "RequiredNPCSeriesIDList": [],
      "WayPointType": "NPC",
      "WayPointFloorID": 20232001,
      "WayPointGroupID": 88,
      "WayPointEntityID": 400001,
      "MapNPCList": [],
      "MapPropList": []
    },
    {
      "ID": 800223104,
      "MainMissionID": 8002231,
      "MissionJsonPath": "Config/Level/Mission/8002231/Mission_800223104.json",
      "LevelPlaneID": 20232,
      "LevelFloorID": 20232001,
      "TakeType": "AnySequence",
      "TakeParamIntList": [
        800223102
      ],
      "FinishType": "RaidFinishCnt",
      "ParamType": "ListContain",
      "ParamIntList": [
        43207
      ],
      "FinishActionList": [],
      "Progress": 1,
      "CustomValueList": [],
      "CustomValueReward": [],
      "RequiredNPCSeriesIDList": [],
      "IsShow": false,
      "WayPointFloorID": 20232001,
      "MapNPCList": [],
      "MapPropList": []
    },
    {
      "ID": 800223105,
      "MainMissionID": 8002231,
      "MissionJsonPath": "Config/Level/Mission/8002231/Mission_800223105.json",
      "LevelPlaneID": 20232,
      "LevelFloorID": 20232001,
      "TakeType": "AnySequence",
      "TakeParamIntList": [
        800223103
      ],
      "FinishType": "RaidFinishCnt",
      "ParamType": "ListContain",
      "ParamIntList": [
        43207
      ],
      "FinishActionList": [],
      "Progress": 1,
      "CustomValueList": [],
      "CustomValueReward": [],
      "RequiredNPCSeriesIDList": [],
      "WayPointType": "NPC",
      "WayPointFloorID": 20232001,
      "WayPointGroupID": 88,
      "WayPointEntityID": 400001,
      "MapNPCList": [],
      "MapPropList": []
    },
    {
      "ID": 800223106,
      "MainMissionID": 8002231,
      "MissionJsonPath": "Config/Level/Mission/8002231/Mission_800223106.json",
      "LevelPlaneID": 20232,
      "LevelFloorID": 20232001,
      "TakeParamIntList": [],
      "FinishType": "Talk",
      "ParamType": "Equal",
      "ParamStr1": "Mission_800223106",
      "FinishActionList": [],
      "Progress": 1,
      "CustomValueList": [],
      "CustomValueReward": [],
      "RequiredNPCSeriesIDList": [],
      "WayPointFloorID": 20232001,
      "MapNPCList": [],
      "MapPropList": []
    },
    {
      "ID": 800223107,
      "MainMissionID": 8002231,
      "MissionJsonPath": "Config/Level/Mission/8002231/Mission_800223107.json",
      "LevelPlaneID": 20232,
      "LevelFloorID": 20232001,
      "TakeParamIntList": [],
      "FinishType": "FinishMission",
      "ParamType": "ListContain",
      "ParamIntList": [
        8002233
      ],
      "FinishActionList": [],
      "Progress": 1,
      "CustomValueList": [],
      "CustomValueReward": [],
      "RequiredNPCSeriesIDList": [],
      "IsShow": false,
      "WayPointFloorID": 20232001,
      "MapNPCList": [],
      "MapPropList": []
    },
    {
      "ID": 800223108,
      "MainMissionID": 8002231,
      "LevelPlaneID": 20232,
      "LevelFloorID": 20232001,
      "TakeParamIntList": [],
      "FinishType": "FinishMission",
      "ParamType": "ListContain",
      "ParamIntList": [
        8002233
      ],
      "FinishActionList": [],
      "Progress": 1,
      "CustomValueList": [],
      "CustomValueReward": [],
      "RequiredNPCSeriesIDList": [],
      "WayPointFloorID": 20232001,
      "MapNPCList": [],
      "MapPropList": []
    },
    {
      "ID": 800223109,
      "MainMissionID": 8002231,
      "MissionJsonPath": "Config/Level/Mission/8002231/Mission_800223109.json",
      "LevelPlaneID": 20232,
      "LevelFloorID": 20232001,
      "TakeParamIntList": [],
      "FinishType": "Talk",
      "ParamType": "Equal",
      "ParamStr1": "Mission_800223109",
      "FinishActionList": [],
      "Progress": 1,
      "CustomValueList": [],
      "CustomValueReward": [],
      "RequiredNPCSeriesIDList": [],
      "WayPointFloorID": 20232001,
      "MapNPCList": [],
      "MapPropList": []
    },
    {
      "ID": 800223110,
      "MainMissionID": 8002231,
      "MissionJsonPath": "Config/Level/Mission/8002231/Mission_800223110.json",
      "LevelPlaneID": 20232,
      "LevelFloorID": 20232001,
      "TakeParamIntList": [],
      "FinishType": "FinishMission",
      "ParamType": "ListContain",
      "ParamIntList": [
        8002234
      ],
      "FinishActionList": [],
      "Progress": 1,
      "CustomValueList": [],
      "CustomValueReward": [],
      "RequiredNPCSeriesIDList": [],
      "IsShow": false,
      "WayPointFloorID": 20232001,
      "MapNPCList": [],
      "MapPropList": []
    },
    {
      "ID": 800223111,
      "MainMissionID": 8002231,
      "LevelPlaneID": 20232,
      "LevelFloorID": 20232001,
      "TakeParamIntList": [],
      "FinishType": "FinishMission",
      "ParamType": "ListContain",
      "ParamIntList": [
        8002234
      ],
      "FinishActionList": [],
      "Progress": 1,
      "CustomValueList": [],
      "CustomValueReward": [],
      "RequiredNPCSeriesIDList": [],
      "WayPointFloorID": 20232001,
      "MapNPCList": [],
      "MapPropList": []
    },
    {
      "ID": 800223112,
      "MainMissionID": 8002231,
      "MissionJsonPath": "Config/Level/Mission/8002231/Mission_800223112.json",
      "LevelPlaneID": 20232,
      "LevelFloorID": 20232001,
      "TakeType": "AnySequence",
      "TakeParamIntList": [
        800223114
      ],
      "FinishType": "Talk",
      "ParamType": "Equal",
      "ParamStr1": "Mission_800223112",
      "FinishActionList": [],
      "Progress": 1,
      "CustomValueList": [],
      "CustomValueReward": [],
      "RequiredNPCSeriesIDList": [],
      "IsShowFinishEffect": 1,
      "WayPointType": "NPC",
      "WayPointFloorID": 20232001,
      "WayPointGroupID": 88,
      "WayPointEntityID": 400001,
      "MapNPCList": [],
      "MapPropList": []
    },
    {
      "ID": 800223113,
      "MainMissionID": 8002231,
      "MissionJsonPath": "Config/Level/Mission/8002231/Mission_800223113.json",
      "LevelPlaneID": 20232,
      "LevelFloorID": 20232001,
      "TakeParamIntList": [],
      "FinishType": "Talk",
      "ParamType": "Equal",
      "ParamStr1": "Mission_800223113",
      "FinishActionList": [],
      "Progress": 1,
      "CustomValueList": [],
      "CustomValueReward": [],
      "RequiredNPCSeriesIDList": [],
      "IsShow": false,
      "WayPointFloorID": 20232001,
      "MapNPCList": [],
      "MapPropList": []
    },
    {
      "ID": 800223114,
      "MainMissionID": 8002231,
      "MissionJsonPath": "Config/Level/Mission/8002231/Mission_800223114.json",
      "LevelPlaneID": 20232,
      "LevelFloorID": 20232001,
      "TakeType": "AnySequence",
      "TakeParamIntList": [
        800223104
      ],
      "FinishType": "StageWin",
      "ParamType": "Equal",
      "ParamInt1": 20232210,
      "FinishActionList": [],
      "Progress": 1,
      "CustomValueList": [],
      "CustomValueReward": [],
      "RequiredNPCSeriesIDList": [],
      "WayPointType": "NPC",
      "WayPointFloorID": 20232001,
      "WayPointGroupID": 88,
      "WayPointEntityID": 400001,
      "MapNPCList": [],
      "MapPropList": []
    }
  ],
  "MissionCustomValueList": [
    {
      "ValidValueParamList": []
    },
    {
      "Index": 1,
      "ValidValueParamList": []
    },
    {
      "Index": 2,
      "ValidValueParamList": []
    }
  ]
}