{
  "OnInitSequece": [],
  "OnStartSequece": [
    {
      "TaskList": [
        {
          "$type": "RPG.GameCore.WaitCustomString",
          "CustomString": {
            "Value": "Talk_202160132"
          }
        },
        {
          "$type": "RPG.GameCore.WaitSecond",
          "WaitTime": 0.5
        },
        {
          "$type": "RPG.GameCore.ConsumeMissionItem",
          "SubMissionID": 202160132,
          "IsAutoConsume": true,
          "Desc": {
            "Hash": 278713946
          },
          "SimpleTalk": {}
        }
      ]
    }
  ]
}