{
  "OnInitSequece": [],
  "OnStartSequece": [
    {
      "TaskList": [
        {
          "$type": "RPG.GameCore.PropSetupTrigger",
          "TargetType": {
            "$type": "RPG.GameCore.TargetFetchAdvPropEx"
          },
          "TargetTypes": [],
          "OnTriggerEnter": [
            {
              "$type": "RPG.GameCore.TriggerCustomString",
              "CustomString": {
                "Value": "Bubble_224_2"
              }
            }
          ]
        }
      ]
    },
    {
      "TaskList": [
        {
          "$type": "RPG.GameCore.WaitCustomString",
          "CustomString": {
            "Value": "Bubble_224_2"
          }
        },
        {
          "$type": "RPG.GameCore.PlayNPCBubbleTalk",
          "BubbleTalkInfoList": [
            {
              "AutoSkipTime": 4,
              "GroupID": 224,
              "GroupNpcID": 400004,
              "TalkSentenceID": 201022501
            },
            {
              "AutoSkipTime": 4,
              "GroupID": 224,
              "GroupNpcID": 400004,
              "TalkSentenceID": 201022502
            }
          ]
        },
        {
          "$type": "RPG.GameCore.WaitSecond",
          "WaitTime": 0.5
        },
        {
          "$type": "RPG.GameCore.PlayNPCBubbleTalk",
          "BubbleTalkInfoList": [
            {
              "AutoSkipTime": 3,
              "GroupID": 224,
              "GroupNpcID": 400005,
              "TalkSentenceID": 201022503
            },
            {
              "AutoSkipTime": 5,
              "GroupID": 224,
              "GroupNpcID": 400005,
              "TalkSentenceID": 201022504
            }
          ],
          "UniqueID": 1
        }
      ]
    }
  ],
  "Type": "EntityInstance"
}