{
  "OnInitSequece": [],
  "OnStartSequece": [
    {
      "TaskList": [
        {
          "$type": "RPG.GameCore.CreateNPC",
          "GroupID": {
            "IsDynamic": false,
            "FixedValue": {
              "Value": 27
            }
          },
          "GroupNpcID": {
            "IsDynamic": false,
            "FixedValue": {
              "Value": 400004
            }
          }
        }
      ]
    },
    {
      "TaskList": [
        {
          "$type": "RPG.GameCore.CreateProp",
          "GroupID": {
            "IsDynamic": false,
            "FixedValue": {
              "Value": 8
            }
          },
          "GroupPropID": {
            "IsDynamic": false,
            "FixedValue": {
              "Value": 300001
            }
          }
        }
      ]
    },
    {
      "TaskList": [
        {
          "$type": "RPG.GameCore.WaitSecond",
          "WaitTime": 0.5
        },
        {
          "$type": "RPG.GameCore.PropSetupUITrigger",
          "DisableAfterTriggered": true,
          "IconType": "CheckIcon",
          "ButtonText": {
            "Hash": 278713937
          },
          "ButtonCallback": [
            {
              "$type": "RPG.GameCore.TriggerCustomString",
              "CustomString": {
                "Value": "Mission_100010128"
              }
            }
          ],
          "OverrideTargetTypes": [],
          "TargetType": {
            "$type": "RPG.GameCore.TargetFetchAdvPropEx",
            "FetchType": "SinglePropByPropID",
            "SinglePropID": {
              "GroupID": {
                "IsDynamic": false,
                "FixedValue": {
                  "Value": 8
                }
              },
              "ID": {
                "IsDynamic": false,
                "FixedValue": {
                  "Value": 300001
                }
              }
            }
          }
        }
      ]
    },
    {
      "TaskList": [
        {
          "$type": "RPG.GameCore.WaitCustomString",
          "CustomString": {
            "Value": "Mission_100010128"
          },
          "WaitOwnerOnly": true
        },
        {
          "$type": "RPG.GameCore.LockPlayerControl"
        },
        {
          "$type": "RPG.GameCore.EnableNPCMonsterAI",
          "GroupMonsterIDs": [],
          "UniqueNames": []
        },
        {
          "$type": "RPG.GameCore.EnablePerformanceMode",
          "Enable": true
        },
        {
          "$type": "RPG.GameCore.BlockInputController",
          "Enable": true,
          "ActionNameList": []
        },
        {
          "$type": "RPG.GameCore.ShowTalkUI",
          "Show": true
        },
        {
          "$type": "RPG.GameCore.SetHLODSwitchDelay",
          "NoDelay": true
        },
        {
          "$type": "RPG.GameCore.AddStreamingSource",
          "StreamingSource": {
            "CenterName": "Mission_100010128",
            "AreaName": "LevelArea_P20001_F20001001_G14",
            "AnchorName": "Anchor1"
          }
        },
        {
          "$type": "RPG.GameCore.TriggerEffect",
          "Flags": [],
          "EffectPath": "Stages/OriginalResPos/InteractiveProp/Chapter00/Chap00_GameplayProp_TransparentWall/_dependencies/Prefab/PerspectiveAirwall_Cameras.prefab",
          "UniqueEffectName": "PerspectiveAirwall",
          "SubObjectModifyDataList": []
        },
        {
          "$type": "RPG.GameCore.PlayTimeline",
          "TimelineName": "Stages/OriginalResPos/InteractiveProp/Chapter00/Chap00_GameplayProp_TransparentWall/_dependencies/Prefab/PerspectiveAirwall_Cameras_TimeLine.playable",
          "Parameters": []
        },
        {
          "$type": "RPG.GameCore.TriggerSound",
          "SoundName": "Ev_sfx_hertaspacestation_n1_transition"
        },
        {
          "$type": "RPG.GameCore.WaitSecond",
          "WaitTime": 1.8
        },
        {
          "$type": "RPG.GameCore.SwitchCharacterAnchor",
          "IsLocalPlayer": true,
          "CharacterUniqueName": "LocalPlayer",
          "AreaName": {
            "Value": "LevelArea_P20001_F20001001_G14"
          },
          "AnchorName": {
            "Value": "Anchor1"
          }
        },
        {
          "$type": "RPG.GameCore.WaitSecond",
          "WaitTime": 1
        },
        {
          "$type": "RPG.GameCore.TriggerEffect",
          "Flags": [],
          "EffectPath": "Stages/OriginalResPos/InteractiveProp/Chapter00/Chap00_GameplayProp_TransparentWall/_dependencies/Prefab/PerspectiveAirwall_Cameras_End.prefab",
          "UniqueEffectName": "PerspectiveAirwall_end"
        },
        {
          "$type": "RPG.GameCore.WaitSecond",
          "WaitTime": 0.1
        },
        {
          "$type": "RPG.GameCore.RemoveEffect",
          "EffectPath": "Stages/OriginalResPos/InteractiveProp/Chapter00/Chap00_GameplayProp_TransparentWall/_dependencies/Prefab/PerspectiveAirwall_Cameras.prefab",
          "UniqueEffectName": "PerspectiveAirwall"
        },
        {
          "$type": "RPG.GameCore.WaitSecond",
          "WaitTime": 1
        },
        {
          "$type": "RPG.GameCore.RemoveEffect",
          "EffectPath": "Stages/OriginalResPos/InteractiveProp/Chapter00/Chap00_GameplayProp_TransparentWall/_dependencies/Prefab/PerspectiveAirwall_Cameras_End.prefab",
          "UniqueEffectName": "PerspectiveAirwall_end"
        },
        {
          "$type": "RPG.GameCore.EnablePerformanceMode"
        },
        {
          "$type": "RPG.GameCore.EnableNPCMonsterAI",
          "Enable": true,
          "GroupMonsterIDs": [],
          "UniqueNames": []
        },
        {
          "$type": "RPG.GameCore.ShowTalkUI"
        },
        {
          "$type": "RPG.GameCore.UnLockPlayerControl"
        },
        {
          "$type": "RPG.GameCore.BlockInputController",
          "ActionNameList": []
        },
        {
          "$type": "RPG.GameCore.SetHLODSwitchDelay",
          "DefaultDelay": true
        },
        {
          "$type": "RPG.GameCore.RemoveStreamingSource",
          "StreamingSource": "Mission_100010128"
        },
        {
          "$type": "RPG.GameCore.FinishPerformanceMission",
          "Key": "Mission_100010128"
        }
      ]
    },
    {
      "Order": 1,
      "TaskList": [
        {
          "$type": "RPG.GameCore.PropSetupTrigger",
          "TargetType": {
            "$type": "RPG.GameCore.TargetFetchAdvPropEx",
            "FetchType": "SinglePropByPropID",
            "SinglePropID": {
              "GroupID": {
                "IsDynamic": false,
                "FixedValue": {
                  "Value": 14
                }
              },
              "ID": {
                "IsDynamic": false,
                "FixedValue": {
                  "Value": 300021
                }
              }
            }
          },
          "TargetGroupID": {
            "IsDynamic": false,
            "FixedValue": {
              "Value": 0
            }
          },
          "TargetID": {
            "IsDynamic": false,
            "FixedValue": {
              "Value": 0
            }
          },
          "TargetTypes": [],
          "ColliderRelativePath": "Trigger",
          "DestroyAfterTriggered": true,
          "OnTriggerEnter": [
            {
              "$type": "RPG.GameCore.FinishPerformanceMission",
              "Key": "Mission_100010128"
            }
          ]
        }
      ]
    }
  ]
}