{
  "OnInitSequece": [],
  "OnStartSequece": [
    {
      "TaskList": [
        {
          "$type": "RPG.GameCore.PropInitPuzzle",
          "BoardPath": {
            "Value": "Props/DesignerBackup/SnowBall/Snowball_LV1.prefab"
          },
          "LocalPosition": {
            "X": 0,
            "Y": 0,
            "Z": 0
          }
        },
        {
          "$type": "RPG.GameCore.PropStartPuzzle"
        }
      ]
    },
    {
      "TaskList": [
        {
          "$type": "RPG.GameCore.CommonBoardPuzzleInBoard",
          "OnPlayerEnter": [
            {
              "$type": "RPG.GameCore.ActiveVirtualCamera",
              "AreaName": "Snowball_Camera",
              "AnchorName": "C1",
              "BlendConfig": {
                "ExportToJson": true,
                "BlendType": "EaseInOut"
              }
            },
            {
              "$type": "RPG.GameCore.TakenMazePuzzleChallenge",
              "TargetType": {
                "$type": "RPG.GameCore.TargetFetchAdvPropEx"
              },
              "MazePuzzleChallengeID": {
                "Value": "1011"
              },
              "AutoClosePuzzle": false,
              "PrepareTime": 0,
              "OnReset": [
                {
                  "$type": "RPG.GameCore.PlayScreenTransfer",
                  "Mode": "SwitchOut",
                  "CustomTime": 0.5
                },
                {
                  "$type": "RPG.GameCore.WaitSecond",
                  "WaitTime": 0.5
                },
                {
                  "$type": "RPG.GameCore.PropResetPuzzle"
                },
                {
                  "$type": "RPG.GameCore.SwitchCharacterAnchor",
                  "IsLocalPlayer": true,
                  "CharacterUniqueName": "LocalPlayer",
                  "AreaName": {
                    "Value": "LevelArea_P90101_F90101015_G6"
                  },
                  "AnchorName": {
                    "Value": "Anchor2"
                  }
                },
                {
                  "$type": "RPG.GameCore.PlayScreenTransfer",
                  "CustomTime": 0.5
                }
              ]
            }
          ],
          "OnPlayerLeave": [
            {
              "$type": "RPG.GameCore.ActiveVirtualCamera",
              "AreaName": "Snowball_Camera",
              "AnchorName": "C1",
              "IsActive": false,
              "BlendConfig": {
                "ExportToJson": true,
                "BlendType": "EaseInOut"
              }
            },
            {
              "$type": "RPG.GameCore.CancelMazePuzzleChallenge",
              "MazePuzzleChallengeID": {
                "Value": "1011"
              }
            }
          ]
        }
      ]
    }
  ]
}