{
  "AbilityList": [
    {
      "Name": "Avatar_AetherDivide_W1_Soldier04_00_Skill01_Phase01",
      "TargetInfo": {
        "TargetType": "SkillTargetEntityList"
      },
      "OnStart": [
        {
          "$type": "RPG.GameCore.LookAt",
          "TargetType": "AbilityTargetEntity"
        },
        {
          "$type": "RPG.GameCore.TriggerAbility",
          "TargetType": {
            "$type": "RPG.GameCore.TargetAlias",
            "Alias": "Caster"
          },
          "AbilityName": "Avatar_AetherDivide_W1_Soldier04_00_Skill01_Camera",
          "IsSkillPerform": true
        },
        {
          "$type": "RPG.GameCore.TriggerAbility",
          "TargetType": {
            "$type": "RPG.GameCore.TargetAlias",
            "Alias": "Caster"
          },
          "AbilityName": "Avatar_AetherDivide_W1_Soldier04_00_Skill01_Phase02",
          "IsSkillPerform": true
        },
        {
          "$type": "RPG.GameCore.TriggerAnimState",
          "AnimStateName": "Skill01",
          "NormalizedTimeEnd": {
            "IsDynamic": false,
            "FixedValue": {
              "Value": 1
            }
          }
        },
        {
          "$type": "RPG.GameCore.RadialBlurEffect",
          "TargetType": {
            "$type": "RPG.GameCore.TargetAlias",
            "Alias": "Caster"
          },
          "Active": false
        },
        {
          "$type": "RPG.GameCore.TriggerAnimState",
          "AnimLogicState": "Idle",
          "NormalizedTransitionDuration": {
            "IsDynamic": false,
            "FixedValue": {
              "Value": 0.25000000023283064
            }
          }
        }
      ]
    },
    {
      "Name": "Avatar_AetherDivide_W1_Soldier04_00_Skill01_Phase02",
      "TargetInfo": {
        "TargetType": "SkillTargetEntityList"
      },
      "OnStart": [
        {
          "$type": "RPG.GameCore.ModifySPNew",
          "TargetType": {
            "$type": "RPG.GameCore.TargetAlias",
            "Alias": "Caster"
          },
          "FixedAddValue": {
            "IsDynamic": false,
            "FixedValue": {
              "Value": 1
            }
          }
        },
        {
          "$type": "RPG.GameCore.WaitAnimState",
          "TargetType": {
            "$type": "RPG.GameCore.TargetAlias",
            "Alias": "Caster"
          },
          "AnimStateName": "Skill01",
          "NormalizedTimeEnd": {
            "IsDynamic": false,
            "FixedValue": {
              "Value": 0.2730000000447035
            }
          }
        },
        {
          "$type": "RPG.GameCore.FireProjectile",
          "Projectile": {
            "FlySpeed": 12,
            "AttachPoint": "Gun",
            "TargetAttachPoint": "Root",
            "IgnoreTargetHitbox": true,
            "FlyEffect": "Effects/Eff_Prefab/Eff_Monster/Eff_W1_Soldier04_00/Eff_Monster_W1_Soldier04_00_Skill01_Bullet.prefab",
            "HitEffect": "Effects/Eff_Prefab/Eff_Monster/Eff_W1_Soldier04_00/Eff_Monster_W1_Soldier04_00_Skill01_Hit.prefab",
            "AlignHitEffect": true,
            "LinearPitchAngle": {
              "IsDynamic": false,
              "FixedValue": {
                "Value": 30
              }
            }
          },
          "OnProjectileHit": [
            {
              "$type": "RPG.GameCore.VCameraConfigChange",
              "CameraConfig": {
                "ShakeConfigV2": {
                  "ShakeRange": 0.15,
                  "ShakeTime": 0.15,
                  "ShakeDistance": 100,
                  "ShakeDir": {
                    "X": 0.15,
                    "Y": 0.15,
                    "Z": 0.2
                  },
                  "BaseCycle": 0.05,
                  "CycleDamping": 0,
                  "RangeAttenuation": 0.95,
                  "PerlinNoiseAmplitude": {
                    "X": 0.1,
                    "Y": 0.1,
                    "Z": 0.1
                  },
                  "PerlinNoiseFreq": {
                    "X": 16,
                    "Y": 14,
                    "Z": 12
                  },
                  "RotationalAmplitude": {
                    "X": 0,
                    "Y": 0,
                    "Z": 3.5
                  }
                }
              }
            }
          ],
          "WaitProjectileFinish": true
        },
        {
          "$type": "RPG.GameCore.DamageByAttackProperty",
          "TargetType": {
            "$type": "RPG.GameCore.TargetAlias",
            "Alias": "AbilityTargetEntity"
          },
          "AttackProperty": {
            "DamagePercentage": {
              "IsDynamic": true,
              "PostfixExpr": {
                "OpCodes": "AQAK",
                "FixedValues": [],
                "DynamicHashes": [
                  -1126825319
                ]
              }
            },
            "IsFaceToHitDir": true,
            "HitAnimation": "Hit",
            "HitTimeSlowType": "Puncture"
          },
          "TriggerHitSound": true,
          "SpecialHitSoundEvent": "Ev_sfx_monster_skill_01_hit_w1_soldier04",
          "DisplayData": {
            "UIMessageHeight": 1,
            "DitherRangeX": 0.02,
            "DitherRangeY": 0.02
          }
        },
        {
          "$type": "RPG.GameCore.DamageByAttackProperty",
          "TargetType": {
            "$type": "RPG.GameCore.TargetAlias",
            "Alias": "AbilityTargetAdjoinEntity"
          },
          "AttackProperty": {
            "DamagePercentage": {
              "IsDynamic": true,
              "PostfixExpr": {
                "OpCodes": "AQAK",
                "FixedValues": [],
                "DynamicHashes": [
                  -1126825319
                ]
              }
            },
            "IsFaceToHitDir": true,
            "HitAnimation": "Hit"
          },
          "TriggerHitSound": true,
          "DisplayData": {
            "UIMessageHeight": 1,
            "DitherRangeX": 0.02,
            "DitherRangeY": 0.02
          }
        },
        {
          "$type": "RPG.GameCore.DamagePerformFinish"
        },
        {
          "$type": "RPG.GameCore.SkillPerformFinish"
        }
      ]
    },
    {
      "Name": "Avatar_AetherDivide_W1_Soldier04_00_Skill02_Phase01",
      "TargetInfo": {
        "TargetType": "SkillTargetEntityList"
      },
      "OnStart": [
        {
          "$type": "RPG.GameCore.PredicateTaskList",
          "Predicate": {
            "$type": "RPG.GameCore.ByIsContainModifier",
            "TargetType": {
              "$type": "RPG.GameCore.TargetAlias",
              "Alias": "AbilityTargetEntity"
            },
            "ModifierName": "Avatar_AetherDivide_ExtraHeight"
          },
          "SuccessTaskList": [
            {
              "$type": "RPG.GameCore.TriggerAbility",
              "TargetType": {
                "$type": "RPG.GameCore.TargetAlias",
                "Alias": "Caster"
              },
              "AbilityName": "Avatar_AetherDivide_W1_ExtraHeight_Skill02_Camera",
              "IsSkillPerform": true
            }
          ],
          "FailedTaskList": [
            {
              "$type": "RPG.GameCore.TriggerAbility",
              "TargetType": {
                "$type": "RPG.GameCore.TargetAlias",
                "Alias": "Caster"
              },
              "AbilityName": "Avatar_AetherDivide_W1_Soldier04_00_Skill02_Camera",
              "IsSkillPerform": true
            }
          ]
        },
        {
          "$type": "RPG.GameCore.TriggerAbility",
          "TargetType": {
            "$type": "RPG.GameCore.TargetAlias",
            "Alias": "Caster"
          },
          "AbilityName": "Avatar_AetherDivide_W1_Soldier04_00_Skill02_Phase02",
          "IsSkillPerform": true
        },
        {
          "$type": "RPG.GameCore.TriggerAnimState",
          "AnimStateName": "Skill02",
          "NormalizedTimeEnd": {
            "IsDynamic": false,
            "FixedValue": {
              "Value": 1
            }
          },
          "NormalizedTransitionDuration": {
            "IsDynamic": false,
            "FixedValue": {
              "Value": 0.1500000001396984
            }
          }
        },
        {
          "$type": "RPG.GameCore.WaitSecond",
          "WaitTime": 0.5
        }
      ]
    },
    {
      "Modifiers": {
        "Avatar_Soldier04_00_IsSupporting": {
          "LifeStepMoment": "ModifierPhase1End",
          "_CallbackList": [
            {
              "Event": "OnDestroy",
              "CallbackConfig": [
                {
                  "$type": "RPG.GameCore.RemoveModifier",
                  "TargetType": {
                    "$type": "RPG.GameCore.TargetAlias",
                    "Alias": "AllTeammate"
                  },
                  "ModifierName": "Avatar_Soldier04_00_AttachModifier"
                }
              ]
            },
            {
              "Event": "OnStack",
              "CallbackConfig": [
                {
                  "$type": "RPG.GameCore.ModifierAttachEffect",
                  "TargetType": {
                    "$type": "RPG.GameCore.TargetAlias",
                    "Alias": "ModifierOwnerEntity"
                  },
                  "EffectPath": "Effects/Eff_Prefab/Eff_Monster/Eff_W1_Soldier04_00/Eff_Monster_W1_Soldier04_00_Skill02_Loop01.prefab",
                  "MinMutexTime": -1,
                  "MutexType": "Entity"
                }
              ]
            }
          ],
          "Stacking": "Refresh"
        },
        "Avatar_Soldier04_00_AttachModifier": {
          "_CallbackList": [
            {
              "Event": "OnAfterHit",
              "CallbackConfig": [
                {
                  "$type": "RPG.GameCore.AddModifier",
                  "TargetType": {
                    "$type": "RPG.GameCore.TargetAlias",
                    "Alias": "AttackTargetList"
                  },
                  "ModifierName": "Avatar_AetherDivide_W1_Soldier04_00_SupportAttackTarget"
                }
              ]
            },
            {
              "Event": "OnStack",
              "CallbackConfig": [
                {
                  "$type": "RPG.GameCore.ModifierAttachEffect",
                  "TargetType": {
                    "$type": "RPG.GameCore.TargetAlias",
                    "Alias": "ModifierOwnerEntity"
                  },
                  "EffectPath": "Effects/Eff_Prefab/Eff_Monster/Eff_W1_Soldier04_00/Eff_Monster_W1_Soldier04_00_Skill02_Loop01.prefab",
                  "MinMutexTime": -1,
                  "MutexType": "Entity"
                }
              ]
            },
            {
              "Event": "OnAfterAttack",
              "CallbackConfig": [
                {
                  "$type": "RPG.GameCore.PredicateTaskList",
                  "Predicate": {
                    "$type": "RPG.GameCore.ByIsContainModifier",
                    "TargetType": {
                      "$type": "RPG.GameCore.TargetAlias",
                      "Alias": "ModifierOwnerEntity"
                    },
                    "ModifierName": "Avatar_W1_Soldier04_00_AddAttackOthersTurn"
                  },
                  "FailedTaskList": [
                    {
                      "$type": "RPG.GameCore.Retarget",
                      "TargetType": {
                        "$type": "RPG.GameCore.TargetAlias",
                        "Alias": "AllEnemy"
                      },
                      "Predicate": {
                        "$type": "RPG.GameCore.ByIsContainModifier",
                        "TargetType": {
                          "$type": "RPG.GameCore.TargetAlias",
                          "Alias": "ParamEntity"
                        },
                        "ModifierName": "Avatar_AetherDivide_W1_Soldier04_00_SupportAttackTarget"
                      },
                      "MaxNumber": {
                        "IsDynamic": false,
                        "FixedValue": {
                          "Value": 1
                        }
                      },
                      "TaskList": [
                        {
                          "$type": "RPG.GameCore.PredicateTaskList",
                          "Predicate": {
                            "$type": "RPG.GameCore.ByAnd",
                            "PredicateList": [
                              {
                                "$type": "RPG.GameCore.ByIsContainModifier",
                                "TargetType": {
                                  "$type": "RPG.GameCore.TargetAlias",
                                  "Alias": "Caster"
                                },
                                "ModifierName": "Avatar_AetherDivide_W1_Soldier04_00_InsertAttack_CD",
                                "Inverse": true
                              },
                              {
                                "$type": "RPG.GameCore.ByContainBehaviorFlag",
                                "TargetType": {
                                  "$type": "RPG.GameCore.TargetAlias",
                                  "Alias": "Caster"
                                },
                                "Flag": "STAT_CTRL",
                                "Inverse": true
                              },
                              {
                                "$type": "RPG.GameCore.ByContainBehaviorFlag",
                                "TargetType": {
                                  "$type": "RPG.GameCore.TargetAlias",
                                  "Alias": "Caster"
                                },
                                "Flag": "DisableAction",
                                "Inverse": true
                              }
                            ]
                          },
                          "SuccessTaskList": [
                            {
                              "$type": "RPG.GameCore.AddModifier",
                              "TargetType": {
                                "$type": "RPG.GameCore.TargetAlias",
                                "Alias": "Caster"
                              },
                              "ModifierName": "Avatar_AetherDivide_W1_Soldier04_00_InsertAttack_CD"
                            },
                            {
                              "$type": "RPG.GameCore.AddModifier",
                              "TargetType": {
                                "$type": "RPG.GameCore.TargetAlias",
                                "Alias": "ParamEntity"
                              },
                              "ModifierName": "Avatar_AetherDivide_W1_Soldier04_00_InsertAttack_CD_Target"
                            },
                            {
                              "$type": "RPG.GameCore.TurnInsertAbility",
                              "AbilityName": "Avatar_AetherDivide_W1_Soldier04_00_InsertAttack",
                              "TargetType": {
                                "$type": "RPG.GameCore.TargetAlias",
                                "Alias": "Caster"
                              },
                              "AbilityTarget": {
                                "$type": "RPG.GameCore.TargetAlias",
                                "Alias": "ParamEntity"
                              },
                              "AbortBehaviorFlags": [
                                "STAT_CTRL",
                                "DisableAction"
                              ],
                              "InsertAbilityPriority": "AvatarInsertAttackOthers",
                              "ShowInActionBar": true
                            }
                          ]
                        }
                      ]
                    }
                  ]
                },
                {
                  "$type": "RPG.GameCore.RemoveModifier",
                  "TargetType": {
                    "$type": "RPG.GameCore.TargetAlias",
                    "Alias": "AllEnemy"
                  },
                  "ModifierName": "Avatar_AetherDivide_W1_Soldier04_00_SupportAttackTarget"
                }
              ]
            }
          ],
          "Stacking": "Refresh"
        }
      },
      "Name": "Avatar_AetherDivide_W1_Soldier04_00_Skill02_Phase02",
      "TargetInfo": {
        "TargetType": "SkillTargetEntityList"
      },
      "OnStart": [
        {
          "$type": "RPG.GameCore.ModifySPNew",
          "TargetType": {
            "$type": "RPG.GameCore.TargetAlias",
            "Alias": "Caster"
          },
          "FixedAddValue": {
            "IsDynamic": false,
            "FixedValue": {
              "Value": 1
            }
          }
        },
        {
          "$type": "RPG.GameCore.WaitAnimState",
          "TargetType": {
            "$type": "RPG.GameCore.TargetAlias",
            "Alias": "Caster"
          },
          "AnimStateName": "Skill02",
          "NormalizedTimeEnd": {
            "IsDynamic": false,
            "FixedValue": {
              "Value": 0.5000000004656613
            }
          }
        },
        {
          "$type": "RPG.GameCore.TriggerEffect",
          "TargetType": {
            "$type": "RPG.GameCore.TargetAlias",
            "Alias": "AbilityTargetEntity"
          },
          "EffectPath": "Effects/Eff_Prefab/Eff_Monster/Eff_W1_Soldier01_03/Eff_Monster_W1_Soldier01_03_Skill03_01.prefab",
          "MinMutexTime": -1
        },
        {
          "$type": "RPG.GameCore.RemoveModifier",
          "TargetType": {
            "$type": "RPG.GameCore.TargetAlias",
            "Alias": "AllTeammate"
          },
          "ModifierName": "Avatar_Soldier04_00_AttachModifier"
        },
        {
          "$type": "RPG.GameCore.AddModifier",
          "TargetType": {
            "$type": "RPG.GameCore.TargetAlias",
            "Alias": "AbilityTargetEntity"
          },
          "ModifierName": "Avatar_Soldier04_00_AttachModifier"
        },
        {
          "$type": "RPG.GameCore.AddModifier",
          "TargetType": {
            "$type": "RPG.GameCore.TargetAlias",
            "Alias": "Caster"
          },
          "ModifierName": "Avatar_Soldier04_00_IsSupporting",
          "LifeTime": {
            "IsDynamic": false,
            "FixedValue": {
              "Value": 2
            }
          }
        },
        {
          "$type": "RPG.GameCore.SkillPerformFinish"
        }
      ]
    },
    {
      "Name": "Avatar_AetherDivide_W1_Soldier04_00_Skill03_EnterReady",
      "TargetInfo": {
        "TargetType": "InherentTargetEntity"
      },
      "OnStart": [
        {
          "$type": "RPG.GameCore.TriggerAnimState",
          "TargetType": {
            "$type": "RPG.GameCore.TargetAlias",
            "Alias": "AllTeammate"
          },
          "AnimLogicState": "Idle",
          "AnimStateName": "StandBy"
        },
        {
          "$type": "RPG.GameCore.WaitSecond",
          "WaitTime": 0.5
        },
        {
          "$type": "RPG.GameCore.SetTeamFormation",
          "Team": "TeamLight",
          "CustomFormationName": "Avatar_AetherDivide_Common_UltraFormation_U"
        },
        {
          "$type": "RPG.GameCore.VCameraConfigChange",
          "CameraConfig": {
            "NormalConfig": {
              "CameraState": "UseSkillPerform",
              "AnchorTargetType": {
                "$type": "RPG.GameCore.TargetAlias",
                "Alias": "LightTeamCenter"
              },
              "IsLocalOffset": true,
              "AnchorOffset": {
                "X": -2.34,
                "Y": 1.55,
                "Z": 8.62
              },
              "AimTargetType": {
                "$type": "RPG.GameCore.TargetAlias",
                "Alias": "LightTeamCenter"
              },
              "AimOffset": {
                "X": -0.74,
                "Y": 1.17,
                "Z": 0.58
              },
              "FollowRadius": 3.1,
              "FollowDamp": 0.5,
              "AimDamp": 0.5,
              "FOV": 60
            },
            "BlendConfig": {
              "BlendType": "Custom",
              "CustomCurveName": "Blend_UltraReady",
              "BlendTime": 1.5
            },
            "ShowEntityConfig": {
              "ShowTargetType": {
                "$type": "RPG.GameCore.TargetAlias",
                "Alias": "AllLightTeam"
              }
            }
          }
        }
      ]
    },
    {
      "Name": "Avatar_AetherDivide_W1_Soldier04_00_Skill03_Phase01",
      "TargetInfo": {
        "TargetType": "SkillTargetEntityList"
      },
      "OnStart": [
        {
          "$type": "RPG.GameCore.PredicateTaskList",
          "Predicate": {
            "$type": "RPG.GameCore.ByIsContainModifier",
            "TargetType": {
              "$type": "RPG.GameCore.TargetAlias",
              "Alias": "AbilityTargetEntity"
            },
            "ModifierName": "Avatar_AetherDivide_ExtraHeight"
          },
          "SuccessTaskList": [
            {
              "$type": "RPG.GameCore.TriggerAbility",
              "TargetType": {
                "$type": "RPG.GameCore.TargetAlias",
                "Alias": "Caster"
              },
              "AbilityName": "Avatar_AetherDivide_W1_Soldier04_00_Skill03_ExtraHeight_Camera",
              "IsSkillPerform": true
            }
          ],
          "FailedTaskList": [
            {
              "$type": "RPG.GameCore.TriggerAbility",
              "TargetType": {
                "$type": "RPG.GameCore.TargetAlias",
                "Alias": "Caster"
              },
              "AbilityName": "Avatar_AetherDivide_W1_Soldier04_00_Skill03_Camera",
              "IsSkillPerform": true
            }
          ]
        },
        {
          "$type": "RPG.GameCore.TriggerAbility",
          "TargetType": {
            "$type": "RPG.GameCore.TargetAlias",
            "Alias": "Caster"
          },
          "AbilityName": "Avatar_AetherDivide_W1_Soldier04_00_Skill03_Phase02",
          "IsSkillPerform": true
        },
        {
          "$type": "RPG.GameCore.TriggerAnimState",
          "AnimStateName": "Skill03"
        },
        {
          "$type": "RPG.GameCore.WaitAnimState",
          "TargetType": {
            "$type": "RPG.GameCore.TargetAlias",
            "Alias": "Caster"
          },
          "AnimStateName": "Skill03",
          "NormalizedTimeEnd": {
            "IsDynamic": false,
            "FixedValue": {
              "Value": 0.9980000003706664
            }
          }
        },
        {
          "$type": "RPG.GameCore.TriggerAnimState",
          "AnimLogicState": "Idle",
          "NormalizedTransitionDuration": {
            "IsDynamic": false,
            "FixedValue": {
              "Value": 0.25000000023283064
            }
          }
        },
        {
          "$type": "RPG.GameCore.WaitSecond",
          "WaitTime": 0.5
        }
      ]
    },
    {
      "Modifiers": {
        "Avatar_Soldier04_EnhanceSupportModifier": {},
        "Avatar_Soldier04_AddSPModifier": {
          "_CallbackList": [
            {
              "Event": "OnStack",
              "CallbackConfig": []
            }
          ],
          "DynamicValues": {
            "Values": {
              "626767498": {}
            }
          }
        },
        "Avatar_Soldier04_EnhanceAttachModifier": {
          "_CallbackList": [
            {
              "Event": "OnStack",
              "CallbackConfig": [
                {
                  "$type": "RPG.GameCore.TriggerEffect",
                  "TargetType": {
                    "$type": "RPG.GameCore.TargetAlias",
                    "Alias": "ModifierOwnerEntity"
                  },
                  "EffectPath": "Effects/Eff_Prefab/Eff_Monster/Eff_W1_Soldier04_00/Eff_Monster_W1_Soldier04_00_Skill02_Loop02_Start.prefab"
                },
                {
                  "$type": "RPG.GameCore.StackProperty",
                  "TargetType": {
                    "$type": "RPG.GameCore.TargetAlias",
                    "Alias": "ModifierOwnerEntity"
                  },
                  "Property": "AttackAddedRatio",
                  "PropertyValue": {
                    "IsDynamic": true,
                    "PostfixExpr": {
                      "OpCodes": "AQAK",
                      "FixedValues": [],
                      "DynamicHashes": [
                        2128130574
                      ]
                    }
                  }
                }
              ]
            }
          ],
          "Stacking": "Replace",
          "DynamicValues": {
            "Values": {
              "2128130574": {}
            }
          }
        }
      },
      "Name": "Avatar_AetherDivide_W1_Soldier04_00_Skill03_Phase02",
      "TargetInfo": {
        "TargetType": "SkillTargetEntityList"
      },
      "OnStart": [
        {
          "$type": "RPG.GameCore.ModifySP",
          "TargetType": {
            "$type": "RPG.GameCore.TargetAlias",
            "Alias": "Caster"
          },
          "ModifyFunction": "Set",
          "ModifyValue": {
            "IsDynamic": false,
            "FixedValue": {
              "Value": 0
            }
          }
        },
        {
          "$type": "RPG.GameCore.WaitAnimState",
          "TargetType": {
            "$type": "RPG.GameCore.TargetAlias",
            "Alias": "Caster"
          },
          "AnimStateName": "Skill03",
          "NormalizedTimeEnd": {
            "IsDynamic": false,
            "FixedValue": {
              "Value": 0.40000000037252903
            }
          }
        },
        {
          "$type": "RPG.GameCore.AddModifier",
          "TargetType": {
            "$type": "RPG.GameCore.TargetAlias",
            "Alias": "AbilityTargetEntity"
          },
          "ModifierName": "Avatar_Soldier04_EnhanceAttachModifier",
          "LifeTime": {
            "IsDynamic": false,
            "FixedValue": {
              "Value": 2
            }
          },
          "DynamicValues": {
            "MDF_PropertyValue": {
              "IsDynamic": true,
              "PostfixExpr": {
                "OpCodes": "AQAK",
                "FixedValues": [],
                "DynamicHashes": [
                  -56289053
                ]
              }
            }
          }
        },
        {
          "$type": "RPG.GameCore.PredicateTaskList",
          "Predicate": {
            "$type": "RPG.GameCore.ByNot",
            "Predicate": {
              "$type": "RPG.GameCore.ByTargetListIntersects",
              "FirstTargetType": {
                "$type": "RPG.GameCore.TargetAlias",
                "Alias": "Caster"
              },
              "FirstTargetAliveOnly": false,
              "SecondTargetType": {
                "$type": "RPG.GameCore.TargetAlias",
                "Alias": "AbilityTargetEntity"
              },
              "SecondTargetAliveOnly": false
            }
          },
          "SuccessTaskList": [
            {
              "$type": "RPG.GameCore.TriggerEffect",
              "TargetType": {
                "$type": "RPG.GameCore.TargetAlias",
                "Alias": "AbilityTargetEntity"
              },
              "EffectPath": "Effects/Eff_Prefab/Eff_Common/Eff_Common_MAZ_RecoverSP.prefab"
            },
            {
              "$type": "RPG.GameCore.ModifySPNew",
              "TargetType": {
                "$type": "RPG.GameCore.TargetAlias",
                "Alias": "AbilityTargetEntity"
              },
              "FixedAddValue": {
                "IsDynamic": true,
                "PostfixExpr": {
                  "OpCodes": "AQAK",
                  "FixedValues": [],
                  "DynamicHashes": [
                    -973040512
                  ]
                }
              }
            }
          ]
        },
        {
          "$type": "RPG.GameCore.SkillPerformFinish"
        }
      ],
      "DynamicValues": {
        "Values": {
          "-1683718053": {}
        }
      }
    },
    {
      "Name": "Avatar_AetherDivide_W1_Soldier04_00_InsertAttack",
      "TargetInfo": {
        "TargetType": "InherentTargetEntity"
      },
      "OnStart": [
        {
          "$type": "RPG.GameCore.LookAt",
          "TargetType": "AbilityTargetEntity"
        },
        {
          "$type": "RPG.GameCore.ShowBonusUIEffect",
          "UIPrefabPath": "UI/Battle/AetherDivide/BonusAction/AetherDivideBonusAction_Team.prefab",
          "TitleTextID": {
            "Hash": -846215521
          },
          "ImagePath": "SpriteOutput/MonsterFigure/Monster_1002030.png"
        },
        {
          "$type": "RPG.GameCore.TriggerAbility",
          "TargetType": {
            "$type": "RPG.GameCore.TargetAlias",
            "Alias": "Caster"
          },
          "AbilityInherentTargetType": {
            "$type": "RPG.GameCore.TargetAlias",
            "Alias": "AbilityTargetEntity"
          },
          "AbilityName": "Avatar_AetherDivide_W1_Soldier04_00_InsertAttack_Camera",
          "IsSkillPerform": true
        },
        {
          "$type": "RPG.GameCore.TriggerAnimState",
          "AnimStateName": "Skill02_Shoot"
        },
        {
          "$type": "RPG.GameCore.WaitAnimState",
          "TargetType": {
            "$type": "RPG.GameCore.TargetAlias",
            "Alias": "Caster"
          },
          "AnimStateName": "Skill02_Shoot",
          "NormalizedTimeEnd": {
            "IsDynamic": false,
            "FixedValue": {
              "Value": 0.3659999999217689
            }
          }
        },
        {
          "$type": "RPG.GameCore.RemoveModifier",
          "TargetType": {
            "$type": "RPG.GameCore.TargetAlias",
            "Alias": "Caster"
          },
          "ModifierName": "Avatar_AetherDivide_W1_Soldier04_00_InsertAttack_CD"
        },
        {
          "$type": "RPG.GameCore.FireProjectile",
          "TargetType": {
            "$type": "RPG.GameCore.TargetAlias",
            "Alias": "AbilityTargetEntity"
          },
          "Projectile": {
            "FlySpeed": 28,
            "AttachPoint": "Gun",
            "TargetAttachPoint": "Root",
            "IgnoreTargetHitbox": true,
            "FlyEffect": "Effects/Eff_Prefab/Eff_Monster/Eff_W1_Soldier04_00/Eff_Monster_W1_Soldier04_00_Skill03_Bullet.prefab",
            "HitEffect": "Effects/Eff_Prefab/Eff_Monster/Eff_W1_Soldier04_00/Eff_Monster_W1_Soldier04_00_Skill03_Hit.prefab",
            "AlignHitEffect": true
          },
          "OnProjectileHit": [
            {
              "$type": "RPG.GameCore.DamageByAttackProperty",
              "TargetType": {
                "$type": "RPG.GameCore.TargetAlias",
                "Alias": "AbilityTargetEntity"
              },
              "AttackProperty": {
                "DamagePercentage": {
                  "IsDynamic": true,
                  "PostfixExpr": {
                    "OpCodes": "AQAK",
                    "FixedValues": [],
                    "DynamicHashes": [
                      -1847083384
                    ]
                  }
                },
                "AttackType": "Insert",
                "FrameHalt": {
                  "IsDynamic": false,
                  "FixedValue": {
                    "Value": 0.10000000009313226
                  }
                },
                "IsFaceToHitDir": true,
                "HitAnimation": "Hit_H"
              },
              "TriggerHitSound": true,
              "SpecialHitSoundEvent": "Ev_sfx_monster_skill_03_hit_w1_soldier04"
            },
            {
              "$type": "RPG.GameCore.PredicateTaskList",
              "Predicate": {
                "$type": "RPG.GameCore.ByCompareDynamicValue",
                "DynamicKey": "EnhanceAttach",
                "CompareType": "GreaterEqual",
                "CompareValue": {
                  "IsDynamic": false,
                  "FixedValue": {
                    "Value": 1
                  }
                }
              },
              "SuccessTaskList": [
                {
                  "$type": "RPG.GameCore.DamageByAttackProperty",
                  "TargetType": {
                    "$type": "RPG.GameCore.TargetAlias",
                    "Alias": "AbilityTargetAdjoinEntity"
                  },
                  "AttackProperty": {
                    "DamagePercentage": {
                      "IsDynamic": true,
                      "PostfixExpr": {
                        "OpCodes": "AQAK",
                        "FixedValues": [],
                        "DynamicHashes": [
                          -1055926903
                        ]
                      }
                    },
                    "AttackType": "Insert",
                    "IsFaceToHitDir": true
                  },
                  "TriggerHitSound": true,
                  "SpecialHitSoundEvent": "Ev_sfx_monster_skill_03_hit_w1_soldier04"
                }
              ]
            },
            {
              "$type": "RPG.GameCore.VCameraConfigChange",
              "CameraConfig": {
                "ShakeConfigV2": {
                  "ShakeRange": 0.2,
                  "ShakeTime": 0.2,
                  "ShakeDistance": 100,
                  "ShakeDir": {
                    "X": 0.15,
                    "Y": 0.15,
                    "Z": 0.2
                  },
                  "BaseCycle": 0.05,
                  "CycleDamping": 0,
                  "RangeAttenuation": 0.95,
                  "PerlinNoiseAmplitude": {
                    "X": 0.1,
                    "Y": 0.1,
                    "Z": 0.1
                  },
                  "PerlinNoiseFreq": {
                    "X": 16,
                    "Y": 14,
                    "Z": 12
                  },
                  "RotationalAmplitude": {
                    "X": 0,
                    "Y": 0,
                    "Z": 3.5
                  }
                }
              }
            }
          ],
          "WaitProjectileFinish": true
        },
        {
          "$type": "RPG.GameCore.DamagePerformFinish"
        },
        {
          "$type": "RPG.GameCore.WaitAnimState",
          "TargetType": {
            "$type": "RPG.GameCore.TargetAlias",
            "Alias": "Caster"
          },
          "AnimStateName": "Skill02_Shoot",
          "NormalizedTimeEnd": {
            "IsDynamic": false,
            "FixedValue": {
              "Value": 0.7290000000502914
            }
          }
        },
        {
          "$type": "RPG.GameCore.RemoveModifier",
          "TargetType": {
            "$type": "RPG.GameCore.TargetAlias",
            "Alias": "AbilityTargetEntity"
          },
          "ModifierName": "Avatar_AetherDivide_W1_Soldier04_00_InsertAttack_CD_Target",
          "OnlyRemoveCasterAdded": true
        },
        {
          "$type": "RPG.GameCore.RadialBlurEffect",
          "TargetType": {
            "$type": "RPG.GameCore.TargetAlias",
            "Alias": "Caster"
          },
          "Active": false
        }
      ]
    },
    {
      "Modifiers": {
        "MAvatar_W1_Soldier04_00_Delay": {
          "_CallbackList": [
            {
              "Event": "OnEnterBattle",
              "CallbackConfig": [
                {
                  "$type": "RPG.GameCore.PredicateTaskList",
                  "Predicate": {
                    "$type": "RPG.GameCore.ByCompareWaveCount",
                    "CompareType": "Equal",
                    "CompareValue": {
                      "IsDynamic": false,
                      "FixedValue": {
                        "Value": 1
                      }
                    }
                  },
                  "SuccessTaskList": [
                    {
                      "$type": "RPG.GameCore.ModifyActionDelay",
                      "TargetType": {
                        "$type": "RPG.GameCore.TargetAlias",
                        "Alias": "ModifierOwnerEntity"
                      },
                      "AddNormalizedValue": {
                        "IsDynamic": true,
                        "PostfixExpr": {
                          "OpCodes": "AQAHCg==",
                          "FixedValues": [],
                          "DynamicHashes": [
                            713155818
                          ]
                        }
                      }
                    }
                  ]
                }
              ]
            }
          ],
          "_PriorityList": [
            {
              "PriorityName": "EnterBattlePriority",
              "Key": "AvatarLateExcute"
            }
          ]
        },
        "MAvatar_W1_Soldier04_00_Ultra": {
          "_CallbackList": [
            {
              "Event": "OnCreate",
              "CallbackConfig": []
            },
            {
              "Event": "OnStack",
              "CallbackConfig": []
            }
          ]
        },
        "Avatar_W1_Soldier04_00_AddAttackOthersTurn": {
          "_CallbackList": [
            {
              "Event": "OnAllowAction",
              "CallbackConfig": [
                {
                  "$type": "RPG.GameCore.RemoveModifier",
                  "TargetType": {
                    "$type": "RPG.GameCore.TargetAlias",
                    "Alias": "Caster"
                  },
                  "ModifierName": "Avatar_W1_Soldier04_00_ModifyDamageMDF"
                }
              ]
            },
            {
              "Event": "OnActionEnd",
              "CallbackConfig": [
                {
                  "$type": "RPG.GameCore.AddModifier",
                  "TargetType": {
                    "$type": "RPG.GameCore.TargetAlias",
                    "Alias": "Caster"
                  },
                  "ModifierName": "Avatar_W1_Soldier04_00_ModifyDamageMDF"
                }
              ]
            }
          ]
        },
        "Avatar_W1_Soldier04_00_ModifyDamageMDF": {
          "BehaviorFlagList": [
            "ModifyDotDamageData"
          ],
          "_CallbackList": [
            {
              "Event": "OnBeforeHitAll",
              "CallbackConfig": [
                {
                  "$type": "RPG.GameCore.ModifyDamageData",
                  "Attacker_AllDamageTypeAddedRatio": {
                    "IsDynamic": true,
                    "PostfixExpr": {
                      "OpCodes": "AQAK",
                      "FixedValues": [],
                      "DynamicHashes": [
                        -1861407141
                      ]
                    }
                  }
                }
              ]
            }
          ]
        }
      },
      "Name": "Avatar_AetherDivide_W1_Soldier04_00_PassiveSkill01",
      "TargetInfo": {
        "TargetType": "Caster"
      },
      "OnStart": [
        {
          "$type": "RPG.GameCore.AddModifier",
          "TargetType": {
            "$type": "RPG.GameCore.TargetAlias",
            "Alias": "Caster"
          },
          "ModifierName": "MAvatar_AetherDivide_Common_B"
        },
        {
          "$type": "RPG.GameCore.AddModifier",
          "TargetType": {
            "$type": "RPG.GameCore.TargetAlias",
            "Alias": "Caster"
          },
          "ModifierName": "MAvatar_W1_Soldier04_00_Ultra"
        },
        {
          "$type": "RPG.GameCore.AddModifier",
          "TargetType": {
            "$type": "RPG.GameCore.TargetAlias",
            "Alias": "Caster"
          },
          "ModifierName": "MAvatar_W1_Soldier04_00_Delay"
        },
        {
          "$type": "RPG.GameCore.AddModifier",
          "TargetType": {
            "$type": "RPG.GameCore.TargetAlias",
            "Alias": "Caster"
          },
          "ModifierName": "Avatar_W1_Soldier04_00_AddAttackOthersTurn"
        },
        {
          "$type": "RPG.GameCore.AddModifier",
          "TargetType": {
            "$type": "RPG.GameCore.TargetAlias",
            "Alias": "Caster"
          },
          "ModifierName": "Avatar_W1_Soldier04_00_ModifyDamageMDF"
        }
      ]
    },
    {
      "Name": "Avatar_AetherDivide_W1_Soldier04_00_SkillMazeInLevel",
      "TargetInfo": {
        "TargetType": "Caster"
      },
      "OnStart": []
    }
  ],
  "GlobalModifiers": {
    "Avatar_AetherDivide_W1_Soldier04_00_InsertAttack_CD_Target": {
      "_CallbackList": [
        {
          "Event": "OnBeforeDying",
          "CallbackConfig": [
            {
              "$type": "RPG.GameCore.RemoveModifier",
              "TargetType": {
                "$type": "RPG.GameCore.TargetAlias",
                "Alias": "Caster"
              },
              "ModifierName": "Avatar_AetherDivide_W1_Soldier04_00_InsertAttack_CD",
              "OnlyRemoveCasterAdded": true
            }
          ]
        }
      ]
    },
    "Avatar_AetherDivide_W1_Soldier04_00_InsertAttack_CD": {},
    "Avatar_W1_Soldier04_00_Critical": {
      "_CallbackList": [
        {
          "Event": "OnStack",
          "CallbackConfig": [
            {
              "$type": "RPG.GameCore.PredicateTaskList",
              "Predicate": {
                "$type": "RPG.GameCore.ByIsContainModifier",
                "TargetType": {
                  "$type": "RPG.GameCore.TargetAlias",
                  "Alias": "ModifierOwnerEntity"
                },
                "ModifierName": "MAvatar_AetherDivide_Common_M"
              },
              "SuccessTaskList": [
                {
                  "$type": "RPG.GameCore.RadialBlurEffect",
                  "TargetType": {
                    "$type": "RPG.GameCore.TargetAlias",
                    "Alias": "ModifierOwnerEntity"
                  },
                  "Duration": 0.45,
                  "Iteration": 5,
                  "BlurStart": 0.1,
                  "BlurFeather": 0.15
                }
              ]
            },
            {
              "$type": "RPG.GameCore.RemoveSelfModifier"
            }
          ]
        }
      ]
    },
    "Avatar_AetherDivide_W1_Soldier04_00_SupportAttackTarget": {}
  }
}