{
  "AbilityList": [
    {
      "Name": "Avatar_AetherDivide_W2_Mecha01_00_Skill01_Phase01",
      "TargetInfo": {
        "TargetType": "SkillTargetEntityList"
      },
      "OnStart": [
        {
          "$type": "RPG.GameCore.LookAt",
          "TargetType": "AbilityTargetEntity"
        },
        {
          "$type": "RPG.GameCore.TriggerAbility",
          "TargetType": {
            "$type": "RPG.GameCore.TargetAlias",
            "Alias": "Caster"
          },
          "AbilityName": "Avatar_AetherDivide_W2_Mecha01_00_Skill01_Camera",
          "IsSkillPerform": true
        },
        {
          "$type": "RPG.GameCore.TriggerAbility",
          "TargetType": {
            "$type": "RPG.GameCore.TargetAlias",
            "Alias": "Caster"
          },
          "AbilityName": "Avatar_AetherDivide_W2_Mecha01_00_Skill01_Phase02",
          "IsSkillPerform": true
        },
        {
          "$type": "RPG.GameCore.LookAt",
          "TargetType": "AbilityTargetEntity"
        },
        {
          "$type": "RPG.GameCore.WaitSecond",
          "WaitTime": 0.1
        },
        {
          "$type": "RPG.GameCore.MoveToTargetList",
          "TargetType": {
            "$type": "RPG.GameCore.TargetAlias",
            "Alias": "Caster"
          },
          "AnimStateName": "Skill01",
          "NormalizedTimeEnd": {
            "IsDynamic": false,
            "FixedValue": {
              "Value": 1
            }
          },
          "MovingRangeList": [
            {
              "TargetType": {
                "$type": "RPG.GameCore.TargetAlias",
                "Alias": "AbilityTargetEntity"
              },
              "IgnoreRadius": true,
              "OffsetTargetDistance": {
                "IsDynamic": false,
                "FixedValue": {
                  "Value": 3.800000000745058
                }
              },
              "NormalizedTimeStart": {
                "IsDynamic": false,
                "FixedValue": {
                  "Value": 0.2700000002514571
                }
              },
              "NormalizedTimeEnd": {
                "IsDynamic": false,
                "FixedValue": {
                  "Value": 0.3200000002980232
                }
              }
            },
            {
              "TargetType": {
                "$type": "RPG.GameCore.TargetAlias",
                "Alias": "TeamFormation"
              },
              "IgnoreRadius": true,
              "OffsetTargetDistance": {
                "IsDynamic": false,
                "FixedValue": {
                  "Value": 0
                }
              },
              "NormalizedTimeStart": {
                "IsDynamic": false,
                "FixedValue": {
                  "Value": 0.5800000005401671
                }
              },
              "NormalizedTimeEnd": {
                "IsDynamic": false,
                "FixedValue": {
                  "Value": 0.7000000006519258
                }
              }
            }
          ]
        },
        {
          "$type": "RPG.GameCore.RadialBlurEffect",
          "TargetType": {
            "$type": "RPG.GameCore.TargetAlias",
            "Alias": "Caster"
          },
          "Active": false
        },
        {
          "$type": "RPG.GameCore.TriggerAnimState",
          "AnimLogicState": "Idle"
        }
      ]
    },
    {
      "Name": "Avatar_AetherDivide_W2_Mecha01_00_Skill01_Phase02",
      "TargetInfo": {
        "TargetType": "SkillTargetEntityList"
      },
      "OnStart": [
        {
          "$type": "RPG.GameCore.ModifySPNew",
          "TargetType": {
            "$type": "RPG.GameCore.TargetAlias",
            "Alias": "Caster"
          },
          "FixedAddValue": {
            "IsDynamic": false,
            "FixedValue": {
              "Value": 1
            }
          }
        },
        {
          "$type": "RPG.GameCore.WaitAnimState",
          "TargetType": {
            "$type": "RPG.GameCore.TargetAlias",
            "Alias": "Caster"
          },
          "AnimStateName": "Skill01",
          "NormalizedTimeEnd": {
            "IsDynamic": false,
            "FixedValue": {
              "Value": 0.3800000003539026
            }
          }
        },
        {
          "$type": "RPG.GameCore.VCameraConfigChange",
          "CameraConfig": {
            "ShakeConfigV2": {
              "ShakeScale": 0.3,
              "ShakeRange": 0.5,
              "ShakeTime": 0.1,
              "ShakeDir": {
                "X": 0,
                "Y": 0.1,
                "Z": 0.2
              },
              "BaseCycle": 0.05,
              "CycleDamping": 0,
              "RangeAttenuation": 1
            }
          }
        },
        {
          "$type": "RPG.GameCore.AddModifier",
          "TargetType": {
            "$type": "RPG.GameCore.TargetAlias",
            "Alias": "AbilityTargetEntity"
          },
          "ModifierName": "MAvatar_AetherDivide_W2_Mecha01_00_Critical"
        },
        {
          "$type": "RPG.GameCore.DamageByAttackProperty",
          "TargetType": {
            "$type": "RPG.GameCore.TargetAlias",
            "Alias": "AbilityTargetEntity"
          },
          "AttackProperty": {
            "DamageType": "Fire",
            "DamagePercentage": {
              "IsDynamic": true,
              "PostfixExpr": {
                "OpCodes": "AQAK",
                "FixedValues": [],
                "DynamicHashes": [
                  -1126825319
                ]
              }
            },
            "HitAnimation": "Hit",
            "HitEffect": "Effects/Eff_Prefab/Eff_Monster/Eff_W2_Mecha01_00/Eff_Monster_W2_Mecha01_00_Skill01_Hit.prefab",
            "HitPosHeight": 1
          },
          "DisplayData": {
            "UIMessageHeight": 1
          }
        },
        {
          "$type": "RPG.GameCore.DamagePerformFinish"
        },
        {
          "$type": "RPG.GameCore.SkillPerformFinish"
        }
      ]
    },
    {
      "Name": "Avatar_AetherDivide_W2_Mecha01_00_Skill02_Phase01",
      "TargetInfo": {
        "TargetType": "SkillTargetEntityList"
      },
      "OnStart": [
        {
          "$type": "RPG.GameCore.PredicateTaskList",
          "Predicate": {
            "$type": "RPG.GameCore.ByIsContainModifier",
            "TargetType": {
              "$type": "RPG.GameCore.TargetAlias",
              "Alias": "AbilityTargetEntity"
            },
            "ModifierName": "Avatar_AetherDivide_ExtraHeight"
          },
          "SuccessTaskList": [
            {
              "$type": "RPG.GameCore.TriggerAbility",
              "TargetType": {
                "$type": "RPG.GameCore.TargetAlias",
                "Alias": "Caster"
              },
              "AbilityName": "Avatar_AetherDivide_W1_ExtraHeight_Skill02_Camera",
              "IsSkillPerform": true
            }
          ],
          "FailedTaskList": [
            {
              "$type": "RPG.GameCore.TriggerAbility",
              "TargetType": {
                "$type": "RPG.GameCore.TargetAlias",
                "Alias": "Caster"
              },
              "AbilityName": "Avatar_AetherDivide_W2_Mecha01_00_Skill02_Camera",
              "IsSkillPerform": true
            }
          ]
        },
        {
          "$type": "RPG.GameCore.TriggerAbility",
          "TargetType": {
            "$type": "RPG.GameCore.TargetAlias",
            "Alias": "Caster"
          },
          "AbilityName": "Avatar_AetherDivide_W2_Mecha01_00_Skill02_Phase02",
          "IsSkillPerform": true
        },
        {
          "$type": "RPG.GameCore.TriggerAnimState",
          "AnimStateName": "Skill02"
        },
        {
          "$type": "RPG.GameCore.WaitAnimState",
          "AnimStateName": "Skill02",
          "NormalizedTimeEnd": {
            "IsDynamic": false,
            "FixedValue": {
              "Value": 0.9900000009220093
            }
          }
        },
        {
          "$type": "RPG.GameCore.TriggerAnimState",
          "AnimLogicState": "Idle"
        },
        {
          "$type": "RPG.GameCore.RadialBlurEffect",
          "TargetType": {
            "$type": "RPG.GameCore.TargetAlias",
            "Alias": "Caster"
          },
          "Active": false
        },
        {
          "$type": "RPG.GameCore.LookAt",
          "TargetType": "TeamFormation"
        }
      ]
    },
    {
      "Name": "Avatar_AetherDivide_W2_Mecha01_00_Skill02_Phase02",
      "TargetInfo": {
        "TargetType": "SkillTargetEntityList"
      },
      "OnStart": [
        {
          "$type": "RPG.GameCore.ModifySPNew",
          "TargetType": {
            "$type": "RPG.GameCore.TargetAlias",
            "Alias": "Caster"
          },
          "FixedAddValue": {
            "IsDynamic": false,
            "FixedValue": {
              "Value": 1
            }
          }
        },
        {
          "$type": "RPG.GameCore.WaitAnimState",
          "AnimStateName": "Skill02",
          "NormalizedTimeEnd": {
            "IsDynamic": false,
            "FixedValue": {
              "Value": 0.37599999993108213
            }
          }
        },
        {
          "$type": "RPG.GameCore.LoseHPByRatio",
          "TargetType": {
            "$type": "RPG.GameCore.TargetAlias",
            "Alias": "Caster"
          },
          "RatioType": "MaxHP",
          "Ratio": {
            "IsDynamic": true,
            "PostfixExpr": {
              "OpCodes": "AQAK",
              "FixedValues": [],
              "DynamicHashes": [
                -1048223245
              ]
            }
          },
          "Floor": {
            "Value": 1
          }
        },
        {
          "$type": "RPG.GameCore.WaitAnimState",
          "AnimStateName": "Skill02",
          "NormalizedTimeEnd": {
            "IsDynamic": false,
            "FixedValue": {
              "Value": 0.37699999986216426
            }
          }
        },
        {
          "$type": "RPG.GameCore.TriggerEffect",
          "TargetType": {
            "$type": "RPG.GameCore.TargetAlias",
            "Alias": "AbilityTargetEntity"
          },
          "EffectPath": "Effects/Eff_Prefab/Eff_Common/Eff_Common_Heal.prefab"
        },
        {
          "$type": "RPG.GameCore.HealHP",
          "TargetType": {
            "$type": "RPG.GameCore.TargetAlias",
            "Alias": "AbilityTargetEntity"
          },
          "FormulaType": "HealByHealerMaxHP",
          "HealPercentage": {
            "IsDynamic": true,
            "PostfixExpr": {
              "OpCodes": "AQAK",
              "FixedValues": [],
              "DynamicHashes": [
                -1048124076
              ]
            }
          }
        },
        {
          "$type": "RPG.GameCore.SkillPerformFinish"
        }
      ]
    },
    {
      "Name": "Avatar_AetherDivide_W2_Mecha01_00_Skill03_EnterReady",
      "TargetInfo": {
        "TargetType": "InherentTargetEntity"
      },
      "OnStart": [
        {
          "$type": "RPG.GameCore.WaitSecond",
          "WaitTime": 0.5
        },
        {
          "$type": "RPG.GameCore.VCameraConfigChange",
          "CameraConfig": {
            "NormalConfig": {
              "CameraState": "UseSkillPerform",
              "IsLocalOffset": true,
              "AnchorOffset": {
                "X": 0,
                "Y": 0,
                "Z": 0.3
              },
              "AimTargetType": {
                "$type": "RPG.GameCore.TargetAlias",
                "Alias": "Caster"
              },
              "AimOffset": {
                "X": 0.22,
                "Y": -0.476,
                "Z": 0.2
              },
              "FollowPoleAngle": 413.7,
              "FollowElevationAngle": -18.97,
              "FollowRadius": 3.64,
              "FollowDamp": 0.99,
              "AimDamp": 0.2,
              "Dutch": 3.84,
              "FOV": 53
            },
            "BlendConfig": {
              "BlendType": "Cut"
            },
            "ShowEntityConfig": {
              "ShowTargetType": {
                "$type": "RPG.GameCore.TargetAlias",
                "Alias": "Caster"
              }
            }
          }
        },
        {
          "$type": "RPG.GameCore.WaitSecond",
          "WaitTime": 0.5
        },
        {
          "$type": "RPG.GameCore.VCameraConfigChange",
          "CameraConfig": {
            "NormalConfig": {
              "CameraState": "UseSkillPerform",
              "IsLocalOffset": true,
              "AnchorOffset": {
                "X": -2.17,
                "Y": 0,
                "Z": 8.59
              },
              "AimTargetType": {
                "$type": "RPG.GameCore.TargetAlias",
                "Alias": "Caster"
              },
              "AimOffset": {
                "X": 0.22,
                "Y": -0.086,
                "Z": 0.2
              },
              "FollowRadius": 4.5,
              "FollowDamp": 0.99,
              "AimDamp": 0.2,
              "Dutch": 0.7,
              "FOV": 53
            },
            "BlendConfig": {
              "BlendType": "Custom",
              "CustomCurveName": "Blend_UltraReady",
              "BlendTime": 1.5
            },
            "ShowEntityConfig": {
              "ShowTargetType": {
                "$type": "RPG.GameCore.TargetAlias",
                "Alias": "Caster"
              }
            }
          }
        }
      ]
    },
    {
      "Name": "Avatar_AetherDivide_W2_Mecha01_00_Skill03_Phase01",
      "TargetInfo": {
        "TargetType": "AllEnemy"
      },
      "OnStart": [
        {
          "$type": "RPG.GameCore.TriggerAbility",
          "TargetType": {
            "$type": "RPG.GameCore.TargetAlias",
            "Alias": "Caster"
          },
          "AbilityName": "Avatar_AetherDivide_W2_Mecha01_00_Skill03_Camera"
        },
        {
          "$type": "RPG.GameCore.TriggerAbility",
          "TargetType": {
            "$type": "RPG.GameCore.TargetAlias",
            "Alias": "Caster"
          },
          "AbilityName": "Avatar_AetherDivide_W2_Mecha01_00_Skill03_Phase02",
          "IsSkillPerform": true
        },
        {
          "$type": "RPG.GameCore.TriggerAnimState",
          "AnimStateName": "Skill03"
        },
        {
          "$type": "RPG.GameCore.WaitAnimState",
          "AnimStateName": "Skill03",
          "NormalizedTimeEnd": {
            "IsDynamic": false,
            "FixedValue": {
              "Value": 0.9900000009220093
            }
          }
        },
        {
          "$type": "RPG.GameCore.RadialBlurEffect",
          "TargetType": {
            "$type": "RPG.GameCore.TargetAlias",
            "Alias": "Caster"
          },
          "Active": false
        },
        {
          "$type": "RPG.GameCore.TriggerAnimState",
          "AnimLogicState": "Idle"
        }
      ]
    },
    {
      "Name": "Avatar_AetherDivide_W2_Mecha01_00_Skill03_Phase02",
      "TargetInfo": {
        "TargetType": "AllEnemy"
      },
      "OnStart": [
        {
          "$type": "RPG.GameCore.ModifySP",
          "TargetType": {
            "$type": "RPG.GameCore.TargetAlias",
            "Alias": "Caster"
          },
          "ModifyFunction": "Set",
          "ModifyValue": {
            "IsDynamic": false,
            "FixedValue": {
              "Value": 0
            }
          }
        },
        {
          "$type": "RPG.GameCore.WaitAnimState",
          "TargetType": {
            "$type": "RPG.GameCore.TargetAlias",
            "Alias": "Caster"
          },
          "AnimStateName": "Skill03",
          "NormalizedTimeEnd": {
            "IsDynamic": false,
            "FixedValue": {
              "Value": 0.18000000016763806
            }
          }
        },
        {
          "$type": "RPG.GameCore.WaitAnimState",
          "TargetType": {
            "$type": "RPG.GameCore.TargetAlias",
            "Alias": "Caster"
          },
          "AnimStateName": "Skill03",
          "NormalizedTimeEnd": {
            "IsDynamic": false,
            "FixedValue": {
              "Value": 0.4300000004004687
            }
          }
        },
        {
          "$type": "RPG.GameCore.AddModifier",
          "TargetType": {
            "$type": "RPG.GameCore.TargetAlias",
            "Alias": "Caster"
          },
          "ModifierName": "Avatar_AetherDivide_W2_Mecha01_00_CanRevive"
        },
        {
          "$type": "RPG.GameCore.SkillPerformFinish"
        }
      ]
    },
    {
      "Modifiers": {
        "MAvatar_W2_Mecha01_00_Ultra": {
          "OnDynamicValueChange": [],
          "_CallbackList": [
            {
              "Event": "OnCreate",
              "CallbackConfig": []
            },
            {
              "Event": "OnStack",
              "CallbackConfig": []
            }
          ],
          "DynamicValues": {
            "Values": {
              "-64118774": {}
            }
          }
        }
      },
      "Name": "Avatar_AetherDivide_W2_Mecha01_00_PassiveSkill01",
      "TargetInfo": {
        "TargetType": "Caster"
      },
      "OnStart": [
        {
          "$type": "RPG.GameCore.AddModifier",
          "TargetType": {
            "$type": "RPG.GameCore.TargetAlias",
            "Alias": "Caster"
          },
          "ModifierName": "MAvatar_AetherDivide_Common_M"
        },
        {
          "$type": "RPG.GameCore.AddModifier",
          "TargetType": {
            "$type": "RPG.GameCore.TargetAlias",
            "Alias": "Caster"
          },
          "ModifierName": "Avatar_AetherDivide_W2_Mecha01_00_CanRevive"
        },
        {
          "$type": "RPG.GameCore.AddModifier",
          "TargetType": {
            "$type": "RPG.GameCore.TargetAlias",
            "Alias": "Caster"
          },
          "ModifierName": "MAvatar_W2_Mecha01_00_Ultra"
        },
        {
          "$type": "RPG.GameCore.AddModifier",
          "TargetType": {
            "$type": "RPG.GameCore.TargetAlias",
            "Alias": "Caster"
          },
          "ModifierName": "Avatar_AetherDivide_W2_Mecha01_00_Revive"
        }
      ]
    },
    {
      "Name": "Avatar_AetherDivide_W2_Mecha01_00_SkillMazeInLevel",
      "TargetInfo": {
        "TargetType": "Caster"
      },
      "OnStart": []
    },
    {
      "Name": "Avatar_AetherDivide_W2_Mecha01_00_PassiveSkill01_Insert",
      "TargetInfo": {
        "TargetType": "Caster"
      },
      "OnStart": [
        {
          "$type": "RPG.GameCore.RemoveModifier",
          "TargetType": {
            "$type": "RPG.GameCore.TargetAlias",
            "Alias": "Caster"
          },
          "ModifierName": "Avatar_AetherDivide_W2_Mecha01_00_Revive_Wait"
        },
        {
          "$type": "RPG.GameCore.ShowBonusUIEffect",
          "UIPrefabPath": "UI/Battle/AetherDivide/BonusAction/AetherDivideBonusAction_Team.prefab",
          "TitleTextID": {
            "Hash": -321971372
          },
          "ImagePath": "SpriteOutput/MonsterFigure/Monster_2011010.png"
        },
        {
          "$type": "RPG.GameCore.Retarget",
          "TargetType": {
            "$type": "RPG.GameCore.TargetAlias",
            "Alias": "AllEnemy"
          },
          "Predicate": {
            "$type": "RPG.GameCore.ByIsContainModifier",
            "TargetType": {
              "$type": "RPG.GameCore.TargetAlias",
              "Alias": "ParamEntity"
            },
            "ModifierName": "Avatar_AetherDivide_W2_Mecha01_Revenge_Mark"
          },
          "MaxNumber": {
            "IsDynamic": false,
            "FixedValue": {
              "Value": 1
            }
          },
          "TaskList": [
            {
              "$type": "RPG.GameCore.TurnInsertAbility",
              "AbilityName": "Avatar_AetherDivide_W2_Mecha01_00_Insert_Revenge_Phase01",
              "TargetType": {
                "$type": "RPG.GameCore.TargetAlias",
                "Alias": "Caster"
              },
              "AbilityTarget": {
                "$type": "RPG.GameCore.TargetAlias",
                "Alias": "ParamEntity"
              },
              "AbortBehaviorFlags": [
                "STAT_CTRL",
                "DisableAction"
              ],
              "InsertAbilityPriority": "AvatarInsertAttackSelf",
              "ShowInActionBar": true
            }
          ],
          "FailedTaskList": [
            {
              "$type": "RPG.GameCore.Retarget",
              "TargetType": {
                "$type": "RPG.GameCore.TargetAlias",
                "Alias": "AllEnemy"
              },
              "MaxNumber": {
                "IsDynamic": false,
                "FixedValue": {
                  "Value": 1
                }
              },
              "TaskList": [
                {
                  "$type": "RPG.GameCore.TurnInsertAbility",
                  "AbilityName": "Avatar_AetherDivide_W2_Mecha01_00_Insert_Revenge_Phase01",
                  "TargetType": {
                    "$type": "RPG.GameCore.TargetAlias",
                    "Alias": "Caster"
                  },
                  "AbilityTarget": {
                    "$type": "RPG.GameCore.TargetAlias",
                    "Alias": "ParamEntity"
                  },
                  "AbortBehaviorFlags": [
                    "STAT_CTRL",
                    "DisableAction"
                  ],
                  "InsertAbilityPriority": "AvatarInsertAttackSelf",
                  "ShowInActionBar": true
                }
              ]
            }
          ]
        }
      ]
    },
    {
      "Name": "Avatar_AetherDivide_W2_Mecha01_00_Insert_Revenge_Phase01",
      "TargetInfo": {
        "TargetType": "InherentTargetEntity"
      },
      "OnStart": [
        {
          "$type": "RPG.GameCore.DispelStatus",
          "TargetType": {
            "$type": "RPG.GameCore.TargetAlias",
            "Alias": "Caster"
          },
          "OnlyAlive": false,
          "IsSlientDispel": true
        },
        {
          "$type": "RPG.GameCore.LookAt",
          "TargetType": "AbilityTargetEntity"
        },
        {
          "$type": "RPG.GameCore.UnlockTargetHP",
          "TargetType": {
            "$type": "RPG.GameCore.TargetAlias",
            "Alias": "Caster"
          },
          "LockKey": "AetherDivide_LockHP_Avatar_W2_Mecha01"
        },
        {
          "$type": "RPG.GameCore.TriggerAbility",
          "TargetType": {
            "$type": "RPG.GameCore.TargetAlias",
            "Alias": "Caster"
          },
          "AbilityInherentTargetType": {
            "$type": "RPG.GameCore.TargetAlias",
            "Alias": "AbilityTargetEntity"
          },
          "AbilityName": "Avatar_AetherDivide_W2_Mecha01_00_PassiveSkill01_Camera",
          "IsSkillPerform": true
        },
        {
          "$type": "RPG.GameCore.MoveToTargetList",
          "TargetType": {
            "$type": "RPG.GameCore.TargetAlias",
            "Alias": "Caster"
          },
          "AnimStateName": "Skill01",
          "NormalizedTimeEnd": {
            "IsDynamic": false,
            "FixedValue": {
              "Value": 1
            }
          },
          "NormalizedTimeWait": {
            "IsDynamic": false,
            "FixedValue": {
              "Value": 0.3800000003539026
            }
          },
          "MovingRangeList": [
            {
              "TargetType": {
                "$type": "RPG.GameCore.TargetAlias",
                "Alias": "AbilityTargetEntity"
              },
              "IgnoreRadius": true,
              "OffsetTargetDistance": {
                "IsDynamic": false,
                "FixedValue": {
                  "Value": 3.800000000745058
                }
              },
              "NormalizedTimeStart": {
                "IsDynamic": false,
                "FixedValue": {
                  "Value": 0.2700000002514571
                }
              },
              "NormalizedTimeEnd": {
                "IsDynamic": false,
                "FixedValue": {
                  "Value": 0.3200000002980232
                }
              }
            },
            {
              "TargetType": {
                "$type": "RPG.GameCore.TargetAlias",
                "Alias": "TeamFormation"
              },
              "IgnoreRadius": true,
              "OffsetTargetDistance": {
                "IsDynamic": false,
                "FixedValue": {
                  "Value": 0
                }
              },
              "NormalizedTimeStart": {
                "IsDynamic": false,
                "FixedValue": {
                  "Value": 0.5800000005401671
                }
              },
              "NormalizedTimeEnd": {
                "IsDynamic": false,
                "FixedValue": {
                  "Value": 0.7000000006519258
                }
              }
            }
          ]
        },
        {
          "$type": "RPG.GameCore.AddModifier",
          "TargetType": {
            "$type": "RPG.GameCore.TargetAlias",
            "Alias": "AbilityTargetEntity"
          },
          "ModifierName": "MAvatar_AetherDivide_W2_Mecha01_00_Critical"
        },
        {
          "$type": "RPG.GameCore.VCameraConfigChange",
          "CameraConfig": {
            "ShakeConfigV2": {
              "ShakeScale": 0.3,
              "ShakeRange": 0.5,
              "ShakeTime": 0.1,
              "ShakeDir": {
                "X": 0,
                "Y": 0.1,
                "Z": 0.2
              },
              "BaseCycle": 0.05,
              "CycleDamping": 0,
              "RangeAttenuation": 1
            }
          }
        },
        {
          "$type": "RPG.GameCore.DamageByAttackProperty",
          "TargetType": {
            "$type": "RPG.GameCore.TargetAlias",
            "Alias": "AbilityTargetEntity"
          },
          "AttackProperty": {
            "DamageType": "Fire",
            "DamagePercentage": {
              "IsDynamic": true,
              "PostfixExpr": {
                "OpCodes": "AQAK",
                "FixedValues": [],
                "DynamicHashes": [
                  -640471309
                ]
              }
            },
            "AttackType": "Insert",
            "HitAnimation": "Hit",
            "HitEffect": "Effects/Eff_Prefab/Eff_Monster/Eff_AetherDivide_W2_Mecha01_00/Eff_AetherDivide_W2_Mecha01_00_skill01_Hit.prefab",
            "HitPosHeight": 1
          },
          "DisplayData": {
            "UIMessageHeight": 1
          }
        },
        {
          "$type": "RPG.GameCore.DamagePerformFinish"
        },
        {
          "$type": "RPG.GameCore.WaitAnimState",
          "AnimStateName": "Skill01",
          "NormalizedTimeEnd": {
            "IsDynamic": false,
            "FixedValue": {
              "Value": 0.5000000004656613
            }
          }
        },
        {
          "$type": "RPG.GameCore.RemoveModifier",
          "TargetType": {
            "$type": "RPG.GameCore.TargetAlias",
            "Alias": "Caster"
          },
          "ModifierName": "Avatar_AetherDivide_W2_Mecha01_00_CanRevive_Effect_01"
        },
        {
          "$type": "RPG.GameCore.RemoveModifier",
          "TargetType": {
            "$type": "RPG.GameCore.TargetAlias",
            "Alias": "Caster"
          },
          "ModifierName": "Avatar_AetherDivide_W2_Mecha01_00_CanRevive_Effect"
        },
        {
          "$type": "RPG.GameCore.WaitAnimState",
          "AnimStateName": "Skill01",
          "NormalizedTimeEnd": {
            "IsDynamic": false,
            "FixedValue": {
              "Value": 0.6160000001545995
            }
          }
        },
        {
          "$type": "RPG.GameCore.HealHP",
          "TargetType": {
            "$type": "RPG.GameCore.TargetAlias",
            "Alias": "Caster"
          },
          "AliveOnly": false,
          "FormulaType": "HealByHealerMaxHP",
          "HealPercentage": {
            "IsDynamic": true,
            "PostfixExpr": {
              "OpCodes": "AQAK",
              "FixedValues": [],
              "DynamicHashes": [
                -1963172030
              ]
            }
          }
        },
        {
          "$type": "RPG.GameCore.TriggerEffect",
          "TargetType": {
            "$type": "RPG.GameCore.TargetAlias",
            "Alias": "Caster"
          },
          "EffectPath": "Effects/Eff_Prefab/Eff_Avatar/Eff_Luocha/Eff_Avatar_Luocha_00_Skill02_03.prefab"
        },
        {
          "$type": "RPG.GameCore.TriggerAnimState",
          "AnimLogicState": "Idle"
        }
      ]
    }
  ],
  "GlobalModifiers": {
    "MAvatar_AetherDivide_W2_Mecha01_00_Critical": {
      "_CallbackList": [
        {
          "Event": "OnStack",
          "CallbackConfig": [
            {
              "$type": "RPG.GameCore.PredicateTaskList",
              "Predicate": {
                "$type": "RPG.GameCore.ByIsContainModifier",
                "TargetType": {
                  "$type": "RPG.GameCore.TargetAlias",
                  "Alias": "ModifierOwnerEntity"
                },
                "ModifierName": "MAvatar_AetherDivide_Common_P"
              },
              "SuccessTaskList": [
                {
                  "$type": "RPG.GameCore.RadialBlurEffect",
                  "TargetType": {
                    "$type": "RPG.GameCore.TargetAlias",
                    "Alias": "ModifierOwnerEntity"
                  },
                  "Duration": 0.45,
                  "Iteration": 5,
                  "BlurStart": 0.1,
                  "BlurFeather": 0.15
                }
              ]
            },
            {
              "$type": "RPG.GameCore.RemoveSelfModifier"
            }
          ]
        }
      ]
    },
    "Avatar_AetherDivide_W2_Mecha01_Revenge_Mark": {},
    "Avatar_AetherDivide_W2_Mecha01_00_CanRevive_Effect": {
      "_CallbackList": [
        {
          "Event": "OnDestroy",
          "CallbackConfig": [
            {
              "$type": "RPG.GameCore.RemoveEffect",
              "TargetType": {
                "$type": "RPG.GameCore.TargetAlias",
                "Alias": "Caster"
              },
              "EffectPath": "Effects/Eff_Prefab/Eff_Monster/Eff_AetherDivide_W2_Mecha01_00/Eff_AetherDivide_W2_Mecha01_00_Buff.prefab"
            }
          ]
        },
        {
          "Event": "OnStack",
          "CallbackConfig": [
            {
              "$type": "RPG.GameCore.TriggerEffect",
              "TargetType": {
                "$type": "RPG.GameCore.TargetAlias",
                "Alias": "ModifierOwnerEntity"
              },
              "EffectPath": "Effects/Eff_Prefab/Eff_Monster/Eff_AetherDivide_W2_Mecha01_00/Eff_AetherDivide_W2_Mecha01_00_Buff.prefab",
              "MinMutexTime": -1
            }
          ]
        }
      ],
      "Stacking": "Refresh"
    },
    "Avatar_AetherDivide_W2_Mecha01_00_CanRevive_Effect_01": {
      "_CallbackList": [
        {
          "Event": "OnDestroy",
          "CallbackConfig": [
            {
              "$type": "RPG.GameCore.RemoveEffect",
              "TargetType": {
                "$type": "RPG.GameCore.TargetAlias",
                "Alias": "Caster"
              },
              "EffectPath": "Effects/Eff_Prefab/Eff_Monster/Eff_AetherDivide_W2_Mecha01_00/Eff_AetherDivide_W2_Mecha01_00_Buff01.prefab"
            }
          ]
        },
        {
          "Event": "OnStack",
          "CallbackConfig": [
            {
              "$type": "RPG.GameCore.ModifierAttachEffect",
              "TargetType": {
                "$type": "RPG.GameCore.TargetAlias",
                "Alias": "ModifierOwnerEntity"
              },
              "EffectPath": "Effects/Eff_Prefab/Eff_Monster/Eff_AetherDivide_W2_Mecha01_00/Eff_AetherDivide_W2_Mecha01_00_Buff01.prefab",
              "MinMutexTime": -1,
              "MutexType": "Entity"
            }
          ]
        }
      ],
      "Stacking": "Refresh"
    },
    "Avatar_AetherDivide_W2_Mecha01_00_CanRevive": {
      "_CallbackList": [
        {
          "Event": "OnStack",
          "CallbackConfig": [
            {
              "$type": "RPG.GameCore.LockTargetHP",
              "TargetType": {
                "$type": "RPG.GameCore.TargetAlias",
                "Alias": "ModifierOwnerEntity"
              },
              "LockKey": "AetherDivide_LockHP_Avatar_W2_Mecha01",
              "Threshold": {
                "IsDynamic": false,
                "FixedValue": {
                  "Value": 1.00000761449337E-06
                }
              }
            },
            {
              "$type": "RPG.GameCore.AddModifier",
              "TargetType": {
                "$type": "RPG.GameCore.TargetAlias",
                "Alias": "Caster"
              },
              "ModifierName": "Avatar_AetherDivide_W2_Mecha01_00_CanRevive_Effect"
            }
          ]
        }
      ],
      "Stacking": "Refresh"
    },
    "Avatar_AetherDivide_W2_Mecha01_00_Revive_Wait": {
      "BehaviorFlagList": [
        "Endurance",
        "ListenBattleEventSkill"
      ],
      "_CallbackList": [
        {
          "Event": "OnStack",
          "CallbackConfig": [
            {
              "$type": "RPG.GameCore.StackStatusResistance",
              "TargetType": {
                "$type": "RPG.GameCore.TargetAlias",
                "Alias": "ModifierOwnerEntity"
              },
              "BehaviorFlag": "STAT_CTRL",
              "Resistance": {
                "IsDynamic": false,
                "FixedValue": {
                  "Value": 1
                }
              }
            },
            {
              "$type": "RPG.GameCore.PredicateTaskList",
              "Predicate": {
                "$type": "RPG.GameCore.ByIsTurnOwnerEntity",
                "TargetType": {
                  "$type": "RPG.GameCore.TargetAlias",
                  "Alias": "ModifierOwnerEntity"
                }
              },
              "SuccessTaskList": [
                {
                  "$type": "RPG.GameCore.Retarget",
                  "TargetType": {
                    "$type": "RPG.GameCore.TargetAlias",
                    "Alias": "AllEnemy"
                  },
                  "Predicate": {
                    "$type": "RPG.GameCore.ByIsContainModifier",
                    "TargetType": {
                      "$type": "RPG.GameCore.TargetAlias",
                      "Alias": "ParamEntity"
                    },
                    "ModifierName": "Avatar_AetherDivide_W2_Mecha01_Revenge_Mark"
                  },
                  "MaxNumber": {
                    "IsDynamic": false,
                    "FixedValue": {
                      "Value": 1
                    }
                  },
                  "TaskList": [
                    {
                      "$type": "RPG.GameCore.TurnInsertAbility",
                      "AbilityName": "Avatar_AetherDivide_W2_Mecha01_00_PassiveSkill01_Insert",
                      "TargetType": {
                        "$type": "RPG.GameCore.TargetAlias",
                        "Alias": "Caster"
                      },
                      "AbilityTarget": {
                        "$type": "RPG.GameCore.TargetAlias",
                        "Alias": "ParamEntity"
                      },
                      "AbortBehaviorFlags": [
                        "STAT_CTRL",
                        "DisableAction"
                      ],
                      "InsertAbilityPriority": "AvatarInsertAttackOthers",
                      "ShowInActionBar": true
                    }
                  ],
                  "FailedTaskList": [
                    {
                      "$type": "RPG.GameCore.Retarget",
                      "TargetType": {
                        "$type": "RPG.GameCore.TargetAlias",
                        "Alias": "AllEnemy"
                      },
                      "MaxNumber": {
                        "IsDynamic": false,
                        "FixedValue": {
                          "Value": 1
                        }
                      },
                      "TaskList": [
                        {
                          "$type": "RPG.GameCore.TurnInsertAbility",
                          "AbilityName": "Avatar_AetherDivide_W2_Mecha01_00_PassiveSkill01_Insert",
                          "TargetType": {
                            "$type": "RPG.GameCore.TargetAlias",
                            "Alias": "Caster"
                          },
                          "AbilityTarget": {
                            "$type": "RPG.GameCore.TargetAlias",
                            "Alias": "ParamEntity"
                          },
                          "AbortBehaviorFlags": [
                            "STAT_CTRL",
                            "DisableAction"
                          ],
                          "InsertAbilityPriority": "AvatarInsertAttackOthers",
                          "ShowInActionBar": true
                        }
                      ]
                    }
                  ]
                },
                {
                  "$type": "RPG.GameCore.RemoveSelfModifier"
                }
              ]
            }
          ]
        },
        {
          "Event": "OnListenAfterSkillUse",
          "CallbackConfig": [
            {
              "$type": "RPG.GameCore.Retarget",
              "TargetType": {
                "$type": "RPG.GameCore.TargetAlias",
                "Alias": "AllEnemy"
              },
              "Predicate": {
                "$type": "RPG.GameCore.ByIsContainModifier",
                "TargetType": {
                  "$type": "RPG.GameCore.TargetAlias",
                  "Alias": "ParamEntity"
                },
                "ModifierName": "Avatar_AetherDivide_W2_Mecha01_Revenge_Mark"
              },
              "MaxNumber": {
                "IsDynamic": false,
                "FixedValue": {
                  "Value": 1
                }
              },
              "TaskList": [
                {
                  "$type": "RPG.GameCore.TurnInsertAbility",
                  "AbilityName": "Avatar_AetherDivide_W2_Mecha01_00_PassiveSkill01_Insert",
                  "TargetType": {
                    "$type": "RPG.GameCore.TargetAlias",
                    "Alias": "Caster"
                  },
                  "AbilityTarget": {
                    "$type": "RPG.GameCore.TargetAlias",
                    "Alias": "ParamEntity"
                  },
                  "AbortBehaviorFlags": [
                    "STAT_CTRL",
                    "DisableAction"
                  ],
                  "InsertAbilityPriority": "AvatarInsertAttackOthers",
                  "ShowInActionBar": true
                }
              ],
              "FailedTaskList": [
                {
                  "$type": "RPG.GameCore.Retarget",
                  "TargetType": {
                    "$type": "RPG.GameCore.TargetAlias",
                    "Alias": "AllEnemy"
                  },
                  "MaxNumber": {
                    "IsDynamic": false,
                    "FixedValue": {
                      "Value": 1
                    }
                  },
                  "TaskList": [
                    {
                      "$type": "RPG.GameCore.TurnInsertAbility",
                      "AbilityName": "Avatar_AetherDivide_W2_Mecha01_00_PassiveSkill01_Insert",
                      "TargetType": {
                        "$type": "RPG.GameCore.TargetAlias",
                        "Alias": "Caster"
                      },
                      "AbilityTarget": {
                        "$type": "RPG.GameCore.TargetAlias",
                        "Alias": "ParamEntity"
                      },
                      "AbortBehaviorFlags": [
                        "STAT_CTRL",
                        "DisableAction"
                      ],
                      "InsertAbilityPriority": "AvatarInsertAttackOthers",
                      "ShowInActionBar": true
                    }
                  ]
                }
              ]
            }
          ]
        }
      ]
    },
    "Avatar_AetherDivide_W2_Mecha01_00_Revive": {
      "_CallbackList": [
        {
          "Event": "OnAfterBeingHitAll",
          "CallbackConfig": [
            {
              "$type": "RPG.GameCore.PredicateTaskList",
              "Predicate": {
                "$type": "RPG.GameCore.ByCompareHP",
                "TargetType": {
                  "$type": "RPG.GameCore.TargetAlias",
                  "Alias": "ModifierOwnerEntity"
                },
                "CompareType": "LessEqual",
                "CompareValue": {
                  "IsDynamic": false,
                  "FixedValue": {
                    "Value": 1
                  }
                }
              },
              "SuccessTaskList": [
                {
                  "$type": "RPG.GameCore.PredicateTaskList",
                  "Predicate": {
                    "$type": "RPG.GameCore.ByIsContainModifier",
                    "TargetType": {
                      "$type": "RPG.GameCore.TargetAlias",
                      "Alias": "ModifierOwnerEntity"
                    },
                    "ModifierName": "Avatar_AetherDivide_W2_Mecha01_00_CanRevive"
                  },
                  "SuccessTaskList": [
                    {
                      "$type": "RPG.GameCore.TriggerEffect",
                      "TargetType": {
                        "$type": "RPG.GameCore.TargetAlias",
                        "Alias": "ModifierOwnerEntity"
                      },
                      "EffectPath": "Effects/Eff_Prefab/Eff_Monster/Eff_AetherDivide_W2_Mecha01_00/Eff_AetherDivide_W2_Mecha01_00_Line.prefab"
                    },
                    {
                      "$type": "RPG.GameCore.AddModifier",
                      "TargetType": {
                        "$type": "RPG.GameCore.TargetAlias",
                        "Alias": "ModifierOwnerEntity"
                      },
                      "ModifierName": "Avatar_AetherDivide_W2_Mecha01_00_CanRevive_Effect_01"
                    },
                    {
                      "$type": "RPG.GameCore.DispelStatus",
                      "TargetType": {
                        "$type": "RPG.GameCore.TargetAlias",
                        "Alias": "ModifierOwnerEntity"
                      },
                      "OnlyAlive": false,
                      "IsSlientDispel": true
                    },
                    {
                      "$type": "RPG.GameCore.RemoveModifier",
                      "TargetType": {
                        "$type": "RPG.GameCore.TargetAlias",
                        "Alias": "ModifierOwnerEntity"
                      },
                      "ModifierName": "Avatar_AetherDivide_W2_Mecha01_00_CanRevive"
                    },
                    {
                      "$type": "RPG.GameCore.AddModifier",
                      "TargetType": {
                        "$type": "RPG.GameCore.TargetAlias",
                        "Alias": "ModifierOwnerEntity"
                      },
                      "ModifierName": "Avatar_AetherDivide_W2_Mecha01_00_Revive_Wait"
                    }
                  ],
                  "FailedTaskList": []
                }
              ],
              "FailedTaskList": []
            }
          ]
        },
        {
          "Event": "OnStack",
          "CallbackConfig": []
        },
        {
          "Event": "OnBeforeBeingAttacked",
          "CallbackConfig": [
            {
              "$type": "RPG.GameCore.RemoveModifier",
              "TargetType": {
                "$type": "RPG.GameCore.TargetAlias",
                "Alias": "AllDarkTeam"
              },
              "ModifierName": "Avatar_AetherDivide_W2_Mecha01_Revenge_Mark"
            },
            {
              "$type": "RPG.GameCore.AddModifier",
              "TargetType": {
                "$type": "RPG.GameCore.TargetAlias",
                "Alias": "ParamEntity"
              },
              "ModifierName": "Avatar_AetherDivide_W2_Mecha01_Revenge_Mark"
            }
          ]
        }
      ],
      "_PriorityList": [
        {
          "PriorityName": "LimboWaitHealPriority",
          "Key": "AvatarReviveSelf"
        }
      ],
      "Count": 1
    }
  }
}