{
  "AbilityList": [
    {
      "Name": "Avatar_Lynx_00_Skill01_Phase01",
      "TargetInfo": {
        "TargetType": "SkillTargetEntityList"
      },
      "OnStart": [
        {
          "$type": "RPG.GameCore.LookAt",
          "TargetType": "AbilityTargetEntity"
        },
        {
          "$type": "RPG.GameCore.TriggerAbility",
          "TargetType": {
            "$type": "RPG.GameCore.TargetAlias",
            "Alias": "Caster"
          },
          "AbilityName": "Avatar_Lynx_00_Skill01_Phase02",
          "IsSkillPerform": true
        },
        {
          "$type": "RPG.GameCore.TriggerAbility",
          "TargetType": {
            "$type": "RPG.GameCore.TargetAlias",
            "Alias": "Caster"
          },
          "AbilityName": "Avatar_Lynx_00_Skill01_Camera",
          "IsSkillPerform": true
        },
        {
          "$type": "RPG.GameCore.TriggerAnimStateWithMove",
          "TargetType": {
            "$type": "RPG.GameCore.TargetAlias",
            "Alias": "Caster"
          },
          "AnimStateName": "Skill01",
          "MovingRangeList": [
            {
              "TargetType": {
                "$type": "RPG.GameCore.TargetAlias",
                "Alias": "AbilityTargetEntity"
              },
              "OffsetTargetDistance": {
                "IsDynamic": false,
                "FixedValue": {
                  "Value": 2.2000000001862645
                }
              },
              "NormalizedTimeStart": {
                "IsDynamic": false,
                "FixedValue": {
                  "Value": 0.04599999962374568
                }
              },
              "NormalizedTimeEnd": {
                "IsDynamic": false,
                "FixedValue": {
                  "Value": 0.1049999997485429
                }
              }
            },
            {
              "TargetType": {
                "$type": "RPG.GameCore.TargetAlias",
                "Alias": "TeamFormation"
              },
              "OffsetTargetDistance": {
                "IsDynamic": false,
                "FixedValue": {
                  "Value": 0
                }
              },
              "NormalizedTimeStart": {
                "IsDynamic": false,
                "FixedValue": {
                  "Value": 0.4700000004377216
                }
              },
              "NormalizedTimeEnd": {
                "IsDynamic": false,
                "FixedValue": {
                  "Value": 0.6300000005867332
                }
              }
            }
          ]
        },
        {
          "$type": "RPG.GameCore.WaitAnimState",
          "TargetType": {
            "$type": "RPG.GameCore.TargetAlias",
            "Alias": "Caster"
          },
          "AnimStateName": "Skill01",
          "NormalizedTimeEnd": {
            "IsDynamic": false,
            "FixedValue": {
              "Value": 0.02000000001862645
            }
          }
        },
        {
          "$type": "RPG.GameCore.RadialBlurEffect",
          "TargetType": {
            "$type": "RPG.GameCore.TargetAlias",
            "Alias": "AbilityTargetEntity"
          },
          "BlurRadius": 0.8,
          "Iteration": 2,
          "BlurStart": 0.3,
          "BlurFeather": 0.4
        },
        {
          "$type": "RPG.GameCore.WaitAnimState",
          "TargetType": {
            "$type": "RPG.GameCore.TargetAlias",
            "Alias": "Caster"
          },
          "AnimStateName": "Skill01",
          "NormalizedTimeEnd": {
            "IsDynamic": false,
            "FixedValue": {
              "Value": 0.14000000013038516
            }
          }
        },
        {
          "$type": "RPG.GameCore.RadialBlurEffect",
          "TargetType": {
            "$type": "RPG.GameCore.TargetAlias",
            "Alias": "AbilityTargetEntity"
          },
          "Active": false
        },
        {
          "$type": "RPG.GameCore.WaitAnimState",
          "TargetType": {
            "$type": "RPG.GameCore.TargetAlias",
            "Alias": "Caster"
          },
          "AnimStateName": "Skill01",
          "NormalizedTimeEnd": {
            "IsDynamic": false,
            "FixedValue": {
              "Value": 0.6300000005867332
            }
          }
        },
        {
          "$type": "RPG.GameCore.MoveToTargetPosition",
          "TargetType": {
            "$type": "RPG.GameCore.TargetAlias",
            "Alias": "TeamFormation"
          },
          "IgnoreRadius": true,
          "OffsetTargetDistance": {
            "IsDynamic": false,
            "FixedValue": {
              "Value": 0
            }
          }
        }
      ]
    },
    {
      "Name": "Avatar_Lynx_00_Skill01_Phase02",
      "TargetInfo": {
        "TargetType": "SkillTargetEntityList"
      },
      "OnStart": [
        {
          "$type": "RPG.GameCore.WaitAnimState",
          "AnimStateName": "Skill01",
          "NormalizedTimeEnd": {
            "IsDynamic": false,
            "FixedValue": {
              "Value": 0.21000000019557774
            }
          }
        },
        {
          "$type": "RPG.GameCore.DamageByAttackProperty",
          "TargetType": {
            "$type": "RPG.GameCore.TargetAlias",
            "Alias": "AbilityTargetEntity"
          },
          "AttackProperty": {
            "DamageType": "Quantum",
            "FormulaType": "ByMaxHP",
            "DamagePercentage": {
              "IsDynamic": true,
              "PostfixExpr": {
                "OpCodes": "AQAK",
                "FixedValues": [],
                "DynamicHashes": [
                  -1126825319
                ]
              }
            },
            "StanceValue": {
              "IsDynamic": true,
              "PostfixExpr": {
                "OpCodes": "AQAK",
                "FixedValues": [],
                "DynamicHashes": [
                  1659254037
                ]
              }
            },
            "SPHitRatio": {
              "IsDynamic": false,
              "FixedValue": {
                "Value": 1
              }
            },
            "AttackType": "Normal",
            "HitAnimation": "Hit",
            "HitEffect": "Effects/Eff_Prefab/Eff_Avatar/Eff_Lynx/Eff_Avatar_Lynx_00_Skill01_Hit.prefab",
            "HitTimeSlowType": "Impact",
            "HitPosHeight": 1.2
          },
          "CanTriggerLastKill": true
        },
        {
          "$type": "RPG.GameCore.DamagePerformFinish"
        },
        {
          "$type": "RPG.GameCore.SkillPerformFinish"
        }
      ]
    },
    {
      "Name": "Avatar_Lynx_00_Skill02_Phase01",
      "TargetInfo": {
        "TargetType": "SkillTargetEntityList"
      },
      "OnStart": [
        {
          "$type": "RPG.GameCore.SyncCharLightAndCameraDir"
        },
        {
          "$type": "RPG.GameCore.TriggerAbility",
          "TargetType": {
            "$type": "RPG.GameCore.TargetAlias",
            "Alias": "Caster"
          },
          "AbilityName": "Avatar_Lynx_00_Skill02_Phase02",
          "IsSkillPerform": true
        },
        {
          "$type": "RPG.GameCore.TriggerAbility",
          "TargetType": {
            "$type": "RPG.GameCore.TargetAlias",
            "Alias": "Caster"
          },
          "AbilityName": "Avatar_Lynx_00_Skill02_Camera_Self",
          "IsSkillPerform": true
        },
        {
          "$type": "RPG.GameCore.TriggerAnimState",
          "AnimStateName": "Skill02",
          "NormalizedTimeEnd": {
            "IsDynamic": false,
            "FixedValue": {
              "Value": 0.7500000006984919
            }
          },
          "NormalizedTimeWait": {
            "IsDynamic": false,
            "FixedValue": {
              "Value": 0.6600000006146729
            }
          }
        },
        {
          "$type": "RPG.GameCore.MoveToTargetPosition",
          "TargetType": {
            "$type": "RPG.GameCore.TargetAlias",
            "Alias": "TeamFormation"
          },
          "IgnoreRadius": true,
          "OffsetTargetDistance": {
            "IsDynamic": false,
            "FixedValue": {
              "Value": 0
            }
          }
        },
        {
          "$type": "RPG.GameCore.WaitAnimState",
          "AnimStateName": "Skill02",
          "NormalizedTimeEnd": {
            "IsDynamic": false,
            "FixedValue": {
              "Value": 0.7500000006984919
            }
          }
        },
        {
          "$type": "RPG.GameCore.SyncCharLightAndCameraDir",
          "IsSync": false
        }
      ]
    },
    {
      "Name": "Avatar_Lynx_00_Skill02_Phase02",
      "TargetInfo": {
        "TargetType": "SkillTargetEntityList"
      },
      "OnStart": [
        {
          "$type": "RPG.GameCore.SetDynamicValueByProperty",
          "DynamicKey": "MDF_Lynx_MaxHpValue",
          "ReadTargetType": {
            "$type": "RPG.GameCore.TargetAlias",
            "Alias": "Caster"
          },
          "Value": "MaxHP"
        },
        {
          "$type": "RPG.GameCore.SetDynamicValueByProperty",
          "DynamicKey": "MDF_Lynx_MaxHpConvert",
          "ReadTargetType": {
            "$type": "RPG.GameCore.TargetAlias",
            "Alias": "Caster"
          },
          "Value": "HPConvert"
        },
        {
          "$type": "RPG.GameCore.WaitAnimState",
          "AnimStateName": "Skill02",
          "NormalizedTimeEnd": {
            "IsDynamic": false,
            "FixedValue": {
              "Value": 0.39500000001862645
            }
          }
        },
        {
          "$type": "RPG.GameCore.TriggerEffect",
          "TargetType": {
            "$type": "RPG.GameCore.TargetAlias",
            "Alias": "AbilityTargetEntity"
          },
          "EffectPath": "Effects/Eff_Prefab/Eff_Avatar/Eff_Lynx/Eff_Avatar_Lynx_00_Skill02_Buff.prefab"
        },
        {
          "$type": "RPG.GameCore.WaitAnimState",
          "AnimStateName": "Skill02",
          "NormalizedTimeEnd": {
            "IsDynamic": false,
            "FixedValue": {
              "Value": 0.4450000000651926
            }
          }
        },
        {
          "$type": "RPG.GameCore.PredicateTaskList",
          "Predicate": {
            "$type": "RPG.GameCore.ByRankActivated",
            "TriggerKey": {
              "Hash": -1445815962
            }
          },
          "SuccessTaskList": [
            {
              "$type": "RPG.GameCore.PredicateTaskList",
              "Predicate": {
                "$type": "RPG.GameCore.ByAny",
                "PredicateList": [
                  {
                    "$type": "RPG.GameCore.ByAvatarBaseType",
                    "BaseTypeList": [
                      "Warrior"
                    ],
                    "TargetType": {
                      "$type": "RPG.GameCore.TargetAlias",
                      "Alias": "AbilityTargetEntity"
                    }
                  },
                  {
                    "$type": "RPG.GameCore.ByAvatarBaseType",
                    "BaseTypeList": [
                      "Knight"
                    ],
                    "TargetType": {
                      "$type": "RPG.GameCore.TargetAlias",
                      "Alias": "AbilityTargetEntity"
                    }
                  }
                ]
              },
              "SuccessTaskList": [
                {
                  "$type": "RPG.GameCore.AddModifier",
                  "TargetType": {
                    "$type": "RPG.GameCore.TargetAlias",
                    "Alias": "AbilityTargetEntity"
                  },
                  "ModifierName": "MAvatar_Lynx_00_HPAddedRatio02",
                  "LifeTime": {
                    "IsDynamic": true,
                    "PostfixExpr": {
                      "OpCodes": "AQAK",
                      "FixedValues": [],
                      "DynamicHashes": [
                        -1019407308
                      ]
                    }
                  },
                  "DynamicValues": {
                    "MDF_PropertyValue": {
                      "IsDynamic": true,
                      "PostfixExpr": {
                        "OpCodes": "AQABAQMBAgEDAgQBBAIK",
                        "FixedValues": [],
                        "DynamicHashes": [
                          1394243051,
                          -1356208645,
                          1267948012,
                          1580665899,
                          -566599096
                        ]
                      }
                    },
                    "MDF_HPAddValueConvert": {
                      "IsDynamic": true,
                      "PostfixExpr": {
                        "OpCodes": "AQABAQMBAgEDAgQK",
                        "FixedValues": [],
                        "DynamicHashes": [
                          1394243051,
                          -1356208645,
                          1267948012,
                          1580665899
                        ]
                      }
                    },
                    "MDF_HPDelta": {
                      "IsDynamic": true,
                      "PostfixExpr": {
                        "OpCodes": "AQAK",
                        "FixedValues": [],
                        "DynamicHashes": [
                          -566599096
                        ]
                      }
                    },
                    "MDF_AggroUp": {
                      "IsDynamic": true,
                      "PostfixExpr": {
                        "OpCodes": "AQAK",
                        "FixedValues": [],
                        "DynamicHashes": [
                          237988371
                        ]
                      }
                    },
                    "MDF_AddStatusResistance": {
                      "IsDynamic": true,
                      "PostfixExpr": {
                        "OpCodes": "AQAK",
                        "FixedValues": [],
                        "DynamicHashes": [
                          -1488295332
                        ]
                      }
                    }
                  }
                }
              ],
              "FailedTaskList": [
                {
                  "$type": "RPG.GameCore.AddModifier",
                  "TargetType": {
                    "$type": "RPG.GameCore.TargetAlias",
                    "Alias": "AbilityTargetEntity"
                  },
                  "ModifierName": "MAvatar_Lynx_00_HPAddedRatio02",
                  "LifeTime": {
                    "IsDynamic": true,
                    "PostfixExpr": {
                      "OpCodes": "AQAK",
                      "FixedValues": [],
                      "DynamicHashes": [
                        -1019407308
                      ]
                    }
                  },
                  "DynamicValues": {
                    "MDF_PropertyValue": {
                      "IsDynamic": true,
                      "PostfixExpr": {
                        "OpCodes": "AQABAQMBAgEDAgQBBAIK",
                        "FixedValues": [],
                        "DynamicHashes": [
                          1394243051,
                          -1356208645,
                          1267948012,
                          1580665899,
                          -566599096
                        ]
                      }
                    },
                    "MDF_HPAddValueConvert": {
                      "IsDynamic": true,
                      "PostfixExpr": {
                        "OpCodes": "AQABAQMBAgEDAgQK",
                        "FixedValues": [],
                        "DynamicHashes": [
                          1394243051,
                          -1356208645,
                          1267948012,
                          1580665899
                        ]
                      }
                    },
                    "MDF_HPDelta": {
                      "IsDynamic": true,
                      "PostfixExpr": {
                        "OpCodes": "AQAK",
                        "FixedValues": [],
                        "DynamicHashes": [
                          -566599096
                        ]
                      }
                    },
                    "MDF_AggroUp": {
                      "IsDynamic": false,
                      "FixedValue": {
                        "Value": 0
                      }
                    },
                    "MDF_AddStatusResistance": {
                      "IsDynamic": true,
                      "PostfixExpr": {
                        "OpCodes": "AQAK",
                        "FixedValues": [],
                        "DynamicHashes": [
                          -1488295332
                        ]
                      }
                    }
                  }
                }
              ]
            }
          ],
          "FailedTaskList": [
            {
              "$type": "RPG.GameCore.PredicateTaskList",
              "Predicate": {
                "$type": "RPG.GameCore.ByAny",
                "PredicateList": [
                  {
                    "$type": "RPG.GameCore.ByAvatarBaseType",
                    "BaseTypeList": [
                      "Warrior"
                    ],
                    "TargetType": {
                      "$type": "RPG.GameCore.TargetAlias",
                      "Alias": "AbilityTargetEntity"
                    }
                  },
                  {
                    "$type": "RPG.GameCore.ByAvatarBaseType",
                    "BaseTypeList": [
                      "Knight"
                    ],
                    "TargetType": {
                      "$type": "RPG.GameCore.TargetAlias",
                      "Alias": "AbilityTargetEntity"
                    }
                  }
                ]
              },
              "SuccessTaskList": [
                {
                  "$type": "RPG.GameCore.AddModifier",
                  "TargetType": {
                    "$type": "RPG.GameCore.TargetAlias",
                    "Alias": "AbilityTargetEntity"
                  },
                  "ModifierName": "MAvatar_Lynx_00_HPAddedRatio01",
                  "LifeTime": {
                    "IsDynamic": true,
                    "PostfixExpr": {
                      "OpCodes": "AQAK",
                      "FixedValues": [],
                      "DynamicHashes": [
                        -1019407308
                      ]
                    }
                  },
                  "DynamicValues": {
                    "MDF_PropertyValue": {
                      "IsDynamic": true,
                      "PostfixExpr": {
                        "OpCodes": "AQABAQMBAgQBAwIK",
                        "FixedValues": [],
                        "DynamicHashes": [
                          1394243051,
                          -1356208645,
                          1267948012,
                          -566599096
                        ]
                      }
                    },
                    "MDF_HPAddValueConvert": {
                      "IsDynamic": true,
                      "PostfixExpr": {
                        "OpCodes": "AQABAQMBAgQK",
                        "FixedValues": [],
                        "DynamicHashes": [
                          1394243051,
                          -1356208645,
                          1267948012
                        ]
                      }
                    },
                    "MDF_HPDelta": {
                      "IsDynamic": true,
                      "PostfixExpr": {
                        "OpCodes": "AQAK",
                        "FixedValues": [],
                        "DynamicHashes": [
                          -566599096
                        ]
                      }
                    },
                    "MDF_AggroUp": {
                      "IsDynamic": true,
                      "PostfixExpr": {
                        "OpCodes": "AQAK",
                        "FixedValues": [],
                        "DynamicHashes": [
                          237988371
                        ]
                      }
                    }
                  }
                }
              ],
              "FailedTaskList": [
                {
                  "$type": "RPG.GameCore.AddModifier",
                  "TargetType": {
                    "$type": "RPG.GameCore.TargetAlias",
                    "Alias": "AbilityTargetEntity"
                  },
                  "ModifierName": "MAvatar_Lynx_00_HPAddedRatio01",
                  "LifeTime": {
                    "IsDynamic": true,
                    "PostfixExpr": {
                      "OpCodes": "AQAK",
                      "FixedValues": [],
                      "DynamicHashes": [
                        -1019407308
                      ]
                    }
                  },
                  "DynamicValues": {
                    "MDF_PropertyValue": {
                      "IsDynamic": true,
                      "PostfixExpr": {
                        "OpCodes": "AQABAQMBAgQBAwIK",
                        "FixedValues": [],
                        "DynamicHashes": [
                          1394243051,
                          -1356208645,
                          1267948012,
                          -566599096
                        ]
                      }
                    },
                    "MDF_HPAddValueConvert": {
                      "IsDynamic": true,
                      "PostfixExpr": {
                        "OpCodes": "AQABAQMBAgQK",
                        "FixedValues": [],
                        "DynamicHashes": [
                          1394243051,
                          -1356208645,
                          1267948012
                        ]
                      }
                    },
                    "MDF_HPDelta": {
                      "IsDynamic": true,
                      "PostfixExpr": {
                        "OpCodes": "AQAK",
                        "FixedValues": [],
                        "DynamicHashes": [
                          -566599096
                        ]
                      }
                    },
                    "MDF_AggroUp": {
                      "IsDynamic": false,
                      "FixedValue": {
                        "Value": 0
                      }
                    }
                  }
                }
              ]
            }
          ]
        },
        {
          "$type": "RPG.GameCore.PredicateTaskList",
          "Predicate": {
            "$type": "RPG.GameCore.ByRankActivated",
            "TriggerKey": {
              "Hash": 523552506
            }
          },
          "SuccessTaskList": [
            {
              "$type": "RPG.GameCore.AddModifier",
              "TargetType": {
                "$type": "RPG.GameCore.TargetAlias",
                "Alias": "AbilityTargetEntity"
              },
              "ModifierName": "MAvatar_Lynx_00_Rank02_Resist"
            }
          ]
        },
        {
          "$type": "RPG.GameCore.PredicateTaskList",
          "Predicate": {
            "$type": "RPG.GameCore.ByRankActivated",
            "TriggerKey": {
              "Hash": 1686351920
            }
          },
          "SuccessTaskList": [
            {
              "$type": "RPG.GameCore.AddModifier",
              "TargetType": {
                "$type": "RPG.GameCore.TargetAlias",
                "Alias": "AbilityTargetEntity"
              },
              "ModifierName": "MAvatar_Lynx_00_Rank04_AddAttackRatio",
              "LifeTime": {
                "IsDynamic": true,
                "PostfixExpr": {
                  "OpCodes": "AQAK",
                  "FixedValues": [],
                  "DynamicHashes": [
                    -304658486
                  ]
                }
              },
              "DynamicValues": {
                "MDF_PropertyValue": {
                  "IsDynamic": true,
                  "PostfixExpr": {
                    "OpCodes": "AQABAQMBAgQK",
                    "FixedValues": [],
                    "DynamicHashes": [
                      1394243051,
                      -1356208645,
                      -2073875728
                    ]
                  }
                }
              }
            }
          ]
        },
        {
          "$type": "RPG.GameCore.WaitAnimState",
          "AnimStateName": "Skill02",
          "NormalizedTimeEnd": {
            "IsDynamic": false,
            "FixedValue": {
              "Value": 0.46500000008381903
            }
          }
        },
        {
          "$type": "RPG.GameCore.HealHP",
          "TargetType": {
            "$type": "RPG.GameCore.TargetAlias",
            "Alias": "AbilityTargetEntity"
          },
          "FormulaType": "HealByHealerMaxHP",
          "HealPercentage": {
            "IsDynamic": true,
            "PostfixExpr": {
              "OpCodes": "AQAK",
              "FixedValues": [],
              "DynamicHashes": [
                1520219742
              ]
            }
          },
          "ModifyValue": {
            "IsDynamic": true,
            "PostfixExpr": {
              "OpCodes": "AQAK",
              "FixedValues": [],
              "DynamicHashes": [
                -8031476
              ]
            }
          },
          "DisplayData": {
            "UIMessageHeight": 0.8
          }
        },
        {
          "$type": "RPG.GameCore.PredicateTaskList",
          "Predicate": {
            "$type": "RPG.GameCore.BySkillPointActivated",
            "PointTriggerKey": {
              "Hash": 1455742905
            }
          },
          "SuccessTaskList": [
            {
              "$type": "RPG.GameCore.AddModifier",
              "TargetType": {
                "$type": "RPG.GameCore.TargetAlias",
                "Alias": "AbilityTargetEntity"
              },
              "ModifierName": "MAvatar_Lynx_00_HOT_HealByMaxHp",
              "LifeTime": {
                "IsDynamic": true,
                "PostfixExpr": {
                  "OpCodes": "AQABAQIK",
                  "FixedValues": [],
                  "DynamicHashes": [
                    -114961627,
                    -754831206
                  ]
                }
              },
              "DynamicValues": {
                "MDF_HOT_HOTPercentage": {
                  "IsDynamic": true,
                  "PostfixExpr": {
                    "OpCodes": "AQAK",
                    "FixedValues": [],
                    "DynamicHashes": [
                      249548522
                    ]
                  }
                },
                "MDF_HOT_HealValue": {
                  "IsDynamic": true,
                  "PostfixExpr": {
                    "OpCodes": "AQAK",
                    "FixedValues": [],
                    "DynamicHashes": [
                      2104417852
                    ]
                  }
                },
                "MDF_HOT_AggroUp_HOTPercentage": {
                  "IsDynamic": true,
                  "PostfixExpr": {
                    "OpCodes": "AQAK",
                    "FixedValues": [],
                    "DynamicHashes": [
                      -505251920
                    ]
                  }
                },
                "MDF_HOT_AggroUp_HealValue": {
                  "IsDynamic": true,
                  "PostfixExpr": {
                    "OpCodes": "AQAK",
                    "FixedValues": [],
                    "DynamicHashes": [
                      -157107010
                    ]
                  }
                }
              }
            }
          ],
          "FailedTaskList": [
            {
              "$type": "RPG.GameCore.AddModifier",
              "TargetType": {
                "$type": "RPG.GameCore.TargetAlias",
                "Alias": "AbilityTargetEntity"
              },
              "ModifierName": "MAvatar_Lynx_00_HOT_HealByMaxHp",
              "LifeTime": {
                "IsDynamic": true,
                "PostfixExpr": {
                  "OpCodes": "AQAK",
                  "FixedValues": [],
                  "DynamicHashes": [
                    -114961627
                  ]
                }
              },
              "DynamicValues": {
                "MDF_HOT_HOTPercentage": {
                  "IsDynamic": true,
                  "PostfixExpr": {
                    "OpCodes": "AQAK",
                    "FixedValues": [],
                    "DynamicHashes": [
                      249548522
                    ]
                  }
                },
                "MDF_HOT_HealValue": {
                  "IsDynamic": true,
                  "PostfixExpr": {
                    "OpCodes": "AQAK",
                    "FixedValues": [],
                    "DynamicHashes": [
                      2104417852
                    ]
                  }
                },
                "MDF_HOT_AggroUp_HOTPercentage": {
                  "IsDynamic": true,
                  "PostfixExpr": {
                    "OpCodes": "AQAK",
                    "FixedValues": [],
                    "DynamicHashes": [
                      -505251920
                    ]
                  }
                },
                "MDF_HOT_AggroUp_HealValue": {
                  "IsDynamic": true,
                  "PostfixExpr": {
                    "OpCodes": "AQAK",
                    "FixedValues": [],
                    "DynamicHashes": [
                      -157107010
                    ]
                  }
                }
              }
            }
          ]
        },
        {
          "$type": "RPG.GameCore.ModifySPNew",
          "TargetType": {
            "$type": "RPG.GameCore.TargetAlias",
            "Alias": "Caster"
          },
          "AddRatio": {
            "IsDynamic": false,
            "FixedValue": {
              "Value": 1
            }
          }
        },
        {
          "$type": "RPG.GameCore.PredicateTaskList",
          "Predicate": {
            "$type": "RPG.GameCore.ByIsTurnActionEntity",
            "TargetType": {
              "$type": "RPG.GameCore.TargetAlias",
              "Alias": "AbilityTargetEntity"
            }
          },
          "FailedTaskList": [
            {
              "$type": "RPG.GameCore.SetCameraRootFollow",
              "TargetType": {
                "$type": "RPG.GameCore.TargetAlias",
                "Alias": "AbilityTargetEntity"
              },
              "IsReset": true
            }
          ]
        },
        {
          "$type": "RPG.GameCore.WaitSecond",
          "WaitTime": 0.1
        },
        {
          "$type": "RPG.GameCore.PredicateTaskList",
          "Predicate": {
            "$type": "RPG.GameCore.ByIsTurnActionEntity",
            "TargetType": {
              "$type": "RPG.GameCore.TargetAlias",
              "Alias": "SkillTargetEntityList"
            }
          },
          "SuccessTaskList": [],
          "FailedTaskList": [
            {
              "$type": "RPG.GameCore.CharacterPlayVO",
              "VOType": "ReceiveHealing",
              "TargetType": {
                "$type": "RPG.GameCore.TargetAlias",
                "Alias": "SkillTargetEntityList"
              }
            }
          ]
        },
        {
          "$type": "RPG.GameCore.SkillPerformFinish"
        }
      ]
    },
    {
      "Name": "Avatar_Lynx_00_Skill03_EnterReady",
      "TargetInfo": {
        "TargetType": "Caster"
      },
      "OnStart": [
        {
          "$type": "RPG.GameCore.SyncCharLightAndCameraDir"
        },
        {
          "$type": "RPG.GameCore.WaitSecond",
          "WaitTime": 0.5
        },
        {
          "$type": "RPG.GameCore.TriggerAnimState",
          "TargetType": {
            "$type": "RPG.GameCore.TargetAlias",
            "Alias": "AllTeammate"
          },
          "AnimLogicState": "Idle",
          "AnimStateName": "StandBy"
        },
        {
          "$type": "RPG.GameCore.SetTeamFormation",
          "Team": "TeamLight",
          "CustomFormationName": "Natasha_00_Skill03_Ready"
        },
        {
          "$type": "RPG.GameCore.VCameraConfigChange",
          "CameraConfig": {
            "NormalConfig": {
              "CameraState": "UseSkillPerform",
              "IsLocalOffset": true,
              "AnchorOffset": {
                "X": 0,
                "Y": 0.5,
                "Z": 0.2
              },
              "AimTargetType": {
                "$type": "RPG.GameCore.TargetAlias",
                "Alias": "Caster"
              },
              "AimOffset": {
                "X": 0,
                "Y": 1.5,
                "Z": 0
              },
              "FollowPoleAngle": 20,
              "FollowRadius": 3,
              "FOV": 60
            },
            "BlendConfig": {
              "BlendType": "Cut"
            }
          }
        },
        {
          "$type": "RPG.GameCore.WaitSecond",
          "WaitTime": 0.6
        },
        {
          "$type": "RPG.GameCore.VCameraConfigChange",
          "CameraConfig": {
            "NormalConfig": {
              "CameraState": "UseSkillPerform",
              "IsLocalOffset": true,
              "AnchorOffset": {
                "X": 1.2,
                "Y": -0.8,
                "Z": 0.2
              },
              "AimTargetType": {
                "$type": "RPG.GameCore.TargetAlias",
                "Alias": "Caster"
              },
              "AimOffset": {
                "X": -0.2,
                "Y": -0.5,
                "Z": 0.2
              },
              "FollowPoleAngle": 90,
              "FollowRadius": 1.9,
              "FollowDamp": 0.8,
              "AimDamp": 0.1,
              "FOV": 45
            },
            "BlendConfig": {
              "BlendType": "Custom",
              "CustomCurveName": "Blend_UltraReady",
              "BlendTime": 1.3
            },
            "ShowEntityConfig": {
              "ShowTargetType": {
                "$type": "RPG.GameCore.TargetAlias",
                "Alias": "AllLightTeam"
              }
            }
          }
        }
      ]
    },
    {
      "Name": "Avatar_Lynx_00_Skill03_Phase01",
      "TargetInfo": {
        "TargetType": "SkillTargetEntityList"
      },
      "OnStart": [
        {
          "$type": "RPG.GameCore.SyncCharLightAndCameraDir",
          "IsSync": false
        },
        {
          "$type": "RPG.GameCore.TriggerAbility",
          "TargetType": {
            "$type": "RPG.GameCore.TargetAlias",
            "Alias": "Caster"
          },
          "AbilityName": "Avatar_Lynx_00_Skill03_Phase02",
          "IsSkillPerform": true
        },
        {
          "$type": "RPG.GameCore.SetTeamFormation",
          "Team": "TeamLight",
          "CustomFormationName": "Lynx_00_Skill03_TargetPos"
        },
        {
          "$type": "RPG.GameCore.TriggerAbility",
          "TargetType": {
            "$type": "RPG.GameCore.TargetAlias",
            "Alias": "Caster"
          },
          "AbilityName": "Avatar_Lynx_00_Skill03_Camera",
          "IsSkillPerform": true
        },
        {
          "$type": "RPG.GameCore.ShowBattleUI"
        },
        {
          "$type": "RPG.GameCore.TriggerAnimState",
          "AnimStateName": "Skill03"
        },
        {
          "$type": "RPG.GameCore.GlobalMainIntensityEffect",
          "TargetIntensity": 0.7
        },
        {
          "$type": "RPG.GameCore.WaitAnimState",
          "TargetType": {
            "$type": "RPG.GameCore.TargetAlias",
            "Alias": "Caster"
          },
          "AnimStateName": "Skill03",
          "NormalizedTimeEnd": {
            "IsDynamic": false,
            "FixedValue": {
              "Value": 0.5120000003371388
            }
          }
        },
        {
          "$type": "RPG.GameCore.GlobalMainIntensityEffect",
          "TargetIntensity": 0.2
        },
        {
          "$type": "RPG.GameCore.WaitAnimState",
          "TargetType": {
            "$type": "RPG.GameCore.TargetAlias",
            "Alias": "Caster"
          },
          "AnimStateName": "Skill03",
          "NormalizedTimeEnd": {
            "IsDynamic": false,
            "FixedValue": {
              "Value": 0.9980000003706664
            }
          }
        },
        {
          "$type": "RPG.GameCore.GlobalMainIntensityEffect",
          "IsRevert": true,
          "FadeDuration": 0.15
        },
        {
          "$type": "RPG.GameCore.TryStartConnectUltraSkillFrameCapture"
        },
        {
          "$type": "RPG.GameCore.WaitTimelineFinish",
          "TimelineName": "Character_Lynx_00_Skill03_TimeLine"
        },
        {
          "$type": "RPG.GameCore.ShowBattleUI",
          "IsShow": true
        },
        {
          "$type": "RPG.GameCore.MoveToTargetPosition",
          "TargetType": {
            "$type": "RPG.GameCore.TargetAlias",
            "Alias": "TeamFormation"
          },
          "IgnoreRadius": true,
          "OffsetTargetDistance": {
            "IsDynamic": false,
            "FixedValue": {
              "Value": 0
            }
          }
        }
      ]
    },
    {
      "Name": "Avatar_Lynx_00_Skill03_Phase02",
      "TargetInfo": {
        "TargetType": "SkillTargetEntityList"
      },
      "OnStart": [
        {
          "$type": "RPG.GameCore.WaitAnimState",
          "AnimStateName": "Skill03",
          "NormalizedTimeEnd": {
            "IsDynamic": false,
            "FixedValue": {
              "Value": 0.8550000004470348
            }
          }
        },
        {
          "$type": "RPG.GameCore.TriggerEffect",
          "TargetType": {
            "$type": "RPG.GameCore.TargetAlias",
            "Alias": "AllLightTeam"
          },
          "EffectPath": "Effects/Eff_Prefab/Eff_Avatar/Eff_Lynx/Eff_Avatar_Lynx_00_Skill03_Buff.prefab"
        },
        {
          "$type": "RPG.GameCore.WaitAnimState",
          "AnimStateName": "Skill03",
          "NormalizedTimeEnd": {
            "IsDynamic": false,
            "FixedValue": {
              "Value": 0.8600000008009374
            }
          }
        },
        {
          "$type": "RPG.GameCore.DispelStatus",
          "TargetType": {
            "$type": "RPG.GameCore.TargetAlias",
            "Alias": "AllTeamMember"
          },
          "Numbers": {
            "IsDynamic": true,
            "PostfixExpr": {
              "OpCodes": "AQAK",
              "FixedValues": [],
              "DynamicHashes": [
                -1783706414
              ]
            }
          },
          "Order": "LastAdded"
        },
        {
          "$type": "RPG.GameCore.WaitAnimState",
          "AnimStateName": "Skill03",
          "NormalizedTimeEnd": {
            "IsDynamic": false,
            "FixedValue": {
              "Value": 0.8800000008195639
            }
          }
        },
        {
          "$type": "RPG.GameCore.HealHP",
          "TargetType": {
            "$type": "RPG.GameCore.TargetAlias",
            "Alias": "AllTeamMember"
          },
          "FormulaType": "HealByHealerMaxHP",
          "HealPercentage": {
            "IsDynamic": true,
            "PostfixExpr": {
              "OpCodes": "AQAK",
              "FixedValues": [],
              "DynamicHashes": [
                532005459
              ]
            }
          },
          "ModifyValue": {
            "IsDynamic": true,
            "PostfixExpr": {
              "OpCodes": "AQAK",
              "FixedValues": [],
              "DynamicHashes": [
                -812376667
              ]
            }
          },
          "DisplayData": {
            "UIMessageHeight": 0.8
          }
        },
        {
          "$type": "RPG.GameCore.PredicateTaskList",
          "Predicate": {
            "$type": "RPG.GameCore.BySkillPointActivated",
            "PointTriggerKey": {
              "Hash": 1455742905
            }
          },
          "SuccessTaskList": [
            {
              "$type": "RPG.GameCore.AddModifier",
              "TargetType": {
                "$type": "RPG.GameCore.TargetAlias",
                "Alias": "AllTeamMember"
              },
              "ModifierName": "MAvatar_Lynx_00_HOT_HealByMaxHp",
              "LifeTime": {
                "IsDynamic": true,
                "PostfixExpr": {
                  "OpCodes": "AQABAQIK",
                  "FixedValues": [],
                  "DynamicHashes": [
                    -114961627,
                    -754831206
                  ]
                }
              },
              "DynamicValues": {
                "MDF_HOT_HOTPercentage": {
                  "IsDynamic": true,
                  "PostfixExpr": {
                    "OpCodes": "AQAK",
                    "FixedValues": [],
                    "DynamicHashes": [
                      249548522
                    ]
                  }
                },
                "MDF_HOT_HealValue": {
                  "IsDynamic": true,
                  "PostfixExpr": {
                    "OpCodes": "AQAK",
                    "FixedValues": [],
                    "DynamicHashes": [
                      2104417852
                    ]
                  }
                },
                "MDF_HOT_AggroUp_HOTPercentage": {
                  "IsDynamic": true,
                  "PostfixExpr": {
                    "OpCodes": "AQAK",
                    "FixedValues": [],
                    "DynamicHashes": [
                      -505251920
                    ]
                  }
                },
                "MDF_HOT_AggroUp_HealValue": {
                  "IsDynamic": true,
                  "PostfixExpr": {
                    "OpCodes": "AQAK",
                    "FixedValues": [],
                    "DynamicHashes": [
                      -157107010
                    ]
                  }
                }
              }
            }
          ],
          "FailedTaskList": [
            {
              "$type": "RPG.GameCore.AddModifier",
              "TargetType": {
                "$type": "RPG.GameCore.TargetAlias",
                "Alias": "AllTeamMember"
              },
              "ModifierName": "MAvatar_Lynx_00_HOT_HealByMaxHp",
              "LifeTime": {
                "IsDynamic": true,
                "PostfixExpr": {
                  "OpCodes": "AQAK",
                  "FixedValues": [],
                  "DynamicHashes": [
                    -114961627
                  ]
                }
              },
              "DynamicValues": {
                "MDF_HOT_HOTPercentage": {
                  "IsDynamic": true,
                  "PostfixExpr": {
                    "OpCodes": "AQAK",
                    "FixedValues": [],
                    "DynamicHashes": [
                      249548522
                    ]
                  }
                },
                "MDF_HOT_HealValue": {
                  "IsDynamic": true,
                  "PostfixExpr": {
                    "OpCodes": "AQAK",
                    "FixedValues": [],
                    "DynamicHashes": [
                      2104417852
                    ]
                  }
                },
                "MDF_HOT_AggroUp_HOTPercentage": {
                  "IsDynamic": true,
                  "PostfixExpr": {
                    "OpCodes": "AQAK",
                    "FixedValues": [],
                    "DynamicHashes": [
                      -505251920
                    ]
                  }
                },
                "MDF_HOT_AggroUp_HealValue": {
                  "IsDynamic": true,
                  "PostfixExpr": {
                    "OpCodes": "AQAK",
                    "FixedValues": [],
                    "DynamicHashes": [
                      -157107010
                    ]
                  }
                }
              }
            }
          ]
        },
        {
          "$type": "RPG.GameCore.ModifySPNew",
          "TargetType": {
            "$type": "RPG.GameCore.TargetAlias",
            "Alias": "Caster"
          },
          "AddRatio": {
            "IsDynamic": false,
            "FixedValue": {
              "Value": 1
            }
          }
        },
        {
          "$type": "RPG.GameCore.PredicateTaskList",
          "Predicate": {
            "$type": "RPG.GameCore.ByIsTurnActionEntity",
            "TargetType": {
              "$type": "RPG.GameCore.TargetAlias",
              "Alias": "SkillTargetEntityList"
            }
          },
          "SuccessTaskList": [],
          "FailedTaskList": [
            {
              "$type": "RPG.GameCore.CharacterPlayVO",
              "VOType": "ReceiveHealing",
              "TargetType": {
                "$type": "RPG.GameCore.TargetAlias",
                "Alias": "SkillTargetEntityList"
              }
            }
          ]
        },
        {
          "$type": "RPG.GameCore.WaitAnimState",
          "AnimStateName": "Skill03",
          "NormalizedTimeEnd": {
            "IsDynamic": false,
            "FixedValue": {
              "Value": 0.9980000003706664
            }
          }
        },
        {
          "$type": "RPG.GameCore.SkillPerformFinish"
        }
      ]
    },
    {
      "Modifiers": {
        "MAvatar_Lynx_00_Tree01_Listen": {
          "_CallbackList": [
            {
              "Event": "OnStack",
              "CallbackConfig": [
                {
                  "$type": "RPG.GameCore.AddModifier",
                  "TargetType": {
                    "$type": "RPG.GameCore.TargetAlias",
                    "Alias": "AllTeamMember"
                  },
                  "ModifierName": "MAvatar_Lynx_00_Tree01_OnBeforeBeingAttacked",
                  "DynamicValues": {
                    "MDF_Lynx_PointB1_AddSpValue": {
                      "IsDynamic": true,
                      "PostfixExpr": {
                        "OpCodes": "AQAK",
                        "FixedValues": [],
                        "DynamicHashes": [
                          -1573062067
                        ]
                      }
                    }
                  }
                }
              ]
            },
            {
              "Event": "OnListenCharacterCreate",
              "CallbackConfig": [
                {
                  "$type": "RPG.GameCore.PredicateTaskList",
                  "Predicate": {
                    "$type": "RPG.GameCore.ByAnd",
                    "PredicateList": [
                      {
                        "$type": "RPG.GameCore.ByTargetTeam",
                        "TargetType": {
                          "$type": "RPG.GameCore.TargetAlias",
                          "Alias": "ParamEntity"
                        },
                        "Team": "TeamLight"
                      },
                      {
                        "$type": "RPG.GameCore.ByIsContainModifier",
                        "TargetType": {
                          "$type": "RPG.GameCore.TargetAlias",
                          "Alias": "ParamEntity"
                        },
                        "ModifierName": "MAvatar_Lynx_00_Tree01_OnBeforeBeingAttacked",
                        "Inverse": true
                      }
                    ]
                  },
                  "SuccessTaskList": [
                    {
                      "$type": "RPG.GameCore.AddModifier",
                      "TargetType": {
                        "$type": "RPG.GameCore.TargetAlias",
                        "Alias": "ParamEntity"
                      },
                      "ModifierName": "MAvatar_Lynx_00_Tree01_OnBeforeBeingAttacked",
                      "DynamicValues": {
                        "MDF_Lynx_PointB1_AddSpValue": {
                          "IsDynamic": true,
                          "PostfixExpr": {
                            "OpCodes": "AQAK",
                            "FixedValues": [],
                            "DynamicHashes": [
                              -1573062067
                            ]
                          }
                        }
                      }
                    }
                  ]
                }
              ]
            }
          ]
        },
        "MAvatar_Lynx_00_Rank01_ListenBeforeDealHeal01": {
          "_CallbackList": [
            {
              "Event": "OnBeforeDealHeal",
              "CallbackConfig": [
                {
                  "$type": "RPG.GameCore.PredicateTaskList",
                  "Predicate": {
                    "$type": "RPG.GameCore.ByCompareHPRatio",
                    "TargetType": {
                      "$type": "RPG.GameCore.TargetAlias",
                      "Alias": "ParamEntity"
                    },
                    "CompareType": "LessEqual",
                    "CompareValue": {
                      "IsDynamic": true,
                      "PostfixExpr": {
                        "OpCodes": "AQAK",
                        "FixedValues": [],
                        "DynamicHashes": [
                          -873953488
                        ]
                      }
                    }
                  },
                  "SuccessTaskList": [
                    {
                      "$type": "RPG.GameCore.ModifyHealData",
                      "Healer_HealRatio": {
                        "IsDynamic": true,
                        "PostfixExpr": {
                          "OpCodes": "AQAK",
                          "FixedValues": [],
                          "DynamicHashes": [
                            -414310033
                          ]
                        }
                      }
                    }
                  ]
                }
              ]
            },
            {
              "Event": "OnSnapshotCreate",
              "CallbackConfig": [
                {
                  "$type": "RPG.GameCore.AddModifier",
                  "TargetType": {
                    "$type": "RPG.GameCore.TargetAlias",
                    "Alias": "ParamEntity"
                  },
                  "ModifierName": "MAvatar_Lynx_00_Rank01_ListenBeforeDealHeal02",
                  "DynamicValues": {
                    "MDF_Target_HpRatio": {
                      "IsDynamic": true,
                      "PostfixExpr": {
                        "OpCodes": "AQAK",
                        "FixedValues": [],
                        "DynamicHashes": [
                          -873953488
                        ]
                      }
                    },
                    "MDF_PropertyValue": {
                      "IsDynamic": true,
                      "PostfixExpr": {
                        "OpCodes": "AQAK",
                        "FixedValues": [],
                        "DynamicHashes": [
                          -414310033
                        ]
                      }
                    }
                  }
                }
              ]
            }
          ]
        },
        "MAvatar_Lynx_00_Rank01_ListenBeforeDealHeal02": {
          "_CallbackList": [
            {
              "Event": "OnBeforeDealHeal",
              "CallbackConfig": [
                {
                  "$type": "RPG.GameCore.PredicateTaskList",
                  "Predicate": {
                    "$type": "RPG.GameCore.ByCompareHPRatio",
                    "TargetType": {
                      "$type": "RPG.GameCore.TargetAlias",
                      "Alias": "ParamEntity"
                    },
                    "CompareType": "LessEqual",
                    "CompareValue": {
                      "IsDynamic": true,
                      "PostfixExpr": {
                        "OpCodes": "AQAK",
                        "FixedValues": [],
                        "DynamicHashes": [
                          -153400405
                        ]
                      }
                    }
                  },
                  "SuccessTaskList": [
                    {
                      "$type": "RPG.GameCore.ModifyHealData",
                      "Healer_HealRatio": {
                        "IsDynamic": true,
                        "PostfixExpr": {
                          "OpCodes": "AQAK",
                          "FixedValues": [],
                          "DynamicHashes": [
                            2128130574
                          ]
                        }
                      }
                    }
                  ]
                }
              ]
            }
          ],
          "DynamicValues": {
            "Values": {
              "-153400405": {},
              "2128130574": {}
            }
          }
        }
      },
      "Name": "Avatar_Lynx_00_PassiveSkill01",
      "TargetInfo": {
        "TargetType": "Caster"
      },
      "OnStart": [
        {
          "$type": "RPG.GameCore.PredicateTaskList",
          "Predicate": {
            "$type": "RPG.GameCore.BySkillPointActivated",
            "PointTriggerKey": {
              "Hash": 1455742903
            }
          },
          "SuccessTaskList": [
            {
              "$type": "RPG.GameCore.AddModifier",
              "TargetType": {
                "$type": "RPG.GameCore.TargetAlias",
                "Alias": "Caster"
              },
              "ModifierName": "MAvatar_Lynx_00_Tree01_Listen"
            }
          ]
        },
        {
          "$type": "RPG.GameCore.PredicateTaskList",
          "Predicate": {
            "$type": "RPG.GameCore.BySkillPointActivated",
            "PointTriggerKey": {
              "Hash": 1455742904
            }
          },
          "SuccessTaskList": [
            {
              "$type": "RPG.GameCore.AddModifier",
              "TargetType": {
                "$type": "RPG.GameCore.TargetAlias",
                "Alias": "Caster"
              },
              "ModifierName": "MAvatar_Lynx_Tree02_Resistance",
              "DynamicValues": {
                "MDF_PropertyValue": {
                  "IsDynamic": true,
                  "PostfixExpr": {
                    "OpCodes": "AQAK",
                    "FixedValues": [],
                    "DynamicHashes": [
                      481594005
                    ]
                  }
                }
              }
            }
          ]
        },
        {
          "$type": "RPG.GameCore.PredicateTaskList",
          "Predicate": {
            "$type": "RPG.GameCore.ByRankActivated",
            "TriggerKey": {
              "Hash": 2089636447
            }
          },
          "SuccessTaskList": [
            {
              "$type": "RPG.GameCore.AddModifier",
              "TargetType": {
                "$type": "RPG.GameCore.TargetAlias",
                "Alias": "Caster"
              },
              "ModifierName": "MAvatar_Lynx_00_Rank01_ListenBeforeDealHeal01"
            }
          ]
        }
      ]
    },
    {
      "Modifiers": {
        "StageAbility_Maze_Lynx_00_Modifier": {
          "_CallbackList": [
            {
              "Event": "OnEnterBattle",
              "CallbackConfig": [
                {
                  "$type": "RPG.GameCore.PredicateTaskList",
                  "Predicate": {
                    "$type": "RPG.GameCore.ByCompareWaveCount",
                    "CompareType": "Equal",
                    "CompareValue": {
                      "IsDynamic": false,
                      "FixedValue": {
                        "Value": 1
                      }
                    }
                  },
                  "SuccessTaskList": [
                    {
                      "$type": "RPG.GameCore.PredicateTaskList",
                      "Predicate": {
                        "$type": "RPG.GameCore.BySkillPointActivated",
                        "PointTriggerKey": {
                          "Hash": 1455742905
                        }
                      },
                      "SuccessTaskList": [
                        {
                          "$type": "RPG.GameCore.AddModifier",
                          "TargetType": {
                            "$type": "RPG.GameCore.TargetAlias",
                            "Alias": "AllTeamMember"
                          },
                          "ModifierName": "MAvatar_Lynx_00_HOT_HealByMaxHp",
                          "LifeTime": {
                            "IsDynamic": true,
                            "PostfixExpr": {
                              "OpCodes": "AQABAQIK",
                              "FixedValues": [],
                              "DynamicHashes": [
                                -422443133,
                                -754831206
                              ]
                            }
                          },
                          "DynamicValues": {
                            "MDF_HOT_HOTPercentage": {
                              "IsDynamic": true,
                              "PostfixExpr": {
                                "OpCodes": "AQAK",
                                "FixedValues": [],
                                "DynamicHashes": [
                                  249548522
                                ]
                              }
                            },
                            "MDF_HOT_HealValue": {
                              "IsDynamic": true,
                              "PostfixExpr": {
                                "OpCodes": "AQAK",
                                "FixedValues": [],
                                "DynamicHashes": [
                                  2104417852
                                ]
                              }
                            },
                            "MDF_HOT_AggroUp_HOTPercentage": {
                              "IsDynamic": true,
                              "PostfixExpr": {
                                "OpCodes": "AQAK",
                                "FixedValues": [],
                                "DynamicHashes": [
                                  -505251920
                                ]
                              }
                            },
                            "MDF_HOT_AggroUp_HealValue": {
                              "IsDynamic": true,
                              "PostfixExpr": {
                                "OpCodes": "AQAK",
                                "FixedValues": [],
                                "DynamicHashes": [
                                  -157107010
                                ]
                              }
                            }
                          }
                        }
                      ],
                      "FailedTaskList": [
                        {
                          "$type": "RPG.GameCore.AddModifier",
                          "TargetType": {
                            "$type": "RPG.GameCore.TargetAlias",
                            "Alias": "AllTeamMember"
                          },
                          "ModifierName": "MAvatar_Lynx_00_HOT_HealByMaxHp",
                          "LifeTime": {
                            "IsDynamic": true,
                            "PostfixExpr": {
                              "OpCodes": "AQAK",
                              "FixedValues": [],
                              "DynamicHashes": [
                                -422443133
                              ]
                            }
                          },
                          "DynamicValues": {
                            "MDF_HOT_HOTPercentage": {
                              "IsDynamic": true,
                              "PostfixExpr": {
                                "OpCodes": "AQAK",
                                "FixedValues": [],
                                "DynamicHashes": [
                                  249548522
                                ]
                              }
                            },
                            "MDF_HOT_HealValue": {
                              "IsDynamic": true,
                              "PostfixExpr": {
                                "OpCodes": "AQAK",
                                "FixedValues": [],
                                "DynamicHashes": [
                                  2104417852
                                ]
                              }
                            },
                            "MDF_HOT_AggroUp_HOTPercentage": {
                              "IsDynamic": true,
                              "PostfixExpr": {
                                "OpCodes": "AQAK",
                                "FixedValues": [],
                                "DynamicHashes": [
                                  -505251920
                                ]
                              }
                            },
                            "MDF_HOT_AggroUp_HealValue": {
                              "IsDynamic": true,
                              "PostfixExpr": {
                                "OpCodes": "AQAK",
                                "FixedValues": [],
                                "DynamicHashes": [
                                  -157107010
                                ]
                              }
                            }
                          }
                        }
                      ]
                    }
                  ]
                }
              ]
            }
          ],
          "_PriorityList": [
            {
              "PriorityName": "EnterBattlePriority",
              "Key": "CharacterBuff"
            }
          ]
        }
      },
      "Name": "Avatar_Lynx_00_SkillMazeInLevel",
      "TargetInfo": {
        "TargetType": "Caster"
      },
      "OnStart": [
        {
          "$type": "RPG.GameCore.AddModifier",
          "TargetType": {
            "$type": "RPG.GameCore.TargetAlias",
            "Alias": "Caster"
          },
          "ModifierName": "StageAbility_Maze_Lynx_00_Modifier"
        }
      ]
    }
  ],
  "GlobalModifiers": {
    "MAvatar_Lynx_00_HPAddedRatio01": {
      "_CallbackList": [
        {
          "Event": "OnDestroy",
          "CallbackConfig": [
            {
              "$type": "RPG.GameCore.RemoveModifier",
              "TargetType": {
                "$type": "RPG.GameCore.TargetAlias",
                "Alias": "ModifierOwnerEntity"
              },
              "ModifierName": "MAvatar_Lynx_00_Rank02_Resist"
            }
          ]
        },
        {
          "Event": "OnStack",
          "CallbackConfig": [
            {
              "$type": "RPG.GameCore.StackProperty",
              "TargetType": {
                "$type": "RPG.GameCore.TargetAlias",
                "Alias": "ModifierOwnerEntity"
              },
              "Property": "HPConvert",
              "PropertyValue": {
                "IsDynamic": true,
                "PostfixExpr": {
                  "OpCodes": "AQAK",
                  "FixedValues": [],
                  "DynamicHashes": [
                    1845105697
                  ]
                }
              }
            },
            {
              "$type": "RPG.GameCore.StackProperty",
              "TargetType": {
                "$type": "RPG.GameCore.TargetAlias",
                "Alias": "ModifierOwnerEntity"
              },
              "Property": "HPDelta",
              "PropertyValue": {
                "IsDynamic": true,
                "PostfixExpr": {
                  "OpCodes": "AQAK",
                  "FixedValues": [],
                  "DynamicHashes": [
                    -2042086518
                  ]
                }
              }
            },
            {
              "$type": "RPG.GameCore.PredicateTaskList",
              "Predicate": {
                "$type": "RPG.GameCore.ByCompareDynamicValue",
                "DynamicKey": "MDF_AggroUp",
                "CompareType": "Equal",
                "CompareValue": {
                  "IsDynamic": false,
                  "FixedValue": {
                    "Value": 0
                  }
                }
              },
              "FailedTaskList": [
                {
                  "$type": "RPG.GameCore.StackStatusDesc",
                  "TextID": {
                    "Hash": 635896170
                  }
                }
              ]
            },
            {
              "$type": "RPG.GameCore.StackProperty",
              "TargetType": {
                "$type": "RPG.GameCore.TargetAlias",
                "Alias": "ModifierOwnerEntity"
              },
              "Property": "AggroAddedRatio",
              "PropertyValue": {
                "IsDynamic": true,
                "PostfixExpr": {
                  "OpCodes": "AQAK",
                  "FixedValues": [],
                  "DynamicHashes": [
                    -994449299
                  ]
                }
              }
            }
          ]
        }
      ],
      "Stacking": "ReplaceByCaster",
      "DynamicValues": {
        "Values": {
          "2128130574": {},
          "1845105697": {},
          "-2042086518": {},
          "-994449299": {}
        }
      }
    },
    "MAvatar_Lynx_00_HPAddedRatio02": {
      "_CallbackList": [
        {
          "Event": "OnDestroy",
          "CallbackConfig": [
            {
              "$type": "RPG.GameCore.RemoveModifier",
              "TargetType": {
                "$type": "RPG.GameCore.TargetAlias",
                "Alias": "ModifierOwnerEntity"
              },
              "ModifierName": "MAvatar_Lynx_00_Rank02_Resist"
            }
          ]
        },
        {
          "Event": "OnStack",
          "CallbackConfig": [
            {
              "$type": "RPG.GameCore.StackProperty",
              "TargetType": {
                "$type": "RPG.GameCore.TargetAlias",
                "Alias": "ModifierOwnerEntity"
              },
              "Property": "HPConvert",
              "PropertyValue": {
                "IsDynamic": true,
                "PostfixExpr": {
                  "OpCodes": "AQAK",
                  "FixedValues": [],
                  "DynamicHashes": [
                    1845105697
                  ]
                }
              }
            },
            {
              "$type": "RPG.GameCore.StackProperty",
              "TargetType": {
                "$type": "RPG.GameCore.TargetAlias",
                "Alias": "ModifierOwnerEntity"
              },
              "Property": "HPDelta",
              "PropertyValue": {
                "IsDynamic": true,
                "PostfixExpr": {
                  "OpCodes": "AQAK",
                  "FixedValues": [],
                  "DynamicHashes": [
                    -2042086518
                  ]
                }
              }
            },
            {
              "$type": "RPG.GameCore.StackProperty",
              "TargetType": {
                "$type": "RPG.GameCore.TargetAlias",
                "Alias": "ModifierOwnerEntity"
              },
              "Property": "StatusResistanceBase",
              "PropertyValue": {
                "IsDynamic": true,
                "PostfixExpr": {
                  "OpCodes": "AQAK",
                  "FixedValues": [],
                  "DynamicHashes": [
                    -1562405204
                  ]
                }
              }
            },
            {
              "$type": "RPG.GameCore.PredicateTaskList",
              "Predicate": {
                "$type": "RPG.GameCore.ByCompareDynamicValue",
                "DynamicKey": "MDF_AggroUp",
                "CompareType": "Equal",
                "CompareValue": {
                  "IsDynamic": false,
                  "FixedValue": {
                    "Value": 0
                  }
                }
              },
              "FailedTaskList": [
                {
                  "$type": "RPG.GameCore.StackStatusDesc",
                  "TextID": {
                    "Hash": 635896265
                  }
                }
              ]
            },
            {
              "$type": "RPG.GameCore.StackProperty",
              "TargetType": {
                "$type": "RPG.GameCore.TargetAlias",
                "Alias": "ModifierOwnerEntity"
              },
              "Property": "AggroAddedRatio",
              "PropertyValue": {
                "IsDynamic": true,
                "PostfixExpr": {
                  "OpCodes": "AQAK",
                  "FixedValues": [],
                  "DynamicHashes": [
                    -994449299
                  ]
                }
              }
            }
          ]
        }
      ],
      "Stacking": "ReplaceByCaster",
      "DynamicValues": {
        "Values": {
          "2128130574": {},
          "1845105697": {},
          "-2042086518": {},
          "-994449299": {},
          "-1562405204": {}
        }
      }
    },
    "MAvatar_Lynx_00_HOT_HealByMaxHp": {
      "LifeStepMoment": "ModifierPhase1End",
      "UseSnapshotEntity": true,
      "_CallbackList": [
        {
          "Event": "OnPhase1",
          "CallbackConfig": [
            {
              "$type": "RPG.GameCore.TriggerEffect",
              "TargetType": {
                "$type": "RPG.GameCore.TargetAlias",
                "Alias": "ModifierOwnerEntity"
              },
              "EffectPath": "Effects/Eff_Prefab/Eff_Avatar/Eff_Lynx/Eff_Avatar_Lynx_00_Skill03_Buff.prefab"
            },
            {
              "$type": "RPG.GameCore.PredicateTaskList",
              "Predicate": {
                "$type": "RPG.GameCore.ByAny",
                "PredicateList": [
                  {
                    "$type": "RPG.GameCore.ByIsContainModifier",
                    "TargetType": {
                      "$type": "RPG.GameCore.TargetAlias",
                      "Alias": "ModifierOwnerEntity"
                    },
                    "ModifierName": "MAvatar_Lynx_00_HPAddedRatio01"
                  },
                  {
                    "$type": "RPG.GameCore.ByIsContainModifier",
                    "TargetType": {
                      "$type": "RPG.GameCore.TargetAlias",
                      "Alias": "ModifierOwnerEntity"
                    },
                    "ModifierName": "MAvatar_Lynx_00_HPAddedRatio02"
                  }
                ]
              },
              "SuccessTaskList": [
                {
                  "$type": "RPG.GameCore.HealHP",
                  "TargetType": {
                    "$type": "RPG.GameCore.TargetAlias",
                    "Alias": "ModifierOwnerEntity"
                  },
                  "FormulaType": "HealByHealerMaxHP",
                  "HealPercentage": {
                    "IsDynamic": true,
                    "PostfixExpr": {
                      "OpCodes": "AQABAQIK",
                      "FixedValues": [],
                      "DynamicHashes": [
                        -1117548213,
                        -1925797875
                      ]
                    }
                  },
                  "ModifyValue": {
                    "IsDynamic": true,
                    "PostfixExpr": {
                      "OpCodes": "AQABAQIK",
                      "FixedValues": [],
                      "DynamicHashes": [
                        -2075162429,
                        -1178733927
                      ]
                    }
                  }
                }
              ],
              "FailedTaskList": [
                {
                  "$type": "RPG.GameCore.HealHP",
                  "TargetType": {
                    "$type": "RPG.GameCore.TargetAlias",
                    "Alias": "ModifierOwnerEntity"
                  },
                  "FormulaType": "HealByHealerMaxHP",
                  "HealPercentage": {
                    "IsDynamic": true,
                    "PostfixExpr": {
                      "OpCodes": "AQAK",
                      "FixedValues": [],
                      "DynamicHashes": [
                        -1117548213
                      ]
                    }
                  },
                  "ModifyValue": {
                    "IsDynamic": true,
                    "PostfixExpr": {
                      "OpCodes": "AQAK",
                      "FixedValues": [],
                      "DynamicHashes": [
                        -2075162429
                      ]
                    }
                  }
                }
              ]
            }
          ]
        }
      ],
      "Stacking": "ReplaceByCaster",
      "DynamicValues": {
        "Values": {
          "-1117548213": {},
          "-2075162429": {},
          "-1925797875": {},
          "-1178733927": {}
        }
      }
    },
    "MAvatar_Lynx_00_Tree01_OnBeforeBeingAttacked": {
      "_CallbackList": [
        {
          "Event": "OnAfterBeingAttacked",
          "CallbackConfig": [
            {
              "$type": "RPG.GameCore.PredicateTaskList",
              "Predicate": {
                "$type": "RPG.GameCore.ByAnd",
                "PredicateList": [
                  {
                    "$type": "RPG.GameCore.ByAny",
                    "PredicateList": [
                      {
                        "$type": "RPG.GameCore.ByIsContainModifier",
                        "TargetType": {
                          "$type": "RPG.GameCore.TargetAlias",
                          "Alias": "ModifierOwnerEntity"
                        },
                        "ModifierName": "MAvatar_Lynx_00_HPAddedRatio01"
                      },
                      {
                        "$type": "RPG.GameCore.ByIsContainModifier",
                        "TargetType": {
                          "$type": "RPG.GameCore.TargetAlias",
                          "Alias": "ModifierOwnerEntity"
                        },
                        "ModifierName": "MAvatar_Lynx_00_HPAddedRatio02"
                      }
                    ]
                  },
                  {
                    "$type": "RPG.GameCore.ByTargetTeam",
                    "TargetType": {
                      "$type": "RPG.GameCore.TargetAlias",
                      "Alias": "ParamEntity"
                    },
                    "Team": "TeamDark"
                  }
                ]
              },
              "SuccessTaskList": [
                {
                  "$type": "RPG.GameCore.ModifySPNew",
                  "TargetType": {
                    "$type": "RPG.GameCore.TargetAlias",
                    "Alias": "Caster"
                  },
                  "AddValue": {
                    "IsDynamic": true,
                    "PostfixExpr": {
                      "OpCodes": "AQAK",
                      "FixedValues": [],
                      "DynamicHashes": [
                        1959269457
                      ]
                    }
                  }
                }
              ]
            }
          ]
        }
      ],
      "DynamicValues": {
        "Values": {
          "1959269457": {}
        }
      }
    },
    "MAvatar_Lynx_Tree02_Resistance": {
      "_CallbackList": [
        {
          "Event": "OnStack",
          "CallbackConfig": [
            {
              "$type": "RPG.GameCore.StackStatusResistance",
              "TargetType": {
                "$type": "RPG.GameCore.TargetAlias",
                "Alias": "Caster"
              },
              "BehaviorFlag": "STAT_CTRL",
              "Resistance": {
                "IsDynamic": true,
                "PostfixExpr": {
                  "OpCodes": "AQAK",
                  "FixedValues": [],
                  "DynamicHashes": [
                    2128130574
                  ]
                }
              }
            }
          ]
        }
      ],
      "DynamicValues": {
        "Values": {
          "2128130574": {}
        }
      }
    },
    "MAvatar_Lynx_00_Rank02_Resist": {
      "BehaviorFlagList": [
        "ResistDebuff"
      ],
      "_CallbackList": [
        {
          "Event": "OnResistDebuff",
          "CallbackConfig": [
            {
              "$type": "RPG.GameCore.TriggerEffect",
              "TargetType": {
                "$type": "RPG.GameCore.TargetAlias",
                "Alias": "ModifierOwnerEntity"
              },
              "EffectPath": "Effects/Eff_Prefab/Eff_Common/Eff_Buff_Common_DispelDebuff.prefab"
            },
            {
              "$type": "RPG.GameCore.RemoveModifier",
              "TargetType": {
                "$type": "RPG.GameCore.TargetAlias",
                "Alias": "ModifierOwnerEntity"
              },
              "ModifierName": "MAvatar_Lynx_00_Rank02_Resist"
            }
          ]
        }
      ]
    },
    "MAvatar_Lynx_00_Rank04_AddAttackRatio": {
      "_CallbackList": [
        {
          "Event": "OnStack",
          "CallbackConfig": [
            {
              "$type": "RPG.GameCore.StackProperty",
              "TargetType": {
                "$type": "RPG.GameCore.TargetAlias",
                "Alias": "ModifierOwnerEntity"
              },
              "Property": "AttackDelta",
              "PropertyValue": {
                "IsDynamic": true,
                "PostfixExpr": {
                  "OpCodes": "AQAK",
                  "FixedValues": [],
                  "DynamicHashes": [
                    2128130574
                  ]
                }
              }
            }
          ]
        }
      ],
      "Stacking": "ReplaceByCaster",
      "DynamicValues": {
        "Values": {
          "2128130574": {}
        }
      }
    }
  }
}