{
  "AbilityList": [
    {
      "Name": "Avatar_AetherDivide_Common_Passive",
      "TargetInfo": {
        "TargetType": "Caster"
      },
      "OnAdd": [
        {
          "$type": "RPG.GameCore.AddModifier",
          "TargetType": {
            "$type": "RPG.GameCore.TargetAlias",
            "Alias": "Caster"
          },
          "ModifierName": "MAvatar_AetherDivide_Common_ListenUltraEffect"
        },
        {
          "$type": "RPG.GameCore.AddModifier",
          "TargetType": {
            "$type": "RPG.GameCore.TargetAlias",
            "Alias": "Caster"
          },
          "ModifierName": "MAvatar_AetherDivide_SPPreShow"
        },
        {
          "$type": "RPG.GameCore.AddModifier",
          "TargetType": {
            "$type": "RPG.GameCore.TargetAlias",
            "Alias": "Caster"
          },
          "ModifierName": "MAvatar_AetherDivide_FailTips"
        },
        {
          "$type": "RPG.GameCore.AddModifier",
          "TargetType": {
            "$type": "RPG.GameCore.TargetAlias",
            "Alias": "Caster"
          },
          "ModifierName": "MAvatar_AetherDivide_Common_Stage_ListenHP"
        },
        {
          "$type": "RPG.GameCore.AddModifier",
          "TargetType": {
            "$type": "RPG.GameCore.TargetAlias",
            "Alias": "Caster"
          },
          "ModifierName": "MAvatar_AetherDivide_Common_OverrideStatus"
        },
        {
          "$type": "RPG.GameCore.SetDamageTextStyle",
          "Content": {
            "Hash": 726371414
          },
          "Type": "Critical"
        }
      ]
    },
    {
      "Modifiers": {
        "MAvatar_AetherDivide_Common_BE_ADDSP": {
          "_CallbackList": [
            {
              "Event": "OnPhase1",
              "CallbackConfig": [
                {
                  "$type": "RPG.GameCore.RemoveModifier",
                  "TargetType": {
                    "$type": "RPG.GameCore.TargetAlias",
                    "Alias": "AllLightTeam"
                  },
                  "ModifierName": "MAvatar_AetherDivide_Common_BE_ADDSP_Single_Action"
                },
                {
                  "$type": "RPG.GameCore.TriggerAbility",
                  "TargetType": {
                    "$type": "RPG.GameCore.TargetAlias",
                    "Alias": "Caster"
                  },
                  "AbilityInherentTargetType": {
                    "$type": "RPG.GameCore.TargetAlias",
                    "Alias": "LightTeamEntity"
                  },
                  "AbilityName": "BattleEventAbility_Camear_AllLightTeam",
                  "IsSkillPerform": true
                },
                {
                  "$type": "RPG.GameCore.TriggerEffect",
                  "TargetType": {
                    "$type": "RPG.GameCore.TargetAlias",
                    "Alias": "AllTeamCenter"
                  },
                  "EffectPath": "Effects/Eff_Prefab/Eff_Common/Eff_BattleEvent_ShenYuan_Buff.prefab",
                  "PositionOffset": {
                    "X": 0,
                    "Y": 3.8,
                    "Z": 0
                  }
                },
                {
                  "$type": "RPG.GameCore.WaitSecond",
                  "WaitTime": 1.2
                },
                {
                  "$type": "RPG.GameCore.AddModifier",
                  "TargetType": {
                    "$type": "RPG.GameCore.TargetAlias",
                    "Alias": "AllLightTeam"
                  },
                  "ModifierName": "MAvatar_AetherDivide_Common_BE_ADDSP_Single_Action"
                },
                {
                  "$type": "RPG.GameCore.WaitSecond",
                  "WaitTime": 0.05
                },
                {
                  "$type": "RPG.GameCore.WaitSecond",
                  "WaitTime": 1.25
                }
              ]
            }
          ]
        }
      },
      "Name": "Avatar_AetherDivide_Common_BE_ADDSP",
      "OnAdd": [
        {
          "$type": "RPG.GameCore.AddModifier",
          "TargetType": {
            "$type": "RPG.GameCore.TargetAlias",
            "Alias": "Caster"
          },
          "ModifierName": "MAvatar_AetherDivide_Common_BE_ADDSP"
        },
        {
          "$type": "RPG.GameCore.OwnerEntityAddAbility",
          "AbilityName": "BattleEventAbility_Camear_AllLightTeam"
        }
      ]
    }
  ],
  "GlobalModifiers": {
    "MAvatar_AetherDivide_SPPreShow": {
      "_CallbackList": [
        {
          "Event": "OnListenSetActiveSkill",
          "CallbackConfig": [
            {
              "$type": "RPG.GameCore.PredicateTaskList",
              "Predicate": {
                "$type": "RPG.GameCore.ByAnd",
                "PredicateList": [
                  {
                    "$type": "RPG.GameCore.ByCompareTarget",
                    "TargetType": {
                      "$type": "RPG.GameCore.TargetAlias",
                      "Alias": "ParamEntity"
                    },
                    "CompareType": {
                      "$type": "RPG.GameCore.TargetAlias",
                      "Alias": "ModifierOwnerEntity"
                    }
                  },
                  {
                    "$type": "RPG.GameCore.ByIsContainModifier",
                    "TargetType": {
                      "$type": "RPG.GameCore.TargetAlias",
                      "Alias": "Caster"
                    },
                    "ModifierName": "MAvatar_AetherDivide_W2_Mecha03_00_UltraMode",
                    "Inverse": true
                  }
                ]
              },
              "SuccessTaskList": [
                {
                  "$type": "RPG.GameCore.ToggleSkillPreShow",
                  "Enable": true,
                  "AllowSkillType": [
                    "Normal",
                    "Skill"
                  ],
                  "TargetType": {
                    "$type": "RPG.GameCore.TargetAlias",
                    "Alias": "ModifierOwnerEntity"
                  },
                  "ChangeValue": {
                    "IsDynamic": false,
                    "FixedValue": {
                      "Value": 1
                    }
                  },
                  "PreShowType": "AddSP"
                }
              ]
            }
          ]
        }
      ]
    },
    "MAvatar_AetherDivide_Common_ListenUltraEffect": {
      "_CallbackList": [
        {
          "Event": "OnUltraSkillPrepare",
          "CallbackConfig": [
            {
              "$type": "RPG.GameCore.AddModifier",
              "TargetType": {
                "$type": "RPG.GameCore.TargetAlias",
                "Alias": "ModifierOwnerEntity"
              },
              "ModifierName": "MAvatar_AetherDivide_UltraEffect"
            }
          ]
        }
      ]
    },
    "MAvatar_AetherDivide_Common_Stage_ListenHP": {
      "BehaviorFlagList": [
        "ListenBattleEventSkill"
      ],
      "_CallbackList": [
        {
          "Event": "OnListenHPChange",
          "CallbackConfig": [
            {
              "$type": "RPG.GameCore.PredicateTaskList",
              "Predicate": {
                "$type": "RPG.GameCore.ByAnd",
                "PredicateList": [
                  {
                    "$type": "RPG.GameCore.ByIsContainModifier",
                    "TargetType": {
                      "$type": "RPG.GameCore.TargetAlias",
                      "Alias": "ModifierOwnerEntity"
                    },
                    "ModifierName": "MAvatar_AetherDivide_Common_Stage_ListenHP_1",
                    "Inverse": true
                  },
                  {
                    "$type": "RPG.GameCore.ByTargetTeam",
                    "TargetType": {
                      "$type": "RPG.GameCore.TargetAlias",
                      "Alias": "ParamEntity"
                    },
                    "Team": "TeamLight"
                  }
                ]
              },
              "SuccessTaskList": [
                {
                  "$type": "RPG.GameCore.SetDynamicValue",
                  "DynamicKey": "_TeamHP",
                  "Value": {
                    "IsDynamic": false,
                    "FixedValue": {
                      "Value": 0
                    }
                  }
                },
                {
                  "$type": "RPG.GameCore.Retarget",
                  "TargetType": {
                    "$type": "RPG.GameCore.TargetAlias",
                    "Alias": "AllLightTeam"
                  },
                  "TaskList": [
                    {
                      "$type": "RPG.GameCore.SetDynamicValueByProperty",
                      "DynamicKey": "_TMP_VaL",
                      "ReadTargetType": {
                        "$type": "RPG.GameCore.TargetAlias",
                        "Alias": "ParamEntity"
                      },
                      "Value": "CurrentHP"
                    },
                    {
                      "$type": "RPG.GameCore.SetDynamicValue",
                      "DynamicKey": "_TeamHP",
                      "Value": {
                        "IsDynamic": true,
                        "PostfixExpr": {
                          "OpCodes": "AQABAQIK",
                          "FixedValues": [],
                          "DynamicHashes": [
                            -39218214,
                            1755177296
                          ]
                        }
                      }
                    }
                  ]
                },
                {
                  "$type": "RPG.GameCore.PredicateTaskList",
                  "Predicate": {
                    "$type": "RPG.GameCore.ByCompareDynamicValue",
                    "DynamicKey": "_TeamHP",
                    "CompareType": "Greater",
                    "CompareValue": {
                      "IsDynamic": true,
                      "PostfixExpr": {
                        "OpCodes": "AQAAAAQK",
                        "FixedValues": [
                          {
                            "Value": 0.5000000004656613
                          }
                        ],
                        "DynamicHashes": [
                          532209531
                        ]
                      }
                    }
                  },
                  "FailedTaskList": [
                    {
                      "$type": "RPG.GameCore.AddModifier",
                      "TargetType": {
                        "$type": "RPG.GameCore.TargetAlias",
                        "Alias": "AllLightTeam"
                      },
                      "ModifierName": "MAvatar_AetherDivide_Common_Stage_ListenHP_1"
                    },
                    {
                      "$type": "RPG.GameCore.TriggerCustomString",
                      "CustomString": {
                        "Value": "AetherDivide_StageShow_Type1"
                      }
                    }
                  ]
                }
              ]
            },
            {
              "$type": "RPG.GameCore.PredicateTaskList",
              "Predicate": {
                "$type": "RPG.GameCore.ByAnd",
                "PredicateList": [
                  {
                    "$type": "RPG.GameCore.ByIsContainModifier",
                    "TargetType": {
                      "$type": "RPG.GameCore.TargetAlias",
                      "Alias": "ModifierOwnerEntity"
                    },
                    "ModifierName": "MAvatar_AetherDivide_Common_Stage_ListenHP_2",
                    "Inverse": true
                  },
                  {
                    "$type": "RPG.GameCore.ByTargetTeam",
                    "TargetType": {
                      "$type": "RPG.GameCore.TargetAlias",
                      "Alias": "ParamEntity"
                    },
                    "Team": "TeamDark"
                  }
                ]
              },
              "SuccessTaskList": [
                {
                  "$type": "RPG.GameCore.SetDynamicValue",
                  "DynamicKey": "_TeamHP",
                  "Value": {
                    "IsDynamic": false,
                    "FixedValue": {
                      "Value": 0
                    }
                  }
                },
                {
                  "$type": "RPG.GameCore.Retarget",
                  "TargetType": {
                    "$type": "RPG.GameCore.TargetAlias",
                    "Alias": "AllDarkTeam"
                  },
                  "TaskList": [
                    {
                      "$type": "RPG.GameCore.SetDynamicValueByProperty",
                      "DynamicKey": "_TMP_VaL",
                      "ReadTargetType": {
                        "$type": "RPG.GameCore.TargetAlias",
                        "Alias": "ParamEntity"
                      },
                      "Value": "CurrentHP"
                    },
                    {
                      "$type": "RPG.GameCore.SetDynamicValue",
                      "DynamicKey": "_TeamHP",
                      "Value": {
                        "IsDynamic": true,
                        "PostfixExpr": {
                          "OpCodes": "AQABAQIK",
                          "FixedValues": [],
                          "DynamicHashes": [
                            -39218214,
                            1755177296
                          ]
                        }
                      }
                    }
                  ]
                },
                {
                  "$type": "RPG.GameCore.PredicateTaskList",
                  "Predicate": {
                    "$type": "RPG.GameCore.ByCompareDynamicValue",
                    "DynamicKey": "_TeamHP",
                    "CompareType": "Greater",
                    "CompareValue": {
                      "IsDynamic": true,
                      "PostfixExpr": {
                        "OpCodes": "AQAAAAQK",
                        "FixedValues": [
                          {
                            "Value": 0.5000000004656613
                          }
                        ],
                        "DynamicHashes": [
                          -1321051447
                        ]
                      }
                    }
                  },
                  "FailedTaskList": [
                    {
                      "$type": "RPG.GameCore.AddModifier",
                      "TargetType": {
                        "$type": "RPG.GameCore.TargetAlias",
                        "Alias": "AllLightTeam"
                      },
                      "ModifierName": "MAvatar_AetherDivide_Common_Stage_ListenHP_2"
                    },
                    {
                      "$type": "RPG.GameCore.TriggerCustomString",
                      "CustomString": {
                        "Value": "AetherDivide_StageShow_Type1"
                      }
                    }
                  ]
                }
              ]
            }
          ]
        },
        {
          "Event": "OnListenAfterSkillUse",
          "CallbackConfig": []
        },
        {
          "Event": "OnEnterBattle",
          "CallbackConfig": [
            {
              "$type": "RPG.GameCore.Retarget",
              "TargetType": {
                "$type": "RPG.GameCore.TargetAlias",
                "Alias": "AllLightTeam"
              },
              "TaskList": [
                {
                  "$type": "RPG.GameCore.SetDynamicValueByProperty",
                  "DynamicKey": "_TMP_VaL",
                  "ReadTargetType": {
                    "$type": "RPG.GameCore.TargetAlias",
                    "Alias": "ParamEntity"
                  },
                  "Value": "MaxHP"
                },
                {
                  "$type": "RPG.GameCore.SetDynamicValue",
                  "DynamicKey": "_TeamMHP",
                  "Value": {
                    "IsDynamic": true,
                    "PostfixExpr": {
                      "OpCodes": "AQABAQIK",
                      "FixedValues": [],
                      "DynamicHashes": [
                        532209531,
                        1755177296
                      ]
                    }
                  }
                }
              ]
            },
            {
              "$type": "RPG.GameCore.Retarget",
              "TargetType": {
                "$type": "RPG.GameCore.TargetAlias",
                "Alias": "AllDarkTeam"
              },
              "TaskList": [
                {
                  "$type": "RPG.GameCore.SetDynamicValueByProperty",
                  "DynamicKey": "_TMP_VaL",
                  "ReadTargetType": {
                    "$type": "RPG.GameCore.TargetAlias",
                    "Alias": "ParamEntity"
                  },
                  "Value": "MaxHP"
                },
                {
                  "$type": "RPG.GameCore.SetDynamicValue",
                  "DynamicKey": "_TeamMHP2",
                  "Value": {
                    "IsDynamic": true,
                    "PostfixExpr": {
                      "OpCodes": "AQABAQIK",
                      "FixedValues": [],
                      "DynamicHashes": [
                        -1321051447,
                        1755177296
                      ]
                    }
                  }
                }
              ]
            }
          ]
        }
      ],
      "_PriorityList": [
        {
          "PriorityName": "EnterBattlePriority",
          "Key": "AvatarInsertAbility"
        }
      ],
      "DynamicValues": {
        "Values": {
          "532209531": {},
          "-1321051447": {},
          "1755177296": {},
          "-39218214": {}
        }
      }
    },
    "MAvatar_AetherDivide_Common_Stage_ListenHP_1": {},
    "MAvatar_AetherDivide_Common_Stage_ListenHP_2": {},
    "MAvatar_AetherDivide_Common_BE_ADDSP_Action": {
      "_CallbackList": [
        {
          "Event": "OnStack",
          "CallbackConfig": [
            {
              "$type": "RPG.GameCore.RemoveSelfModifier"
            }
          ]
        }
      ]
    },
    "MAvatar_AetherDivide_Common_BE_ADDSP_Single_Action": {
      "_CallbackList": [
        {
          "Event": "OnStack",
          "CallbackConfig": [
            {
              "$type": "RPG.GameCore.RemoveSelfModifier"
            }
          ]
        }
      ]
    },
    "MAvatar_AetherDivide_Common_ListenUltraChargeMax_BanUltra": {
      "_CallbackList": [
        {
          "Event": "OnStack",
          "CallbackConfig": []
        }
      ]
    },
    "MAvatar_AetherDivide_Common_ListenUltraChargeMax": {
      "OnDynamicValueChange": [
        {
          "Key": {
            "Hash": 24444579
          },
          "Ranges": [
            {
              "Min": {
                "IsDynamic": false,
                "FixedValue": {
                  "Value": -1
                }
              },
              "Max": {
                "IsDynamic": false,
                "FixedValue": {
                  "Value": 99
                }
              },
              "MaxInclusive": true,
              "OnEnterRange": [
                {
                  "$type": "RPG.GameCore.SetDynamicValueByProperty",
                  "DynamicKey": "_SP",
                  "ReadTargetType": {
                    "$type": "RPG.GameCore.TargetAlias",
                    "Alias": "ModifierOwnerEntity"
                  },
                  "Value": "MaxSP"
                },
                {
                  "$type": "RPG.GameCore.PredicateTaskList",
                  "Predicate": {
                    "$type": "RPG.GameCore.ByCompareDynamicValue",
                    "DynamicKey": "_UltraCharge",
                    "CompareType": "GreaterEqual",
                    "CompareValue": {
                      "IsDynamic": true,
                      "PostfixExpr": {
                        "OpCodes": "AQAK",
                        "FixedValues": [],
                        "DynamicHashes": [
                          1715718693
                        ]
                      }
                    }
                  },
                  "SuccessTaskList": [
                    {
                      "$type": "RPG.GameCore.ModifySP",
                      "TargetType": {
                        "$type": "RPG.GameCore.TargetAlias",
                        "Alias": "ModifierOwnerEntity"
                      },
                      "ModifyFunction": "Set",
                      "ModifyValue": {
                        "IsDynamic": true,
                        "PostfixExpr": {
                          "OpCodes": "AQAK",
                          "FixedValues": [],
                          "DynamicHashes": [
                            1690816888
                          ]
                        }
                      }
                    },
                    {
                      "$type": "RPG.GameCore.SetDynamicValue",
                      "DynamicKey": "_UltraCharge",
                      "Value": {
                        "IsDynamic": true,
                        "PostfixExpr": {
                          "OpCodes": "AQAK",
                          "FixedValues": [],
                          "DynamicHashes": [
                            1715718693
                          ]
                        }
                      }
                    }
                  ],
                  "FailedTaskList": [
                    {
                      "$type": "RPG.GameCore.ModifySP",
                      "TargetType": {
                        "$type": "RPG.GameCore.TargetAlias",
                        "Alias": "ModifierOwnerEntity"
                      },
                      "ModifyFunction": "Set",
                      "ModifyValue": {
                        "IsDynamic": true,
                        "PostfixExpr": {
                          "OpCodes": "AQABAQQBAgUK",
                          "FixedValues": [],
                          "DynamicHashes": [
                            24444579,
                            1690816888,
                            1715718693
                          ]
                        }
                      }
                    }
                  ]
                }
              ],
              "OnChange": [
                {
                  "$type": "RPG.GameCore.SetDynamicValueByProperty",
                  "DynamicKey": "_SP",
                  "ReadTargetType": {
                    "$type": "RPG.GameCore.TargetAlias",
                    "Alias": "ModifierOwnerEntity"
                  },
                  "Value": "MaxSP"
                },
                {
                  "$type": "RPG.GameCore.PredicateTaskList",
                  "Predicate": {
                    "$type": "RPG.GameCore.ByCompareDynamicValue",
                    "DynamicKey": "_UltraCharge",
                    "CompareType": "GreaterEqual",
                    "CompareValue": {
                      "IsDynamic": true,
                      "PostfixExpr": {
                        "OpCodes": "AQAK",
                        "FixedValues": [],
                        "DynamicHashes": [
                          1715718693
                        ]
                      }
                    }
                  },
                  "SuccessTaskList": [
                    {
                      "$type": "RPG.GameCore.ModifySP",
                      "TargetType": {
                        "$type": "RPG.GameCore.TargetAlias",
                        "Alias": "ModifierOwnerEntity"
                      },
                      "ModifyFunction": "Set",
                      "ModifyValue": {
                        "IsDynamic": true,
                        "PostfixExpr": {
                          "OpCodes": "AQAK",
                          "FixedValues": [],
                          "DynamicHashes": [
                            1690816888
                          ]
                        }
                      }
                    },
                    {
                      "$type": "RPG.GameCore.SetDynamicValue",
                      "DynamicKey": "_UltraCharge",
                      "Value": {
                        "IsDynamic": true,
                        "PostfixExpr": {
                          "OpCodes": "AQAK",
                          "FixedValues": [],
                          "DynamicHashes": [
                            1715718693
                          ]
                        }
                      }
                    }
                  ],
                  "FailedTaskList": [
                    {
                      "$type": "RPG.GameCore.ModifySP",
                      "TargetType": {
                        "$type": "RPG.GameCore.TargetAlias",
                        "Alias": "ModifierOwnerEntity"
                      },
                      "ModifyFunction": "Set",
                      "ModifyValue": {
                        "IsDynamic": true,
                        "PostfixExpr": {
                          "OpCodes": "AQABAQQBAgUK",
                          "FixedValues": [],
                          "DynamicHashes": [
                            24444579,
                            1690816888,
                            1715718693
                          ]
                        }
                      }
                    }
                  ]
                }
              ]
            }
          ]
        },
        {
          "Key": {
            "Hash": 1715718693
          },
          "Ranges": [
            {
              "Min": {
                "IsDynamic": true,
                "PostfixExpr": {
                  "OpCodes": "AQAAAAIK",
                  "FixedValues": [
                    {
                      "Value": 0.10000000009313226
                    }
                  ],
                  "DynamicHashes": [
                    24444579
                  ]
                }
              },
              "Max": {
                "IsDynamic": false,
                "FixedValue": {
                  "Value": 99
                }
              },
              "MaxInclusive": true,
              "OnEnterRange": [
                {
                  "$type": "RPG.GameCore.AddModifier",
                  "TargetType": {
                    "$type": "RPG.GameCore.TargetAlias",
                    "Alias": "ModifierOwnerEntity"
                  },
                  "ModifierName": "MAvatar_AetherDivide_Common_ListenUltraChargeMax_BanUltra"
                }
              ],
              "OnChange": []
            },
            {
              "Min": {
                "IsDynamic": false,
                "FixedValue": {
                  "Value": -1
                }
              },
              "Max": {
                "IsDynamic": true,
                "PostfixExpr": {
                  "OpCodes": "AQAAAAIK",
                  "FixedValues": [
                    {
                      "Value": 0.10000000009313226
                    }
                  ],
                  "DynamicHashes": [
                    24444579
                  ]
                }
              },
              "MaxInclusive": true,
              "OnEnterRange": [
                {
                  "$type": "RPG.GameCore.RemoveModifier",
                  "TargetType": {
                    "$type": "RPG.GameCore.TargetAlias",
                    "Alias": "ModifierOwnerEntity"
                  },
                  "ModifierName": "MAvatar_AetherDivide_Common_ListenUltraChargeMax_BanUltra"
                }
              ],
              "OnChange": []
            }
          ]
        }
      ],
      "_CallbackList": [
        {
          "Event": "OnStack",
          "CallbackConfig": [
            {
              "$type": "RPG.GameCore.PredicateTaskList",
              "Predicate": {
                "$type": "RPG.GameCore.ByCompareDynamicValue",
                "DynamicKey": "_UltraMax",
                "CompareType": "GreaterEqual",
                "CompareValue": {
                  "IsDynamic": true,
                  "PostfixExpr": {
                    "OpCodes": "AQAAAAIK",
                    "FixedValues": [
                      {
                        "Value": 1
                      }
                    ],
                    "DynamicHashes": [
                      24444579
                    ]
                  }
                }
              },
              "SuccessTaskList": [
                {
                  "$type": "RPG.GameCore.SetDynamicValue",
                  "DynamicKey": "_UltraCharge",
                  "Value": {
                    "IsDynamic": true,
                    "PostfixExpr": {
                      "OpCodes": "AQAAAAIK",
                      "FixedValues": [
                        {
                          "Value": 1
                        }
                      ],
                      "DynamicHashes": [
                        24444579
                      ]
                    }
                  }
                }
              ]
            }
          ]
        }
      ],
      "DynamicValues": {
        "Values": {
          "1690816888": {}
        }
      }
    },
    "MAvatar_AetherDivide_Common_M": {
      "UIConfig": {
        "UIEffectPath": "UI/Battle/Widget/SpecialSkilMarkEff/SpecialSkillMark_Klara.prefab"
      },
      "_CallbackList": [
        {
          "Event": "OnBeforeHitAll",
          "CallbackConfig": [
            {
              "$type": "RPG.GameCore.PredicateTaskList",
              "Predicate": {
                "$type": "RPG.GameCore.ByIsContainModifier",
                "TargetType": {
                  "$type": "RPG.GameCore.TargetAlias",
                  "Alias": "ParamEntity"
                },
                "ModifierName": "MAvatar_AetherDivide_Common_P"
              },
              "SuccessTaskList": [
                {
                  "$type": "RPG.GameCore.ModifyDamageData",
                  "Attacker_CriticalChance": {
                    "IsDynamic": false,
                    "FixedValue": {
                      "Value": 1
                    }
                  },
                  "Attacker_CriticalDamage": {
                    "IsDynamic": false,
                    "FixedValue": {
                      "Value": 0.5000000004656613
                    }
                  }
                }
              ]
            },
            {
              "$type": "RPG.GameCore.PredicateTaskList",
              "Predicate": {
                "$type": "RPG.GameCore.ByIsContainModifier",
                "TargetType": {
                  "$type": "RPG.GameCore.TargetAlias",
                  "Alias": "ParamEntity"
                },
                "ModifierName": "MAvatar_AetherDivide_Common_B"
              },
              "SuccessTaskList": [
                {
                  "$type": "RPG.GameCore.ModifyDamageData",
                  "Defender_AllDamageReduce": {
                    "IsDynamic": false,
                    "FixedValue": {
                      "Value": 0.20000000018626451
                    }
                  }
                }
              ]
            }
          ]
        }
      ]
    },
    "MAvatar_AetherDivide_UltraEffect": {
      "_CallbackList": [
        {
          "Event": "OnDestroy",
          "CallbackConfig": [
            {
              "$type": "RPG.GameCore.RemoveEffect",
              "TargetType": {
                "$type": "RPG.GameCore.TargetAlias",
                "Alias": "ModifierOwnerEntity"
              },
              "EffectPath": "Effects/Eff_Prefab/Eff_Avatar/Eff_AetherDivide_Common/Eff_Avatar_AetherDivide_Common_Skill03_Ready_Blue.prefab"
            }
          ]
        },
        {
          "Event": "OnStack",
          "CallbackConfig": [
            {
              "$type": "RPG.GameCore.PredicateTaskList",
              "Predicate": {
                "$type": "RPG.GameCore.ByIsContainModifier",
                "TargetType": {
                  "$type": "RPG.GameCore.TargetAlias",
                  "Alias": "ModifierOwnerEntity"
                },
                "ModifierName": "MAvatar_AetherDivide_XP_Elite01_00_Passive"
              },
              "SuccessTaskList": [
                {
                  "$type": "RPG.GameCore.ModifierAttachEffect",
                  "TargetType": {
                    "$type": "RPG.GameCore.TargetAlias",
                    "Alias": "ModifierOwnerEntity"
                  },
                  "EffectPath": "Effects/Eff_Prefab/Eff_Avatar/Eff_AetherDivide_Common/Eff_Avatar_AetherDivide_Common_Skill03_Ready_Blue.prefab",
                  "PositionOffset": {
                    "X": 0.157,
                    "Y": 0.25,
                    "Z": 0.369
                  },
                  "MinMutexTime": -1,
                  "MutexType": "Entity"
                }
              ],
              "FailedTaskList": [
                {
                  "$type": "RPG.GameCore.PredicateTaskList",
                  "Predicate": {
                    "$type": "RPG.GameCore.ByIsContainModifier",
                    "TargetType": {
                      "$type": "RPG.GameCore.TargetAlias",
                      "Alias": "ModifierOwnerEntity"
                    },
                    "ModifierName": "MAvatar_AML_Elite01_00_Ultra"
                  },
                  "SuccessTaskList": [
                    {
                      "$type": "RPG.GameCore.TriggerEffect",
                      "TargetType": {
                        "$type": "RPG.GameCore.TargetAlias",
                        "Alias": "ModifierOwnerEntity"
                      },
                      "IsAttachToTargetEntity": true,
                      "EffectPath": "Effects/Eff_Prefab/Eff_Avatar/Eff_AetherDivide_Common/Eff_Avatar_AetherDivide_Common_Skill03_Ready_Blue.prefab",
                      "PositionOffset": {
                        "X": 0.563,
                        "Y": 0,
                        "Z": 0.186
                      },
                      "Scale": {
                        "X": 2,
                        "Y": 2,
                        "Z": 1
                      },
                      "MinMutexTime": -1
                    }
                  ],
                  "FailedTaskList": [
                    {
                      "$type": "RPG.GameCore.PredicateTaskList",
                      "Predicate": {
                        "$type": "RPG.GameCore.ByIsContainModifier",
                        "TargetType": {
                          "$type": "RPG.GameCore.TargetAlias",
                          "Alias": "ModifierOwnerEntity"
                        },
                        "ModifierName": "MAvatar_AetherDivide_XP_Minion04_00_Passive"
                      },
                      "SuccessTaskList": [
                        {
                          "$type": "RPG.GameCore.ModifierAttachEffect",
                          "TargetType": {
                            "$type": "RPG.GameCore.TargetAlias",
                            "Alias": "ModifierOwnerEntity"
                          },
                          "EffectPath": "Effects/Eff_Prefab/Eff_Avatar/Eff_AetherDivide_Common/Eff_Avatar_AetherDivide_Common_Skill03_Ready_Blue.prefab",
                          "PositionOffset": {
                            "X": 0.027,
                            "Y": 0,
                            "Z": 0.807
                          },
                          "MinMutexTime": -1,
                          "MutexType": "Entity"
                        }
                      ],
                      "FailedTaskList": [
                        {
                          "$type": "RPG.GameCore.ModifierAttachEffect",
                          "TargetType": {
                            "$type": "RPG.GameCore.TargetAlias",
                            "Alias": "ModifierOwnerEntity"
                          },
                          "EffectPath": "Effects/Eff_Prefab/Eff_Avatar/Eff_AetherDivide_Common/Eff_Avatar_AetherDivide_Common_Skill03_Ready_Blue.prefab",
                          "MinMutexTime": -1,
                          "MutexType": "Entity"
                        }
                      ]
                    }
                  ]
                }
              ]
            }
          ]
        },
        {
          "Event": "OnBeforeSkillUse",
          "CallbackConfig": [
            {
              "$type": "RPG.GameCore.RemoveSelfModifier"
            }
          ]
        }
      ]
    },
    "MCommon_CTRL_Taunt_AetherDivide": {
      "TargetSelectRestrict": {
        "$type": "RPG.GameCore.TargetAlias",
        "Alias": "Caster"
      },
      "TargetSelectRestrictType": "EnemySelect",
      "BehaviorFlagList": [
        "Taunt",
        "RemoveWhenCasterDead",
        "RemoveWhenCasterUnstage"
      ],
      "UIConfig": {
        "UIEffectPath": "UI/Battle/Widget/TeamInfoStatusEff/TeamInfoStatus_Taunted.prefab",
        "UIPosition": "UI_TOP",
        "ModifierUIPriority": "Debuff"
      },
      "_CallbackList": [
        {
          "Event": "OnCreate",
          "CallbackConfig": [
            {
              "$type": "RPG.GameCore.TriggerEffect",
              "TargetType": {
                "$type": "RPG.GameCore.TargetAlias",
                "Alias": "ModifierOwnerEntity"
              },
              "EffectPath": "Effects/Eff_Prefab/Eff_Common/Eff_Buff_Common_Taunt_Add.prefab"
            },
            {
              "$type": "RPG.GameCore.ModifierAttachEffect",
              "TargetType": {
                "$type": "RPG.GameCore.TargetAlias",
                "Alias": "ModifierOwnerEntity"
              },
              "EffectPath": "Effects/Eff_Prefab/Eff_Common/Eff_Buff_Common_Taunt_Loop.prefab",
              "PositionOffset": {
                "X": 0,
                "Y": 0.5,
                "Z": 0
              },
              "MinMutexTime": -1,
              "MutexType": "Entity"
            }
          ]
        }
      ],
      "Stacking": "Replace"
    },
    "MAvatar_AetherDivide_Common_OverrideStatus": {
      "_CallbackList": [
        {
          "Event": "OnListenModifierAdd",
          "CallbackConfig": [
            {
              "$type": "RPG.GameCore.PredicateTaskList",
              "Predicate": {
                "$type": "RPG.GameCore.ByCheckModifierCallBackName",
                "ModifierName": "MCommon_CTRL_Taunt_AetherDivide"
              },
              "SuccessTaskList": [
                {
                  "$type": "RPG.GameCore.SetModifierOverrideNameForStatus",
                  "ModifierOwner": {
                    "$type": "RPG.GameCore.TargetAlias",
                    "Alias": "ModifierOwnerEntity"
                  },
                  "ModifierName": "MCommon_CTRL_Taunt_AetherDivide",
                  "ModifierNameForStatus": "MCommon_CTRL_Taunt"
                }
              ]
            },
            {
              "$type": "RPG.GameCore.PredicateTaskList",
              "Predicate": {
                "$type": "RPG.GameCore.ByCheckModifierCallBackName",
                "ModifierName": "MCommon_DOT_Burn"
              },
              "SuccessTaskList": [
                {
                  "$type": "RPG.GameCore.SetModifierOverrideNameForStatus",
                  "ModifierOwner": {
                    "$type": "RPG.GameCore.TargetAlias",
                    "Alias": "ModifierOwnerEntity"
                  },
                  "ModifierName": "MCommon_DOT_Burn",
                  "ModifierNameForStatus": "MCommon_DOT_Burn_AetherDivide"
                }
              ]
            },
            {
              "$type": "RPG.GameCore.PredicateTaskList",
              "Predicate": {
                "$type": "RPG.GameCore.ByCheckModifierCallBackName",
                "ModifierName": "MCommon_DOT_Poison"
              },
              "SuccessTaskList": [
                {
                  "$type": "RPG.GameCore.SetModifierOverrideNameForStatus",
                  "ModifierOwner": {
                    "$type": "RPG.GameCore.TargetAlias",
                    "Alias": "ModifierOwnerEntity"
                  },
                  "ModifierName": "MCommon_DOT_Poison",
                  "ModifierNameForStatus": "MCommon_DOT_Poison_AetherDivide"
                }
              ]
            },
            {
              "$type": "RPG.GameCore.PredicateTaskList",
              "Predicate": {
                "$type": "RPG.GameCore.ByCheckModifierCallBackName",
                "ModifierName": "MCommon_DOT_Electric"
              },
              "SuccessTaskList": [
                {
                  "$type": "RPG.GameCore.SetModifierOverrideNameForStatus",
                  "ModifierOwner": {
                    "$type": "RPG.GameCore.TargetAlias",
                    "Alias": "ModifierOwnerEntity"
                  },
                  "ModifierName": "MCommon_DOT_Electric",
                  "ModifierNameForStatus": "MCommon_DOT_Electric_AetherDivide"
                }
              ]
            },
            {
              "$type": "RPG.GameCore.PredicateTaskList",
              "Predicate": {
                "$type": "RPG.GameCore.ByCheckModifierCallBackName",
                "ModifierName": "MCommon_DOT_Tear"
              },
              "SuccessTaskList": [
                {
                  "$type": "RPG.GameCore.SetModifierOverrideNameForStatus",
                  "ModifierOwner": {
                    "$type": "RPG.GameCore.TargetAlias",
                    "Alias": "ModifierOwnerEntity"
                  },
                  "ModifierName": "MCommon_DOT_Tear",
                  "ModifierNameForStatus": "MCommon_DOT_Tear_AetherDivide"
                }
              ]
            },
            {
              "$type": "RPG.GameCore.PredicateTaskList",
              "Predicate": {
                "$type": "RPG.GameCore.ByCheckModifierCallBackName",
                "ModifierName": "MCommon_CTRL_Frozen"
              },
              "SuccessTaskList": [
                {
                  "$type": "RPG.GameCore.SetModifierOverrideNameForStatus",
                  "ModifierOwner": {
                    "$type": "RPG.GameCore.TargetAlias",
                    "Alias": "ModifierOwnerEntity"
                  },
                  "ModifierName": "MCommon_CTRL_Frozen",
                  "ModifierNameForStatus": "MCommon_CTRL_Frozen_AetherDivide"
                }
              ]
            },
            {
              "$type": "RPG.GameCore.PredicateTaskList",
              "Predicate": {
                "$type": "RPG.GameCore.ByCheckModifierCallBackName",
                "ModifierName": "MCommon_Entangle"
              },
              "SuccessTaskList": [
                {
                  "$type": "RPG.GameCore.SetModifierOverrideNameForStatus",
                  "ModifierOwner": {
                    "$type": "RPG.GameCore.TargetAlias",
                    "Alias": "ModifierOwnerEntity"
                  },
                  "ModifierName": "MCommon_Entangle",
                  "ModifierNameForStatus": "MCommon_Entangle_AetherDivide"
                }
              ]
            },
            {
              "$type": "RPG.GameCore.PredicateTaskList",
              "Predicate": {
                "$type": "RPG.GameCore.ByCheckModifierCallBackName",
                "ModifierName": "Monster_W1_Mecha03_01_Frozen"
              },
              "SuccessTaskList": [
                {
                  "$type": "RPG.GameCore.SetModifierOverrideNameForStatus",
                  "ModifierOwner": {
                    "$type": "RPG.GameCore.TargetAlias",
                    "Alias": "ModifierOwnerEntity"
                  },
                  "ModifierName": "Monster_W1_Mecha03_01_Frozen",
                  "ModifierNameForStatus": "Monster_W1_Mecha03_01_Frozen_AetherDivide"
                }
              ]
            },
            {
              "$type": "RPG.GameCore.PredicateTaskList",
              "Predicate": {
                "$type": "RPG.GameCore.ByCheckModifierCallBackName",
                "ModifierName": "MMonster_XP_Elite01_00_Burn"
              },
              "SuccessTaskList": [
                {
                  "$type": "RPG.GameCore.SetModifierOverrideNameForStatus",
                  "ModifierOwner": {
                    "$type": "RPG.GameCore.TargetAlias",
                    "Alias": "ModifierOwnerEntity"
                  },
                  "ModifierName": "MMonster_XP_Elite01_00_Burn",
                  "ModifierNameForStatus": "MMonster_XP_Elite01_00_Burn_AetherDivide"
                }
              ]
            },
            {
              "$type": "RPG.GameCore.PredicateTaskList",
              "Predicate": {
                "$type": "RPG.GameCore.ByCheckModifierCallBackName",
                "ModifierName": "W1_Mecha02_ThunderDOT"
              },
              "SuccessTaskList": [
                {
                  "$type": "RPG.GameCore.SetModifierOverrideNameForStatus",
                  "ModifierOwner": {
                    "$type": "RPG.GameCore.TargetAlias",
                    "Alias": "ModifierOwnerEntity"
                  },
                  "ModifierName": "W1_Mecha02_ThunderDOT",
                  "ModifierNameForStatus": "W1_Mecha02_ThunderDOT_AetherDivide"
                }
              ]
            }
          ]
        }
      ]
    },
    "MAvatar_AetherDivide_Common_P": {
      "UIConfig": {
        "UIEffectPath": "UI/Battle/Widget/SpecialSkilMarkEff/SpecialSkillMark_Klara.prefab"
      },
      "_CallbackList": [
        {
          "Event": "OnBeforeHitAll",
          "CallbackConfig": [
            {
              "$type": "RPG.GameCore.PredicateTaskList",
              "Predicate": {
                "$type": "RPG.GameCore.ByIsContainModifier",
                "TargetType": {
                  "$type": "RPG.GameCore.TargetAlias",
                  "Alias": "ParamEntity"
                },
                "ModifierName": "MAvatar_AetherDivide_Common_B"
              },
              "SuccessTaskList": [
                {
                  "$type": "RPG.GameCore.ModifyDamageData",
                  "Attacker_CriticalChance": {
                    "IsDynamic": false,
                    "FixedValue": {
                      "Value": 1
                    }
                  },
                  "Attacker_CriticalDamage": {
                    "IsDynamic": false,
                    "FixedValue": {
                      "Value": 0.5000000004656613
                    }
                  }
                }
              ]
            },
            {
              "$type": "RPG.GameCore.PredicateTaskList",
              "Predicate": {
                "$type": "RPG.GameCore.ByIsContainModifier",
                "TargetType": {
                  "$type": "RPG.GameCore.TargetAlias",
                  "Alias": "ParamEntity"
                },
                "ModifierName": "MAvatar_AetherDivide_Common_M"
              },
              "SuccessTaskList": [
                {
                  "$type": "RPG.GameCore.ModifyDamageData",
                  "Defender_AllDamageReduce": {
                    "IsDynamic": false,
                    "FixedValue": {
                      "Value": 0.20000000018626451
                    }
                  }
                }
              ]
            }
          ]
        }
      ]
    },
    "MAvatar_AetherDivide_Common_B": {
      "UIConfig": {
        "UIEffectPath": "UI/Battle/Widget/SpecialSkilMarkEff/SpecialSkillMark_Klara.prefab"
      },
      "_CallbackList": [
        {
          "Event": "OnBeforeHitAll",
          "CallbackConfig": [
            {
              "$type": "RPG.GameCore.PredicateTaskList",
              "Predicate": {
                "$type": "RPG.GameCore.ByIsContainModifier",
                "TargetType": {
                  "$type": "RPG.GameCore.TargetAlias",
                  "Alias": "ParamEntity"
                },
                "ModifierName": "MAvatar_AetherDivide_Common_M"
              },
              "SuccessTaskList": [
                {
                  "$type": "RPG.GameCore.ModifyDamageData",
                  "Attacker_CriticalChance": {
                    "IsDynamic": false,
                    "FixedValue": {
                      "Value": 1
                    }
                  },
                  "Attacker_CriticalDamage": {
                    "IsDynamic": false,
                    "FixedValue": {
                      "Value": 0.5000000004656613
                    }
                  }
                }
              ]
            },
            {
              "$type": "RPG.GameCore.PredicateTaskList",
              "Predicate": {
                "$type": "RPG.GameCore.ByIsContainModifier",
                "TargetType": {
                  "$type": "RPG.GameCore.TargetAlias",
                  "Alias": "ParamEntity"
                },
                "ModifierName": "MAvatar_AetherDivide_Common_P"
              },
              "SuccessTaskList": [
                {
                  "$type": "RPG.GameCore.ModifyDamageData",
                  "Defender_AllDamageReduce": {
                    "IsDynamic": false,
                    "FixedValue": {
                      "Value": 0.20000000018626451
                    }
                  }
                }
              ]
            }
          ]
        }
      ]
    },
    "MAvatar_AetherDivide_FailTips": {
      "_CallbackList": [
        {
          "Event": "OnEnterBattle",
          "CallbackConfig": [
            {
              "$type": "RPG.GameCore.TriggerCustomString",
              "CustomString": {
                "Value": "AetherDivide_CustomString_FailTips"
              }
            }
          ]
        }
      ]
    }
  }
}