{
  "AbilityList": [
    {
      "Name": "Avatar_PlayerBoy_Skill01_Phase01",
      "TargetInfo": {
        "TargetType": "SkillTargetEntityList"
      },
      "OnStart": [
        {
          "$type": "RPG.GameCore.LookAt",
          "TargetType": "AbilityTargetEntity",
          "Duration": 0.1
        },
        {
          "$type": "RPG.GameCore.TriggerAbility",
          "TargetType": {
            "$type": "RPG.GameCore.TargetAlias",
            "Alias": "Caster"
          },
          "AbilityName": "Avatar_PlayerBoy_Skill01_Phase02",
          "IsSkillPerform": true
        },
        {
          "$type": "RPG.GameCore.TriggerAbility",
          "TargetType": {
            "$type": "RPG.GameCore.TargetAlias",
            "Alias": "Caster"
          },
          "AbilityName": "Avatar_PlayerBoy_Skill01_Camera",
          "IsSkillPerform": true
        },
        {
          "$type": "RPG.GameCore.TriggerAnimStateWithMove",
          "TargetType": {
            "$type": "RPG.GameCore.TargetAlias",
            "Alias": "Caster"
          },
          "AnimStateName": "Skill01",
          "MovingRangeList": [
            {
              "TargetType": {
                "$type": "RPG.GameCore.TargetAlias",
                "Alias": "AbilityTargetEntity"
              },
              "OffsetTargetDistance": {
                "IsDynamic": false,
                "FixedValue": {
                  "Value": 2
                }
              },
              "NormalizedTimeStart": {
                "IsDynamic": false,
                "FixedValue": {
                  "Value": 0.09000000008381903
                }
              },
              "NormalizedTimeEnd": {
                "IsDynamic": false,
                "FixedValue": {
                  "Value": 0.17100000008940697
                }
              }
            },
            {
              "TargetType": {
                "$type": "RPG.GameCore.TargetAlias",
                "Alias": "TeamFormation"
              },
              "OffsetTargetDistance": {
                "IsDynamic": false,
                "FixedValue": {
                  "Value": 0
                }
              },
              "NormalizedTimeStart": {
                "IsDynamic": false,
                "FixedValue": {
                  "Value": 0.6180000000167638
                }
              },
              "NormalizedTimeEnd": {
                "IsDynamic": false,
                "FixedValue": {
                  "Value": 0.791000000666827
                }
              }
            }
          ]
        },
        {
          "$type": "RPG.GameCore.WaitAnimState",
          "AnimStateName": "Skill01",
          "NormalizedTimeEnd": {
            "IsDynamic": false,
            "FixedValue": {
              "Value": 0.09000000008381903
            }
          }
        },
        {
          "$type": "RPG.GameCore.RadialBlurEffect",
          "TargetType": {
            "$type": "RPG.GameCore.TargetAlias",
            "Alias": "AbilityTargetEntity"
          },
          "BlurRadius": 0.8,
          "Iteration": 4,
          "BlurFeather": 0.2
        },
        {
          "$type": "RPG.GameCore.WaitAnimState",
          "AnimStateName": "Skill01",
          "NormalizedTimeEnd": {
            "IsDynamic": false,
            "FixedValue": {
              "Value": 0.20000000018626451
            }
          }
        },
        {
          "$type": "RPG.GameCore.RadialBlurEffect",
          "TargetType": {
            "$type": "RPG.GameCore.TargetAlias",
            "Alias": "AbilityTargetEntity"
          },
          "Active": false
        },
        {
          "$type": "RPG.GameCore.WaitAnimState",
          "AnimStateName": "Skill01",
          "NormalizedTimeEnd": {
            "IsDynamic": false,
            "FixedValue": {
              "Value": 0.7000000006519258
            }
          }
        }
      ]
    },
    {
      "Name": "Avatar_PlayerBoy_Skill01_Phase02",
      "TargetInfo": {
        "TargetType": "SkillTargetEntityList"
      },
      "OnStart": [
        {
          "$type": "RPG.GameCore.WaitAnimState",
          "TargetType": {
            "$type": "RPG.GameCore.TargetAlias",
            "Alias": "Caster"
          },
          "AnimStateName": "Skill01",
          "NormalizedTimeEnd": {
            "IsDynamic": false,
            "FixedValue": {
              "Value": 0.08399999979883432
            }
          }
        },
        {
          "$type": "RPG.GameCore.WaitAnimState",
          "AnimStateName": "Skill01",
          "NormalizedTimeEnd": {
            "IsDynamic": false,
            "FixedValue": {
              "Value": 0.17399999988265336
            }
          }
        },
        {
          "$type": "RPG.GameCore.DamageByAttackProperty",
          "TargetType": {
            "$type": "RPG.GameCore.TargetAlias",
            "Alias": "AbilityTargetEntity"
          },
          "AttackProperty": {
            "DamagePercentage": {
              "IsDynamic": true,
              "PostfixExpr": {
                "OpCodes": "AQAAAAQK",
                "FixedValues": [
                  {
                    "Value": 1
                  }
                ],
                "DynamicHashes": [
                  -1126825319
                ]
              }
            },
            "StanceValue": {
              "IsDynamic": true,
              "PostfixExpr": {
                "OpCodes": "AQAAAAQK",
                "FixedValues": [
                  {
                    "Value": 1
                  }
                ],
                "DynamicHashes": [
                  1659254037
                ]
              }
            },
            "SPHitRatio": {
              "IsDynamic": false,
              "FixedValue": {
                "Value": 1
              }
            },
            "HitAnimation": "Hit",
            "HitEffect": "Effects/Eff_Prefab/Eff_Avatar/Eff_PlayerBoy/Eff_Avatar_PlayerBoy_00_Skill01_V1_Hit.prefab",
            "HitEffectHeight": 1.5,
            "HitTimeSlowType": "Impact",
            "HitPosHeight": 1.2,
            "HitAngleHorizontal": 120
          },
          "CanTriggerLastKill": true
        },
        {
          "$type": "RPG.GameCore.DamagePerformFinish"
        },
        {
          "$type": "RPG.GameCore.WaitAnimState",
          "AnimStateName": "Skill01",
          "NormalizedTimeEnd": {
            "IsDynamic": false,
            "FixedValue": {
              "Value": 0.2249999998603016
            }
          }
        },
        {
          "$type": "RPG.GameCore.SkillPerformFinish"
        }
      ]
    },
    {
      "Name": "Avatar_PlayerBoy_Skill11_Phase01",
      "TargetInfo": {
        "TargetType": "SkillTargetEntityList"
      },
      "OnStart": [
        {
          "$type": "RPG.GameCore.LookAt",
          "TargetType": "AbilityTargetEntity",
          "Duration": 0.1
        },
        {
          "$type": "RPG.GameCore.TriggerAbility",
          "TargetType": {
            "$type": "RPG.GameCore.TargetAlias",
            "Alias": "Caster"
          },
          "AbilityName": "Avatar_PlayerBoy_Skill11_Phase02",
          "IsSkillPerform": true
        },
        {
          "$type": "RPG.GameCore.TriggerAbility",
          "TargetType": {
            "$type": "RPG.GameCore.TargetAlias",
            "Alias": "Caster"
          },
          "AbilityName": "Avatar_PlayerBoy_Skill11_Camera",
          "IsSkillPerform": true
        },
        {
          "$type": "RPG.GameCore.TriggerAnimStateWithMove",
          "TargetType": {
            "$type": "RPG.GameCore.TargetAlias",
            "Alias": "Caster"
          },
          "AnimStateName": "Skill11",
          "MovingRangeList": [
            {
              "TargetType": {
                "$type": "RPG.GameCore.TargetAlias",
                "Alias": "AbilityTargetEntity"
              },
              "OffsetTargetDistance": {
                "IsDynamic": false,
                "FixedValue": {
                  "Value": 1
                }
              },
              "NormalizedTimeStart": {
                "IsDynamic": false,
                "FixedValue": {
                  "Value": 0.03899999940767884
                }
              },
              "NormalizedTimeEnd": {
                "IsDynamic": false,
                "FixedValue": {
                  "Value": 0.16899999952875078
                }
              }
            },
            {
              "TargetType": {
                "$type": "RPG.GameCore.TargetAlias",
                "Alias": "TeamFormation"
              },
              "OffsetTargetDistance": {
                "IsDynamic": false,
                "FixedValue": {
                  "Value": 0
                }
              },
              "NormalizedTimeStart": {
                "IsDynamic": false,
                "FixedValue": {
                  "Value": 0.6180000000167638
                }
              },
              "NormalizedTimeEnd": {
                "IsDynamic": false,
                "FixedValue": {
                  "Value": 0.791000000666827
                }
              }
            }
          ]
        },
        {
          "$type": "RPG.GameCore.WaitAnimState",
          "AnimStateName": "Skill11",
          "NormalizedTimeEnd": {
            "IsDynamic": false,
            "FixedValue": {
              "Value": 0.04499999969266355
            }
          }
        },
        {
          "$type": "RPG.GameCore.RadialBlurEffect",
          "TargetType": {
            "$type": "RPG.GameCore.TargetAlias",
            "Alias": "AbilityTargetEntity"
          },
          "BlurRadius": 0.8,
          "BlurFeather": 0.2
        },
        {
          "$type": "RPG.GameCore.WaitAnimState",
          "AnimStateName": "Skill11",
          "NormalizedTimeEnd": {
            "IsDynamic": false,
            "FixedValue": {
              "Value": 0.18000000016763806
            }
          }
        },
        {
          "$type": "RPG.GameCore.GlobalMainIntensityEffect",
          "TargetIntensity": 0.7,
          "FadeDuration": 0.01
        },
        {
          "$type": "RPG.GameCore.WaitAnimState",
          "AnimStateName": "Skill11",
          "NormalizedTimeEnd": {
            "IsDynamic": false,
            "FixedValue": {
              "Value": 0.20000000018626451
            }
          }
        },
        {
          "$type": "RPG.GameCore.GlobalMainIntensityEffect",
          "IsRevert": true,
          "IsDurable": true,
          "FadeDuration": 0.35
        },
        {
          "$type": "RPG.GameCore.RadialBlurEffect",
          "TargetType": {
            "$type": "RPG.GameCore.TargetAlias",
            "Alias": "AbilityTargetEntity"
          },
          "Active": false
        },
        {
          "$type": "RPG.GameCore.WaitAnimState",
          "AnimStateName": "Skill11",
          "NormalizedTimeEnd": {
            "IsDynamic": false,
            "FixedValue": {
              "Value": 0.20499999984167516
            }
          }
        },
        {
          "$type": "RPG.GameCore.RadialBlurEffect",
          "TargetType": {
            "$type": "RPG.GameCore.TargetAlias",
            "Alias": "AbilityTargetEntity"
          },
          "BlurRadius": 0.8,
          "Iteration": 4,
          "BlurFeather": 0.2
        },
        {
          "$type": "RPG.GameCore.WaitSecond",
          "WaitTime": 0.3
        },
        {
          "$type": "RPG.GameCore.RadialBlurEffect",
          "TargetType": {
            "$type": "RPG.GameCore.TargetAlias",
            "Alias": "AbilityTargetEntity"
          },
          "Active": false
        },
        {
          "$type": "RPG.GameCore.WaitAnimState",
          "TargetType": {
            "$type": "RPG.GameCore.TargetAlias",
            "Alias": "Caster"
          },
          "AnimStateName": "Skill11",
          "NormalizedTimeEnd": {
            "IsDynamic": false,
            "FixedValue": {
              "Value": 0.6600000006146729
            }
          }
        },
        {
          "$type": "RPG.GameCore.TryStartConnectUltraSkillFrameCapture"
        },
        {
          "$type": "RPG.GameCore.WaitAnimState",
          "AnimStateName": "Skill11",
          "NormalizedTimeEnd": {
            "IsDynamic": false,
            "FixedValue": {
              "Value": 0.6700000006239861
            }
          }
        }
      ]
    },
    {
      "Name": "Avatar_PlayerBoy_Skill11_Phase02",
      "TargetInfo": {
        "TargetType": "SkillTargetEntityList"
      },
      "OnStart": [
        {
          "$type": "RPG.GameCore.PredicateTaskList",
          "Predicate": {
            "$type": "RPG.GameCore.ByRankActivated",
            "TriggerKey": {
              "Hash": 2089636447
            }
          },
          "SuccessTaskList": [
            {
              "$type": "RPG.GameCore.AddModifier",
              "TargetType": {
                "$type": "RPG.GameCore.TargetAlias",
                "Alias": "Caster"
              },
              "ModifierName": "PlayerBoy_Rank01_Check_Modifier"
            }
          ]
        },
        {
          "$type": "RPG.GameCore.WaitAnimState",
          "TargetType": {
            "$type": "RPG.GameCore.TargetAlias",
            "Alias": "Caster"
          },
          "AnimStateName": "Skill11",
          "NormalizedTimeEnd": {
            "IsDynamic": false,
            "FixedValue": {
              "Value": 0.08399999979883432
            }
          }
        },
        {
          "$type": "RPG.GameCore.WaitAnimState",
          "AnimStateName": "Skill11",
          "NormalizedTimeEnd": {
            "IsDynamic": false,
            "FixedValue": {
              "Value": 0.17499999981373549
            }
          }
        },
        {
          "$type": "RPG.GameCore.DamageByAttackProperty",
          "TargetType": {
            "$type": "RPG.GameCore.TargetAlias",
            "Alias": "AbilityTargetEntity"
          },
          "AttackProperty": {
            "DamagePercentage": {
              "IsDynamic": true,
              "PostfixExpr": {
                "OpCodes": "AQAAAAQK",
                "FixedValues": [
                  {
                    "Value": 1
                  }
                ],
                "DynamicHashes": [
                  -1999440872
                ]
              }
            },
            "StanceValue": {
              "IsDynamic": true,
              "PostfixExpr": {
                "OpCodes": "AQAAAAQK",
                "FixedValues": [
                  {
                    "Value": 1
                  }
                ],
                "DynamicHashes": [
                  1659254037
                ]
              }
            },
            "SPHitRatio": {
              "IsDynamic": false,
              "FixedValue": {
                "Value": 1
              }
            },
            "HitAnimation": "Hit_H",
            "HitEffect": "Effects/Eff_Prefab/Eff_Avatar/Eff_PlayerBoy/Eff_Avatar_PlayerBoy_00_Skill01_V2_Hit.prefab",
            "HitEffectHeight": 1.1,
            "HitTimeSlowType": "Impact",
            "HitTimeSlowIntensity": "Heavy",
            "HitPosHeight": 1.1,
            "HitAngleHorizontal": 120
          },
          "CanTriggerLastKill": true
        },
        {
          "$type": "RPG.GameCore.DamagePerformFinish"
        },
        {
          "$type": "RPG.GameCore.PredicateTaskList",
          "Predicate": {
            "$type": "RPG.GameCore.ByRankActivated",
            "TriggerKey": {
              "Hash": 2089636447
            }
          },
          "SuccessTaskList": [
            {
              "$type": "RPG.GameCore.RemoveModifier",
              "TargetType": {
                "$type": "RPG.GameCore.TargetAlias",
                "Alias": "Caster"
              },
              "ModifierName": "PlayerBoy_Rank01_Check_Modifier"
            }
          ]
        },
        {
          "$type": "RPG.GameCore.WaitAnimState",
          "AnimStateName": "Skill11",
          "NormalizedTimeEnd": {
            "IsDynamic": false,
            "FixedValue": {
              "Value": 0.6250000002328306
            }
          }
        },
        {
          "$type": "RPG.GameCore.RemoveModifier",
          "TargetType": {
            "$type": "RPG.GameCore.TargetAlias",
            "Alias": "Caster"
          },
          "ModifierName": "MAvatar_PlayerWarrior_00_Ultra_Transform"
        },
        {
          "$type": "RPG.GameCore.RemoveEffect",
          "TargetType": {
            "$type": "RPG.GameCore.TargetAlias",
            "Alias": "Caster"
          },
          "EffectPath": "Effects/Eff_Prefab/Eff_Avatar/Eff_PlayerBoy/Eff_Avatar_PlayerBoy_00_Skill03_Weapon_JNT.prefab"
        },
        {
          "$type": "RPG.GameCore.RemoveEffect",
          "TargetType": {
            "$type": "RPG.GameCore.TargetAlias",
            "Alias": "Caster"
          },
          "EffectPath": "Effects/Eff_Prefab/Eff_Avatar/Eff_PlayerBoy/Eff_Avatar_PlayerBoy_00_Skill03_Weapon_JNT_2.prefab"
        },
        {
          "$type": "RPG.GameCore.RemoveEffect",
          "TargetType": {
            "$type": "RPG.GameCore.TargetAlias",
            "Alias": "Caster"
          },
          "EffectPath": "Effects/Eff_Prefab/Eff_Avatar/Eff_PlayerBoy/Eff_Avatar_PlayerBoy_00_Skill03_Strong.prefab"
        },
        {
          "$type": "RPG.GameCore.RemoveEffect",
          "TargetType": {
            "$type": "RPG.GameCore.TargetAlias",
            "Alias": "Caster"
          },
          "EffectPath": "Effects/Eff_Prefab/Eff_Avatar/Eff_PlayerBoy/Eff_Avatar_PlayerBoy_00_Skill03_Weapon_Mat_E_1.prefab"
        },
        {
          "$type": "RPG.GameCore.ShowUltraSkillAlternative"
        },
        {
          "$type": "RPG.GameCore.SkillPerformFinish"
        }
      ]
    },
    {
      "Name": "Avatar_PlayerBoy_Skill02_Phase01",
      "TargetInfo": {
        "TargetType": "SkillTargetEntityList"
      },
      "OnStart": [
        {
          "$type": "RPG.GameCore.TriggerAbility",
          "TargetType": {
            "$type": "RPG.GameCore.TargetAlias",
            "Alias": "Caster"
          },
          "AbilityName": "Avatar_PlayerBoy_Skill02_Phase02",
          "IsSkillPerform": true
        },
        {
          "$type": "RPG.GameCore.TriggerAbility",
          "TargetType": {
            "$type": "RPG.GameCore.TargetAlias",
            "Alias": "Caster"
          },
          "AbilityName": "Avatar_PlayerBoy_Skill02_Camera",
          "IsSkillPerform": true
        },
        {
          "$type": "RPG.GameCore.LookAt",
          "TargetType": "AbilityTargetEntity"
        },
        {
          "$type": "RPG.GameCore.MoveToTargetList",
          "TargetType": {
            "$type": "RPG.GameCore.TargetAlias",
            "Alias": "Caster"
          },
          "AnimStateName": "Skill02",
          "MovingRangeList": [
            {
              "TargetType": {
                "$type": "RPG.GameCore.TargetAlias",
                "Alias": "AbilityTargetEntity"
              },
              "OffsetTargetDistance": {
                "IsDynamic": false,
                "FixedValue": {
                  "Value": 2
                }
              },
              "NormalizedTimeStart": {
                "IsDynamic": false,
                "FixedValue": {
                  "Value": 0.04499999969266355
                }
              },
              "NormalizedTimeEnd": {
                "IsDynamic": false,
                "FixedValue": {
                  "Value": 0.08399999979883432
                }
              }
            },
            {
              "TargetType": {
                "$type": "RPG.GameCore.TargetAlias",
                "Alias": "TeamFormation"
              },
              "IgnoreRadius": true,
              "OffsetTargetDistance": {
                "IsDynamic": false,
                "FixedValue": {
                  "Value": 0
                }
              },
              "NormalizedTimeStart": {
                "IsDynamic": false,
                "FixedValue": {
                  "Value": 0.5470000000204891
                }
              },
              "NormalizedTimeEnd": {
                "IsDynamic": false,
                "FixedValue": {
                  "Value": 0.612000000430271
                }
              }
            }
          ]
        },
        {
          "$type": "RPG.GameCore.WaitAnimState",
          "AnimStateName": "Skill02",
          "NormalizedTimeEnd": {
            "IsDynamic": false,
            "FixedValue": {
              "Value": 0.026599999982863665
            }
          }
        },
        {
          "$type": "RPG.GameCore.RadialBlurEffect",
          "TargetType": {
            "$type": "RPG.GameCore.TargetAlias",
            "Alias": "AbilityTargetEntity"
          },
          "BlurRadius": 0.8,
          "Iteration": 4,
          "BlurFeather": 0.2
        },
        {
          "$type": "RPG.GameCore.WaitAnimState",
          "AnimStateName": "Skill02",
          "NormalizedTimeEnd": {
            "IsDynamic": false,
            "FixedValue": {
              "Value": 0.0800000000745058
            }
          }
        },
        {
          "$type": "RPG.GameCore.RadialBlurEffect",
          "TargetType": {
            "$type": "RPG.GameCore.TargetAlias",
            "Alias": "AbilityTargetEntity"
          },
          "Active": false
        },
        {
          "$type": "RPG.GameCore.WaitAnimState",
          "AnimStateName": "Skill02",
          "NormalizedTimeEnd": {
            "IsDynamic": false,
            "FixedValue": {
              "Value": 0.7000000006519258
            }
          }
        }
      ]
    },
    {
      "Name": "Avatar_PlayerBoy_Skill02_Phase02",
      "TargetInfo": {
        "TargetType": "SkillTargetEntityList"
      },
      "OnStart": [
        {
          "$type": "RPG.GameCore.PredicateTaskList",
          "Predicate": {
            "$type": "RPG.GameCore.BySkillPointActivated",
            "PointTriggerKey": {
              "Hash": 1455742905
            }
          },
          "SuccessTaskList": [
            {
              "$type": "RPG.GameCore.AddModifier",
              "TargetType": {
                "$type": "RPG.GameCore.TargetAlias",
                "Alias": "Caster"
              },
              "ModifierName": "MAvatar_PlayerBoy_00_SkillTree03_DamageAddedRatio"
            }
          ]
        },
        {
          "$type": "RPG.GameCore.WaitAnimState",
          "AnimStateName": "Skill02",
          "NormalizedTimeEnd": {
            "IsDynamic": false,
            "FixedValue": {
              "Value": 0.24399999994784594
            }
          }
        },
        {
          "$type": "RPG.GameCore.DamageByAttackProperty",
          "TargetType": {
            "$type": "RPG.GameCore.TargetAlias",
            "Alias": "AbilityTargetEntity"
          },
          "AttackProperty": {
            "DamagePercentage": {
              "IsDynamic": true,
              "PostfixExpr": {
                "OpCodes": "AQAK",
                "FixedValues": [],
                "DynamicHashes": [
                  -1847083384
                ]
              }
            },
            "StanceValue": {
              "IsDynamic": true,
              "PostfixExpr": {
                "OpCodes": "AQAK",
                "FixedValues": [],
                "DynamicHashes": [
                  1659254037
                ]
              }
            },
            "SPHitRatio": {
              "IsDynamic": false,
              "FixedValue": {
                "Value": 1
              }
            },
            "HitAnimation": "Hit_H",
            "HitEffect": "Effects/Eff_Prefab/Eff_Avatar/Eff_PlayerBoy/Eff_Avatar_PlayerBoy_00_Skill01_V1_Hit.prefab",
            "HitEffectHeight": 1,
            "HitPosHeight": 1.2,
            "HitAngleHorizontal": -90
          },
          "CanTriggerLastKill": true
        },
        {
          "$type": "RPG.GameCore.PredicateTaskList",
          "Predicate": {
            "$type": "RPG.GameCore.BySkillPointActivated",
            "PointTriggerKey": {
              "Hash": 1455742905
            }
          },
          "SuccessTaskList": [
            {
              "$type": "RPG.GameCore.RemoveModifier",
              "TargetType": {
                "$type": "RPG.GameCore.TargetAlias",
                "Alias": "Caster"
              },
              "ModifierName": "MAvatar_PlayerBoy_00_SkillTree03_DamageAddedRatio"
            }
          ]
        },
        {
          "$type": "RPG.GameCore.DamageByAttackProperty",
          "TargetType": {
            "$type": "RPG.GameCore.TargetAlias",
            "Alias": "AbilityTargetAdjoinEntity"
          },
          "AttackProperty": {
            "DamagePercentage": {
              "IsDynamic": true,
              "PostfixExpr": {
                "OpCodes": "AQAK",
                "FixedValues": [],
                "DynamicHashes": [
                  -1847083384
                ]
              }
            },
            "StanceValue": {
              "IsDynamic": true,
              "PostfixExpr": {
                "OpCodes": "AQAK",
                "FixedValues": [],
                "DynamicHashes": [
                  -1315627076
                ]
              }
            },
            "HitAnimation": "Hit_H",
            "HitEffect": "Effects/Eff_Prefab/Eff_Avatar/Eff_PlayerBoy/Eff_Avatar_PlayerBoy_00_Skill01_V1_Hit.prefab",
            "HitEffectHeight": 1,
            "HitPosHeight": 1.2,
            "HitAngleHorizontal": -90
          },
          "CanTriggerLastKill": true
        },
        {
          "$type": "RPG.GameCore.DamagePerformFinish"
        },
        {
          "$type": "RPG.GameCore.WaitAnimState",
          "AnimStateName": "Skill02",
          "NormalizedTimeEnd": {
            "IsDynamic": false,
            "FixedValue": {
              "Value": 0.26599999982863665
            }
          }
        },
        {
          "$type": "RPG.GameCore.SkillPerformFinish"
        }
      ]
    },
    {
      "Name": "Avatar_PlayerBoy_Skill21_Phase01",
      "TargetInfo": {
        "TargetType": "SkillTargetEntityList",
        "MaxTargetCount": 5
      },
      "OnStart": [
        {
          "$type": "RPG.GameCore.TriggerAbility",
          "TargetType": {
            "$type": "RPG.GameCore.TargetAlias",
            "Alias": "Caster"
          },
          "AbilityName": "Avatar_PlayerBoy_Skill21_Phase02",
          "IsSkillPerform": true
        },
        {
          "$type": "RPG.GameCore.TriggerAbility",
          "TargetType": {
            "$type": "RPG.GameCore.TargetAlias",
            "Alias": "Caster"
          },
          "AbilityName": "Avatar_PlayerBoy_Skill21_Camera",
          "IsSkillPerform": true
        },
        {
          "$type": "RPG.GameCore.LookAt",
          "TargetType": "AbilityTargetEntity"
        },
        {
          "$type": "RPG.GameCore.PlayTimeline",
          "TimelineName": "Effects/Eff_Prefab/Eff_Avatar/Eff_PlayerBoy/Avatar_Player_M_Skill02_v2_timeline.playable"
        },
        {
          "$type": "RPG.GameCore.MoveToTargetList",
          "TargetType": {
            "$type": "RPG.GameCore.TargetAlias",
            "Alias": "Caster"
          },
          "AnimStateName": "Skill21",
          "MovingRangeList": [
            {
              "TargetType": {
                "$type": "RPG.GameCore.TargetAlias",
                "Alias": "AbilityTargetEntity"
              },
              "OffsetTargetDistance": {
                "IsDynamic": false,
                "FixedValue": {
                  "Value": 3
                }
              },
              "NormalizedTimeStart": {
                "IsDynamic": false,
                "FixedValue": {
                  "Value": 0.032999999821186066
                }
              },
              "NormalizedTimeEnd": {
                "IsDynamic": false,
                "FixedValue": {
                  "Value": 0.056999999564141035
                }
              }
            },
            {
              "TargetType": {
                "$type": "RPG.GameCore.TargetAlias",
                "Alias": "TeamFormation"
              },
              "IgnoreRadius": true,
              "OffsetTargetDistance": {
                "IsDynamic": false,
                "FixedValue": {
                  "Value": 0
                }
              },
              "NormalizedTimeStart": {
                "IsDynamic": false,
                "FixedValue": {
                  "Value": 0.6000000005587935
                }
              },
              "NormalizedTimeEnd": {
                "IsDynamic": false,
                "FixedValue": {
                  "Value": 0.6830000004265457
                }
              }
            }
          ]
        },
        {
          "$type": "RPG.GameCore.WaitAnimState",
          "AnimStateName": "Skill21",
          "NormalizedTimeEnd": {
            "IsDynamic": false,
            "FixedValue": {
              "Value": 0.0400000000372529
            }
          }
        },
        {
          "$type": "RPG.GameCore.RadialBlurEffect",
          "TargetType": {
            "$type": "RPG.GameCore.TargetAlias",
            "Alias": "AbilityTargetEntity"
          },
          "BlurRadius": 0.8,
          "Iteration": 4,
          "BlurFeather": 0.2
        },
        {
          "$type": "RPG.GameCore.WaitAnimState",
          "AnimStateName": "Skill21",
          "NormalizedTimeEnd": {
            "IsDynamic": false,
            "FixedValue": {
              "Value": 0.0800000000745058
            }
          }
        },
        {
          "$type": "RPG.GameCore.RadialBlurEffect",
          "TargetType": {
            "$type": "RPG.GameCore.TargetAlias",
            "Alias": "AbilityTargetEntity"
          },
          "Active": false
        },
        {
          "$type": "RPG.GameCore.WaitAnimState",
          "AnimStateName": "Skill21",
          "NormalizedTimeEnd": {
            "IsDynamic": false,
            "FixedValue": {
              "Value": 0.26599999982863665
            }
          }
        },
        {
          "$type": "RPG.GameCore.RadialBlurEffect",
          "TargetType": {
            "$type": "RPG.GameCore.TargetAlias",
            "Alias": "AbilityTargetEntity"
          },
          "BlurRadius": 1,
          "Iteration": 4,
          "BlurStart": 0.1,
          "BlurFeather": 0.5
        },
        {
          "$type": "RPG.GameCore.WaitAnimState",
          "AnimStateName": "Skill21",
          "NormalizedTimeEnd": {
            "IsDynamic": false,
            "FixedValue": {
              "Value": 0.3200000002980232
            }
          }
        },
        {
          "$type": "RPG.GameCore.GlobalMainIntensityEffect",
          "TargetIntensity": 0.1,
          "FadeDuration": 0.01
        },
        {
          "$type": "RPG.GameCore.WaitAnimState",
          "AnimStateName": "Skill21",
          "NormalizedTimeEnd": {
            "IsDynamic": false,
            "FixedValue": {
              "Value": 0.3310000002384186
            }
          }
        },
        {
          "$type": "RPG.GameCore.RadialBlurEffect",
          "TargetType": {
            "$type": "RPG.GameCore.TargetAlias",
            "Alias": "AbilityTargetEntity"
          },
          "BlurRadius": 1,
          "Iteration": 4,
          "BlurStart": 0.1,
          "BlurFeather": 0.5
        },
        {
          "$type": "RPG.GameCore.WaitAnimState",
          "AnimStateName": "Skill21",
          "NormalizedTimeEnd": {
            "IsDynamic": false,
            "FixedValue": {
              "Value": 0.42300000018440187
            }
          }
        },
        {
          "$type": "RPG.GameCore.RadialBlurEffect",
          "TargetType": {
            "$type": "RPG.GameCore.TargetAlias",
            "Alias": "AbilityTargetEntity"
          },
          "Active": false
        },
        {
          "$type": "RPG.GameCore.WaitAnimState",
          "AnimStateName": "Skill21",
          "NormalizedTimeEnd": {
            "IsDynamic": false,
            "FixedValue": {
              "Value": 0.4700000004377216
            }
          }
        },
        {
          "$type": "RPG.GameCore.GlobalMainIntensityEffect",
          "IsRevert": true,
          "IsDurable": true,
          "FadeDuration": 0.35
        },
        {
          "$type": "RPG.GameCore.WaitAnimState",
          "TargetType": {
            "$type": "RPG.GameCore.TargetAlias",
            "Alias": "Caster"
          },
          "AnimStateName": "Skill21",
          "NormalizedTimeEnd": {
            "IsDynamic": false,
            "FixedValue": {
              "Value": 0.6900000006426126
            }
          }
        },
        {
          "$type": "RPG.GameCore.TryStartConnectUltraSkillFrameCapture"
        },
        {
          "$type": "RPG.GameCore.WaitAnimState",
          "AnimStateName": "Skill21",
          "NormalizedTimeEnd": {
            "IsDynamic": false,
            "FixedValue": {
              "Value": 0.7000000006519258
            }
          }
        },
        {
          "$type": "RPG.GameCore.MoveToTargetPosition",
          "TargetType": {
            "$type": "RPG.GameCore.TargetAlias",
            "Alias": "TeamFormation"
          },
          "IgnoreRadius": true,
          "OffsetTargetDistance": {
            "IsDynamic": false,
            "FixedValue": {
              "Value": 0
            }
          }
        }
      ]
    },
    {
      "Modifiers": {},
      "Name": "Avatar_PlayerBoy_Skill21_Phase02",
      "TargetInfo": {
        "TargetType": "SkillTargetEntityList"
      },
      "OnStart": [
        {
          "$type": "RPG.GameCore.PredicateTaskList",
          "Predicate": {
            "$type": "RPG.GameCore.ByRankActivated",
            "TriggerKey": {
              "Hash": 2089636447
            }
          },
          "SuccessTaskList": [
            {
              "$type": "RPG.GameCore.AddModifier",
              "TargetType": {
                "$type": "RPG.GameCore.TargetAlias",
                "Alias": "Caster"
              },
              "ModifierName": "PlayerBoy_Rank01_Check_Modifier"
            }
          ]
        },
        {
          "$type": "RPG.GameCore.PredicateTaskList",
          "Predicate": {
            "$type": "RPG.GameCore.BySkillPointActivated",
            "PointTriggerKey": {
              "Hash": 1455742905
            }
          },
          "SuccessTaskList": [
            {
              "$type": "RPG.GameCore.AddModifier",
              "TargetType": {
                "$type": "RPG.GameCore.TargetAlias",
                "Alias": "Caster"
              },
              "ModifierName": "MAvatar_PlayerBoy_00_SkillTree03_DamageAddedRatio"
            }
          ]
        },
        {
          "$type": "RPG.GameCore.WaitAnimState",
          "AnimStateName": "Skill21",
          "NormalizedTimeEnd": {
            "IsDynamic": false,
            "FixedValue": {
              "Value": 0.31000000028871
            }
          }
        },
        {
          "$type": "RPG.GameCore.DamageByAttackProperty",
          "TargetType": {
            "$type": "RPG.GameCore.TargetAlias",
            "Alias": "AbilityTargetEntity"
          },
          "AttackProperty": {
            "DamagePercentage": {
              "IsDynamic": true,
              "PostfixExpr": {
                "OpCodes": "AQAK",
                "FixedValues": [],
                "DynamicHashes": [
                  1882622235
                ]
              }
            },
            "StanceValue": {
              "IsDynamic": true,
              "PostfixExpr": {
                "OpCodes": "AQAK",
                "FixedValues": [],
                "DynamicHashes": [
                  1659254037
                ]
              }
            },
            "SPHitRatio": {
              "IsDynamic": false,
              "FixedValue": {
                "Value": 1
              }
            },
            "HitAnimation": "Hit_H",
            "HitEffect": "Effects/Eff_Prefab/Eff_Avatar/Eff_PlayerBoy/Eff_Avatar_PlayerBoy_00_Skill01_V2_2_Hit.prefab",
            "HitEffectHeight": 1,
            "HitTimeSlowType": "Impact",
            "HitTimeSlowIntensity": "Middle",
            "HitPosHeight": 1.2
          },
          "CanTriggerLastKill": true
        },
        {
          "$type": "RPG.GameCore.PredicateTaskList",
          "Predicate": {
            "$type": "RPG.GameCore.BySkillPointActivated",
            "PointTriggerKey": {
              "Hash": 1455742905
            }
          },
          "SuccessTaskList": [
            {
              "$type": "RPG.GameCore.RemoveModifier",
              "TargetType": {
                "$type": "RPG.GameCore.TargetAlias",
                "Alias": "Caster"
              },
              "ModifierName": "MAvatar_PlayerBoy_00_SkillTree03_DamageAddedRatio"
            }
          ]
        },
        {
          "$type": "RPG.GameCore.DamageByAttackProperty",
          "TargetType": {
            "$type": "RPG.GameCore.TargetAlias",
            "Alias": "AbilityTargetAdjoinEntity"
          },
          "AttackProperty": {
            "DamagePercentage": {
              "IsDynamic": true,
              "PostfixExpr": {
                "OpCodes": "AQAK",
                "FixedValues": [],
                "DynamicHashes": [
                  1579089944
                ]
              }
            },
            "StanceValue": {
              "IsDynamic": true,
              "PostfixExpr": {
                "OpCodes": "AQAK",
                "FixedValues": [],
                "DynamicHashes": [
                  -1315627076
                ]
              }
            },
            "HitAnimation": "Hit_H",
            "HitEffect": "Effects/Eff_Prefab/Eff_Avatar/Eff_PlayerBoy/Eff_Avatar_PlayerBoy_00_Skill01_V2_2_Hit.prefab",
            "HitEffectHeight": 1,
            "HitTimeSlowType": "Impact",
            "HitTimeSlowIntensity": "Middle",
            "HitPosHeight": 1.2
          },
          "CanTriggerLastKill": true
        },
        {
          "$type": "RPG.GameCore.DamagePerformFinish"
        },
        {
          "$type": "RPG.GameCore.PredicateTaskList",
          "Predicate": {
            "$type": "RPG.GameCore.ByRankActivated",
            "TriggerKey": {
              "Hash": 2089636447
            }
          },
          "SuccessTaskList": [
            {
              "$type": "RPG.GameCore.RemoveModifier",
              "TargetType": {
                "$type": "RPG.GameCore.TargetAlias",
                "Alias": "Caster"
              },
              "ModifierName": "PlayerBoy_Rank01_Check_Modifier"
            }
          ]
        },
        {
          "$type": "RPG.GameCore.WaitAnimState",
          "AnimStateName": "Skill21",
          "NormalizedTimeEnd": {
            "IsDynamic": false,
            "FixedValue": {
              "Value": 0.5100000004749745
            }
          }
        },
        {
          "$type": "RPG.GameCore.RemoveModifier",
          "TargetType": {
            "$type": "RPG.GameCore.TargetAlias",
            "Alias": "Caster"
          },
          "ModifierName": "MAvatar_PlayerWarrior_00_Ultra_Transform"
        },
        {
          "$type": "RPG.GameCore.RemoveEffect",
          "TargetType": {
            "$type": "RPG.GameCore.TargetAlias",
            "Alias": "Caster"
          },
          "EffectPath": "Effects/Eff_Prefab/Eff_Avatar/Eff_PlayerBoy/Eff_Avatar_PlayerBoy_00_Skill03_Weapon_JNT.prefab"
        },
        {
          "$type": "RPG.GameCore.RemoveEffect",
          "TargetType": {
            "$type": "RPG.GameCore.TargetAlias",
            "Alias": "Caster"
          },
          "EffectPath": "Effects/Eff_Prefab/Eff_Avatar/Eff_PlayerBoy/Eff_Avatar_PlayerBoy_00_Skill03_Weapon_JNT_2.prefab"
        },
        {
          "$type": "RPG.GameCore.RemoveEffect",
          "TargetType": {
            "$type": "RPG.GameCore.TargetAlias",
            "Alias": "Caster"
          },
          "EffectPath": "Effects/Eff_Prefab/Eff_Avatar/Eff_PlayerBoy/Eff_Avatar_PlayerBoy_00_Skill03_Strong.prefab"
        },
        {
          "$type": "RPG.GameCore.RemoveEffect",
          "TargetType": {
            "$type": "RPG.GameCore.TargetAlias",
            "Alias": "Caster"
          },
          "EffectPath": "Effects/Eff_Prefab/Eff_Avatar/Eff_PlayerBoy/Eff_Avatar_PlayerBoy_00_Skill03_Weapon_Mat_E_1.prefab"
        },
        {
          "$type": "RPG.GameCore.ShowUltraSkillAlternative"
        },
        {
          "$type": "RPG.GameCore.SkillPerformFinish"
        }
      ]
    },
    {
      "Name": "Avatar_PlayerBoy_Skill03_EnterReady",
      "TargetInfo": {
        "TargetType": "InherentTargetEntity"
      },
      "OnStart": [
        {
          "$type": "RPG.GameCore.WaitSecond",
          "WaitTime": 1
        },
        {
          "$type": "RPG.GameCore.TriggerAbility",
          "TargetType": {
            "$type": "RPG.GameCore.TargetAlias",
            "Alias": "Caster"
          },
          "AbilityName": "Avatar_PlayerBoy_Skill03_Camera",
          "IsSkillPerform": true
        },
        {
          "$type": "RPG.GameCore.ShowBattleUI"
        },
        {
          "$type": "RPG.GameCore.GlobalMainIntensityEffect",
          "IsDurable": true,
          "TargetIntensity": 0.35,
          "FadeDuration": 0.55
        },
        {
          "$type": "RPG.GameCore.TriggerAnimState",
          "AnimLogicState": "Idle",
          "AnimStateName": "Skill03"
        },
        {
          "$type": "RPG.GameCore.WaitAnimState",
          "AnimStateName": "Skill03",
          "NormalizedTimeEnd": {
            "IsDynamic": false,
            "FixedValue": {
              "Value": 0.4030000001657754
            }
          }
        },
        {
          "$type": "RPG.GameCore.TriggerEffect",
          "TargetType": {
            "$type": "RPG.GameCore.TargetAlias",
            "Alias": "Caster"
          },
          "EffectPath": "Effects/Eff_Prefab/Eff_Avatar/Eff_PlayerBoy/Eff_Avatar_PlayerBoy_00_Skill03_Weapon_JNT_2.prefab"
        },
        {
          "$type": "RPG.GameCore.TriggerEffect",
          "TargetType": {
            "$type": "RPG.GameCore.TargetAlias",
            "Alias": "Caster"
          },
          "EffectPath": "Effects/Eff_Prefab/Eff_Avatar/Eff_PlayerBoy/Eff_Avatar_PlayerBoy_00_Skill03_Strong.prefab"
        },
        {
          "$type": "RPG.GameCore.TriggerEffect",
          "TargetType": {
            "$type": "RPG.GameCore.TargetAlias",
            "Alias": "Caster"
          },
          "EffectPath": "Effects/Eff_Prefab/Eff_Avatar/Eff_PlayerBoy/Eff_Avatar_PlayerBoy_00_Skill03_Weapon_Mat_E_1.prefab"
        },
        {
          "$type": "RPG.GameCore.WaitTimelineFinish",
          "TimelineName": "Character_Player_M_00_Skill03_TimeLine"
        },
        {
          "$type": "RPG.GameCore.HideLevelStage"
        },
        {
          "$type": "RPG.GameCore.ShowBattleUI",
          "IsShow": true
        },
        {
          "$type": "RPG.GameCore.MoveToTargetPosition",
          "TargetType": {
            "$type": "RPG.GameCore.TargetAlias",
            "Alias": "TeamFormation"
          },
          "IgnoreRadius": true,
          "OffsetTargetDistance": {
            "IsDynamic": false,
            "FixedValue": {
              "Value": 0
            }
          }
        },
        {
          "$type": "RPG.GameCore.TriggerAnimState",
          "AnimLogicState": "Idle",
          "AnimStateName": "Skill11_Ready"
        }
      ]
    },
    {
      "Modifiers": {
        "MAvatar_PlayerBoy_00_Rank02_Heal_Check": {
          "_CallbackList": [
            {
              "Event": "OnBeforeHitAll",
              "CallbackConfig": [
                {
                  "$type": "RPG.GameCore.PredicateTaskList",
                  "Predicate": {
                    "$type": "RPG.GameCore.ByAnd",
                    "PredicateList": [
                      {
                        "$type": "RPG.GameCore.ByHasStanceWeak",
                        "TargetType": {
                          "$type": "RPG.GameCore.TargetAlias",
                          "Alias": "ParamEntity"
                        },
                        "WeakType": "Physical"
                      },
                      {
                        "$type": "RPG.GameCore.ByCompareDynamicValue",
                        "DynamicKey": "IsAttack",
                        "CompareType": "Equal",
                        "CompareValue": {
                          "IsDynamic": false,
                          "FixedValue": {
                            "Value": 1
                          }
                        }
                      }
                    ]
                  },
                  "SuccessTaskList": [
                    {
                      "$type": "RPG.GameCore.SetDynamicValue",
                      "DynamicKey": "HitPhy",
                      "Value": {
                        "IsDynamic": false,
                        "FixedValue": {
                          "Value": 1
                        }
                      }
                    }
                  ]
                }
              ]
            },
            {
              "Event": "OnBeforeAttack",
              "CallbackConfig": [
                {
                  "$type": "RPG.GameCore.SetDynamicValue",
                  "DynamicKey": "HitPhy",
                  "Value": {
                    "IsDynamic": false,
                    "FixedValue": {
                      "Value": 0
                    }
                  }
                },
                {
                  "$type": "RPG.GameCore.SetDynamicValue",
                  "DynamicKey": "IsAttack",
                  "Value": {
                    "IsDynamic": false,
                    "FixedValue": {
                      "Value": 1
                    }
                  }
                }
              ]
            },
            {
              "Event": "OnAfterAttack",
              "CallbackConfig": [
                {
                  "$type": "RPG.GameCore.PredicateTaskList",
                  "Predicate": {
                    "$type": "RPG.GameCore.ByCompareDynamicValue",
                    "DynamicKey": "HitPhy",
                    "CompareType": "Equal",
                    "CompareValue": {
                      "IsDynamic": false,
                      "FixedValue": {
                        "Value": 1
                      }
                    }
                  },
                  "SuccessTaskList": [
                    {
                      "$type": "RPG.GameCore.HealHP",
                      "TargetType": {
                        "$type": "RPG.GameCore.TargetAlias",
                        "Alias": "ModifierOwnerEntity"
                      },
                      "HealPercentage": {
                        "IsDynamic": true,
                        "PostfixExpr": {
                          "OpCodes": "AQAK",
                          "FixedValues": [],
                          "DynamicHashes": [
                            -1364297157
                          ]
                        }
                      }
                    },
                    {
                      "$type": "RPG.GameCore.TriggerEffect",
                      "TargetType": {
                        "$type": "RPG.GameCore.TargetAlias",
                        "Alias": "ModifierOwnerEntity"
                      },
                      "EffectPath": "Effects/Eff_Prefab/Eff_Common/Eff_Common_Heal.prefab"
                    }
                  ]
                },
                {
                  "$type": "RPG.GameCore.SetDynamicValue",
                  "DynamicKey": "HitPhy",
                  "Value": {
                    "IsDynamic": false,
                    "FixedValue": {
                      "Value": 0
                    }
                  }
                },
                {
                  "$type": "RPG.GameCore.SetDynamicValue",
                  "DynamicKey": "IsAttack",
                  "Value": {
                    "IsDynamic": false,
                    "FixedValue": {
                      "Value": 0
                    }
                  }
                }
              ]
            }
          ],
          "DynamicValues": {
            "Values": {
              "-1046085942": {},
              "-1924612190": {}
            }
          }
        },
        "MAvatar_PlayerBoy_00_Rank04_Break_Check": {
          "BehaviorFlagList": [
            "ModifyDotDamageData"
          ],
          "_CallbackList": [
            {
              "Event": "OnBeforeHitAll",
              "CallbackConfig": [
                {
                  "$type": "RPG.GameCore.PredicateTaskList",
                  "Predicate": {
                    "$type": "RPG.GameCore.ByContainBehaviorFlag",
                    "TargetType": {
                      "$type": "RPG.GameCore.TargetAlias",
                      "Alias": "DamageDefenderEntity"
                    },
                    "Flag": "Break"
                  },
                  "SuccessTaskList": [
                    {
                      "$type": "RPG.GameCore.ModifyDamageData",
                      "Attacker_CriticalChance": {
                        "IsDynamic": true,
                        "PostfixExpr": {
                          "OpCodes": "AQAK",
                          "FixedValues": [],
                          "DynamicHashes": [
                            97573638
                          ]
                        }
                      }
                    }
                  ]
                }
              ]
            }
          ]
        },
        "M_Player_PassiveSkill": {
          "_CallbackList": [
            {
              "Event": "OnTriggerDeath",
              "CallbackConfig": [
                {
                  "$type": "RPG.GameCore.PredicateTaskList",
                  "Predicate": {
                    "$type": "RPG.GameCore.ByRankActivated",
                    "TriggerKey": {
                      "Hash": -1445815962
                    }
                  },
                  "SuccessTaskList": [
                    {
                      "$type": "RPG.GameCore.SetDynamicValue",
                      "DynamicKey": "MDF_Max_Layer",
                      "Value": {
                        "IsDynamic": true,
                        "PostfixExpr": {
                          "OpCodes": "AQABAQIK",
                          "FixedValues": [],
                          "DynamicHashes": [
                            1984599620,
                            1963927882
                          ]
                        }
                      }
                    },
                    {
                      "$type": "RPG.GameCore.AddModifier",
                      "TargetType": {
                        "$type": "RPG.GameCore.TargetAlias",
                        "Alias": "Caster"
                      },
                      "ModifierName": "MAvatar_PlayerWarrior_00_Passive_BreakAtkUp",
                      "MaxLayer": {
                        "IsDynamic": true,
                        "PostfixExpr": {
                          "OpCodes": "AQABAQIK",
                          "FixedValues": [],
                          "DynamicHashes": [
                            1984599620,
                            1963927882
                          ]
                        }
                      },
                      "DynamicValues": {
                        "MDF_AttackAddedRatio": {
                          "IsDynamic": true,
                          "PostfixExpr": {
                            "OpCodes": "AQAK",
                            "FixedValues": [],
                            "DynamicHashes": [
                              122195315
                            ]
                          }
                        }
                      }
                    },
                    {
                      "$type": "RPG.GameCore.PredicateTaskList",
                      "Predicate": {
                        "$type": "RPG.GameCore.BySkillPointActivated",
                        "PointTriggerKey": {
                          "Hash": 1455742904
                        }
                      },
                      "SuccessTaskList": [
                        {
                          "$type": "RPG.GameCore.AddModifier",
                          "TargetType": {
                            "$type": "RPG.GameCore.TargetAlias",
                            "Alias": "Caster"
                          },
                          "ModifierName": "MAvatar_PlayerWarrior_00_SkilTree02_BreakDefUp",
                          "MaxLayer": {
                            "IsDynamic": true,
                            "PostfixExpr": {
                              "OpCodes": "AQABAQIK",
                              "FixedValues": [],
                              "DynamicHashes": [
                                1984599620,
                                1963927882
                              ]
                            }
                          },
                          "DynamicValues": {
                            "MDF_DefenceAddedRatio": {
                              "IsDynamic": true,
                              "PostfixExpr": {
                                "OpCodes": "AQAK",
                                "FixedValues": [],
                                "DynamicHashes": [
                                  -1974058900
                                ]
                              }
                            }
                          }
                        }
                      ]
                    }
                  ]
                }
              ]
            },
            {
              "Event": "OnTriggerBreak",
              "CallbackConfig": [
                {
                  "$type": "RPG.GameCore.SetDynamicValue",
                  "DynamicKey": "MDF_Max_Layer",
                  "Value": {
                    "IsDynamic": true,
                    "PostfixExpr": {
                      "OpCodes": "AQABAQIK",
                      "FixedValues": [],
                      "DynamicHashes": [
                        1984599620,
                        1963927882
                      ]
                    }
                  }
                },
                {
                  "$type": "RPG.GameCore.AddModifier",
                  "TargetType": {
                    "$type": "RPG.GameCore.TargetAlias",
                    "Alias": "Caster"
                  },
                  "ModifierName": "MAvatar_PlayerWarrior_00_Passive_BreakAtkUp",
                  "MaxLayer": {
                    "IsDynamic": true,
                    "PostfixExpr": {
                      "OpCodes": "AQABAQIK",
                      "FixedValues": [],
                      "DynamicHashes": [
                        1984599620,
                        1963927882
                      ]
                    }
                  },
                  "DynamicValues": {
                    "MDF_AttackAddedRatio": {
                      "IsDynamic": true,
                      "PostfixExpr": {
                        "OpCodes": "AQAK",
                        "FixedValues": [],
                        "DynamicHashes": [
                          122195315
                        ]
                      }
                    }
                  }
                },
                {
                  "$type": "RPG.GameCore.PredicateTaskList",
                  "Predicate": {
                    "$type": "RPG.GameCore.BySkillPointActivated",
                    "PointTriggerKey": {
                      "Hash": 1455742904
                    }
                  },
                  "SuccessTaskList": [
                    {
                      "$type": "RPG.GameCore.AddModifier",
                      "TargetType": {
                        "$type": "RPG.GameCore.TargetAlias",
                        "Alias": "Caster"
                      },
                      "ModifierName": "MAvatar_PlayerWarrior_00_SkilTree02_BreakDefUp",
                      "MaxLayer": {
                        "IsDynamic": true,
                        "PostfixExpr": {
                          "OpCodes": "AQABAQIK",
                          "FixedValues": [],
                          "DynamicHashes": [
                            1984599620,
                            1963927882
                          ]
                        }
                      },
                      "DynamicValues": {
                        "MDF_DefenceAddedRatio": {
                          "IsDynamic": true,
                          "PostfixExpr": {
                            "OpCodes": "AQAK",
                            "FixedValues": [],
                            "DynamicHashes": [
                              -1974058900
                            ]
                          }
                        }
                      }
                    }
                  ]
                }
              ]
            }
          ]
        },
        "MAvatar_PlayerWarrior_00_Passive_BreakAtkUp": {
          "MaxLayer": 3,
          "LayerAddWhenStack": {
            "IsDynamic": false,
            "FixedValue": {
              "Value": 1
            }
          },
          "_CallbackList": [
            {
              "Event": "OnStack",
              "CallbackConfig": [
                {
                  "$type": "RPG.GameCore.SetDynamicValueByModifierValue",
                  "ReadTargetType": {
                    "$type": "RPG.GameCore.TargetAlias",
                    "Alias": "ModifierOwnerEntity"
                  },
                  "ValueType": "Layer",
                  "Multiplier": {
                    "IsDynamic": false,
                    "FixedValue": {
                      "Value": 1
                    }
                  },
                  "DynamicKey": "MDF_Layer"
                },
                {
                  "$type": "RPG.GameCore.StackProperty",
                  "TargetType": {
                    "$type": "RPG.GameCore.TargetAlias",
                    "Alias": "ModifierOwnerEntity"
                  },
                  "Property": "AttackAddedRatio",
                  "PropertyValue": {
                    "IsDynamic": true,
                    "PostfixExpr": {
                      "OpCodes": "AQABAQQK",
                      "FixedValues": [],
                      "DynamicHashes": [
                        -1826473127,
                        1662446059
                      ]
                    }
                  }
                }
              ]
            }
          ],
          "Stacking": "ReplaceByCaster",
          "DynamicValues": {
            "Values": {
              "1662446059": {},
              "-1826473127": {},
              "1849530227": {}
            }
          }
        },
        "MAvatar_PlayerWarrior_00_SkilTree02_BreakDefUp": {
          "MaxLayer": 3,
          "LayerAddWhenStack": {
            "IsDynamic": false,
            "FixedValue": {
              "Value": 1
            }
          },
          "_CallbackList": [
            {
              "Event": "OnStack",
              "CallbackConfig": [
                {
                  "$type": "RPG.GameCore.SetDynamicValueByModifierValue",
                  "ReadTargetType": {
                    "$type": "RPG.GameCore.TargetAlias",
                    "Alias": "ModifierOwnerEntity"
                  },
                  "ValueType": "Layer",
                  "Multiplier": {
                    "IsDynamic": false,
                    "FixedValue": {
                      "Value": 1
                    }
                  },
                  "DynamicKey": "MDF_Layer"
                },
                {
                  "$type": "RPG.GameCore.StackProperty",
                  "TargetType": {
                    "$type": "RPG.GameCore.TargetAlias",
                    "Alias": "ModifierOwnerEntity"
                  },
                  "Property": "DefenceAddedRatio",
                  "PropertyValue": {
                    "IsDynamic": true,
                    "PostfixExpr": {
                      "OpCodes": "AQABAQQK",
                      "FixedValues": [],
                      "DynamicHashes": [
                        1849530227,
                        1662446059
                      ]
                    }
                  }
                }
              ]
            }
          ],
          "Stacking": "ReplaceByCaster",
          "DynamicValues": {
            "Values": {
              "1662446059": {},
              "1849530227": {}
            }
          }
        }
      },
      "Name": "Avatar_PlayerBoy_PassiveSkill01",
      "TargetInfo": {
        "TargetType": "Caster"
      },
      "OnStart": [
        {
          "$type": "RPG.GameCore.AddModifier",
          "TargetType": {
            "$type": "RPG.GameCore.TargetAlias",
            "Alias": "Caster"
          },
          "ModifierName": "M_Player_PassiveSkill"
        },
        {
          "$type": "RPG.GameCore.PredicateTaskList",
          "Predicate": {
            "$type": "RPG.GameCore.ByRankActivated",
            "TriggerKey": {
              "Hash": 1686351920
            }
          },
          "SuccessTaskList": [
            {
              "$type": "RPG.GameCore.AddModifier",
              "TargetType": {
                "$type": "RPG.GameCore.TargetAlias",
                "Alias": "Caster"
              },
              "ModifierName": "MAvatar_PlayerBoy_00_Rank04_Break_Check"
            }
          ]
        },
        {
          "$type": "RPG.GameCore.PredicateTaskList",
          "Predicate": {
            "$type": "RPG.GameCore.ByRankActivated",
            "TriggerKey": {
              "Hash": 523552506
            }
          },
          "SuccessTaskList": [
            {
              "$type": "RPG.GameCore.AddModifier",
              "TargetType": {
                "$type": "RPG.GameCore.TargetAlias",
                "Alias": "Caster"
              },
              "ModifierName": "MAvatar_PlayerBoy_00_Rank02_Heal_Check"
            }
          ]
        }
      ]
    },
    {
      "Modifiers": {
        "M_Player_AutoUseUltraSkill": {}
      },
      "Name": "Avatar_PlayerBoy_AutoUseUltraSkill",
      "TargetInfo": {
        "TargetType": "Caster"
      },
      "OnStart": [
        {
          "$type": "RPG.GameCore.AddModifier",
          "TargetType": {
            "$type": "RPG.GameCore.TargetAlias",
            "Alias": "Caster"
          },
          "ModifierName": "M_Player_AutoUseUltraSkill"
        }
      ]
    },
    {
      "Modifiers": {
        "M_PlayerBoy_SkillTree01": {
          "_CallbackList": [
            {
              "Event": "OnEnterBattle",
              "CallbackConfig": [
                {
                  "$type": "RPG.GameCore.PredicateTaskList",
                  "Predicate": {
                    "$type": "RPG.GameCore.ByAnd",
                    "PredicateList": [
                      {
                        "$type": "RPG.GameCore.BySkillPointActivated",
                        "PointTriggerKey": {
                          "Hash": 1455742903
                        }
                      },
                      {
                        "$type": "RPG.GameCore.ByCompareWaveCount",
                        "CompareType": "Equal",
                        "CompareValue": {
                          "IsDynamic": false,
                          "FixedValue": {
                            "Value": 1
                          }
                        }
                      }
                    ]
                  },
                  "SuccessTaskList": [
                    {
                      "$type": "RPG.GameCore.ModifySPNew",
                      "TargetType": {
                        "$type": "RPG.GameCore.TargetAlias",
                        "Alias": "Caster"
                      },
                      "AddValue": {
                        "IsDynamic": true,
                        "PostfixExpr": {
                          "OpCodes": "AQAK",
                          "FixedValues": [],
                          "DynamicHashes": [
                            -1134534897
                          ]
                        }
                      }
                    },
                    {
                      "$type": "RPG.GameCore.TriggerEffect",
                      "TargetType": {
                        "$type": "RPG.GameCore.TargetAlias",
                        "Alias": "Caster"
                      },
                      "EffectPath": "Effects/Eff_Prefab/Eff_Common/Eff_Common_MAZ_RecoverSP.prefab"
                    }
                  ]
                }
              ]
            }
          ],
          "_PriorityList": [
            {
              "PriorityName": "EnterBattlePriority",
              "Key": "CharacterBuff"
            }
          ]
        }
      },
      "Name": "Avatar_PlayerBoy_SkillTree01",
      "TargetInfo": {
        "TargetType": "Caster"
      },
      "OnStart": [
        {
          "$type": "RPG.GameCore.AddModifier",
          "TargetType": {
            "$type": "RPG.GameCore.TargetAlias",
            "Alias": "Caster"
          },
          "ModifierName": "M_PlayerBoy_SkillTree01"
        }
      ]
    },
    {
      "Modifiers": {},
      "Name": "Avatar_PlayerBoy_SkillTree03",
      "TargetInfo": {
        "TargetType": "Caster"
      },
      "OnStart": []
    },
    {
      "Modifiers": {},
      "Name": "Avatar_PlayerBoy_00_Rank06",
      "TargetInfo": {
        "TargetType": "Caster"
      },
      "OnStart": []
    }
  ],
  "GlobalModifiers": {
    "PlayerBoy_Rank01_Check_Modifier": {
      "_CallbackList": [
        {
          "Event": "OnTriggerDeath",
          "CallbackConfig": [
            {
              "$type": "RPG.GameCore.ModifySPNew",
              "TargetType": {
                "$type": "RPG.GameCore.TargetAlias",
                "Alias": "ModifierOwnerEntity"
              },
              "AddValue": {
                "IsDynamic": true,
                "PostfixExpr": {
                  "OpCodes": "AQAK",
                  "FixedValues": [],
                  "DynamicHashes": [
                    67442273
                  ]
                }
              }
            },
            {
              "$type": "RPG.GameCore.RemoveSelfModifier"
            }
          ]
        },
        {
          "Event": "OnTriggerDeathrattle",
          "CallbackConfig": [
            {
              "$type": "RPG.GameCore.ModifySPNew",
              "TargetType": {
                "$type": "RPG.GameCore.TargetAlias",
                "Alias": "ModifierOwnerEntity"
              },
              "AddValue": {
                "IsDynamic": true,
                "PostfixExpr": {
                  "OpCodes": "AQAK",
                  "FixedValues": [],
                  "DynamicHashes": [
                    67442273
                  ]
                }
              }
            },
            {
              "$type": "RPG.GameCore.RemoveSelfModifier"
            }
          ]
        }
      ]
    },
    "MAvatar_PlayerBoy_00_SkillTree03_DamageAddedRatio": {
      "_CallbackList": [
        {
          "Event": "OnBeforeHit",
          "CallbackConfig": [
            {
              "$type": "RPG.GameCore.ModifyDamageData",
              "Attacker_AllDamageTypeAddedRatio": {
                "IsDynamic": true,
                "PostfixExpr": {
                  "OpCodes": "AQAK",
                  "FixedValues": [],
                  "DynamicHashes": [
                    819266972
                  ]
                }
              }
            }
          ]
        }
      ]
    }
  }
}