{
  "AbilityList": [
    {
      "Name": "Avatar_Pela_00_Skill01_Phase01",
      "TargetInfo": {
        "TargetType": "SkillTargetEntityList"
      },
      "OnStart": [
        {
          "$type": "RPG.GameCore.LookAt",
          "TargetType": "AbilityTargetEntity",
          "Duration": 0.5
        },
        {
          "$type": "RPG.GameCore.TriggerAbility",
          "TargetType": {
            "$type": "RPG.GameCore.TargetAlias",
            "Alias": "Caster"
          },
          "AbilityName": "Avatar_Pela_00_Skill01_Phase02",
          "IsSkillPerform": true
        },
        {
          "$type": "RPG.GameCore.TriggerAbility",
          "TargetType": {
            "$type": "RPG.GameCore.TargetAlias",
            "Alias": "Caster"
          },
          "AbilityName": "Avatar_Pela_00_Skill01_Camera",
          "IsSkillPerform": true
        },
        {
          "$type": "RPG.GameCore.TriggerAnimState",
          "AnimStateName": "Skill01",
          "NormalizedTimeEnd": {
            "IsDynamic": false,
            "FixedValue": {
              "Value": 1
            }
          },
          "NormalizedTimeWait": {
            "IsDynamic": false,
            "FixedValue": {
              "Value": 0.9000000008381903
            }
          }
        }
      ]
    },
    {
      "Name": "Avatar_Pela_00_Skill01_Phase02",
      "TargetInfo": {
        "TargetType": "SkillTargetEntityList"
      },
      "OnStart": [
        {
          "$type": "RPG.GameCore.WaitAnimState",
          "TargetType": {
            "$type": "RPG.GameCore.TargetAlias",
            "Alias": "Caster"
          },
          "AnimStateName": "Skill01",
          "NormalizedTimeEnd": {
            "IsDynamic": false,
            "FixedValue": {
              "Value": 0.3400000003166497
            }
          }
        },
        {
          "$type": "RPG.GameCore.FireProjectile",
          "Projectile": {
            "FlySpeed": 20,
            "AttachPoint": "GunA",
            "TargetAttachPoint": "SelectRoot",
            "IgnoreTargetHitbox": true,
            "FlyEffect": "Effects/Eff_Prefab/Eff_Avatar/Eff_Pela/Eff_Avatar_Pela_00_Skill01_Fire01.prefab",
            "HitEffect": "Effects/Eff_Prefab/Eff_Avatar/Eff_Pela/Eff_Avatar_Pela_00_Skill01_Hit01.prefab",
            "WriteProgressToEffectAnimator": true
          },
          "OnProjectileHit": [
            {
              "$type": "RPG.GameCore.DamageByAttackProperty",
              "TargetType": {
                "$type": "RPG.GameCore.TargetAlias",
                "Alias": "AbilityTargetEntity"
              },
              "AttackProperty": {
                "DamageType": "Ice",
                "DamagePercentage": {
                  "IsDynamic": true,
                  "PostfixExpr": {
                    "OpCodes": "AQAK",
                    "FixedValues": [],
                    "DynamicHashes": [
                      -1126825319
                    ]
                  }
                },
                "StanceValue": {
                  "IsDynamic": true,
                  "PostfixExpr": {
                    "OpCodes": "AQAK",
                    "FixedValues": [],
                    "DynamicHashes": [
                      1659254037
                    ]
                  }
                },
                "HitSplitRatio": {
                  "IsDynamic": false,
                  "FixedValue": {
                    "Value": 0.5000000004656613
                  }
                },
                "SPHitRatio": {
                  "IsDynamic": false,
                  "FixedValue": {
                    "Value": 1
                  }
                },
                "HitAnimation": "Hit"
              }
            },
            {
              "$type": "RPG.GameCore.VCameraConfigChange",
              "CameraConfig": {
                "ShakeConfigV2": {
                  "ShakeRange": 0.05,
                  "ShakeTime": 0.2,
                  "ShakeDir": {
                    "X": 0,
                    "Y": 0,
                    "Z": 0.05
                  },
                  "BaseCycle": 0.2,
                  "CycleDamping": 0,
                  "RangeAttenuation": 0.95
                }
              }
            }
          ]
        },
        {
          "$type": "RPG.GameCore.WaitAnimState",
          "TargetType": {
            "$type": "RPG.GameCore.TargetAlias",
            "Alias": "Caster"
          },
          "AnimStateName": "Skill01",
          "NormalizedTimeEnd": {
            "IsDynamic": false,
            "FixedValue": {
              "Value": 0.4200000003911555
            }
          }
        },
        {
          "$type": "RPG.GameCore.FireProjectile",
          "Projectile": {
            "FlySpeed": 20,
            "AttachPoint": "GunC",
            "TargetAttachPoint": "SelectRoot",
            "IgnoreTargetHitbox": true,
            "FlyEffect": "Effects/Eff_Prefab/Eff_Avatar/Eff_Pela/Eff_Avatar_Pela_00_Skill01_Fire01.prefab",
            "HitEffect": "Effects/Eff_Prefab/Eff_Avatar/Eff_Pela/Eff_Avatar_Pela_00_Skill01_Hit01.prefab",
            "WriteProgressToEffectAnimator": true
          },
          "OnProjectileHit": [
            {
              "$type": "RPG.GameCore.DamageByAttackProperty",
              "TargetType": {
                "$type": "RPG.GameCore.TargetAlias",
                "Alias": "AbilityTargetEntity"
              },
              "AttackProperty": {
                "DamageType": "Ice",
                "DamagePercentage": {
                  "IsDynamic": true,
                  "PostfixExpr": {
                    "OpCodes": "AQAK",
                    "FixedValues": [],
                    "DynamicHashes": [
                      -1126825319
                    ]
                  }
                },
                "StanceValue": {
                  "IsDynamic": true,
                  "PostfixExpr": {
                    "OpCodes": "AQAK",
                    "FixedValues": [],
                    "DynamicHashes": [
                      1659254037
                    ]
                  }
                },
                "HitSplitRatio": {
                  "IsDynamic": false,
                  "FixedValue": {
                    "Value": 0.5000000004656613
                  }
                },
                "SPHitRatio": {
                  "IsDynamic": false,
                  "FixedValue": {
                    "Value": 1
                  }
                },
                "HitAnimation": "Hit"
              },
              "CanTriggerLastKill": true
            },
            {
              "$type": "RPG.GameCore.VCameraConfigChange",
              "CameraConfig": {
                "ShakeConfigV2": {
                  "ShakeRange": 0.05,
                  "ShakeTime": 0.2,
                  "ShakeDir": {
                    "X": 0,
                    "Y": 0,
                    "Z": 0.05
                  },
                  "BaseCycle": 0.2,
                  "CycleDamping": 0,
                  "RangeAttenuation": 0.95
                }
              }
            }
          ],
          "WaitProjectileFinish": true
        },
        {
          "$type": "RPG.GameCore.DamagePerformFinish"
        },
        {
          "$type": "RPG.GameCore.WaitSecond",
          "WaitTime": 0.1
        },
        {
          "$type": "RPG.GameCore.SkillPerformFinish"
        }
      ]
    },
    {
      "Name": "Avatar_Pela_00_Skill02_Phase01",
      "TargetInfo": {
        "TargetType": "SkillTargetEntityList"
      },
      "OnStart": [
        {
          "$type": "RPG.GameCore.LookAt",
          "TargetType": "AbilityTargetEntity",
          "Duration": 5
        },
        {
          "$type": "RPG.GameCore.TriggerAbility",
          "TargetType": {
            "$type": "RPG.GameCore.TargetAlias",
            "Alias": "Caster"
          },
          "AbilityName": "Avatar_Pela_00_Skill02_Phase02",
          "IsSkillPerform": true
        },
        {
          "$type": "RPG.GameCore.TriggerAbility",
          "TargetType": {
            "$type": "RPG.GameCore.TargetAlias",
            "Alias": "Caster"
          },
          "AbilityName": "Avatar_Pela_00_Skill02_Camera",
          "IsSkillPerform": true
        },
        {
          "$type": "RPG.GameCore.TriggerAnimState",
          "AnimStateName": "Skill02",
          "NormalizedTimeEnd": {
            "IsDynamic": false,
            "FixedValue": {
              "Value": 1
            }
          },
          "NormalizedTimeWait": {
            "IsDynamic": false,
            "FixedValue": {
              "Value": 0.0009999999310821295
            }
          }
        },
        {
          "$type": "RPG.GameCore.TriggerEffect",
          "TargetType": {
            "$type": "RPG.GameCore.TargetAlias",
            "Alias": "SkillTargetEntityList"
          },
          "EffectPath": "Effects/Eff_Prefab/Eff_Avatar/Eff_Pela/Eff_Avatar_Pela_00_Skill02_Hit01.prefab",
          "AttachPoint": "Origin"
        },
        {
          "$type": "RPG.GameCore.WaitAnimState",
          "AnimStateName": "Skill02",
          "NormalizedTimeEnd": {
            "IsDynamic": false,
            "FixedValue": {
              "Value": 0.3500000003259629
            }
          }
        },
        {
          "$type": "RPG.GameCore.GlobalMainIntensityEffect",
          "TargetIntensity": 0.3,
          "FadeDuration": 0.2
        },
        {
          "$type": "RPG.GameCore.WaitAnimState",
          "AnimStateName": "Skill02",
          "NormalizedTimeEnd": {
            "IsDynamic": false,
            "FixedValue": {
              "Value": 0.4600000004284084
            }
          }
        },
        {
          "$type": "RPG.GameCore.GlobalMainIntensityEffect",
          "IsRevert": true,
          "FadeDuration": 0.2
        },
        {
          "$type": "RPG.GameCore.WaitAnimState",
          "TargetType": {
            "$type": "RPG.GameCore.TargetAlias",
            "Alias": "Caster"
          },
          "AnimStateName": "Skill02",
          "NormalizedTimeEnd": {
            "IsDynamic": false,
            "FixedValue": {
              "Value": 0.6900000006426126
            }
          }
        },
        {
          "$type": "RPG.GameCore.TriggerAnimState",
          "AnimLogicState": "Idle",
          "AnimStateName": "StandBy"
        }
      ]
    },
    {
      "Name": "Avatar_Pela_00_Skill02_Phase02",
      "TargetInfo": {
        "TargetType": "SkillTargetEntityList"
      },
      "OnStart": [
        {
          "$type": "RPG.GameCore.WaitAnimState",
          "TargetType": {
            "$type": "RPG.GameCore.TargetAlias",
            "Alias": "Caster"
          },
          "AnimStateName": "Skill02",
          "NormalizedTimeEnd": {
            "IsDynamic": false,
            "FixedValue": {
              "Value": 0.40000000037252903
            }
          }
        },
        {
          "$type": "RPG.GameCore.DispelStatus",
          "TargetType": {
            "$type": "RPG.GameCore.TargetAlias",
            "Alias": "AbilityTargetEntity"
          },
          "BuffType": "Buff",
          "Numbers": {
            "IsDynamic": true,
            "PostfixExpr": {
              "OpCodes": "AQAK",
              "FixedValues": [],
              "DynamicHashes": [
                1861895866
              ]
            }
          },
          "Order": "LastAdded",
          "DispelCountKey": "BuffNumber"
        },
        {
          "$type": "RPG.GameCore.PredicateTaskList",
          "Predicate": {
            "$type": "RPG.GameCore.ByRankActivated",
            "TriggerKey": {
              "Hash": 1686351920
            }
          },
          "SuccessTaskList": [
            {
              "$type": "RPG.GameCore.AddModifier",
              "TargetType": {
                "$type": "RPG.GameCore.TargetAlias",
                "Alias": "AbilityTargetEntity"
              },
              "ModifierName": "MAvatar_Pela_SkillRank04_IceResistanceDown",
              "Chance": {
                "IsDynamic": true,
                "PostfixExpr": {
                  "OpCodes": "AQAK",
                  "FixedValues": [],
                  "DynamicHashes": [
                    -1376435470
                  ]
                }
              },
              "LifeTime": {
                "IsDynamic": true,
                "PostfixExpr": {
                  "OpCodes": "AQAK",
                  "FixedValues": [],
                  "DynamicHashes": [
                    -2106354587
                  ]
                }
              },
              "DynamicValues": {
                "MDF_PropertyValue": {
                  "IsDynamic": true,
                  "PostfixExpr": {
                    "OpCodes": "AQAK",
                    "FixedValues": [],
                    "DynamicHashes": [
                      -1905081199
                    ]
                  }
                }
              }
            }
          ]
        },
        {
          "$type": "RPG.GameCore.DamageByAttackProperty",
          "TargetType": {
            "$type": "RPG.GameCore.TargetAlias",
            "Alias": "AbilityTargetEntity"
          },
          "AttackProperty": {
            "DamageType": "Ice",
            "DamagePercentage": {
              "IsDynamic": true,
              "PostfixExpr": {
                "OpCodes": "AQAK",
                "FixedValues": [],
                "DynamicHashes": [
                  -1847083384
                ]
              }
            },
            "StanceValue": {
              "IsDynamic": true,
              "PostfixExpr": {
                "OpCodes": "AQAK",
                "FixedValues": [],
                "DynamicHashes": [
                  1659254037
                ]
              }
            },
            "SPHitRatio": {
              "IsDynamic": false,
              "FixedValue": {
                "Value": 1
              }
            },
            "HitAnimation": "Hit",
            "HitEffect": "Effects/Eff_Prefab/Eff_Avatar/Eff_Pela/Eff_Avatar_Pela_00_Skill02_Hit02.prefab",
            "HitEffectHeight": 1,
            "HitTimeSlowIntensity": "Middle",
            "HitPosHeight": 0.8,
            "HitAngleHorizontal": 35,
            "HitAngleVertical": -60
          },
          "CanTriggerLastKill": true
        },
        {
          "$type": "RPG.GameCore.DamagePerformFinish"
        },
        {
          "$type": "RPG.GameCore.VCameraConfigChange",
          "CameraConfig": {
            "ShakeConfigV2": {
              "ShakeRange": 0.2,
              "ShakeTime": 0.2,
              "ShakeDir": {
                "X": 0,
                "Y": 0,
                "Z": 0.2
              },
              "BaseCycle": 0.1,
              "CycleDamping": 0,
              "RangeAttenuation": 0.95
            }
          }
        },
        {
          "$type": "RPG.GameCore.PredicateTaskList",
          "Predicate": {
            "$type": "RPG.GameCore.BySkillPointActivated",
            "PointTriggerKey": {
              "Hash": 1455742905
            }
          },
          "SuccessTaskList": [
            {
              "$type": "RPG.GameCore.PredicateTaskList",
              "Predicate": {
                "$type": "RPG.GameCore.ByCompareDynamicValue",
                "DynamicKey": "BuffNumber",
                "CompareType": "Greater",
                "CompareValue": {
                  "IsDynamic": false,
                  "FixedValue": {
                    "Value": 0
                  }
                }
              },
              "SuccessTaskList": [
                {
                  "$type": "RPG.GameCore.AddModifier",
                  "TargetType": {
                    "$type": "RPG.GameCore.TargetAlias",
                    "Alias": "Caster"
                  },
                  "ModifierName": "MAvatar_Pela_SkillTree03_DamageAddedRatio",
                  "DynamicValues": {
                    "MDF_Pela_SkillTree03_DamageAddedRatio": {
                      "IsDynamic": true,
                      "PostfixExpr": {
                        "OpCodes": "AQAK",
                        "FixedValues": [],
                        "DynamicHashes": [
                          1958914557
                        ]
                      }
                    }
                  }
                }
              ]
            }
          ]
        },
        {
          "$type": "RPG.GameCore.PredicateTaskList",
          "Predicate": {
            "$type": "RPG.GameCore.ByRankActivated",
            "TriggerKey": {
              "Hash": 523552506
            }
          },
          "SuccessTaskList": [
            {
              "$type": "RPG.GameCore.PredicateTaskList",
              "Predicate": {
                "$type": "RPG.GameCore.ByCompareDynamicValue",
                "DynamicKey": "BuffNumber",
                "CompareType": "Greater",
                "CompareValue": {
                  "IsDynamic": false,
                  "FixedValue": {
                    "Value": 0
                  }
                }
              },
              "SuccessTaskList": [
                {
                  "$type": "RPG.GameCore.AddModifier",
                  "TargetType": {
                    "$type": "RPG.GameCore.TargetAlias",
                    "Alias": "Caster"
                  },
                  "ModifierName": "MAvatar_Pela_SkillRank02_AddSpeedRatio",
                  "LifeTime": {
                    "IsDynamic": true,
                    "PostfixExpr": {
                      "OpCodes": "AQAK",
                      "FixedValues": [],
                      "DynamicHashes": [
                        -1192966194
                      ]
                    }
                  },
                  "DynamicValues": {
                    "MDF_Pela_SkillRank02_P1_AddSpeedRatio": {
                      "IsDynamic": true,
                      "PostfixExpr": {
                        "OpCodes": "AQAK",
                        "FixedValues": [],
                        "DynamicHashes": [
                          38526325
                        ]
                      }
                    }
                  }
                }
              ]
            }
          ]
        },
        {
          "$type": "RPG.GameCore.SetDynamicValue",
          "DynamicKey": "BuffNumber",
          "Value": {
            "IsDynamic": false,
            "FixedValue": {
              "Value": 0
            }
          }
        },
        {
          "$type": "RPG.GameCore.SkillPerformFinish"
        }
      ]
    },
    {
      "Name": "Avatar_Pela_00_Skill03_Cutin",
      "TargetInfo": {
        "TargetType": "InherentTargetEntity"
      },
      "OnStart": [
        {
          "$type": "RPG.GameCore.WaitSecond",
          "WaitTime": 0.4
        },
        {
          "$type": "RPG.GameCore.AlignTargetToTeamCenter",
          "TargetType": {
            "$type": "RPG.GameCore.TargetAlias",
            "Alias": "Caster"
          }
        },
        {
          "$type": "RPG.GameCore.WaitSecond",
          "WaitTime": 0.1
        },
        {
          "$type": "RPG.GameCore.LookAt",
          "TargetType": "DarkTeamCenter"
        },
        {
          "$type": "RPG.GameCore.HeadLookAt",
          "PerformerType": {
            "$type": "RPG.GameCore.TargetAlias",
            "Alias": "AllDarkTeam"
          },
          "TargetType": {
            "$type": "RPG.GameCore.TargetAlias",
            "Alias": "Caster"
          },
          "DoRootRotate": true
        },
        {
          "$type": "RPG.GameCore.WaitSecond",
          "WaitTime": 0.1
        },
        {
          "$type": "RPG.GameCore.VCameraConfigChange",
          "CameraConfig": {
            "NormalConfig": {
              "CameraState": "SelectDarkTeamEntity",
              "AttackType": "RangeAttack",
              "IsLocalOffset": true,
              "AnchorOffset": {
                "X": -0.16,
                "Y": -0.4,
                "Z": 0.29
              },
              "AimTargetType": {
                "$type": "RPG.GameCore.TargetAlias",
                "Alias": "AbilityTargetEntity"
              },
              "AimOffset": {
                "X": -1,
                "Y": 1.22,
                "Z": 0
              },
              "AimRatio": 1,
              "FollowRadius": 1.8,
              "AnchorToAimAngle": 26,
              "FollowDamp": 1.5,
              "AimDamp": 1.5,
              "Dutch": 4,
              "FOV": 30,
              "ForbidDynamicOffset": false
            },
            "BlendConfig": {
              "BlendType": "Cut"
            },
            "ShowEntityConfig": {
              "ShowTargetType": {
                "$type": "RPG.GameCore.TargetAlias",
                "Alias": "CasterWithAllEnemy"
              }
            }
          }
        },
        {
          "$type": "RPG.GameCore.WaitSecond",
          "WaitTime": 0.5
        },
        {
          "$type": "RPG.GameCore.VCameraConfigChange",
          "CameraConfig": {
            "NormalConfig": {
              "CameraState": "SelectDarkTeamEntity",
              "AttackType": "RangeAttack",
              "IsLocalOffset": true,
              "AnchorOffset": {
                "X": -0.16,
                "Y": -0.4,
                "Z": 0.29
              },
              "AimTargetType": {
                "$type": "RPG.GameCore.TargetAlias",
                "Alias": "AbilityTargetEntity"
              },
              "AimOffset": {
                "X": -1.5,
                "Y": 1.22,
                "Z": 0
              },
              "AimRatio": 1,
              "FollowRadius": 1.8,
              "AnchorToAimAngle": 26,
              "FollowDamp": 1.5,
              "AimDamp": 1.5,
              "Dutch": 4,
              "FOV": 60,
              "ForbidDynamicOffset": false
            },
            "BlendConfig": {
              "BlendType": "Custom",
              "CustomCurveName": "Blend_UltraReady",
              "BlendTime": 1.5
            },
            "ShowEntityConfig": {
              "ShowTargetType": {
                "$type": "RPG.GameCore.TargetAlias",
                "Alias": "CasterWithAllEnemy"
              }
            }
          }
        }
      ]
    },
    {
      "Name": "Avatar_Pela_00_Skill03_Phase01",
      "TargetInfo": {
        "TargetType": "AllEnemy"
      },
      "OnStart": [
        {
          "$type": "RPG.GameCore.AlignTargetToTeamCenter",
          "TargetType": {
            "$type": "RPG.GameCore.TargetAlias",
            "Alias": "Caster"
          }
        },
        {
          "$type": "RPG.GameCore.GlobalMainIntensityEffect",
          "TargetIntensity": 0.35,
          "FadeDuration": 0.55
        },
        {
          "$type": "RPG.GameCore.LookAt",
          "TargetType": "AbilityTargetEntity"
        },
        {
          "$type": "RPG.GameCore.TriggerAbility",
          "TargetType": {
            "$type": "RPG.GameCore.TargetAlias",
            "Alias": "Caster"
          },
          "AbilityName": "Avatar_Pela_00_Skill03_Camera",
          "IsSkillPerform": true
        },
        {
          "$type": "RPG.GameCore.TriggerAnimState",
          "AnimStateName": "Skill03",
          "ForceStart": true
        },
        {
          "$type": "RPG.GameCore.TriggerAbility",
          "TargetType": {
            "$type": "RPG.GameCore.TargetAlias",
            "Alias": "Caster"
          },
          "AbilityName": "Avatar_Pela_00_Skill03_Phase02",
          "IsSkillPerform": true
        },
        {
          "$type": "RPG.GameCore.ShowBattleUI"
        },
        {
          "$type": "RPG.GameCore.WaitAnimState",
          "TargetType": {
            "$type": "RPG.GameCore.TargetAlias",
            "Alias": "Caster"
          },
          "AnimStateName": "Skill03",
          "NormalizedTimeEnd": {
            "IsDynamic": false,
            "FixedValue": {
              "Value": 0.45000000041909516
            }
          }
        },
        {
          "$type": "RPG.GameCore.HideLevelStage",
          "IsHide": true
        },
        {
          "$type": "RPG.GameCore.WaitAnimState",
          "TargetType": {
            "$type": "RPG.GameCore.TargetAlias",
            "Alias": "Caster"
          },
          "AnimStateName": "Skill03",
          "NormalizedTimeEnd": {
            "IsDynamic": false,
            "FixedValue": {
              "Value": 0.6000000005587935
            }
          }
        },
        {
          "$type": "RPG.GameCore.HideLevelStage"
        },
        {
          "$type": "RPG.GameCore.MoveStageOnTargetForward",
          "TargetType": {
            "$type": "RPG.GameCore.TargetAlias",
            "Alias": "Caster"
          },
          "StageRootOffset": 22
        },
        {
          "$type": "RPG.GameCore.TeamLookAt",
          "TeamType": "TeamDark",
          "TargetType": "Caster",
          "AngleOffset": -3
        },
        {
          "$type": "RPG.GameCore.WaitTimelineFinish",
          "TimelineName": "Character_Pela_00_Skill03_TimeLine"
        },
        {
          "$type": "RPG.GameCore.WaitAnimState",
          "TargetType": {
            "$type": "RPG.GameCore.TargetAlias",
            "Alias": "Caster"
          },
          "AnimStateName": "Skill03",
          "NormalizedTimeEnd": {
            "IsDynamic": false,
            "FixedValue": {
              "Value": 0.9980000003706664
            }
          }
        },
        {
          "$type": "RPG.GameCore.GlobalMainIntensityEffect",
          "IsRevert": true,
          "FadeDuration": 1
        },
        {
          "$type": "RPG.GameCore.MoveStageOnTargetForward",
          "TargetType": {
            "$type": "RPG.GameCore.TargetAlias",
            "Alias": "DarkTeamCenter"
          }
        },
        {
          "$type": "RPG.GameCore.ShowBattleUI",
          "IsShow": true
        },
        {
          "$type": "RPG.GameCore.SetTeamFormation",
          "Team": "TeamDark",
          "FormationType": "DarkTeamNormal"
        },
        {
          "$type": "RPG.GameCore.MoveToTargetPosition",
          "TargetType": {
            "$type": "RPG.GameCore.TargetAlias",
            "Alias": "TeamFormation"
          },
          "IgnoreRadius": true,
          "OffsetTargetDistance": {
            "IsDynamic": false,
            "FixedValue": {
              "Value": 0
            }
          }
        }
      ]
    },
    {
      "Modifiers": {
        "MAvatar_Pela_00_Ultra_DroneAnalysis": {
          "BehaviorFlagList": [
            "STAT_DefenceDown"
          ],
          "_CallbackList": [
            {
              "Event": "OnStack",
              "CallbackConfig": [
                {
                  "$type": "RPG.GameCore.StackProperty",
                  "TargetType": {
                    "$type": "RPG.GameCore.TargetAlias",
                    "Alias": "ModifierOwnerEntity"
                  },
                  "Property": "DefenceAddedRatio",
                  "PropertyValue": {
                    "IsDynamic": true,
                    "PostfixExpr": {
                      "OpCodes": "AAABAAMK",
                      "FixedValues": [
                        {
                          "Value": 0
                        }
                      ],
                      "DynamicHashes": [
                        2077362225
                      ]
                    }
                  }
                }
              ]
            }
          ],
          "Stacking": "ReplaceByCaster",
          "DynamicValues": {
            "Values": {
              "2077362225": {},
              "1608487908": {}
            }
          }
        }
      },
      "Name": "Avatar_Pela_00_Skill03_Phase02",
      "TargetInfo": {
        "TargetType": "AllEnemy"
      },
      "OnStart": [
        {
          "$type": "RPG.GameCore.WaitAnimState",
          "TargetType": {
            "$type": "RPG.GameCore.TargetAlias",
            "Alias": "Caster"
          },
          "AnimStateName": "Skill03",
          "NormalizedTimeEnd": {
            "IsDynamic": false,
            "FixedValue": {
              "Value": 0.9000000008381903
            }
          }
        },
        {
          "$type": "RPG.GameCore.AddModifier",
          "TargetType": {
            "$type": "RPG.GameCore.TargetAlias",
            "Alias": "AllEnemy"
          },
          "ModifierName": "MAvatar_Pela_00_Ultra_DroneAnalysis",
          "Chance": {
            "IsDynamic": true,
            "PostfixExpr": {
              "OpCodes": "AQAK",
              "FixedValues": [],
              "DynamicHashes": [
                1506568621
              ]
            }
          },
          "LifeTime": {
            "IsDynamic": true,
            "PostfixExpr": {
              "OpCodes": "AQAK",
              "FixedValues": [],
              "DynamicHashes": [
                -1998230578
              ]
            }
          },
          "DynamicValues": {
            "MDF_DefenceDownRatio": {
              "IsDynamic": true,
              "PostfixExpr": {
                "OpCodes": "AQAK",
                "FixedValues": [],
                "DynamicHashes": [
                  -2030605416
                ]
              }
            }
          }
        },
        {
          "$type": "RPG.GameCore.DamageByAttackProperty",
          "TargetType": {
            "$type": "RPG.GameCore.TargetAlias",
            "Alias": "AllEnemy"
          },
          "AttackProperty": {
            "DamageType": "Ice",
            "DamagePercentage": {
              "IsDynamic": true,
              "PostfixExpr": {
                "OpCodes": "AQAK",
                "FixedValues": [],
                "DynamicHashes": [
                  1364825941
                ]
              }
            },
            "StanceValue": {
              "IsDynamic": true,
              "PostfixExpr": {
                "OpCodes": "AQAK",
                "FixedValues": [],
                "DynamicHashes": [
                  1182064154
                ]
              }
            },
            "SPHitRatio": {
              "IsDynamic": false,
              "FixedValue": {
                "Value": 1
              }
            },
            "HitAnimation": "Hit",
            "HitEffect": "Effects/Eff_Prefab/Eff_Avatar/Eff_Pela/Eff_Avatar_Pela_00_Skill01_Hit01.prefab",
            "HitPosHeight": 0.8
          },
          "CanTriggerLastKill": true
        },
        {
          "$type": "RPG.GameCore.DamagePerformFinish"
        },
        {
          "$type": "RPG.GameCore.TriggerSkipDeadHandler"
        },
        {
          "$type": "RPG.GameCore.SkillPerformFinish"
        }
      ]
    },
    {
      "Modifiers": {
        "Avatar_Pela_00_PassiveSkill01_Modifier": {
          "_CallbackList": [
            {
              "Event": "OnStack",
              "CallbackConfig": [
                {
                  "$type": "RPG.GameCore.PredicateTaskList",
                  "Predicate": {
                    "$type": "RPG.GameCore.ByRankActivated",
                    "TriggerKey": {
                      "Hash": 2089636447
                    }
                  },
                  "SuccessTaskList": [
                    {
                      "$type": "RPG.GameCore.AddModifier",
                      "TargetType": {
                        "$type": "RPG.GameCore.TargetAlias",
                        "Alias": "AllLightTeam"
                      },
                      "ModifierName": "Avatar_Pela_SkillRank01",
                      "DynamicValues": {
                        "MDF_SPValue": {
                          "IsDynamic": true,
                          "PostfixExpr": {
                            "OpCodes": "AQAK",
                            "FixedValues": [],
                            "DynamicHashes": [
                              -1952504763
                            ]
                          }
                        }
                      }
                    }
                  ],
                  "FailedTaskList": []
                }
              ]
            },
            {
              "Event": "OnListenCharacterDie",
              "CallbackConfig": [
                {
                  "$type": "RPG.GameCore.PredicateTaskList",
                  "Predicate": {
                    "$type": "RPG.GameCore.ByCompareTarget",
                    "TargetType": {
                      "$type": "RPG.GameCore.TargetAlias",
                      "Alias": "ParamEntity"
                    },
                    "CompareType": {
                      "$type": "RPG.GameCore.TargetAlias",
                      "Alias": "Caster"
                    }
                  },
                  "SuccessTaskList": [
                    {
                      "$type": "RPG.GameCore.RemoveModifier",
                      "TargetType": {
                        "$type": "RPG.GameCore.TargetConcat",
                        "Targets": [
                          {
                            "$type": "RPG.GameCore.TargetAlias",
                            "Alias": "AllTeamMember"
                          },
                          {
                            "$type": "RPG.GameCore.TargetAlias",
                            "Alias": "AllUnselectable"
                          }
                        ]
                      },
                      "ModifierName": "Avatar_Pela_SkillRank01"
                    }
                  ]
                }
              ]
            },
            {
              "Event": "OnListenCharacterCreate",
              "CallbackConfig": [
                {
                  "$type": "RPG.GameCore.PredicateTaskList",
                  "Predicate": {
                    "$type": "RPG.GameCore.ByAnd",
                    "PredicateList": [
                      {
                        "$type": "RPG.GameCore.ByRankActivated",
                        "TriggerKey": {
                          "Hash": 2089636447
                        }
                      },
                      {
                        "$type": "RPG.GameCore.ByTargetTeam",
                        "TargetType": {
                          "$type": "RPG.GameCore.TargetAlias",
                          "Alias": "ParamEntity"
                        },
                        "Team": "TeamLight"
                      }
                    ]
                  },
                  "SuccessTaskList": [
                    {
                      "$type": "RPG.GameCore.AddModifier",
                      "TargetType": {
                        "$type": "RPG.GameCore.TargetAlias",
                        "Alias": "ParamEntity"
                      },
                      "ModifierName": "Avatar_Pela_SkillRank01",
                      "DynamicValues": {
                        "MDF_SPValue": {
                          "IsDynamic": true,
                          "PostfixExpr": {
                            "OpCodes": "AQAK",
                            "FixedValues": [],
                            "DynamicHashes": [
                              -1952504763
                            ]
                          }
                        }
                      }
                    }
                  ],
                  "FailedTaskList": []
                }
              ]
            },
            {
              "Event": "OnAfterAttack",
              "CallbackConfig": [
                {
                  "$type": "RPG.GameCore.Retarget",
                  "TargetType": {
                    "$type": "RPG.GameCore.TargetAlias",
                    "Alias": "AttackTargetList"
                  },
                  "MaxNumber": {
                    "IsDynamic": false,
                    "FixedValue": {
                      "Value": 5
                    }
                  },
                  "TaskList": [
                    {
                      "$type": "RPG.GameCore.SetDynamicValueByStatusCount",
                      "DynamicKey": "DebuffNumber_SingleTarget",
                      "ReadTargetType": {
                        "$type": "RPG.GameCore.TargetAlias",
                        "Alias": "ParamEntity"
                      }
                    },
                    {
                      "$type": "RPG.GameCore.SetDynamicValue",
                      "DynamicKey": "DebuffNumber",
                      "Value": {
                        "IsDynamic": true,
                        "PostfixExpr": {
                          "OpCodes": "AQABAQIK",
                          "FixedValues": [],
                          "DynamicHashes": [
                            262987897,
                            2612209
                          ]
                        }
                      }
                    }
                  ]
                },
                {
                  "$type": "RPG.GameCore.PredicateTaskList",
                  "Predicate": {
                    "$type": "RPG.GameCore.ByCompareDynamicValue",
                    "DynamicKey": "DebuffNumber",
                    "CompareType": "GreaterEqual",
                    "CompareValue": {
                      "IsDynamic": false,
                      "FixedValue": {
                        "Value": 1
                      }
                    }
                  },
                  "SuccessTaskList": [
                    {
                      "$type": "RPG.GameCore.ModifySPNew",
                      "TargetType": {
                        "$type": "RPG.GameCore.TargetAlias",
                        "Alias": "Caster"
                      },
                      "AddValue": {
                        "IsDynamic": true,
                        "PostfixExpr": {
                          "OpCodes": "AQAK",
                          "FixedValues": [],
                          "DynamicHashes": [
                            -876414897
                          ]
                        }
                      }
                    },
                    {
                      "$type": "RPG.GameCore.SetDynamicValue",
                      "DynamicKey": "DebuffNumber",
                      "Value": {
                        "IsDynamic": false,
                        "FixedValue": {
                          "Value": 0
                        }
                      }
                    }
                  ]
                }
              ]
            }
          ],
          "DynamicValues": {
            "Values": {
              "262987897": {}
            }
          }
        },
        "Avatar_Pela_SkillRank01": {
          "_CallbackList": [
            {
              "Event": "OnTriggerDeath",
              "CallbackConfig": [
                {
                  "$type": "RPG.GameCore.PredicateTaskList",
                  "Predicate": {
                    "$type": "RPG.GameCore.ByTargetTeam",
                    "TargetType": {
                      "$type": "RPG.GameCore.TargetAlias",
                      "Alias": "ParamEntity"
                    },
                    "Team": "TeamDark"
                  },
                  "SuccessTaskList": [
                    {
                      "$type": "RPG.GameCore.ModifySPNew",
                      "TargetType": {
                        "$type": "RPG.GameCore.TargetAlias",
                        "Alias": "Caster"
                      },
                      "AddValue": {
                        "IsDynamic": true,
                        "PostfixExpr": {
                          "OpCodes": "AQAK",
                          "FixedValues": [],
                          "DynamicHashes": [
                            1608487908
                          ]
                        }
                      }
                    }
                  ]
                }
              ]
            }
          ],
          "Stacking": "ReplaceByCaster",
          "DynamicValues": {
            "Values": {
              "1608487908": {}
            }
          }
        },
        "Avatar_Pela_SkillRank06": {
          "_CallbackList": [
            {
              "Event": "OnAfterAttack",
              "CallbackConfig": [
                {
                  "$type": "RPG.GameCore.Retarget",
                  "TargetType": {
                    "$type": "RPG.GameCore.TargetAlias",
                    "Alias": "AbilityAttackTargetList"
                  },
                  "MaxNumber": {
                    "IsDynamic": false,
                    "FixedValue": {
                      "Value": 5
                    }
                  },
                  "TaskList": [
                    {
                      "$type": "RPG.GameCore.SetDynamicValueByStatusCount",
                      "DynamicKey": "DebuffNumber",
                      "ReadTargetType": {
                        "$type": "RPG.GameCore.TargetAlias",
                        "Alias": "ParamEntity"
                      }
                    },
                    {
                      "$type": "RPG.GameCore.PredicateTaskList",
                      "Predicate": {
                        "$type": "RPG.GameCore.ByCompareDynamicValue",
                        "DynamicKey": "DebuffNumber",
                        "CompareType": "GreaterEqual",
                        "CompareValue": {
                          "IsDynamic": false,
                          "FixedValue": {
                            "Value": 1
                          }
                        }
                      },
                      "SuccessTaskList": [
                        {
                          "$type": "RPG.GameCore.TriggerEffect",
                          "TargetType": {
                            "$type": "RPG.GameCore.TargetAlias",
                            "Alias": "ParamEntity"
                          },
                          "EffectPath": "Effects/Eff_Prefab/Eff_Avatar/Eff_Pela/Eff_Avatar_Pela_00_Skill01_Hit01.prefab",
                          "AttachPoint": "Origin"
                        },
                        {
                          "$type": "RPG.GameCore.DamageByAttackProperty",
                          "TargetType": {
                            "$type": "RPG.GameCore.TargetAlias",
                            "Alias": "ParamEntity"
                          },
                          "AttackProperty": {
                            "DamageType": "Ice",
                            "DamagePercentage": {
                              "IsDynamic": true,
                              "PostfixExpr": {
                                "OpCodes": "AQAK",
                                "FixedValues": [],
                                "DynamicHashes": [
                                  1487778557
                                ]
                              }
                            },
                            "AttackType": "Pursued",
                            "HitAnimation": "Hit",
                            "HitPosHeight": 0.8,
                            "HitAngleHorizontal": 35,
                            "HitAngleVertical": -60
                          },
                          "CanTriggerLastKill": true,
                          "DisplayData": {
                            "UIMessageHeight": 0.8,
                            "DitherRangeY": 0.01
                          }
                        }
                      ]
                    }
                  ]
                }
              ]
            }
          ],
          "Stacking": "ReplaceByCaster"
        }
      },
      "Name": "Avatar_Pela_00_PassiveSkill01",
      "TargetInfo": {
        "TargetType": "Caster"
      },
      "OnStart": [
        {
          "$type": "RPG.GameCore.AddModifier",
          "TargetType": {
            "$type": "RPG.GameCore.TargetAlias",
            "Alias": "Caster"
          },
          "ModifierName": "Avatar_Pela_00_PassiveSkill01_Modifier"
        },
        {
          "$type": "RPG.GameCore.PredicateTaskList",
          "Predicate": {
            "$type": "RPG.GameCore.ByRankActivated",
            "TriggerKey": {
              "Hash": -1445815962
            }
          },
          "SuccessTaskList": [
            {
              "$type": "RPG.GameCore.AddModifier",
              "TargetType": {
                "$type": "RPG.GameCore.TargetAlias",
                "Alias": "Caster"
              },
              "ModifierName": "Avatar_Pela_SkillRank06"
            }
          ]
        }
      ]
    },
    {
      "Modifiers": {
        "StageAbility_Maze_Pela_Modifier": {
          "_CallbackList": [
            {
              "Event": "OnEnterBattle",
              "CallbackConfig": [
                {
                  "$type": "RPG.GameCore.PredicateTaskList",
                  "Predicate": {
                    "$type": "RPG.GameCore.ByAnd",
                    "PredicateList": [
                      {
                        "$type": "RPG.GameCore.ByIsMazeSkillAffectCurrentWave"
                      },
                      {
                        "$type": "RPG.GameCore.ByCompareWaveCount",
                        "CompareType": "Equal",
                        "CompareValue": {
                          "IsDynamic": false,
                          "FixedValue": {
                            "Value": 1
                          }
                        }
                      }
                    ]
                  },
                  "SuccessTaskList": [
                    {
                      "$type": "RPG.GameCore.Retarget",
                      "TargetType": {
                        "$type": "RPG.GameCore.TargetAlias",
                        "Alias": "AllEnemy"
                      },
                      "MaxNumber": {
                        "IsDynamic": false,
                        "FixedValue": {
                          "Value": 1
                        }
                      },
                      "TaskList": [
                        {
                          "$type": "RPG.GameCore.DamageByAttackProperty",
                          "TargetType": {
                            "$type": "RPG.GameCore.TargetAlias",
                            "Alias": "ParamEntity"
                          },
                          "AttackProperty": {
                            "DamageType": "Ice",
                            "DamagePercentage": {
                              "IsDynamic": true,
                              "PostfixExpr": {
                                "OpCodes": "AQAK",
                                "FixedValues": [],
                                "DynamicHashes": [
                                  836547932
                                ]
                              }
                            },
                            "SPHitRatio": {
                              "IsDynamic": false,
                              "FixedValue": {
                                "Value": 1
                              }
                            },
                            "AttackType": "Maze",
                            "HitAnimation": "Hit",
                            "HitEffect": "Effects/Eff_Prefab/Eff_Avatar/Eff_Pela/Eff_Avatar_Pela_00_Skill02_Hit02.prefab"
                          },
                          "CanTriggerLastKill": true,
                          "DisplayData": {
                            "UIMessageHeight": 0.8,
                            "DitherRangeX": 0.01,
                            "DitherRangeY": 0.04
                          }
                        }
                      ]
                    },
                    {
                      "$type": "RPG.GameCore.DamagePerformFinish"
                    },
                    {
                      "$type": "RPG.GameCore.AddModifier",
                      "TargetType": {
                        "$type": "RPG.GameCore.TargetAlias",
                        "Alias": "AllEnemy"
                      },
                      "ModifierName": "MAvatar_Pela_00_MazeSkill_DefenceRatioDown",
                      "Chance": {
                        "IsDynamic": true,
                        "PostfixExpr": {
                          "OpCodes": "AQAK",
                          "FixedValues": [],
                          "DynamicHashes": [
                            -1055957040
                          ]
                        }
                      },
                      "LifeTime": {
                        "IsDynamic": true,
                        "PostfixExpr": {
                          "OpCodes": "AQAK",
                          "FixedValues": [],
                          "DynamicHashes": [
                            1010499383
                          ]
                        }
                      },
                      "DynamicValues": {
                        "MDF_PropertyValue": {
                          "IsDynamic": true,
                          "PostfixExpr": {
                            "OpCodes": "AQAK",
                            "FixedValues": [],
                            "DynamicHashes": [
                              -1146290400
                            ]
                          }
                        }
                      }
                    }
                  ],
                  "FailedTaskList": []
                }
              ]
            }
          ],
          "_PriorityList": [
            {
              "PriorityName": "EnterBattlePriority",
              "Key": "AvatarInsertAbility"
            }
          ]
        }
      },
      "Name": "Avatar_Pela_00_SkillMazeInLevel",
      "TargetInfo": {
        "TargetType": "Caster"
      },
      "OnStart": [
        {
          "$type": "RPG.GameCore.AddModifier",
          "TargetType": {
            "$type": "RPG.GameCore.TargetAlias",
            "Alias": "Caster"
          },
          "ModifierName": "StageAbility_Maze_Pela_Modifier"
        }
      ]
    },
    {
      "Modifiers": {
        "M_Pela_Tree01": {
          "BehaviorFlagList": [
            "ModifyDotDamageData"
          ],
          "_CallbackList": [
            {
              "Event": "OnBeforeHitAll",
              "CallbackConfig": [
                {
                  "$type": "RPG.GameCore.SetDynamicValueByStatusCount",
                  "DynamicKey": "DebuffNumber",
                  "ReadTargetType": {
                    "$type": "RPG.GameCore.TargetAlias",
                    "Alias": "DamageDefenderEntity"
                  }
                },
                {
                  "$type": "RPG.GameCore.PredicateTaskList",
                  "Predicate": {
                    "$type": "RPG.GameCore.ByCompareDynamicValue",
                    "DynamicKey": "DebuffNumber",
                    "CompareType": "GreaterEqual",
                    "CompareValue": {
                      "IsDynamic": false,
                      "FixedValue": {
                        "Value": 1
                      }
                    }
                  },
                  "SuccessTaskList": [
                    {
                      "$type": "RPG.GameCore.ModifyDamageData",
                      "Attacker_AllDamageTypeAddedRatio": {
                        "IsDynamic": true,
                        "PostfixExpr": {
                          "OpCodes": "AQAK",
                          "FixedValues": [],
                          "DynamicHashes": [
                            -1893757241
                          ]
                        }
                      }
                    }
                  ]
                }
              ]
            }
          ]
        }
      },
      "Name": "Avatar_Pela_SkillTree01",
      "TargetInfo": {
        "TargetType": "Caster"
      },
      "OnStart": [
        {
          "$type": "RPG.GameCore.AddModifier",
          "TargetType": {
            "$type": "RPG.GameCore.TargetAlias",
            "Alias": "Caster"
          },
          "ModifierName": "M_Pela_Tree01"
        }
      ]
    },
    {
      "Modifiers": {
        "M_Pela_Tree02": {
          "_CallbackList": [
            {
              "Event": "OnStack",
              "CallbackConfig": [
                {
                  "$type": "RPG.GameCore.AddModifier",
                  "TargetType": {
                    "$type": "RPG.GameCore.TargetAlias",
                    "Alias": "AllTeamMember"
                  },
                  "ModifierName": "MAvatar_Pela_StatusProbability",
                  "DynamicValues": {
                    "MDF_PropertyValue": {
                      "IsDynamic": true,
                      "PostfixExpr": {
                        "OpCodes": "AQAK",
                        "FixedValues": [],
                        "DynamicHashes": [
                          279271427
                        ]
                      }
                    }
                  }
                }
              ]
            },
            {
              "Event": "OnListenCharacterCreate",
              "CallbackConfig": [
                {
                  "$type": "RPG.GameCore.PredicateTaskList",
                  "Predicate": {
                    "$type": "RPG.GameCore.ByIsTeammate",
                    "TargetType": {
                      "$type": "RPG.GameCore.TargetAlias",
                      "Alias": "ParamEntity"
                    }
                  },
                  "SuccessTaskList": [
                    {
                      "$type": "RPG.GameCore.AddModifier",
                      "TargetType": {
                        "$type": "RPG.GameCore.TargetAlias",
                        "Alias": "ParamEntity"
                      },
                      "ModifierName": "MAvatar_Pela_StatusProbability",
                      "DynamicValues": {
                        "MDF_PropertyValue": {
                          "IsDynamic": true,
                          "PostfixExpr": {
                            "OpCodes": "AQAK",
                            "FixedValues": [],
                            "DynamicHashes": [
                              279271427
                            ]
                          }
                        }
                      }
                    }
                  ]
                }
              ]
            },
            {
              "Event": "OnBeforeDying",
              "CallbackConfig": [
                {
                  "$type": "RPG.GameCore.RemoveModifier",
                  "TargetType": {
                    "$type": "RPG.GameCore.TargetConcat",
                    "Targets": [
                      {
                        "$type": "RPG.GameCore.TargetAlias",
                        "Alias": "AllTeamMember"
                      },
                      {
                        "$type": "RPG.GameCore.TargetAlias",
                        "Alias": "AllUnselectable"
                      }
                    ]
                  },
                  "ModifierName": "MAvatar_Pela_StatusProbability",
                  "OnlyRemoveCasterAdded": true
                }
              ]
            }
          ]
        }
      },
      "Name": "Avatar_Pela_SkillTree02",
      "TargetInfo": {
        "TargetType": "Caster"
      },
      "OnStart": [
        {
          "$type": "RPG.GameCore.AddModifier",
          "TargetType": {
            "$type": "RPG.GameCore.TargetAlias",
            "Alias": "Caster"
          },
          "ModifierName": "M_Pela_Tree02"
        }
      ]
    }
  ],
  "GlobalModifiers": {
    "MAvatar_Pela_SkillTree03_DamageAddedRatio": {
      "_CallbackList": [
        {
          "Event": "OnBeforeHitAll",
          "CallbackConfig": [
            {
              "$type": "RPG.GameCore.ModifyDamageData",
              "Attacker_AllDamageTypeAddedRatio": {
                "IsDynamic": true,
                "PostfixExpr": {
                  "OpCodes": "AQAK",
                  "FixedValues": [],
                  "DynamicHashes": [
                    928530724
                  ]
                }
              }
            }
          ]
        },
        {
          "Event": "OnAfterAttack",
          "CallbackConfig": [
            {
              "$type": "RPG.GameCore.RemoveSelfModifier"
            }
          ]
        }
      ],
      "Stacking": "ReplaceByCaster",
      "DynamicValues": {
        "Values": {
          "928530724": {}
        }
      }
    },
    "MAvatar_Pela_SkillRank02_AddSpeedRatio": {
      "BehaviorFlagList": [
        "STAT_SpeedUp"
      ],
      "_CallbackList": [
        {
          "Event": "OnStack",
          "CallbackConfig": [
            {
              "$type": "RPG.GameCore.StackProperty",
              "TargetType": {
                "$type": "RPG.GameCore.TargetAlias",
                "Alias": "ModifierOwnerEntity"
              },
              "Property": "SpeedAddedRatio",
              "PropertyValue": {
                "IsDynamic": true,
                "PostfixExpr": {
                  "OpCodes": "AQAK",
                  "FixedValues": [],
                  "DynamicHashes": [
                    -389697654
                  ]
                }
              }
            }
          ]
        }
      ],
      "Stacking": "ReplaceByCaster",
      "DynamicValues": {
        "Values": {
          "-389697654": {}
        }
      }
    },
    "MAvatar_Pela_SkillRank04_StanceBreakTaken": {
      "BehaviorFlagList": [],
      "_CallbackList": [
        {
          "Event": "OnStack",
          "CallbackConfig": [
            {
              "$type": "RPG.GameCore.StackProperty",
              "TargetType": {
                "$type": "RPG.GameCore.TargetAlias",
                "Alias": "ModifierOwnerEntity"
              },
              "Property": "StanceBreakTakenRatio",
              "PropertyValue": {
                "IsDynamic": true,
                "PostfixExpr": {
                  "OpCodes": "AQAK",
                  "FixedValues": [],
                  "DynamicHashes": [
                    1277100885
                  ]
                }
              }
            }
          ]
        }
      ],
      "Stacking": "ReplaceByCaster",
      "DynamicValues": {
        "Values": {
          "1277100885": {}
        }
      }
    },
    "MAvatar_Pela_SkillRank04_IceResistanceDown": {
      "LifeStepMoment": "ModifierPhase1End",
      "_CallbackList": [
        {
          "Event": "OnStack",
          "CallbackConfig": [
            {
              "$type": "RPG.GameCore.StackProperty",
              "TargetType": {
                "$type": "RPG.GameCore.TargetAlias",
                "Alias": "ModifierOwnerEntity"
              },
              "Property": "IceResistanceDelta",
              "PropertyValue": {
                "IsDynamic": true,
                "PostfixExpr": {
                  "OpCodes": "AAABAAMK",
                  "FixedValues": [
                    {
                      "Value": 0
                    }
                  ],
                  "DynamicHashes": [
                    2128130574
                  ]
                }
              }
            }
          ]
        }
      ],
      "Stacking": "ReplaceByCaster",
      "DynamicValues": {
        "Values": {
          "2128130574": {}
        }
      }
    }
  }
}