{
  "AbilityList": [
    {
      "Name": "Avatar_AetherDivide_AML_Elite01_00_Bonus",
      "TargetInfo": {
        "TargetType": "Caster"
      },
      "OnStart": [
        {
          "$type": "RPG.GameCore.ShowBonusUIEffect",
          "UIPrefabPath": "UI/Battle/AetherDivide/BonusAction/AetherDivideBonusAction_Team.prefab",
          "TitleTextID": {
            "Hash": 881233994
          },
          "ImagePath": "SpriteOutput/MonsterFigure/Monster_8013010.png"
        },
        {
          "$type": "RPG.GameCore.SetTeamFormation",
          "Team": "TeamDark",
          "FormationType": "DarkTeamNormal"
        },
        {
          "$type": "RPG.GameCore.TriggerAbility",
          "TargetType": {
            "$type": "RPG.GameCore.TargetAlias",
            "Alias": "Caster"
          },
          "AbilityName": "Avatar_AetherDivide_AML_Elite01_00_Bonus_Camera",
          "IsSkillPerform": true
        },
        {
          "$type": "RPG.GameCore.WaitSecond",
          "WaitTime": 0.01
        },
        {
          "$type": "RPG.GameCore.RadialBlurEffect",
          "TargetType": {
            "$type": "RPG.GameCore.TargetAlias",
            "Alias": "Caster"
          },
          "Active": false
        },
        {
          "$type": "RPG.GameCore.TriggerAnimState",
          "AnimLogicState": "Idle",
          "AnimStateName": "StandBy",
          "NormalizedTransitionDuration": {
            "IsDynamic": false,
            "FixedValue": {
              "Value": 0.010000000009313226
            }
          }
        }
      ]
    },
    {
      "Name": "Avatar_AetherDivide_AML_Elite01_00_Skill01_Phase01",
      "TargetInfo": {
        "TargetType": "SkillTargetEntityList"
      },
      "OnStart": [
        {
          "$type": "RPG.GameCore.LookAt",
          "TargetType": "AbilityTargetEntity"
        },
        {
          "$type": "RPG.GameCore.TriggerAbility",
          "TargetType": {
            "$type": "RPG.GameCore.TargetAlias",
            "Alias": "Caster"
          },
          "AbilityName": "Avatar_AetherDivide_AML_Elite01_00_Skill01_Camera",
          "IsSkillPerform": true
        },
        {
          "$type": "RPG.GameCore.TriggerAbility",
          "TargetType": {
            "$type": "RPG.GameCore.TargetAlias",
            "Alias": "Caster"
          },
          "AbilityName": "Avatar_AetherDivide_AML_Elite01_00_Skill01_Phase02",
          "IsSkillPerform": true
        },
        {
          "$type": "RPG.GameCore.TriggerAnimStateWithMove",
          "TargetType": {
            "$type": "RPG.GameCore.TargetAlias",
            "Alias": "Caster"
          },
          "AnimStateName": "Skill01",
          "MovingRangeList": [
            {
              "TargetType": {
                "$type": "RPG.GameCore.TargetAlias",
                "Alias": "AbilityTargetEntity"
              },
              "IgnoreRadius": true,
              "OffsetTargetDistance": {
                "IsDynamic": false,
                "FixedValue": {
                  "Value": 2.800000000745058
                }
              },
              "NormalizedTimeStart": {
                "IsDynamic": false,
                "FixedValue": {
                  "Value": 0.02000000001862645
                }
              },
              "NormalizedTimeEnd": {
                "IsDynamic": false,
                "FixedValue": {
                  "Value": 0.1079999995417893
                }
              }
            },
            {
              "TargetType": {
                "$type": "RPG.GameCore.TargetAlias",
                "Alias": "TeamFormation"
              },
              "IgnoreRadius": true,
              "OffsetTargetDistance": {
                "IsDynamic": false,
                "FixedValue": {
                  "Value": 0
                }
              },
              "NormalizedTimeStart": {
                "IsDynamic": false,
                "FixedValue": {
                  "Value": 0.4020000002346933
                }
              },
              "NormalizedTimeEnd": {
                "IsDynamic": false,
                "FixedValue": {
                  "Value": 0.40799999982118607
                }
              }
            }
          ]
        },
        {
          "$type": "RPG.GameCore.WaitAnimState",
          "AnimStateName": "Skill01",
          "NormalizedTimeEnd": {
            "IsDynamic": false,
            "FixedValue": {
              "Value": 0.4700000004377216
            }
          }
        },
        {
          "$type": "RPG.GameCore.TriggerAnimState",
          "AnimLogicState": "Idle",
          "AnimStateName": "StandBy"
        }
      ]
    },
    {
      "Name": "Avatar_AetherDivide_AML_Elite01_00_Skill01_Phase02",
      "TargetInfo": {
        "TargetType": "SkillTargetEntityList"
      },
      "OnStart": [
        {
          "$type": "RPG.GameCore.ModifySPNew",
          "TargetType": {
            "$type": "RPG.GameCore.TargetAlias",
            "Alias": "Caster"
          },
          "FixedAddValue": {
            "IsDynamic": false,
            "FixedValue": {
              "Value": 1
            }
          }
        },
        {
          "$type": "RPG.GameCore.PredicateTaskList",
          "Predicate": {
            "$type": "RPG.GameCore.ByIsContainModifier",
            "TargetType": {
              "$type": "RPG.GameCore.TargetAlias",
              "Alias": "Caster"
            },
            "ModifierName": "MAvatar_AML_Elite01_00_ListenDeath_Action_Wait"
          },
          "SuccessTaskList": [
            {
              "$type": "RPG.GameCore.RemoveModifier",
              "TargetType": {
                "$type": "RPG.GameCore.TargetAlias",
                "Alias": "Caster"
              },
              "ModifierName": "MAvatar_AML_Elite01_00_ListenDeath_Action_Wait"
            }
          ]
        },
        {
          "$type": "RPG.GameCore.WaitAnimState",
          "TargetType": {
            "$type": "RPG.GameCore.TargetAlias",
            "Alias": "Caster"
          },
          "AnimStateName": "Skill01",
          "NormalizedTimeEnd": {
            "IsDynamic": false,
            "FixedValue": {
              "Value": 0.25399999995715916
            }
          }
        },
        {
          "$type": "RPG.GameCore.AddModifier",
          "TargetType": {
            "$type": "RPG.GameCore.TargetAlias",
            "Alias": "Caster"
          },
          "ModifierName": "MAvatar_AML_Elite01_00_Damage",
          "DynamicValues": {
            "MDF_PropertyValue": {
              "IsDynamic": true,
              "PostfixExpr": {
                "OpCodes": "AQAK",
                "FixedValues": [],
                "DynamicHashes": [
                  -1126825319
                ]
              }
            }
          }
        },
        {
          "$type": "RPG.GameCore.AddModifier",
          "TargetType": {
            "$type": "RPG.GameCore.TargetAlias",
            "Alias": "AbilityTargetEntity"
          },
          "ModifierName": "MAvatar_AML_Elite01_00_Critical"
        },
        {
          "$type": "RPG.GameCore.VCameraConfigChange",
          "CameraConfig": {
            "ShakeConfigV2": {
              "ShakeRange": 1,
              "ShakeTime": 0.15,
              "ShakeDir": {
                "X": 0,
                "Y": 0,
                "Z": 0.5
              },
              "BaseCycle": 0.05,
              "CycleDamping": 0,
              "RangeAttenuation": 1
            }
          }
        },
        {
          "$type": "RPG.GameCore.DamageByAttackProperty",
          "TargetType": {
            "$type": "RPG.GameCore.TargetAlias",
            "Alias": "AbilityTargetEntity"
          },
          "AttackProperty": {
            "DamageType": "Quantum",
            "DamagePercentage": {
              "IsDynamic": true,
              "PostfixExpr": {
                "OpCodes": "AQAK",
                "FixedValues": [],
                "DynamicHashes": [
                  -1126825319
                ]
              }
            },
            "AttackType": "Normal",
            "HitAnimation": "Hit",
            "HitEffect": "Effects/Eff_Prefab/Eff_Monster/Eff_W1_Soldier01_00/Eff_Monster_W1_Soldier01_00_Skill01_Hit.prefab"
          },
          "TriggerHitSound": true,
          "DisplayData": {
            "UIMessageHeight": 1.2,
            "DitherRangeX": 0.02,
            "DitherRangeY": 0.02
          }
        },
        {
          "$type": "RPG.GameCore.RemoveModifier",
          "TargetType": {
            "$type": "RPG.GameCore.TargetAlias",
            "Alias": "Caster"
          },
          "ModifierName": "MAvatar_AML_Elite01_00_Damage"
        },
        {
          "$type": "RPG.GameCore.DamagePerformFinish"
        },
        {
          "$type": "RPG.GameCore.SkillPerformFinish"
        }
      ]
    },
    {
      "Name": "Avatar_AetherDivide_AML_Elite01_00_Skill02_Phase01",
      "TargetInfo": {
        "TargetType": "SkillTargetEntityList"
      },
      "OnStart": [
        {
          "$type": "RPG.GameCore.LookAt",
          "TargetType": "AbilityTargetEntity"
        },
        {
          "$type": "RPG.GameCore.TriggerAbility",
          "TargetType": {
            "$type": "RPG.GameCore.TargetAlias",
            "Alias": "Caster"
          },
          "AbilityName": "Avatar_AetherDivide_AML_Elite01_00_Skill02_Camera",
          "IsSkillPerform": true
        },
        {
          "$type": "RPG.GameCore.TriggerAbility",
          "TargetType": {
            "$type": "RPG.GameCore.TargetAlias",
            "Alias": "Caster"
          },
          "AbilityName": "Avatar_AetherDivide_AML_Elite01_00_Skill02_Phase02",
          "IsSkillPerform": true
        },
        {
          "$type": "RPG.GameCore.TriggerAnimState",
          "AnimStateName": "Skill02"
        },
        {
          "$type": "RPG.GameCore.WaitAnimState",
          "TargetType": {
            "$type": "RPG.GameCore.TargetAlias",
            "Alias": "Caster"
          },
          "AnimStateName": "Skill02",
          "NormalizedTimeEnd": {
            "IsDynamic": false,
            "FixedValue": {
              "Value": 0.5500000005122274
            }
          }
        },
        {
          "$type": "RPG.GameCore.LookAt",
          "TargetType": "AbilityTargetEntity"
        },
        {
          "$type": "RPG.GameCore.WaitAnimState",
          "TargetType": {
            "$type": "RPG.GameCore.TargetAlias",
            "Alias": "Caster"
          },
          "AnimStateName": "Skill02",
          "NormalizedTimeEnd": {
            "IsDynamic": false,
            "FixedValue": {
              "Value": 0.9000000008381903
            }
          }
        },
        {
          "$type": "RPG.GameCore.TriggerAnimState",
          "AnimStateName": "Skill02_Shoot",
          "NormalizedTransitionDuration": {
            "IsDynamic": false,
            "FixedValue": {
              "Value": 0.1500000001396984
            }
          }
        },
        {
          "$type": "RPG.GameCore.WaitAnimState",
          "TargetType": {
            "$type": "RPG.GameCore.TargetAlias",
            "Alias": "Caster"
          },
          "AnimStateName": "Skill02_Shoot",
          "NormalizedTimeEnd": {
            "IsDynamic": false,
            "FixedValue": {
              "Value": 0.9900000009220093
            }
          }
        },
        {
          "$type": "RPG.GameCore.RadialBlurEffect",
          "TargetType": {
            "$type": "RPG.GameCore.TargetAlias",
            "Alias": "Caster"
          },
          "Active": false
        },
        {
          "$type": "RPG.GameCore.TriggerAnimState",
          "AnimLogicState": "Idle",
          "AnimStateName": "StandBy"
        }
      ]
    },
    {
      "Name": "Avatar_AetherDivide_AML_Elite01_00_Skill02_Phase02",
      "TargetInfo": {
        "TargetType": "SkillTargetEntityList"
      },
      "OnStart": [
        {
          "$type": "RPG.GameCore.ModifySPNew",
          "TargetType": {
            "$type": "RPG.GameCore.TargetAlias",
            "Alias": "Caster"
          },
          "FixedAddValue": {
            "IsDynamic": false,
            "FixedValue": {
              "Value": 1
            }
          }
        },
        {
          "$type": "RPG.GameCore.ModifyCurrentSkillDelayCost",
          "NormalizedValue": {
            "IsDynamic": false,
            "FixedValue": {
              "Value": 1
            }
          }
        },
        {
          "$type": "RPG.GameCore.PredicateTaskList",
          "Predicate": {
            "$type": "RPG.GameCore.ByIsContainModifier",
            "TargetType": {
              "$type": "RPG.GameCore.TargetAlias",
              "Alias": "Caster"
            },
            "ModifierName": "MAvatar_AML_Elite01_00_ListenDeath_Action_Wait"
          },
          "SuccessTaskList": [
            {
              "$type": "RPG.GameCore.RemoveModifier",
              "TargetType": {
                "$type": "RPG.GameCore.TargetAlias",
                "Alias": "Caster"
              },
              "ModifierName": "MAvatar_AML_Elite01_00_ListenDeath_Action_Wait"
            }
          ]
        },
        {
          "$type": "RPG.GameCore.WaitAnimState",
          "TargetType": {
            "$type": "RPG.GameCore.TargetAlias",
            "Alias": "Caster"
          },
          "AnimStateName": "Skill02",
          "NormalizedTimeEnd": {
            "IsDynamic": false,
            "FixedValue": {
              "Value": 0.1500000001396984
            }
          }
        },
        {
          "$type": "RPG.GameCore.AddModifier",
          "TargetType": {
            "$type": "RPG.GameCore.TargetAlias",
            "Alias": "Caster"
          },
          "ModifierName": "MAvatar_AML_Elite01_00_Skill02_Kill"
        },
        {
          "$type": "RPG.GameCore.TriggerEffect",
          "TargetType": {
            "$type": "RPG.GameCore.TargetAlias",
            "Alias": "Caster"
          },
          "EffectPath": "Effects/Eff_Prefab/Eff_Monster/Eff_AML_Elite01_00/Eff_Monster_AML_Elite01_00_Skill04_Head_Loop.prefab",
          "AttachPoint": "Head"
        },
        {
          "$type": "RPG.GameCore.WaitAnimState",
          "TargetType": {
            "$type": "RPG.GameCore.TargetAlias",
            "Alias": "Caster"
          },
          "AnimStateName": "Skill02",
          "NormalizedTimeEnd": {
            "IsDynamic": false,
            "FixedValue": {
              "Value": 0.20000000018626451
            }
          }
        },
        {
          "$type": "RPG.GameCore.TriggerEffect",
          "TargetType": {
            "$type": "RPG.GameCore.TargetAlias",
            "Alias": "Caster"
          },
          "EffectPath": "Effects/Eff_Prefab/Eff_Monster/Eff_AML_Elite01_00/Eff_Monster_AML_Elite01_00_Skill04_Arrow_Loop.prefab",
          "AttachPoint": "Effect_WeaponArrow_JNT"
        },
        {
          "$type": "RPG.GameCore.WaitAnimState",
          "TargetType": {
            "$type": "RPG.GameCore.TargetFetchCaster"
          },
          "AnimStateName": "Skill02",
          "NormalizedTimeEnd": {
            "IsDynamic": false,
            "FixedValue": {
              "Value": 0.3560989801771939
            }
          }
        },
        {
          "$type": "RPG.GameCore.WaitSecond",
          "WaitTime": 2.56301
        },
        {
          "$type": "RPG.GameCore.RemoveEffect",
          "TargetType": {
            "$type": "RPG.GameCore.TargetAlias",
            "Alias": "Caster"
          },
          "EffectPath": "Effects/Eff_Prefab/Eff_Monster/Eff_AML_Elite01_00/Eff_Monster_AML_Elite01_00_Skill04_Arrow_Loop.prefab",
          "IsNeedFadeOut": false
        },
        {
          "$type": "RPG.GameCore.WaitAnimState",
          "TargetType": {
            "$type": "RPG.GameCore.TargetAlias",
            "Alias": "Caster"
          },
          "AnimStateName": "Skill02_Shoot",
          "NormalizedTimeEnd": {
            "IsDynamic": false,
            "FixedValue": {
              "Value": 0.3469999998342246
            }
          }
        },
        {
          "$type": "RPG.GameCore.TriggerEffect",
          "TargetType": {
            "$type": "RPG.GameCore.TargetAlias",
            "Alias": "Caster"
          },
          "EffectPath": "Effects/Eff_Prefab/Eff_Monster/Eff_AML_Elite01_00/Eff_Monster_AML_Elite01_00_Skill05_Hit_Camera.prefab"
        },
        {
          "$type": "RPG.GameCore.RemoveEffect",
          "TargetType": {
            "$type": "RPG.GameCore.TargetAlias",
            "Alias": "Caster"
          },
          "EffectPath": "Effects/Eff_Prefab/Eff_Monster/Eff_AML_Elite01_00/Eff_Monster_AML_Elite01_00_Skill04_Arrow_Loop.prefab"
        },
        {
          "$type": "RPG.GameCore.RemoveEffect",
          "TargetType": {
            "$type": "RPG.GameCore.TargetAlias",
            "Alias": "Caster"
          },
          "EffectPath": "Effects/Eff_Prefab/Eff_Monster/Eff_AML_Elite01_00/Eff_Monster_AML_Elite01_00_Skill04_Ready_Loop.prefab"
        },
        {
          "$type": "RPG.GameCore.RemoveEffect",
          "TargetType": {
            "$type": "RPG.GameCore.TargetAlias",
            "Alias": "Caster"
          },
          "EffectPath": "Effects/Eff_Prefab/Eff_Monster/Eff_AML_Elite01_00/Eff_Monster_AML_Elite01_00_Skill04_Head_Loop.prefab"
        },
        {
          "$type": "RPG.GameCore.FireProjectile",
          "Projectile": {
            "FlyTime": 0.12,
            "AttachPoint": "Effect_WeaponArrow_JNT",
            "TargetAttachPoint": "Root",
            "FlyEffect": "Effects/Eff_Prefab/Eff_Monster/Eff_AML_Elite01_00/Eff_Monster_AML_Elite01_00_Skill05_Arrow.prefab",
            "HitEffect": "Effects/Eff_Prefab/Eff_Monster/Eff_AML_Elite01_00/Eff_Monster_AML_Elite01_00_Skill05_Hit.prefab",
            "AlignHitEffect": true
          },
          "WaitProjectileFinish": true
        },
        {
          "$type": "RPG.GameCore.RemoveEffect",
          "TargetType": {
            "$type": "RPG.GameCore.TargetAlias",
            "Alias": "Caster"
          },
          "EffectPath": "Effects/Eff_Prefab/Eff_Monster/Eff_AML_Elite01_00/Eff_Monster_AML_Elite01_00_Skill05_Arrow_Fire.prefab"
        },
        {
          "$type": "RPG.GameCore.AddModifier",
          "TargetType": {
            "$type": "RPG.GameCore.TargetAlias",
            "Alias": "Caster"
          },
          "ModifierName": "MAvatar_AML_Elite01_00_Damage",
          "DynamicValues": {
            "MDF_PropertyValue": {
              "IsDynamic": true,
              "PostfixExpr": {
                "OpCodes": "AQAK",
                "FixedValues": [],
                "DynamicHashes": [
                  -1847083384
                ]
              }
            }
          }
        },
        {
          "$type": "RPG.GameCore.AddModifier",
          "TargetType": {
            "$type": "RPG.GameCore.TargetAlias",
            "Alias": "AbilityTargetEntity"
          },
          "ModifierName": "MAvatar_AML_Elite01_00_Critical"
        },
        {
          "$type": "RPG.GameCore.VCameraConfigChange",
          "CameraConfig": {
            "ShakeConfigV2": {
              "ShakeRange": 1,
              "ShakeTime": 0.2,
              "ShakeDir": {
                "X": 0,
                "Y": 0.3,
                "Z": 0.5
              },
              "BaseCycle": 0.05,
              "CycleDamping": 0,
              "RangeAttenuation": 1
            }
          }
        },
        {
          "$type": "RPG.GameCore.DamageByAttackProperty",
          "TargetType": {
            "$type": "RPG.GameCore.TargetAlias",
            "Alias": "AbilityTargetEntity"
          },
          "AttackProperty": {
            "DamageType": "Quantum",
            "DamagePercentage": {
              "IsDynamic": true,
              "PostfixExpr": {
                "OpCodes": "AQAK",
                "FixedValues": [],
                "DynamicHashes": [
                  -1847083384
                ]
              }
            },
            "StanceValue": {
              "IsDynamic": true,
              "PostfixExpr": {
                "OpCodes": "AQAAAAQK",
                "FixedValues": [
                  {
                    "Value": 1
                  }
                ],
                "DynamicHashes": [
                  1659254037
                ]
              }
            },
            "HitAnimation": "Hit",
            "HitEffectHeight": 0.88
          },
          "TriggerHitSound": true,
          "SpecialHitSoundEvent": "Ev_sfx_monster_skill_05_hit_aml_elite01",
          "DisplayData": {
            "UIMessageHeight": 1
          }
        },
        {
          "$type": "RPG.GameCore.DamagePerformFinish"
        },
        {
          "$type": "RPG.GameCore.RemoveModifier",
          "TargetType": {
            "$type": "RPG.GameCore.TargetAlias",
            "Alias": "Caster"
          },
          "ModifierName": "MAvatar_AML_Elite01_00_Damage"
        },
        {
          "$type": "RPG.GameCore.WaitSecond",
          "WaitTime": 0.4
        },
        {
          "$type": "RPG.GameCore.WaitAnimState",
          "TargetType": {
            "$type": "RPG.GameCore.TargetAlias",
            "Alias": "Caster"
          },
          "AnimStateName": "Skill02_Shoot",
          "NormalizedTimeEnd": {
            "IsDynamic": false,
            "FixedValue": {
              "Value": 0.873000000603497
            }
          }
        },
        {
          "$type": "RPG.GameCore.RemoveModifier",
          "TargetType": {
            "$type": "RPG.GameCore.TargetAlias",
            "Alias": "Caster"
          },
          "ModifierName": "MAvatar_AML_Elite01_00_Skill02_Kill"
        },
        {
          "$type": "RPG.GameCore.TriggerAnimState",
          "AnimLogicState": "Idle",
          "AnimStateName": "StandBy"
        },
        {
          "$type": "RPG.GameCore.SkillPerformFinish"
        }
      ]
    },
    {
      "Name": "Avatar_AetherDivide_AML_Elite01_00_Skill03_EnterReady",
      "TargetInfo": {
        "TargetType": "InherentTargetEntity"
      },
      "OnStart": [
        {
          "$type": "RPG.GameCore.WaitSecond",
          "WaitTime": 0.5
        },
        {
          "$type": "RPG.GameCore.VCameraConfigChange",
          "CameraConfig": {
            "NormalConfig": {
              "CameraState": "SelectDarkTeamEntity",
              "IsLocalOffset": true,
              "AnchorOffset": {
                "X": 0.67,
                "Y": 0.33,
                "Z": -0.39
              },
              "AimTargetType": {
                "$type": "RPG.GameCore.TargetAlias",
                "Alias": "AbilityTargetEntity"
              },
              "AimOffset": {
                "X": -2,
                "Y": 1.41,
                "Z": 0.17
              },
              "AimRatio": 1,
              "FollowRadius": 2,
              "AnchorToAimAngle": 26,
              "Dutch": 4.5,
              "FOV": 57
            },
            "BlendConfig": {
              "BlendType": "Cut"
            },
            "ShowEntityConfig": {
              "ShowTargetType": {
                "$type": "RPG.GameCore.TargetAlias",
                "Alias": "CasterWithAllEnemy"
              }
            }
          }
        },
        {
          "$type": "RPG.GameCore.WaitSecond",
          "WaitTime": 0.5
        },
        {
          "$type": "RPG.GameCore.VCameraConfigChange",
          "CameraConfig": {
            "NormalConfig": {
              "CameraState": "SelectDarkTeamEntity",
              "IsLocalOffset": true,
              "AnchorOffset": {
                "X": 0.67,
                "Y": 0.33,
                "Z": -0.39
              },
              "AimTargetType": {
                "$type": "RPG.GameCore.TargetAlias",
                "Alias": "AbilityTargetEntity"
              },
              "AimOffset": {
                "X": -2,
                "Y": 1.41,
                "Z": 0.17
              },
              "AimRatio": 1,
              "FollowRadius": 2,
              "AnchorToAimAngle": 26,
              "Dutch": 4.5,
              "FOV": 55
            },
            "BlendConfig": {
              "BlendType": "Custom",
              "CustomCurveName": "Blend_UltraReady",
              "BlendTime": 1.5
            },
            "ShowEntityConfig": {
              "ShowTargetType": {
                "$type": "RPG.GameCore.TargetAlias",
                "Alias": "CasterWithAllEnemy"
              }
            }
          }
        }
      ]
    },
    {
      "Name": "Avatar_AetherDivide_AML_Elite01_00_Skill03_Phase01",
      "TargetInfo": {
        "TargetType": "AllEnemy"
      },
      "OnStart": [
        {
          "$type": "RPG.GameCore.TriggerAbility",
          "TargetType": {
            "$type": "RPG.GameCore.TargetAlias",
            "Alias": "Caster"
          },
          "AbilityName": "Avatar_AetherDivide_AML_Elite01_00_Skill03_Camera",
          "IsSkillPerform": true
        },
        {
          "$type": "RPG.GameCore.TriggerAbility",
          "TargetType": {
            "$type": "RPG.GameCore.TargetAlias",
            "Alias": "Caster"
          },
          "AbilityName": "Avatar_AetherDivide_AML_Elite01_00_Skill03_Phase02",
          "IsSkillPerform": true
        },
        {
          "$type": "RPG.GameCore.TriggerAnimStateWithMove",
          "TargetType": {
            "$type": "RPG.GameCore.TargetAlias",
            "Alias": "Caster"
          },
          "AnimStateName": "Skill03",
          "NormalizedTimeEnd": {
            "IsDynamic": false,
            "FixedValue": {
              "Value": 1
            }
          },
          "MovingRangeList": [
            {
              "TargetType": {
                "$type": "RPG.GameCore.TargetAlias",
                "Alias": "DarkTeamCenter"
              },
              "IgnoreRadius": true,
              "OffsetTargetDistance": {
                "IsDynamic": false,
                "FixedValue": {
                  "Value": 3.5000000004656613
                }
              },
              "NormalizedTimeStart": {
                "IsDynamic": false,
                "FixedValue": {
                  "Value": 0.18399999989196658
                }
              },
              "NormalizedTimeEnd": {
                "IsDynamic": false,
                "FixedValue": {
                  "Value": 0.25699999975040555
                }
              }
            },
            {
              "TargetType": {
                "$type": "RPG.GameCore.TargetAlias",
                "Alias": "TeamFormation"
              },
              "IgnoreRadius": true,
              "OffsetTargetDistance": {
                "IsDynamic": false,
                "FixedValue": {
                  "Value": 0
                }
              },
              "NormalizedTimeStart": {
                "IsDynamic": false,
                "FixedValue": {
                  "Value": 0.6370000001043081
                }
              },
              "NormalizedTimeEnd": {
                "IsDynamic": false,
                "FixedValue": {
                  "Value": 0.7270000001881272
                }
              }
            }
          ]
        },
        {
          "$type": "RPG.GameCore.RadialBlurEffect",
          "TargetType": {
            "$type": "RPG.GameCore.TargetAlias",
            "Alias": "Caster"
          },
          "Active": false
        },
        {
          "$type": "RPG.GameCore.TriggerAnimState",
          "AnimLogicState": "Idle"
        }
      ]
    },
    {
      "Name": "Avatar_AetherDivide_AML_Elite01_00_Skill03_Phase02",
      "TargetInfo": {
        "TargetType": "AllEnemy"
      },
      "OnStart": [
        {
          "$type": "RPG.GameCore.RemoveModifier",
          "TargetType": {
            "$type": "RPG.GameCore.TargetAlias",
            "Alias": "Caster"
          },
          "ModifierName": "MAvatar_AML_Elite01_00_ListenDeath_Action_Wait"
        },
        {
          "$type": "RPG.GameCore.ModifySP",
          "TargetType": {
            "$type": "RPG.GameCore.TargetAlias",
            "Alias": "Caster"
          },
          "ModifyFunction": "Set",
          "ModifyValue": {
            "IsDynamic": false,
            "FixedValue": {
              "Value": 0
            }
          }
        },
        {
          "$type": "RPG.GameCore.WaitAnimState",
          "TargetType": {
            "$type": "RPG.GameCore.TargetAlias",
            "Alias": "Caster"
          },
          "AnimStateName": "Skill03",
          "NormalizedTimeEnd": {
            "IsDynamic": false,
            "FixedValue": {
              "Value": 0.47799999988637865
            }
          }
        },
        {
          "$type": "RPG.GameCore.AddModifier",
          "TargetType": {
            "$type": "RPG.GameCore.TargetAlias",
            "Alias": "Caster"
          },
          "ModifierName": "MAvatar_AML_Elite01_00_Damage",
          "DynamicValues": {
            "MDF_PropertyValue": {
              "IsDynamic": true,
              "PostfixExpr": {
                "OpCodes": "AQAK",
                "FixedValues": [],
                "DynamicHashes": [
                  -56289053
                ]
              }
            }
          }
        },
        {
          "$type": "RPG.GameCore.AddModifier",
          "TargetType": {
            "$type": "RPG.GameCore.TargetAlias",
            "Alias": "AllEnemy"
          },
          "ModifierName": "MAvatar_AML_Elite01_00_Critical"
        },
        {
          "$type": "RPG.GameCore.VCameraConfigChange",
          "CameraConfig": {
            "ShakeConfigV2": {
              "ShakeRange": 1,
              "ShakeTime": 0.3,
              "ShakeDir": {
                "X": 0,
                "Y": 0.4,
                "Z": 0.2
              },
              "BaseCycle": 0.07,
              "CycleDamping": 0,
              "RangeAttenuation": 1
            }
          }
        },
        {
          "$type": "RPG.GameCore.DamageByAttackProperty",
          "TargetType": {
            "$type": "RPG.GameCore.TargetAlias",
            "Alias": "AllEnemy"
          },
          "AttackProperty": {
            "DamageType": "Quantum",
            "DamagePercentage": {
              "IsDynamic": true,
              "PostfixExpr": {
                "OpCodes": "AQAK",
                "FixedValues": [],
                "DynamicHashes": [
                  -56289053
                ]
              }
            },
            "HitAnimation": "Hit",
            "HitEffect": "Effects/Eff_Prefab/Eff_Monster/Eff_AML_Elite01_00/Eff_Monster_AML_Elite01_00_Skill03_01_Hit.prefab",
            "HitEffectHeight": 0.88
          },
          "TriggerHitSound": true,
          "SpecialHitSoundEvent": "Ev_sfx_monster_skill_03_hit_aml_elite01",
          "DisplayData": {
            "UIMessageHeight": 1
          }
        },
        {
          "$type": "RPG.GameCore.RemoveModifier",
          "TargetType": {
            "$type": "RPG.GameCore.TargetAlias",
            "Alias": "Caster"
          },
          "ModifierName": "MAvatar_AML_Elite01_00_Damage"
        },
        {
          "$type": "RPG.GameCore.DamagePerformFinish"
        },
        {
          "$type": "RPG.GameCore.WaitSecond",
          "WaitTime": 0.05
        },
        {
          "$type": "RPG.GameCore.SkillPerformFinish"
        }
      ]
    },
    {
      "Modifiers": {
        "MAvatar_AML_Elite01_00_SkillPreshow": {
          "ModifierAffectedPreshowConfig": {
            "SkillTypes": [
              "Skill"
            ],
            "TargetType": {
              "$type": "RPG.GameCore.TargetAlias",
              "Alias": "ModifierOwnerEntity"
            },
            "ActionDelayPreshowConfig": {
              "AddDelayRatio": {
                "IsDynamic": false,
                "FixedValue": {
                  "Value": 1
                }
              }
            }
          }
        },
        "MAvatar_AML_Elite01_00_ListenDeath": {
          "BehaviorFlagList": [
            "RemoveWhenCasterDead"
          ],
          "_CallbackList": [
            {
              "Event": "OnListenCharacterDie",
              "CallbackConfig": [
                {
                  "$type": "RPG.GameCore.AddModifier",
                  "TargetType": {
                    "$type": "RPG.GameCore.TargetAlias",
                    "Alias": "Caster"
                  },
                  "ModifierName": "MAvatar_AML_Elite01_00_ListenDeath_Action_Wait"
                }
              ]
            }
          ]
        },
        "MAvatar_AML_Elite01_00_ListenDeath_Action": {
          "BehaviorFlagList": [
            "RemoveWhenCasterDead"
          ],
          "_CallbackList": [
            {
              "Event": "OnBeforeDying",
              "CallbackConfig": [
                {
                  "$type": "RPG.GameCore.AddModifier",
                  "TargetType": {
                    "$type": "RPG.GameCore.TargetAlias",
                    "Alias": "Caster"
                  },
                  "ModifierName": "MAvatar_AML_Elite01_00_ListenDeath_Action_Wait"
                }
              ]
            }
          ]
        },
        "MAvatar_AML_Elite01_00_ListenDeath_Action_Wait": {
          "BehaviorFlagList": [
            "RemoveWhenCasterDead"
          ],
          "_CallbackList": [
            {
              "Event": "OnAllowAction",
              "CallbackConfig": [
                {
                  "$type": "RPG.GameCore.ShowBonusUIEffect",
                  "UIPrefabPath": "UI/Battle/AetherDivide/BonusAction/AetherDivideBonusAction_Team.prefab",
                  "TitleTextID": {
                    "Hash": 881233994
                  },
                  "ImagePath": "SpriteOutput/MonsterFigure/Monster_8013010.png"
                },
                {
                  "$type": "RPG.GameCore.RemoveSelfModifier"
                }
              ]
            },
            {
              "Event": "OnStack",
              "CallbackConfig": [
                {
                  "$type": "RPG.GameCore.ModifyCurrentSkillDelayCost",
                  "NormalizedValue": {
                    "IsDynamic": false,
                    "FixedValue": {
                      "Value": -10
                    }
                  }
                },
                {
                  "$type": "RPG.GameCore.SetActionDelay",
                  "TargetType": {
                    "$type": "RPG.GameCore.TargetAlias",
                    "Alias": "Caster"
                  },
                  "Value": {
                    "IsDynamic": false,
                    "FixedValue": {
                      "Value": 0
                    }
                  }
                },
                {
                  "$type": "RPG.GameCore.AddModifier",
                  "TargetType": {
                    "$type": "RPG.GameCore.TargetAlias",
                    "Alias": "Caster"
                  },
                  "ModifierName": "MAvatar_AML_Elite01_00_Passive_Damage",
                  "DynamicValues": {
                    "MDF_PropertyValue": {
                      "IsDynamic": true,
                      "PostfixExpr": {
                        "OpCodes": "AQAK",
                        "FixedValues": [],
                        "DynamicHashes": [
                          -143913703
                        ]
                      }
                    }
                  }
                }
              ]
            }
          ]
        },
        "MAvatar_AML_Elite01_00_Ultra": {
          "OnDynamicValueChange": [],
          "_CallbackList": [
            {
              "Event": "OnCreate",
              "CallbackConfig": []
            },
            {
              "Event": "OnStack",
              "CallbackConfig": []
            }
          ],
          "DynamicValues": {
            "Values": {
              "-64118774": {}
            }
          }
        }
      },
      "Name": "Avatar_AetherDivide_AML_Elite01_00_PassiveSkill01",
      "TargetInfo": {
        "TargetType": "Caster"
      },
      "OnStart": [
        {
          "$type": "RPG.GameCore.SetAttachmentScale",
          "TargetType": {
            "$type": "RPG.GameCore.TargetAlias",
            "Alias": "Caster"
          },
          "AttachPoints": [
            {
              "Name": "Arrow"
            }
          ],
          "Scale": {
            "X": 0,
            "Y": 0,
            "Z": 0
          }
        },
        {
          "$type": "RPG.GameCore.AddModifier",
          "TargetType": {
            "$type": "RPG.GameCore.TargetAlias",
            "Alias": "Caster"
          },
          "ModifierName": "MAvatar_AetherDivide_Common_P"
        },
        {
          "$type": "RPG.GameCore.AddModifier",
          "TargetType": {
            "$type": "RPG.GameCore.TargetAlias",
            "Alias": "Caster"
          },
          "ModifierName": "MAvatar_AML_Elite01_00_Ultra"
        },
        {
          "$type": "RPG.GameCore.AddModifier",
          "TargetType": {
            "$type": "RPG.GameCore.TargetAlias",
            "Alias": "Caster"
          },
          "ModifierName": "MAvatar_AML_Elite01_00_SkillPreshow"
        },
        {
          "$type": "RPG.GameCore.AddModifier",
          "TargetType": {
            "$type": "RPG.GameCore.TargetAlias",
            "Alias": "Caster"
          },
          "ModifierName": "Avatar_AetherDivide_ExtraHeight"
        },
        {
          "$type": "RPG.GameCore.AddModifier",
          "TargetType": {
            "$type": "RPG.GameCore.TargetAlias",
            "Alias": "Caster"
          },
          "ModifierName": "MAvatar_AML_Elite01_00_ListenDeath"
        }
      ]
    },
    {
      "Name": "Avatar_AetherDivide_AML_Elite01_00_SkillMazeInLevel",
      "TargetInfo": {
        "TargetType": "Caster"
      },
      "OnStart": []
    }
  ],
  "GlobalModifiers": {
    "Avatar_AetherDivide_ExtraHeight": {},
    "MAvatar_AML_Elite01_00_CD": {
      "LifeTime": 3,
      "LifeStepMoment": "ModifierPhase1End",
      "_CallbackList": [
        {
          "Event": "OnStack",
          "CallbackConfig": [
            {
              "$type": "RPG.GameCore.AttachSkillTypeDisable",
              "TargetType": {
                "$type": "RPG.GameCore.TargetAlias",
                "Alias": "ModifierOwnerEntity"
              },
              "Types": [
                "Skill"
              ]
            }
          ]
        }
      ]
    },
    "MAvatar_AML_Elite01_00_Damage": {
      "_CallbackList": [
        {
          "Event": "OnBeforeHitAll",
          "CallbackConfig": []
        }
      ],
      "DynamicValues": {
        "Values": {
          "2128130574": {}
        }
      }
    },
    "MAvatar_AML_Elite01_00_Passive_Damage": {
      "LifeTime": 1,
      "_CallbackList": [
        {
          "Event": "OnStack",
          "CallbackConfig": [
            {
              "$type": "RPG.GameCore.StackProperty",
              "TargetType": {
                "$type": "RPG.GameCore.TargetAlias",
                "Alias": "ModifierOwnerEntity"
              },
              "Property": "AllDamageTypeAddedRatio",
              "PropertyValue": {
                "IsDynamic": true,
                "PostfixExpr": {
                  "OpCodes": "AQAK",
                  "FixedValues": [],
                  "DynamicHashes": [
                    2128130574
                  ]
                }
              }
            }
          ]
        }
      ],
      "DynamicValues": {
        "Values": {
          "2128130574": {}
        }
      }
    },
    "MAvatar_AML_Elite01_00_Critical": {
      "_CallbackList": [
        {
          "Event": "OnStack",
          "CallbackConfig": [
            {
              "$type": "RPG.GameCore.PredicateTaskList",
              "Predicate": {
                "$type": "RPG.GameCore.ByIsContainModifier",
                "TargetType": {
                  "$type": "RPG.GameCore.TargetAlias",
                  "Alias": "ModifierOwnerEntity"
                },
                "ModifierName": "MAvatar_AetherDivide_Common_B"
              },
              "SuccessTaskList": [
                {
                  "$type": "RPG.GameCore.TriggerEffect",
                  "TargetType": {
                    "$type": "RPG.GameCore.TargetAlias",
                    "Alias": "ModifierOwnerEntity"
                  },
                  "EffectPath": "Effects/Eff_Prefab/Eff_Common/Eff_StanceBreak_Common_Quantum.prefab"
                },
                {
                  "$type": "RPG.GameCore.RadialBlurEffect",
                  "TargetType": {
                    "$type": "RPG.GameCore.TargetAlias",
                    "Alias": "ModifierOwnerEntity"
                  },
                  "Duration": 0.45,
                  "Iteration": 5,
                  "BlurStart": 0.1,
                  "BlurFeather": 0.15
                }
              ]
            },
            {
              "$type": "RPG.GameCore.RemoveSelfModifier"
            }
          ]
        }
      ]
    },
    "MAvatar_AML_Elite01_00_Skill02_Kill": {
      "_CallbackList": [
        {
          "Event": "OnTriggerDeath",
          "CallbackConfig": []
        }
      ]
    }
  }
}