{
  "AbilityList": [
    {
      "Name": "Avatar_AetherDivide_XP_Minion02_00_Skill01_Camera",
      "TargetInfo": {
        "TargetType": "SkillTargetEntityList"
      },
      "OnStart": [
        {
          "$type": "RPG.GameCore.WaitAnimState",
          "TargetType": {
            "$type": "RPG.GameCore.TargetFetchCaster"
          },
          "AnimStateName": "Skill01",
          "NormalizedTimeEnd": {
            "IsDynamic": false,
            "FixedValue": {
              "Value": 0.07325580785982311
            }
          }
        },
        {
          "$type": "RPG.GameCore.VCameraConfigChange",
          "CameraConfig": {
            "NormalConfig": {
              "CameraState": "CasterToTargetPerform",
              "IsLocalOffset": true,
              "AnchorOffset": {
                "X": 2.55,
                "Y": 1.1,
                "Z": -2.36
              },
              "AimOffset": {
                "X": -4.41,
                "Y": -1.41,
                "Z": 0
              },
              "AimRatio": 0.99,
              "Dutch": 3
            },
            "BlendConfig": {
              "BlendType": "EaseIn",
              "BlendTime": 0.79
            }
          }
        }
      ]
    },
    {
      "Name": "Avatar_AetherDivide_XP_Minion02_00_Skill02_Camera",
      "TargetInfo": {
        "TargetType": "SkillTargetEntityList"
      },
      "OnStart": [
        {
          "$type": "RPG.GameCore.VCameraConfigChange",
          "CameraConfig": {
            "NormalConfig": {
              "CameraState": "CasterToTargetPerform",
              "IsLocalOffset": true,
              "AnchorOffset": {
                "X": 1.6,
                "Y": 1.1,
                "Z": -1.97
              },
              "AimOffset": {
                "X": -2.99,
                "Y": -3.54,
                "Z": 4.23
              },
              "AimRatio": 0.99,
              "Dutch": 3
            },
            "BlendConfig": {
              "BlendType": "EaseIn",
              "BlendTime": 0.553333
            }
          }
        },
        {
          "$type": "RPG.GameCore.WaitAnimState",
          "TargetType": {
            "$type": "RPG.GameCore.TargetFetchCaster"
          },
          "AnimStateName": "Skill02",
          "NormalizedTimeEnd": {
            "IsDynamic": false,
            "FixedValue": {
              "Value": 0.06260868953540921
            }
          }
        },
        {
          "$type": "RPG.GameCore.VCameraConfigChange",
          "CameraConfig": {
            "NormalConfig": {
              "CameraState": "CasterToTargetPerform",
              "IsLocalOffset": true,
              "AnchorOffset": {
                "X": 1.71,
                "Y": 1.17,
                "Z": -2.05
              },
              "AimOffset": {
                "X": -2.55,
                "Y": -3.07,
                "Z": 2.43
              },
              "AimRatio": 0.99,
              "Dutch": 3
            },
            "BlendConfig": {
              "BlendType": "EaseIn",
              "BlendTime": 0.72
            }
          }
        }
      ]
    },
    {
      "Name": "Avatar_AetherDivide_XP_Minion02_00_Skill03_Camera",
      "TargetInfo": {
        "TargetType": "SkillTargetEntityList"
      },
      "OnStart": [
        {
          "$type": "RPG.GameCore.WaitAnimState",
          "TargetType": {
            "$type": "RPG.GameCore.TargetFetchCaster"
          },
          "AnimStateName": "Skill03",
          "NormalizedTimeEnd": {
            "IsDynamic": false,
            "FixedValue": {
              "Value": 0.006363636581227183
            }
          }
        },
        {
          "$type": "RPG.GameCore.VCameraConfigChange",
          "CameraConfig": {
            "NormalConfig": {
              "CameraState": "UseSkillPerform",
              "IsLocalOffset": true,
              "AnchorOffset": {
                "X": -0.3,
                "Y": 1.1,
                "Z": 6.59
              },
              "AimTargetType": {
                "$type": "RPG.GameCore.TargetAlias",
                "Alias": "Caster"
              },
              "AimOffset": {
                "X": 1.12,
                "Y": 0.59,
                "Z": 1.6
              }
            },
            "BlendConfig": {
              "BlendType": "Cut",
              "BlendTime": 0.406667
            },
            "ShowEntityConfig": {
              "ShowTargetType": {
                "$type": "RPG.GameCore.TargetAlias",
                "Alias": "Caster"
              }
            }
          }
        },
        {
          "$type": "RPG.GameCore.WaitAnimState",
          "TargetType": {
            "$type": "RPG.GameCore.TargetFetchCaster"
          },
          "AnimStateName": "Skill03",
          "NormalizedTimeEnd": {
            "IsDynamic": false,
            "FixedValue": {
              "Value": 0.4569999889936298
            }
          }
        },
        {
          "$type": "RPG.GameCore.VCameraConfigChange",
          "CameraConfig": {
            "NormalConfig": {
              "CameraState": "CasterToTargetPerform",
              "IsLocalOffset": true,
              "AnchorOffset": {
                "X": 2.24,
                "Y": 1.07,
                "Z": -2.58
              },
              "AimOffset": {
                "X": -6.77,
                "Y": -2.5,
                "Z": 4.1
              },
              "AimRatio": 1,
              "Dutch": 3,
              "ResetToDefault": false
            },
            "BlendConfig": {
              "BlendType": "Custom",
              "CustomCurveName": "BlendCut_1102_Bonus",
              "BlendTime": 0.151
            }
          }
        },
        {
          "$type": "RPG.GameCore.WaitAnimState",
          "TargetType": {
            "$type": "RPG.GameCore.TargetFetchCaster"
          },
          "AnimStateName": "Skill03",
          "NormalizedTimeEnd": {
            "IsDynamic": false,
            "FixedValue": {
              "Value": 0.4639090308919549
            }
          }
        },
        {
          "$type": "RPG.GameCore.VCameraConfigChange",
          "CameraConfig": {
            "ShakeTemplateName": "Avatar_Bronya_NormalAttack_Fire",
            "OverrideShakeConfigV2": {
              "ShakeScale": 1,
              "ShakeTime": 0.16,
              "ShakeDir": {
                "X": -0.2,
                "Y": -0.2,
                "Z": -0.6
              },
              "RangeAttenuationDelay": 999,
              "RangeAttenuationTarget": 0
            }
          }
        }
      ]
    }
  ]
}