{
  "AbilityList": [
    {
      "Name": "Avatar_AetherDivide_AML_Minion04_00_Skill01_Camera",
      "TargetInfo": {
        "TargetType": "SkillTargetEntityList"
      },
      "OnStart": [
        {
          "$type": "RPG.GameCore.VCameraConfigChange",
          "CameraConfig": {
            "NormalConfig": {
              "CameraState": "CasterToTargetPerform",
              "IsLocalOffset": true,
              "AnchorOffset": {
                "X": 2.77,
                "Y": -0.01,
                "Z": -1.82
              },
              "AimOffset": {
                "X": -3.25,
                "Y": -1.41,
                "Z": -1
              },
              "AimRatio": 0.99,
              "Dutch": 3
            },
            "BlendConfig": {
              "BlendType": "Custom",
              "CustomCurveName": "BlendCut_00to1",
              "BlendTime": 0.24
            }
          }
        },
        {
          "$type": "RPG.GameCore.WaitAnimState",
          "TargetType": {
            "$type": "RPG.GameCore.TargetFetchCaster"
          },
          "AnimStateName": "Skill01",
          "NormalizedTimeEnd": {
            "IsDynamic": false,
            "FixedValue": {
              "Value": 0.4228571660351008
            }
          }
        },
        {
          "$type": "RPG.GameCore.VCameraConfigChange",
          "CameraConfig": {
            "NormalConfig": {
              "CameraState": "CasterToTargetPerform",
              "IsLocalOffset": true,
              "AnchorOffset": {
                "X": 2.77,
                "Y": -0.01,
                "Z": -2.3
              },
              "AimOffset": {
                "X": -3.29,
                "Y": -1.41,
                "Z": 0.37
              },
              "AimRatio": 0.99,
              "Dutch": 3
            },
            "BlendConfig": {
              "BlendType": "EaseIn",
              "BlendTime": 0.113333
            }
          }
        }
      ]
    },
    {
      "Name": "Avatar_AetherDivide_AML_Minion04_00_Skill02_Camera",
      "TargetInfo": {
        "TargetType": "SkillTargetEntityList"
      },
      "OnStart": [
        {
          "$type": "RPG.GameCore.VCameraConfigChange",
          "CameraConfig": {
            "NormalConfig": {
              "CameraState": "CasterToTargetPerform",
              "IsLocalOffset": true,
              "AnchorOffset": {
                "X": 2.77,
                "Y": -0.01,
                "Z": -1.82
              },
              "AimOffset": {
                "X": -3.25,
                "Y": -1.41,
                "Z": -1
              },
              "AimRatio": 0.99,
              "Dutch": 3
            },
            "BlendConfig": {
              "BlendType": "Custom",
              "CustomCurveName": "BlendCut_00to1",
              "BlendTime": 0.44
            }
          }
        }
      ]
    },
    {
      "Name": "Avatar_AetherDivide_AML_Minion04_00_Skill02_01_Camera",
      "TargetInfo": {
        "TargetType": "InherentTargetEntity"
      },
      "OnStart": [
        {
          "$type": "RPG.GameCore.LookAt",
          "TargetType": "AbilityTargetEntity"
        },
        {
          "$type": "RPG.GameCore.VCameraConfigChange",
          "CameraConfig": {
            "NormalConfig": {
              "CameraState": "CasterToTargetPerform",
              "IsLocalOffset": true,
              "AnchorOffset": {
                "X": 2.77,
                "Y": -0.01,
                "Z": -1.82
              },
              "AimTargetType": {
                "$type": "RPG.GameCore.TargetAlias",
                "Alias": "AbilityTargetEntity"
              },
              "AimOffset": {
                "X": -3.25,
                "Y": -1.41,
                "Z": -1
              },
              "AimRatio": 0.99,
              "Dutch": 3
            },
            "BlendConfig": {
              "BlendType": "Custom",
              "CustomCurveName": "BlendCut_00to1",
              "BlendTime": 0.65
            }
          }
        }
      ]
    },
    {
      "Name": "Avatar_AetherDivide_AML_Minion04_00_Skill03_Camera",
      "TargetInfo": {
        "TargetType": "SkillTargetEntityList"
      },
      "OnStart": [
        {
          "$type": "RPG.GameCore.VCameraConfigChange",
          "CameraConfig": {
            "NormalConfig": {
              "CameraState": "UseSkillPerform",
              "IsLocalOffset": true,
              "AimTargetType": {
                "$type": "RPG.GameCore.TargetAlias",
                "Alias": "Caster"
              },
              "AimOffset": {
                "X": 0.070008,
                "Y": -0.36,
                "Z": -1.1E-05
              },
              "FollowPoleAngle": 427.0062,
              "FollowElevationAngle": -19.54442,
              "FollowRadius": 5.530024,
              "AnchorToAimAngle": 90,
              "FollowDamp": 0.5,
              "AimDamp": 0.5,
              "FOV": 35
            },
            "BlendConfig": {
              "BlendType": "Custom",
              "CustomCurveName": "Blend_UltraReady",
              "BlendTime": 1.5
            },
            "ShowEntityConfig": {
              "ShowTargetType": {
                "$type": "RPG.GameCore.TargetAlias",
                "Alias": "Caster"
              }
            }
          }
        }
      ]
    }
  ]
}