{
  "AbilityList": [
    {
      "Name": "Avatar_AetherDivide_W1_Soldier01_03_Skill01_Camera",
      "TargetInfo": {
        "TargetType": "SkillTargetEntityList"
      },
      "OnStart": [
        {
          "$type": "RPG.GameCore.WaitAnimState",
          "TargetType": {
            "$type": "RPG.GameCore.TargetFetchCaster"
          },
          "AnimStateName": "Skill01",
          "NormalizedTimeEnd": {
            "IsDynamic": false,
            "FixedValue": {
              "Value": 0.002048774855211377
            }
          }
        },
        {
          "$type": "RPG.GameCore.VCameraConfigChange",
          "CameraConfig": {
            "NormalConfig": {
              "CameraState": "CameraMotion",
              "IsLocalOffset": true,
              "Dutch": 3
            }
          }
        },
        {
          "$type": "RPG.GameCore.WaitAnimState",
          "TargetType": {
            "$type": "RPG.GameCore.TargetFetchCaster"
          },
          "AnimStateName": "Skill01",
          "NormalizedTimeEnd": {
            "IsDynamic": false,
            "FixedValue": {
              "Value": 0.07393939117901027
            }
          }
        },
        {
          "$type": "RPG.GameCore.VCameraConfigChange",
          "CameraConfig": {
            "NormalConfig": {
              "CameraState": "CasterToTargetPerform",
              "IsLocalOffset": true,
              "AnchorOffset": {
                "X": 2.32,
                "Y": -0.64,
                "Z": -4.78
              },
              "AnchorRatio": 0.99,
              "AimOffset": {
                "X": -1.74,
                "Y": -1.03,
                "Z": -0.09
              },
              "AimRatio": 1,
              "Dutch": 3
            },
            "BlendConfig": {
              "BlendType": "EaseIn",
              "BlendTime": 0.893333
            }
          }
        }
      ]
    },
    {
      "Name": "Avatar_AetherDivide_W1_Soldier01_03_Skill02_Camera",
      "TargetInfo": {
        "TargetType": "SkillTargetEntityList"
      },
      "OnStart": [
        {
          "$type": "RPG.GameCore.VCameraConfigChange",
          "CameraConfig": {
            "NormalConfig": {
              "CameraState": "UseSkillPerform",
              "IsLocalOffset": true,
              "UseLightTeamOffsetByTeamWidth": true,
              "AnchorOffset": {
                "X": -1.69,
                "Y": 0.1,
                "Z": 7.97
              },
              "AimTargetType": {
                "$type": "RPG.GameCore.TargetAlias",
                "Alias": "Caster"
              },
              "AimOffset": {
                "X": 0.06,
                "Y": -0.36,
                "Z": 0
              }
            },
            "BlendConfig": {
              "BlendType": "Cut",
              "BlendTime": 0.14
            },
            "ShowEntityConfig": {
              "ShowTargetType": {
                "$type": "RPG.GameCore.TargetAlias",
                "Alias": "Caster"
              }
            }
          }
        },
        {
          "$type": "RPG.GameCore.WaitAnimState",
          "TargetType": {
            "$type": "RPG.GameCore.TargetFetchCaster"
          },
          "AnimStateName": "Skill02",
          "NormalizedTimeEnd": {
            "IsDynamic": false,
            "FixedValue": {
              "Value": 0.3439999835100025
            }
          }
        },
        {
          "$type": "RPG.GameCore.VCameraConfigChange",
          "CameraConfig": {
            "NormalConfig": {
              "CameraState": "UseSkillPerform",
              "AnchorTargetType": {
                "$type": "RPG.GameCore.TargetAlias",
                "Alias": "AbilityTargetEntity"
              },
              "IsLocalOffset": true,
              "AnchorOffset": {
                "X": -2,
                "Y": 0.1,
                "Z": 7.57
              },
              "AimTargetType": {
                "$type": "RPG.GameCore.TargetAlias",
                "Alias": "AbilityTargetEntity"
              },
              "AimOffset": {
                "X": 0.26,
                "Y": -0.36,
                "Z": 0
              }
            },
            "BlendConfig": {
              "BlendType": "Cut",
              "BlendTime": 0.036667
            },
            "ShowEntityConfig": {
              "ShowTargetType": {
                "$type": "RPG.GameCore.TargetAlias",
                "Alias": "AbilityTargetEntity"
              }
            }
          }
        },
        {
          "$type": "RPG.GameCore.WaitAnimState",
          "TargetType": {
            "$type": "RPG.GameCore.TargetFetchCaster"
          },
          "AnimStateName": "Skill02",
          "NormalizedTimeEnd": {
            "IsDynamic": false,
            "FixedValue": {
              "Value": 0.3539999744389206
            }
          }
        },
        {
          "$type": "RPG.GameCore.VCameraConfigChange",
          "CameraConfig": {
            "NormalConfig": {
              "CameraState": "UseSkillPerform",
              "AnchorTargetType": {
                "$type": "RPG.GameCore.TargetAlias",
                "Alias": "AbilityTargetEntity"
              },
              "IsLocalOffset": true,
              "AnchorOffset": {
                "X": -2,
                "Y": 0.1,
                "Z": 8.61
              },
              "AimTargetType": {
                "$type": "RPG.GameCore.TargetAlias",
                "Alias": "AbilityTargetEntity"
              },
              "AimOffset": {
                "X": 0.26,
                "Y": -0.36,
                "Z": 0
              }
            },
            "BlendConfig": {
              "BlendType": "EaseIn",
              "BlendTime": 0.17
            },
            "ShowEntityConfig": {
              "ShowTargetType": {
                "$type": "RPG.GameCore.TargetAlias",
                "Alias": "AbilityTargetEntity"
              }
            }
          }
        }
      ]
    },
    {
      "Name": "Avatar_AetherDivide_W1_Soldier01_03_Skill03_Camera",
      "TargetInfo": {
        "TargetType": "SkillTargetEntityList"
      },
      "OnStart": [
        {
          "$type": "RPG.GameCore.VCameraConfigChange",
          "CameraConfig": {
            "NormalConfig": {
              "CameraState": "UseSkillPerform",
              "IsLocalOffset": true,
              "UseLightTeamOffsetByTeamWidth": true,
              "AnchorOffset": {
                "X": -1.69,
                "Y": 0.1,
                "Z": 7.97
              },
              "AimTargetType": {
                "$type": "RPG.GameCore.TargetAlias",
                "Alias": "Caster"
              },
              "AimOffset": {
                "X": 0.06,
                "Y": -0.36,
                "Z": 0
              }
            },
            "BlendConfig": {
              "BlendType": "Cut",
              "BlendTime": 0.14
            },
            "ShowEntityConfig": {
              "ShowTargetType": {
                "$type": "RPG.GameCore.TargetAlias",
                "Alias": "Caster"
              }
            }
          }
        },
        {
          "$type": "RPG.GameCore.WaitAnimState",
          "TargetType": {
            "$type": "RPG.GameCore.TargetFetchCaster"
          },
          "AnimStateName": "Skill03",
          "NormalizedTimeEnd": {
            "IsDynamic": false,
            "FixedValue": {
              "Value": 0.3439999835100025
            }
          }
        },
        {
          "$type": "RPG.GameCore.VCameraConfigChange",
          "CameraConfig": {
            "NormalConfig": {
              "CameraState": "UseSkillPerform",
              "AnchorTargetType": {
                "$type": "RPG.GameCore.TargetAlias",
                "Alias": "LightTeamCenter"
              },
              "IsLocalOffset": true,
              "AnchorOffset": {
                "X": -1.99,
                "Y": 1.61,
                "Z": 8.95
              },
              "AimTargetType": {
                "$type": "RPG.GameCore.TargetAlias",
                "Alias": "LightTeamCenter"
              },
              "AimOffset": {
                "X": -0.58,
                "Y": 1.16,
                "Z": 0.58
              },
              "FollowRadius": 4,
              "FollowDamp": 0.5,
              "AimDamp": 0.5,
              "FOV": 60
            },
            "BlendConfig": {
              "BlendType": "Custom",
              "CustomCurveName": "Blend_UltraReady",
              "BlendTime": 1.203333
            },
            "ShowEntityConfig": {
              "ShowTargetType": {
                "$type": "RPG.GameCore.TargetAlias",
                "Alias": "AllLightTeam"
              }
            }
          }
        }
      ]
    }
  ]
}