{
  "AbilityList": [
    {
      "Name": "Avatar_Hanya_00_Skill01_Camera",
      "TargetInfo": {
        "TargetType": "SkillTargetEntityList"
      },
      "OnStart": [
        {
          "$type": "RPG.GameCore.VCameraConfigChange",
          "CameraConfig": {
            "NormalConfig": {
              "CameraState": "CasterToTargetPerform",
              "IsLocalOffset": true,
              "AnchorOffset": {
                "X": 1.22,
                "Y": 0.23,
                "Z": -1.48
              },
              "AimOffset": {
                "X": -2.8,
                "Y": -1.84,
                "Z": 4.1
              },
              "AimRatio": 1,
              "Dutch": 3
            },
            "BlendConfig": {
              "BlendType": "Custom",
              "CustomCurveName": "BlendCut_00to1",
              "BlendTime": 0.890333
            }
          }
        },
        {
          "$type": "RPG.GameCore.WaitAnimState",
          "TargetType": {
            "$type": "RPG.GameCore.TargetFetchCaster"
          },
          "AnimStateName": "Skill01",
          "NormalizedTimeEnd": {
            "IsDynamic": false,
            "FixedValue": {
              "Value": 0.3911110751796514
            }
          }
        },
        {
          "$type": "RPG.GameCore.VCameraConfigChange",
          "CameraConfig": {
            "NormalConfig": {
              "CameraState": "CasterToTargetPerform",
              "IsLocalOffset": true,
              "AnchorOffset": {
                "X": 1.42,
                "Y": 0.27,
                "Z": -1.82
              },
              "AimOffset": {
                "X": -2.8,
                "Y": -1.84,
                "Z": 4.1
              },
              "AimRatio": 1,
              "Dutch": 3,
              "ResetToDefault": false
            },
            "BlendConfig": {
              "BlendType": "Custom",
              "CustomCurveName": "BlendCut_1102_Bonus",
              "BlendTime": 0.053333
            }
          }
        },
        {
          "$type": "RPG.GameCore.WaitAnimState",
          "TargetType": {
            "$type": "RPG.GameCore.TargetFetchCaster"
          },
          "AnimStateName": "Skill01",
          "NormalizedTimeEnd": {
            "IsDynamic": false,
            "FixedValue": {
              "Value": 0.39855548762716353
            }
          }
        },
        {
          "$type": "RPG.GameCore.VCameraConfigChange",
          "CameraConfig": {
            "ShakeTemplateName": "Avatar_Bronya_NormalAttack_Fire",
            "OverrideShakeConfigV2": {
              "ShakeScale": 0.2,
              "ShakeTime": 0.16,
              "ShakeDir": {
                "X": -0.2,
                "Y": -0.2,
                "Z": -0.6
              },
              "RangeAttenuationDelay": 999,
              "RangeAttenuationTarget": 0
            }
          }
        }
      ]
    },
    {
      "Name": "Avatar_Hanya_00_Skill02_Camera",
      "TargetInfo": {
        "TargetType": "SkillTargetEntityList"
      },
      "OnStart": [
        {
          "$type": "RPG.GameCore.WaitAnimState",
          "TargetType": {
            "$type": "RPG.GameCore.TargetFetchCaster"
          },
          "AnimStateName": "Skill02",
          "NormalizedTimeEnd": {
            "IsDynamic": false,
            "FixedValue": {
              "Value": 0.00041666673496365547
            }
          }
        },
        {
          "$type": "RPG.GameCore.VCameraConfigChange",
          "CameraConfig": {
            "NormalConfig": {
              "CameraState": "CasterToTargetPerform",
              "IsLocalOffset": true,
              "AnchorOffset": {
                "X": 0.94,
                "Y": 0.14,
                "Z": -1.3
              },
              "AimOffset": {
                "X": -4.33,
                "Y": -1.92,
                "Z": 4.1
              },
              "AimRatio": 1,
              "Dutch": 2
            },
            "BlendConfig": {
              "BlendType": "Custom",
              "CustomCurveName": "Blend_FastToSlow",
              "BlendTime": 0.645
            }
          }
        },
        {
          "$type": "RPG.GameCore.WaitAnimState",
          "TargetType": {
            "$type": "RPG.GameCore.TargetFetchCaster"
          },
          "AnimStateName": "Skill02",
          "NormalizedTimeEnd": {
            "IsDynamic": false,
            "FixedValue": {
              "Value": 0.37208339595235884
            }
          }
        },
        {
          "$type": "RPG.GameCore.VCameraConfigChange",
          "CameraConfig": {
            "NormalConfig": {
              "CameraState": "CasterToTargetPerform",
              "IsLocalOffset": true,
              "AnchorOffset": {
                "X": 1.56,
                "Y": -0.02,
                "Z": -1.9
              },
              "AimOffset": {
                "X": -4.33,
                "Y": -1.92,
                "Z": 4.1
              },
              "AimRatio": 1,
              "Dutch": 2,
              "ResetToDefault": false
            },
            "BlendConfig": {
              "BlendType": "EaseInOut",
              "CustomCurveName": "null",
              "BlendTime": 0.103333
            }
          }
        }
      ]
    },
    {
      "Name": "Avatar_Hanya_00_Skill03_Camera",
      "TargetInfo": {
        "TargetType": "SkillTargetEntityList"
      },
      "OnStart": [
        {
          "$type": "RPG.GameCore.VCameraConfigChange",
          "CameraConfig": {
            "CloseupShotConfig": {
              "CameraTimelineAssetName": "Character_Hanya_00_Skill03_TimeLine",
              "TransTypeFollow": {
                "$type": "RPG.GameCore.TargetAlias",
                "Alias": "Caster"
              },
              "TransTypeAim": {
                "$type": "RPG.GameCore.TargetAlias",
                "Alias": "AbilityTargetEntity"
              }
            },
            "BlendConfig": {
              "BlendType": "Cut"
            },
            "ShowEntityConfig": {
              "ShowTargetType": {
                "$type": "RPG.GameCore.TargetAlias",
                "Alias": "Caster"
              }
            }
          }
        },
        {
          "$type": "RPG.GameCore.WaitAnimState",
          "TargetType": {
            "$type": "RPG.GameCore.TargetFetchCaster"
          },
          "AnimStateName": "Skill03",
          "NormalizedTimeEnd": {
            "IsDynamic": false,
            "FixedValue": {
              "Value": 0.7650000003632158
            }
          }
        },
        {
          "$type": "RPG.GameCore.VCameraConfigChange",
          "CameraConfig": {
            "ShowEntityConfig": {
              "ShowTargetType": {
                "$type": "RPG.GameCore.TargetAlias",
                "Alias": "AbilityTargetEntity"
              }
            }
          }
        }
      ]
    }
  ]
}