{
  "AbilityList": [
    {
      "Name": "Avatar_AetherDivide_XP_Minion04_00_Skill01_Camera",
      "TargetInfo": {
        "TargetType": "SkillTargetEntityList"
      },
      "OnStart": [
        {
          "$type": "RPG.GameCore.WaitAnimState",
          "TargetType": {
            "$type": "RPG.GameCore.TargetFetchCaster"
          },
          "AnimStateName": "Skill01",
          "NormalizedTimeEnd": {
            "IsDynamic": false,
            "FixedValue": {
              "Value": 0.004800000227987766
            }
          }
        },
        {
          "$type": "RPG.GameCore.VCameraConfigChange",
          "CameraConfig": {
            "NormalConfig": {
              "CameraState": "CasterToTargetPerform",
              "IsLocalOffset": true,
              "AnchorOffset": {
                "X": 2.92,
                "Y": 0.22,
                "Z": -4.26
              },
              "AimOffset": {
                "X": -0.73,
                "Y": -1.06,
                "Z": -1.72
              },
              "AimRatio": 0.99,
              "Dutch": 3,
              "FOV": 40
            },
            "BlendConfig": {
              "BlendType": "Custom",
              "CustomCurveName": "BlendCut_00to1",
              "BlendTime": 0.241111
            }
          }
        },
        {
          "$type": "RPG.GameCore.WaitAnimState",
          "TargetType": {
            "$type": "RPG.GameCore.TargetFetchCaster"
          },
          "AnimStateName": "Skill01",
          "NormalizedTimeEnd": {
            "IsDynamic": false,
            "FixedValue": {
              "Value": 0.0879999939352274
            }
          }
        },
        {
          "$type": "RPG.GameCore.VCameraConfigChange",
          "CameraConfig": {
            "NormalConfig": {
              "CameraState": "CasterToTargetPerform",
              "IsLocalOffset": true,
              "AnchorOffset": {
                "X": 3.46,
                "Y": 0.79,
                "Z": -3.89
              },
              "AimOffset": {
                "X": -0.66,
                "Y": -1.65,
                "Z": -1.08
              },
              "AimRatio": 0.99,
              "Dutch": 3,
              "FOV": 45
            },
            "BlendConfig": {
              "BlendType": "EaseInOut",
              "CustomCurveName": "Blend_SlowToFast",
              "BlendTime": 0.33
            }
          }
        },
        {
          "$type": "RPG.GameCore.WaitAnimState",
          "TargetType": {
            "$type": "RPG.GameCore.TargetFetchCaster"
          },
          "AnimStateName": "Skill01",
          "NormalizedTimeEnd": {
            "IsDynamic": false,
            "FixedValue": {
              "Value": 0.5103999390266836
            }
          }
        },
        {
          "$type": "RPG.GameCore.VCameraConfigChange",
          "CameraConfig": {
            "ShakeTemplateName": "Punch_Middle",
            "OverrideShakeConfigV2": {
              "ShakeScale": 1,
              "ShakeTime": 0.2,
              "ShakeDir": {
                "X": 0,
                "Y": 0,
                "Z": -0.2
              },
              "RangeAttenuationDelay": 999,
              "RangeAttenuationTarget": 0
            }
          }
        }
      ]
    },
    {
      "Name": "Avatar_AetherDivide_XP_Minion04_00_Skill01_Ultra_Camera",
      "TargetInfo": {
        "TargetType": "SkillTargetEntityList"
      },
      "OnStart": [
        {
          "$type": "RPG.GameCore.VCameraConfigChange",
          "CameraConfig": {
            "NormalConfig": {
              "CameraState": "UseSkillPerform",
              "IsLocalOffset": true,
              "AnchorOffset": {
                "X": 0,
                "Y": 0,
                "Z": 0.3
              },
              "AimTargetType": {
                "$type": "RPG.GameCore.TargetAlias",
                "Alias": "Caster"
              },
              "AimOffset": {
                "X": -0.064,
                "Y": -0.24,
                "Z": 0.2
              },
              "FollowPoleAngle": 451.2,
              "FollowElevationAngle": -6.56,
              "FollowRadius": 3.94,
              "FollowDamp": 0.99,
              "AimDamp": 0.2,
              "Dutch": 0.7,
              "FOV": 53
            },
            "BlendConfig": {
              "BlendType": "Cut",
              "BlendTime": 0.033333
            },
            "ShowEntityConfig": {
              "ShowTargetType": {
                "$type": "RPG.GameCore.TargetAlias",
                "Alias": "Caster"
              }
            }
          }
        },
        {
          "$type": "RPG.GameCore.WaitAnimState",
          "TargetType": {
            "$type": "RPG.GameCore.TargetFetchCaster"
          },
          "AnimStateName": "Skill01_Charge",
          "NormalizedTimeEnd": {
            "IsDynamic": false,
            "FixedValue": {
              "Value": 0.020000000251457095
            }
          }
        },
        {
          "$type": "RPG.GameCore.VCameraConfigChange",
          "CameraConfig": {
            "NormalConfig": {
              "CameraState": "UseSkillPerform",
              "IsLocalOffset": true,
              "AnchorOffset": {
                "X": 0,
                "Y": 0,
                "Z": 0.3
              },
              "AimTargetType": {
                "$type": "RPG.GameCore.TargetAlias",
                "Alias": "Caster"
              },
              "AimOffset": {
                "X": -0.064,
                "Y": -0.24,
                "Z": 0.2
              },
              "FollowPoleAngle": 451.2,
              "FollowElevationAngle": -6.56,
              "FollowRadius": 2.68,
              "FollowDamp": 0.99,
              "AimDamp": 0.2,
              "Dutch": 0.7,
              "FOV": 53
            },
            "BlendConfig": {
              "BlendType": "EaseInOut",
              "CustomCurveName": "Blend_FastToSlow0.95",
              "BlendTime": 0.4
            },
            "ShowEntityConfig": {
              "ShowTargetType": {
                "$type": "RPG.GameCore.TargetAlias",
                "Alias": "Caster"
              }
            }
          }
        },
        {
          "$type": "RPG.GameCore.WaitAnimState",
          "TargetType": {
            "$type": "RPG.GameCore.TargetFetchCaster"
          },
          "AnimStateName": "Skill01_Charge",
          "NormalizedTimeEnd": {
            "IsDynamic": false,
            "FixedValue": {
              "Value": 0.6553846017923206
            }
          }
        },
        {
          "$type": "RPG.GameCore.VCameraConfigChange",
          "CameraConfig": {
            "NormalConfig": {
              "CameraState": "CasterToTargetPerform",
              "IsLocalOffset": true,
              "AnchorOffset": {
                "X": 2.26,
                "Y": 0.45,
                "Z": -6.55
              },
              "AnchorRatio": 0.01,
              "AimOffset": {
                "X": -1.98,
                "Y": -1.88,
                "Z": -2.29
              },
              "AimRatio": 0.99,
              "Dutch": 3,
              "FOV": 25
            },
            "BlendConfig": {
              "BlendType": "Cut",
              "BlendTime": 0.036667
            }
          }
        },
        {
          "$type": "RPG.GameCore.WaitAnimState",
          "TargetType": {
            "$type": "RPG.GameCore.TargetFetchCaster"
          },
          "AnimStateName": "Skill01_Charge",
          "NormalizedTimeEnd": {
            "IsDynamic": false,
            "FixedValue": {
              "Value": 0.6923076524399221
            }
          }
        },
        {
          "$type": "RPG.GameCore.VCameraConfigChange",
          "CameraConfig": {
            "NormalConfig": {
              "CameraState": "CasterToTargetPerform",
              "IsLocalOffset": true,
              "AnchorOffset": {
                "X": 1.891,
                "Y": 0.18,
                "Z": -3.56
              },
              "AimOffset": {
                "X": -1.98,
                "Y": -1.92,
                "Z": -2.29
              },
              "AimRatio": 0.99,
              "Dutch": 3,
              "FOV": 54
            },
            "BlendConfig": {
              "BlendType": "EaseInOut",
              "CustomCurveName": "BlendCut_AetherDivide_XP_Minion04_BP",
              "BlendTime": 0.193333
            }
          }
        }
      ]
    },
    {
      "Name": "Avatar_AetherDivide_XP_Minion04_00_Skill01_01_Camera",
      "TargetInfo": {
        "TargetType": "SkillTargetEntityList"
      },
      "OnStart": [
        {
          "$type": "RPG.GameCore.VCameraConfigChange",
          "CameraConfig": {
            "NormalConfig": {
              "CameraState": "UseSkillPerform",
              "IsLocalOffset": true,
              "AnchorOffset": {
                "X": 0.01,
                "Y": -0.52,
                "Z": -2.07
              },
              "AimTargetType": {
                "$type": "RPG.GameCore.TargetAlias",
                "Alias": "Caster"
              },
              "AimOffset": {
                "X": 0.01,
                "Y": -0.51,
                "Z": 0.01
              },
              "FollowPoleAngle": 90,
              "FollowRadius": 5.5,
              "FOV": 50
            },
            "BlendConfig": {
              "BlendType": "Cut",
              "BlendTime": 0.08
            },
            "ShowEntityConfig": {
              "ShowTargetType": {
                "$type": "RPG.GameCore.TargetAlias",
                "Alias": "Caster"
              },
              "IsAliveOnly": false
            }
          }
        },
        {
          "$type": "RPG.GameCore.WaitAnimState",
          "TargetType": {
            "$type": "RPG.GameCore.TargetFetchCaster"
          },
          "AnimStateName": "Skill12",
          "NormalizedTimeEnd": {
            "IsDynamic": false,
            "FixedValue": {
              "Value": 0.244377315742895
            }
          }
        },
        {
          "$type": "RPG.GameCore.VCameraConfigChange",
          "CameraConfig": {
            "NormalConfig": {
              "CameraState": "UseSkillPerform",
              "AnchorTargetType": {
                "$type": "RPG.GameCore.TargetAlias",
                "Alias": "AllLightTeam"
              },
              "AnchorOffset": {
                "X": 0.01,
                "Y": 0,
                "Z": 0.94
              },
              "AimTargetType": {
                "$type": "RPG.GameCore.TargetAlias",
                "Alias": "AllLightTeam"
              },
              "AimOffset": {
                "X": 0.01,
                "Y": 0,
                "Z": 0.01
              },
              "FollowPoleAngle": 90,
              "FollowRadius": 5.5,
              "FOV": 50
            },
            "BlendConfig": {
              "BlendType": "Cut"
            },
            "ShowEntityConfig": {
              "ShowTargetType": {
                "$type": "RPG.GameCore.TargetAlias",
                "Alias": "AllTeamMember"
              },
              "IsAliveOnly": false
            }
          }
        }
      ]
    },
    {
      "Name": "Avatar_AetherDivide_XP_Minion04_00_Skill02_Camera",
      "TargetInfo": {
        "TargetType": "SkillTargetEntityList"
      },
      "OnStart": []
    },
    {
      "Name": "Avatar_AetherDivide_XP_Minion04_00_Skill03_Camera",
      "TargetInfo": {
        "TargetType": "SkillTargetEntityList"
      },
      "OnStart": [
        {
          "$type": "RPG.GameCore.VCameraConfigChange",
          "CameraConfig": {
            "NormalConfig": {
              "CameraState": "CastAnimation",
              "IsLocalOffset": true,
              "AnchorOffset": {
                "X": 1.7,
                "Y": 0.1,
                "Z": 4.4
              },
              "AimTargetType": {
                "$type": "RPG.GameCore.TargetAlias",
                "Alias": "Caster"
              },
              "AimOffset": {
                "X": 0,
                "Y": -0.46,
                "Z": 0
              }
            },
            "BlendConfig": {
              "BlendType": "Cut",
              "BlendTime": 0.013333
            },
            "ShowEntityConfig": {
              "ShowTargetType": {
                "$type": "RPG.GameCore.TargetAlias",
                "Alias": "Caster"
              }
            }
          }
        },
        {
          "$type": "RPG.GameCore.WaitAnimState",
          "TargetType": {
            "$type": "RPG.GameCore.TargetFetchCaster"
          },
          "AnimStateName": "Skill03_Pre",
          "NormalizedTimeEnd": {
            "IsDynamic": false,
            "FixedValue": {
              "Value": 0.018333332147449255
            }
          }
        },
        {
          "$type": "RPG.GameCore.VCameraConfigChange",
          "CameraConfig": {
            "NormalConfig": {
              "CameraState": "UseSkillPerform",
              "IsLocalOffset": true,
              "AnchorOffset": {
                "X": -2.57,
                "Y": 0,
                "Z": 8.97
              },
              "AimTargetType": {
                "$type": "RPG.GameCore.TargetAlias",
                "Alias": "Caster"
              },
              "AimOffset": {
                "X": 0.03,
                "Y": 0,
                "Z": 0
              }
            },
            "BlendConfig": {
              "BlendType": "EaseIn",
              "UseDefaultBlendCurve": true,
              "BlendTime": 0.036667
            },
            "ShowEntityConfig": {
              "ShowTargetType": {
                "$type": "RPG.GameCore.TargetAlias",
                "Alias": "Caster"
              }
            }
          }
        },
        {
          "$type": "RPG.GameCore.WaitAnimState",
          "TargetType": {
            "$type": "RPG.GameCore.TargetFetchCaster"
          },
          "AnimStateName": "Skill03_Pre",
          "NormalizedTimeEnd": {
            "IsDynamic": false,
            "FixedValue": {
              "Value": 0.04166666814126074
            }
          }
        },
        {
          "$type": "RPG.GameCore.VCameraConfigChange",
          "CameraConfig": {
            "NormalConfig": {
              "CameraState": "UseSkillPerform",
              "IsLocalOffset": true,
              "AnchorOffset": {
                "X": -2.57,
                "Y": 0,
                "Z": 9.95
              },
              "AimTargetType": {
                "$type": "RPG.GameCore.TargetAlias",
                "Alias": "Caster"
              },
              "AimOffset": {
                "X": 0.03,
                "Y": 0,
                "Z": 0
              }
            },
            "BlendConfig": {
              "BlendType": "EaseIn",
              "BlendTime": 0.16
            },
            "ShowEntityConfig": {
              "ShowTargetType": {
                "$type": "RPG.GameCore.TargetAlias",
                "Alias": "Caster"
              }
            }
          }
        },
        {
          "$type": "RPG.GameCore.WaitAnimState",
          "TargetType": {
            "$type": "RPG.GameCore.TargetFetchCaster"
          },
          "AnimStateName": "Skill03",
          "NormalizedTimeEnd": {
            "IsDynamic": false,
            "FixedValue": {
              "Value": 0.001254924340173602
            }
          }
        },
        {
          "$type": "RPG.GameCore.VCameraConfigChange",
          "CameraConfig": {
            "NormalConfig": {
              "CameraState": "CastAnimation",
              "IsLocalOffset": true,
              "AnchorOffset": {
                "X": 0,
                "Y": 0.71,
                "Z": 7.98
              },
              "AimTargetType": {
                "$type": "RPG.GameCore.TargetAlias",
                "Alias": "Caster"
              },
              "AimOffset": {
                "X": 0,
                "Y": 1.28,
                "Z": 0
              }
            },
            "BlendConfig": {
              "BlendType": "EaseInOut",
              "CustomCurveName": "Blend_FastToSlow",
              "BlendTime": 0.254667
            },
            "ShowEntityConfig": {
              "ShowTargetType": {
                "$type": "RPG.GameCore.TargetAlias",
                "Alias": "Caster"
              }
            }
          }
        },
        {
          "$type": "RPG.GameCore.WaitAnimState",
          "TargetType": {
            "$type": "RPG.GameCore.TargetFetchCaster"
          },
          "AnimStateName": "Skill03",
          "NormalizedTimeEnd": {
            "IsDynamic": false,
            "FixedValue": {
              "Value": 0.20627450942993164
            }
          }
        },
        {
          "$type": "RPG.GameCore.VCameraConfigChange",
          "CameraConfig": {
            "NormalConfig": {
              "CameraState": "CastAnimation",
              "IsLocalOffset": true,
              "AnchorOffset": {
                "X": 0,
                "Y": 0.1,
                "Z": 5.53
              },
              "AimTargetType": {
                "$type": "RPG.GameCore.TargetAlias",
                "Alias": "Caster"
              }
            },
            "BlendConfig": {
              "BlendType": "EaseInOut",
              "CustomCurveName": "Blend_SlowToFast",
              "BlendTime": 0.41
            },
            "ShowEntityConfig": {
              "ShowTargetType": {
                "$type": "RPG.GameCore.TargetAlias",
                "Alias": "Caster"
              }
            }
          }
        }
      ]
    }
  ]
}