{
  "AbilityList": [
    {
      "Name": "Avatar_Jingliu_Skill01_Camera",
      "TargetInfo": {
        "TargetType": "SkillTargetEntityList"
      },
      "OnStart": [
        {
          "$type": "RPG.GameCore.WaitAnimState",
          "TargetType": {
            "$type": "RPG.GameCore.TargetFetchCaster"
          },
          "AnimStateName": "Skill01",
          "NormalizedTimeEnd": {
            "IsDynamic": false,
            "FixedValue": {
              "Value": 0.002222222276031971
            }
          }
        },
        {
          "$type": "RPG.GameCore.VCameraConfigChange",
          "CameraConfig": {
            "NormalConfig": {
              "CameraState": "CameraMotion",
              "IsLocalOffset": true,
              "Dutch": 3
            },
            "BlendConfig": {
              "BlendType": "Cut",
              "BlendTime": 0.01
            }
          }
        },
        {
          "$type": "RPG.GameCore.WaitAnimState",
          "TargetType": {
            "$type": "RPG.GameCore.TargetFetchCaster"
          },
          "AnimStateName": "Skill01",
          "NormalizedTimeEnd": {
            "IsDynamic": false,
            "FixedValue": {
              "Value": 0.04417173215188086
            }
          }
        },
        {
          "$type": "RPG.GameCore.VCameraConfigChange",
          "CameraConfig": {
            "NormalConfig": {
              "CameraState": "CasterToTargetPerform",
              "IsLocalOffset": true,
              "AnchorOffset": {
                "X": 1.72,
                "Y": -0.32,
                "Z": -3.91
              },
              "AnchorRatio": 0.99,
              "AimOffset": {
                "X": -1,
                "Y": -0.9,
                "Z": 0
              },
              "AimRatio": 1,
              "Dutch": 3
            },
            "BlendConfig": {
              "BlendType": "EaseInOut",
              "CustomCurveName": "null",
              "BlendTime": 0.254152
            }
          }
        },
        {
          "$type": "RPG.GameCore.WaitAnimState",
          "TargetType": {
            "$type": "RPG.GameCore.TargetFetchCaster"
          },
          "AnimStateName": "Skill01",
          "NormalizedTimeEnd": {
            "IsDynamic": false,
            "FixedValue": {
              "Value": 0.14244011067785323
            }
          }
        },
        {
          "$type": "RPG.GameCore.VCameraConfigChange",
          "CameraConfig": {
            "ShakeTemplateName": "Spike_Light",
            "OverrideShakeConfigV2": {
              "ShakeScale": 0.4,
              "ShakeTime": 0.25,
              "ShakeDir": {
                "X": 0.55,
                "Y": 0.1,
                "Z": 1
              }
            }
          }
        },
        {
          "$type": "RPG.GameCore.WaitAnimState",
          "TargetType": {
            "$type": "RPG.GameCore.TargetFetchCaster"
          },
          "AnimStateName": "Skill01",
          "NormalizedTimeEnd": {
            "IsDynamic": false,
            "FixedValue": {
              "Value": 0.2888888427987695
            }
          }
        },
        {
          "$type": "RPG.GameCore.VCameraConfigChange",
          "CameraConfig": {
            "NormalConfig": {
              "CameraState": "CasterToTargetPerform",
              "IsLocalOffset": true,
              "AnchorOffset": {
                "X": 1.92,
                "Y": -0.28,
                "Z": -4.85
              },
              "AnchorRatio": 0.99,
              "AimOffset": {
                "X": -1,
                "Y": -0.9,
                "Z": 0
              },
              "AimRatio": 1,
              "Dutch": 3
            },
            "BlendConfig": {
              "BlendType": "EaseInOut",
              "BlendTime": 0.053333
            }
          }
        },
        {
          "$type": "RPG.GameCore.WaitAnimState",
          "TargetType": {
            "$type": "RPG.GameCore.TargetFetchCaster"
          },
          "AnimStateName": "Skill01",
          "NormalizedTimeEnd": {
            "IsDynamic": false,
            "FixedValue": {
              "Value": 0.3179955491796136
            }
          }
        },
        {
          "$type": "RPG.GameCore.VCameraConfigChange",
          "CameraConfig": {
            "ShakeTemplateName": "OneShake_Heavy_03s_Z",
            "OverrideShakeConfigV2": {
              "ShakeScale": 1,
              "ShakeTime": 0.5,
              "ShakeDir": {
                "X": -0.4,
                "Y": -0.15,
                "Z": 1
              },
              "RangeAttenuationDelay": 0,
              "RangeAttenuationTarget": 0,
              "RangeAttenuationDuration": 0.18
            }
          }
        }
      ]
    },
    {
      "Name": "Avatar_Jingliu_PassiveAtk_Camera",
      "TargetInfo": {
        "TargetType": "SkillTargetEntityList"
      },
      "OnStart": [
        {
          "$type": "RPG.GameCore.VCameraConfigChange",
          "CameraConfig": {
            "NormalConfig": {
              "CameraState": "CameraMotion",
              "IsLocalOffset": true,
              "Dutch": 3
            },
            "BlendConfig": {
              "BlendType": "Cut"
            }
          }
        },
        {
          "$type": "RPG.GameCore.WaitAnimState",
          "TargetType": {
            "$type": "RPG.GameCore.TargetFetchCaster"
          },
          "AnimStateName": "Skill02_01",
          "NormalizedTimeEnd": {
            "IsDynamic": false,
            "FixedValue": {
              "Value": 0.02242152369581163
            }
          }
        },
        {
          "$type": "RPG.GameCore.VCameraConfigChange",
          "CameraConfig": {
            "NormalConfig": {
              "CameraState": "UseSkillPerform",
              "IsLocalOffset": true,
              "AnchorOffset": {
                "X": -0.74,
                "Y": -0.33,
                "Z": 2.18
              },
              "AnchorRatio": 0.01,
              "AimTargetType": {
                "$type": "RPG.GameCore.TargetAlias",
                "Alias": "Caster"
              },
              "AimOffset": {
                "X": 0.67,
                "Y": -0.42,
                "Z": 0
              },
              "Dutch": 3,
              "FOV": 45
            },
            "BlendConfig": {
              "BlendType": "Custom",
              "CustomCurveName": "BlendCut_00to1",
              "BlendTime": 0.266667
            }
          }
        },
        {
          "$type": "RPG.GameCore.WaitAnimState",
          "TargetType": {
            "$type": "RPG.GameCore.TargetFetchCaster"
          },
          "AnimStateName": "Skill02_01",
          "NormalizedTimeEnd": {
            "IsDynamic": false,
            "FixedValue": {
              "Value": 0.10941702732816339
            }
          }
        },
        {
          "$type": "RPG.GameCore.VCameraConfigChange",
          "CameraConfig": {
            "NormalConfig": {
              "CameraState": "UseSkillPerform",
              "IsLocalOffset": true,
              "AnchorOffset": {
                "X": -0.74,
                "Y": -0.33,
                "Z": 2.18
              },
              "AnchorRatio": 0.01,
              "AimTargetType": {
                "$type": "RPG.GameCore.TargetAlias",
                "Alias": "Caster"
              },
              "AimOffset": {
                "X": 0.67,
                "Y": -0.02,
                "Z": 0
              },
              "Dutch": 3,
              "FOV": 45
            },
            "BlendConfig": {
              "BlendType": "Custom",
              "CustomCurveName": "BlendCut_00to1",
              "BlendTime": 0.1
            }
          }
        },
        {
          "$type": "RPG.GameCore.WaitAnimState",
          "TargetType": {
            "$type": "RPG.GameCore.TargetFetchCaster"
          },
          "AnimStateName": "Skill02_01",
          "NormalizedTimeEnd": {
            "IsDynamic": false,
            "FixedValue": {
              "Value": 0.14263558411039412
            }
          }
        },
        {
          "$type": "RPG.GameCore.VCameraConfigChange",
          "CameraConfig": {
            "NormalConfig": {
              "CameraState": "CasterToTargetPerform",
              "IsLocalOffset": true,
              "AnchorOffset": {
                "X": 1.24,
                "Y": 2.84,
                "Z": -8.72
              },
              "AnchorRatio": 0.99,
              "AimTargetType": {
                "$type": "RPG.GameCore.TargetAlias",
                "Alias": "AbilityTargetEntity"
              },
              "AimOffset": {
                "X": -2.85,
                "Y": -2.41,
                "Z": 0
              },
              "AimRatio": 1,
              "Dutch": 3
            },
            "BlendConfig": {
              "BlendType": "Cut"
            },
            "ShowEntityConfig": {
              "ShowTargetType": {
                "$type": "RPG.GameCore.TargetAlias",
                "Alias": "CasterWithAllEnemy"
              },
              "IsAliveOnly": false
            }
          }
        },
        {
          "$type": "RPG.GameCore.WaitAnimState",
          "TargetType": {
            "$type": "RPG.GameCore.TargetFetchCaster"
          },
          "AnimStateName": "Skill02_01",
          "NormalizedTimeEnd": {
            "IsDynamic": false,
            "FixedValue": {
              "Value": 0.15112106502056122
            }
          }
        },
        {
          "$type": "RPG.GameCore.VCameraConfigChange",
          "CameraConfig": {
            "NormalConfig": {
              "CameraState": "CasterToTargetPerform",
              "IsLocalOffset": true,
              "AnchorOffset": {
                "X": 1.34,
                "Y": 3.87,
                "Z": -9.67
              },
              "AnchorRatio": 0.99,
              "AimTargetType": {
                "$type": "RPG.GameCore.TargetAlias",
                "Alias": "AbilityTargetEntity"
              },
              "AimOffset": {
                "X": -2.85,
                "Y": -2.9,
                "Z": 0
              },
              "AimRatio": 1,
              "Dutch": 3
            },
            "BlendConfig": {
              "BlendType": "Custom",
              "CustomCurveName": "BlendCut_00to1",
              "BlendTime": 0.553026
            },
            "ShowEntityConfig": {
              "ShowTargetType": {
                "$type": "RPG.GameCore.TargetAlias",
                "Alias": "CasterWithAbilityTargetAndAdjoinEntity"
              },
              "IsAliveOnly": false
            }
          }
        },
        {
          "$type": "RPG.GameCore.WaitAnimState",
          "TargetType": {
            "$type": "RPG.GameCore.TargetFetchCaster"
          },
          "AnimStateName": "Skill02_01",
          "NormalizedTimeEnd": {
            "IsDynamic": false,
            "FixedValue": {
              "Value": 0.5044509775470942
            }
          }
        },
        {
          "$type": "RPG.GameCore.VCameraConfigChange",
          "CameraConfig": {
            "NormalConfig": {
              "CameraState": "CasterToTargetPerform",
              "IsLocalOffset": true,
              "AnchorOffset": {
                "X": 1.7,
                "Y": 4.44,
                "Z": -10.06
              },
              "AnchorRatio": 0.99,
              "AimTargetType": {
                "$type": "RPG.GameCore.TargetAlias",
                "Alias": "AbilityTargetEntity"
              },
              "AimOffset": {
                "X": -2.85,
                "Y": -2.19,
                "Z": 0
              },
              "AimRatio": 1,
              "Dutch": 3
            },
            "BlendConfig": {
              "BlendType": "EaseInOut",
              "BlendTime": 0.168333
            },
            "ShowEntityConfig": {
              "ShowTargetType": {
                "$type": "RPG.GameCore.TargetAlias",
                "Alias": "CasterWithAbilityTargetAndAdjoinEntity"
              },
              "IsAliveOnly": false
            }
          }
        },
        {
          "$type": "RPG.GameCore.WaitAnimState",
          "TargetType": {
            "$type": "RPG.GameCore.TargetFetchCaster"
          },
          "AnimStateName": "Skill02_01",
          "NormalizedTimeEnd": {
            "IsDynamic": false,
            "FixedValue": {
              "Value": 0.7623317847028375
            }
          }
        },
        {
          "$type": "RPG.GameCore.VCameraConfigChange",
          "CameraConfig": {
            "NormalConfig": {
              "CameraState": "CasterToTargetPerform",
              "IsLocalOffset": true,
              "AnchorOffset": {
                "X": 2.36,
                "Y": -0.77,
                "Z": -5.23
              },
              "AnchorRatio": 0.99,
              "AimOffset": {
                "X": -1.47,
                "Y": -1.08,
                "Z": 0.62
              },
              "AimRatio": 1,
              "Dutch": 3
            },
            "BlendConfig": {
              "BlendType": "EaseInOut",
              "BlendTime": 0.203334
            },
            "ShowEntityConfig": {
              "ShowTargetType": {
                "$type": "RPG.GameCore.TargetAlias",
                "Alias": "CasterWithAbilityTargetAndAdjoinEntity"
              },
              "IsAliveOnly": false
            }
          }
        },
        {
          "$type": "RPG.GameCore.WaitAnimState",
          "TargetType": {
            "$type": "RPG.GameCore.TargetFetchCaster"
          },
          "AnimStateName": "Skill02_01",
          "NormalizedTimeEnd": {
            "IsDynamic": false,
            "FixedValue": {
              "Value": 0.821487189270556
            }
          }
        },
        {
          "$type": "RPG.GameCore.VCameraConfigChange",
          "CameraConfig": {
            "NormalConfig": {
              "CameraState": "CasterToTargetPerform",
              "IsLocalOffset": true,
              "AnchorOffset": {
                "X": 2.21,
                "Y": -0.68,
                "Z": -5.97
              },
              "AnchorRatio": 0.99,
              "AimOffset": {
                "X": -1.47,
                "Y": -1.08,
                "Z": 0.62
              },
              "AimRatio": 1,
              "Dutch": 3
            },
            "BlendConfig": {
              "BlendType": "Custom",
              "CustomCurveName": "BlendCut_00to1",
              "BlendTime": 0.066667
            },
            "ShowEntityConfig": {
              "ShowTargetType": {
                "$type": "RPG.GameCore.TargetAlias",
                "Alias": "CasterWithAbilityTargetAndAdjoinEntity"
              },
              "IsAliveOnly": false
            }
          }
        },
        {
          "$type": "RPG.GameCore.WaitAnimState",
          "TargetType": {
            "$type": "RPG.GameCore.TargetFetchCaster"
          },
          "AnimStateName": "Skill02_01",
          "NormalizedTimeEnd": {
            "IsDynamic": false,
            "FixedValue": {
              "Value": 0.8404784805607051
            }
          }
        },
        {
          "$type": "RPG.GameCore.VCameraConfigChange",
          "CameraConfig": {
            "ShakeTemplateName": "OneShake_Normal_03s_Z",
            "OverrideShakeConfigV2": {
              "ShakeScale": 1.3,
              "ShakeTime": 0.225,
              "ShakeDir": {
                "X": -0.5,
                "Y": 0,
                "Z": -0.5
              }
            }
          }
        },
        {
          "$type": "RPG.GameCore.WaitAnimState",
          "TargetType": {
            "$type": "RPG.GameCore.TargetFetchCaster"
          },
          "AnimStateName": "Skill02_01",
          "NormalizedTimeEnd": {
            "IsDynamic": false,
            "FixedValue": {
              "Value": 0.9928250324446708
            }
          }
        },
        {
          "$type": "RPG.GameCore.VCameraConfigChange",
          "CameraConfig": {
            "ShakeTemplateName": "LocalPlayer_Welt_NormalAttack_boom",
            "OverrideShakeConfigV2": {
              "ShakeScale": 1,
              "ShakeTime": 0.17,
              "ShakeDir": {
                "X": -0.2,
                "Y": -0.2,
                "Z": -0.2
              },
              "RangeAttenuationDelay": 999,
              "RangeAttenuationTarget": 0
            }
          }
        }
      ]
    },
    {
      "Name": "Avatar_Jingliu_Passive_Camera",
      "TargetInfo": {
        "TargetType": "Caster"
      },
      "OnStart": [
        {
          "$type": "RPG.GameCore.VCameraConfigChange",
          "CameraConfig": {
            "CloseupShotConfig": {
              "CameraTimelineAssetName": "Character_Jingliu_00_PassiveSkill_TimeLine",
              "TransTypeFollow": {
                "$type": "RPG.GameCore.TargetAlias",
                "Alias": "Caster"
              },
              "TransTypeAim": {
                "$type": "RPG.GameCore.TargetAlias",
                "Alias": "AbilityTargetEntity"
              }
            },
            "BlendConfig": {
              "BlendType": "Cut"
            },
            "ShowEntityConfig": {
              "ShowTargetType": {
                "$type": "RPG.GameCore.TargetAlias",
                "Alias": "Caster"
              }
            }
          }
        }
      ]
    },
    {
      "Name": "Avatar_Jingliu_Skill02_Camera",
      "TargetInfo": {
        "TargetType": "SkillTargetEntityList"
      },
      "OnStart": [
        {
          "$type": "RPG.GameCore.VCameraConfigChange",
          "CameraConfig": {
            "NormalConfig": {
              "CameraState": "CameraMotion",
              "Dutch": 3
            },
            "BlendConfig": {
              "BlendType": "Cut",
              "BlendTime": 0.016667
            }
          }
        },
        {
          "$type": "RPG.GameCore.WaitAnimState",
          "TargetType": {
            "$type": "RPG.GameCore.TargetFetchCaster"
          },
          "AnimStateName": "Skill02",
          "NormalizedTimeEnd": {
            "IsDynamic": false,
            "FixedValue": {
              "Value": 0.02535211225040257
            }
          }
        },
        {
          "$type": "RPG.GameCore.VCameraConfigChange",
          "CameraConfig": {
            "NormalConfig": {
              "CameraState": "CasterToTargetPerform",
              "IsLocalOffset": true,
              "AnchorOffset": {
                "X": 1.32,
                "Y": -0.22,
                "Z": -1.41
              },
              "AimOffset": {
                "X": -1.13,
                "Y": -0.94,
                "Z": 0
              },
              "AimRatio": 1,
              "Dutch": 3,
              "ForbidChangeOffset": true
            },
            "BlendConfig": {
              "BlendType": "EaseInOut",
              "CustomCurveName": "null",
              "BlendTime": 0.893333
            }
          }
        },
        {
          "$type": "RPG.GameCore.WaitAnimState",
          "TargetType": {
            "$type": "RPG.GameCore.TargetFetchCaster"
          },
          "AnimStateName": "Skill02",
          "NormalizedTimeEnd": {
            "IsDynamic": false,
            "FixedValue": {
              "Value": 0.42518708179704845
            }
          }
        },
        {
          "$type": "RPG.GameCore.VCameraConfigChange",
          "CameraConfig": {
            "ShakeTemplateName": "Punch_Light",
            "OverrideShakeConfigV2": {
              "ShakeScale": 0.5,
              "ShakeTime": 0.1,
              "ShakeDir": {
                "X": -1,
                "Y": 0,
                "Z": -1
              }
            },
            "BlendConfig": {
              "BlendType": "Cut",
              "BlendTime": 1E-06
            }
          }
        },
        {
          "$type": "RPG.GameCore.WaitAnimState",
          "TargetType": {
            "$type": "RPG.GameCore.TargetFetchCaster"
          },
          "AnimStateName": "Skill02",
          "NormalizedTimeEnd": {
            "IsDynamic": false,
            "FixedValue": {
              "Value": 0.44366198871284723
            }
          }
        },
        {
          "$type": "RPG.GameCore.VCameraConfigChange",
          "CameraConfig": {
            "NormalConfig": {
              "CameraState": "CasterToTargetPerform",
              "IsLocalOffset": true,
              "AnchorOffset": {
                "X": 1.6,
                "Y": -0.25,
                "Z": -2.1
              },
              "AimOffset": {
                "X": -1.04,
                "Y": -0.94,
                "Z": 0
              },
              "AimRatio": 1,
              "Dutch": 3,
              "ForbidChangeOffset": true
            },
            "BlendConfig": {
              "BlendType": "EaseInOut",
              "BlendTime": 0.056667
            }
          }
        },
        {
          "$type": "RPG.GameCore.WaitAnimState",
          "TargetType": {
            "$type": "RPG.GameCore.TargetFetchCaster"
          },
          "AnimStateName": "Skill02",
          "NormalizedTimeEnd": {
            "IsDynamic": false,
            "FixedValue": {
              "Value": 0.4987494950182736
            }
          }
        },
        {
          "$type": "RPG.GameCore.VCameraConfigChange",
          "CameraConfig": {
            "ShakeTemplateName": "Punch_Middle",
            "OverrideShakeConfigV2": {
              "ShakeScale": 1,
              "ShakeTime": 0.2,
              "ShakeDir": {
                "X": 0.33,
                "Y": 0,
                "Z": 1
              }
            }
          }
        }
      ]
    },
    {
      "Name": "Avatar_Jingliu_00_Skill03_Camera",
      "TargetInfo": {
        "TargetType": "SkillTargetEntityList"
      },
      "OnStart": [
        {
          "$type": "RPG.GameCore.VCameraConfigChange",
          "CameraConfig": {
            "CloseupShotConfig": {
              "CameraTimelineAssetName": "Character_Jingliu_00_Skill03_TimeLine",
              "TransTypeFollow": {
                "$type": "RPG.GameCore.TargetAlias",
                "Alias": "Caster"
              },
              "TransTypeAim": {
                "$type": "RPG.GameCore.TargetAlias",
                "Alias": "AbilityTargetEntity"
              }
            },
            "BlendConfig": {
              "BlendType": "Cut"
            },
            "ShowEntityConfig": {
              "ShowTargetType": {
                "$type": "RPG.GameCore.TargetAlias",
                "Alias": "Caster"
              }
            }
          }
        },
        {
          "$type": "RPG.GameCore.WaitAnimState",
          "AnimStateName": "Skill03",
          "NormalizedTimeEnd": {
            "IsDynamic": false,
            "FixedValue": {
              "Value": 0.3500000003259629
            }
          }
        },
        {
          "$type": "RPG.GameCore.VCameraConfigChange",
          "CameraConfig": {
            "ShowEntityConfig": {
              "ShowTargetType": {
                "$type": "RPG.GameCore.TargetAlias",
                "Alias": "CasterWithAbilityTargetAndAdjoinEntity"
              }
            }
          }
        }
      ]
    },
    {
      "Name": "Avata_Jingliu_Passive1Atk_Ability_Camera",
      "TargetInfo": {
        "TargetType": "Caster"
      },
      "OnStart": [
        {
          "$type": "RPG.GameCore.VCameraConfigChange",
          "CameraConfig": {
            "NormalConfig": {
              "CameraState": "CasterToTargetPerform",
              "IsLocalOffset": true,
              "AnchorOffset": {
                "X": 1.21,
                "Y": -0.37,
                "Z": -1.68
              },
              "AimTargetType": {
                "$type": "RPG.GameCore.TargetAlias",
                "Alias": "DarkTeamCenter"
              },
              "AimRatio": 1,
              "Dutch": 2
            },
            "BlendConfig": {
              "BlendType": "Cut",
              "BlendTime": 0.001667
            }
          }
        },
        {
          "$type": "RPG.GameCore.WaitAnimState",
          "TargetType": {
            "$type": "RPG.GameCore.TargetFetchCaster"
          },
          "AnimStateName": "Skill_Passive01",
          "NormalizedTimeEnd": {
            "IsDynamic": false,
            "FixedValue": {
              "Value": 0.0459459472913295
            }
          }
        },
        {
          "$type": "RPG.GameCore.VCameraConfigChange",
          "CameraConfig": {
            "NormalConfig": {
              "CameraState": "CasterToTargetPerform",
              "IsLocalOffset": true,
              "AnchorOffset": {
                "X": 0.8,
                "Y": 1.15,
                "Z": -6.84
              },
              "AnchorRatio": 1,
              "AimTargetType": {
                "$type": "RPG.GameCore.TargetAlias",
                "Alias": "DarkTeamCenter"
              },
              "AimOffset": {
                "X": 0.02,
                "Y": 0.43,
                "Z": 0
              },
              "AimRatio": 1,
              "AnchorToAimAngle": 27,
              "FollowDamp": 1,
              "AimDamp": 1,
              "Dutch": 3
            },
            "BlendConfig": {
              "BlendType": "EaseInOut",
              "BlendTime": 0.405811
            }
          }
        },
        {
          "$type": "RPG.GameCore.WaitAnimState",
          "TargetType": {
            "$type": "RPG.GameCore.TargetFetchCaster"
          },
          "AnimStateName": "Skill_Passive01",
          "NormalizedTimeEnd": {
            "IsDynamic": false,
            "FixedValue": {
              "Value": 0.8732408294454217
            }
          }
        },
        {
          "$type": "RPG.GameCore.VCameraConfigChange",
          "CameraConfig": {
            "NormalConfig": {
              "CameraState": "CasterToTargetPerform",
              "IsLocalOffset": true,
              "AnchorOffset": {
                "X": 0.93,
                "Y": 1.33,
                "Z": -8
              },
              "AnchorRatio": 1,
              "AimTargetType": {
                "$type": "RPG.GameCore.TargetAlias",
                "Alias": "DarkTeamCenter"
              },
              "AimOffset": {
                "X": 0.02,
                "Y": 0.43,
                "Z": 0
              },
              "AimRatio": 1,
              "AnchorToAimAngle": 27,
              "FollowDamp": 1,
              "AimDamp": 1,
              "Dutch": 3
            },
            "BlendConfig": {
              "BlendType": "EaseInOut",
              "BlendTime": 0.106853
            }
          }
        }
      ]
    }
  ]
}