{
  "OnInitSequece": [],
  "OnStartSequece": [
    {
      "TaskList": [
        {
          "$type": "RPG.GameCore.PropSetupTrigger",
          "TargetType": {
            "$type": "RPG.GameCore.TargetFetchAdvPropEx",
            "FetchType": "SinglePropByPropKey",
            "SinglePropKey": {
              "Custom": true,
              "Key": "BirdSet"
            }
          },
          "TargetEntityType": "LocalPlayer",
          "TargetGroupID": {
            "IsDynamic": false,
            "FixedValue": {
              "Value": 0
            }
          },
          "TargetID": {
            "IsDynamic": false,
            "FixedValue": {
              "Value": 0
            }
          },
          "TargetTypes": [],
          "OnTriggerEnter": [
            {
              "$type": "RPG.GameCore.SelectorConfig",
              "TaskList": [
                {
                  "$type": "RPG.GameCore.PropStateExecute",
                  "TargetType": {
                    "$type": "RPG.GameCore.TargetFetchAdvPropEx",
                    "FetchType": "SinglePropByPropKey",
                    "SinglePropKey": {
                      "Custom": true,
                      "Key": "Bird_Listener"
                    }
                  },
                  "Execute": [
                    {
                      "$type": "RPG.GameCore.PlayMunicipalChat",
                      "MunicipalChatConfigPath": "Config/Level/MunicipalChat/MunicipalChatConfig_X101.json",
                      "MunicipalChatName": "MunicipalChat02"
                    }
                  ]
                },
                {
                  "$type": "RPG.GameCore.PropStateExecute",
                  "TargetType": {
                    "$type": "RPG.GameCore.TargetFetchAdvPropEx",
                    "FetchType": "SinglePropByPropKey",
                    "SinglePropKey": {
                      "Custom": true,
                      "Key": "Bird_Listener"
                    }
                  },
                  "State": "Open",
                  "Execute": [
                    {
                      "$type": "RPG.GameCore.PlayMunicipalChat",
                      "MunicipalChatConfigPath": "Config/Level/MunicipalChat/MunicipalChatConfig_X101.json",
                      "MunicipalChatName": "MunicipalChat03"
                    }
                  ]
                }
              ]
            }
          ],
          "OnTriggerExit": [
            {
              "$type": "RPG.GameCore.SelectorConfig",
              "TaskList": [
                {
                  "$type": "RPG.GameCore.PropStateExecute",
                  "TargetType": {
                    "$type": "RPG.GameCore.TargetFetchAdvPropEx",
                    "FetchType": "SinglePropByPropKey",
                    "SinglePropKey": {
                      "Custom": true,
                      "Key": "Bird_Listener"
                    }
                  },
                  "Execute": [
                    {
                      "$type": "RPG.GameCore.StopMunicipalChat",
                      "MunicipalChatName": "MunicipalChat02"
                    }
                  ]
                },
                {
                  "$type": "RPG.GameCore.PropStateExecute",
                  "TargetType": {
                    "$type": "RPG.GameCore.TargetFetchAdvPropEx",
                    "FetchType": "SinglePropByPropKey",
                    "SinglePropKey": {
                      "Custom": true,
                      "Key": "Bird_Listener"
                    }
                  },
                  "State": "Open",
                  "Execute": [
                    {
                      "$type": "RPG.GameCore.StopMunicipalChat",
                      "MunicipalChatName": "MunicipalChat03"
                    }
                  ]
                }
              ]
            }
          ]
        }
      ]
    },
    {
      "TaskList": [
        {
          "$type": "RPG.GameCore.WaitCustomString",
          "CustomString": {
            "Custom": true,
            "Key": "LogisticsRobotActivate"
          }
        },
        {
          "$type": "RPG.GameCore.SelectorConfig",
          "TaskList": [
            {
              "$type": "RPG.GameCore.PropStateExecute",
              "TargetType": {
                "$type": "RPG.GameCore.TargetFetchAdvPropEx",
                "FetchType": "SinglePropByPropKey",
                "SinglePropKey": {
                  "Custom": true,
                  "Key": "Bird_Listener"
                }
              },
              "Execute": [
                {
                  "$type": "RPG.GameCore.StopMunicipalChat",
                  "MunicipalChatName": "MunicipalChat02"
                },
                {
                  "$type": "RPG.GameCore.PropEnableCollider",
                  "OPType": "TriggerOnly",
                  "TargetType": {
                    "$type": "RPG.GameCore.TargetFetchAdvPropEx"
                  }
                }
              ]
            },
            {
              "$type": "RPG.GameCore.PropStateExecute",
              "TargetType": {
                "$type": "RPG.GameCore.TargetFetchAdvPropEx",
                "FetchType": "SinglePropByPropKey",
                "SinglePropKey": {
                  "Custom": true,
                  "Key": "Bird_Listener"
                }
              },
              "State": "Open",
              "Execute": [
                {
                  "$type": "RPG.GameCore.StopMunicipalChat",
                  "MunicipalChatName": "MunicipalChat03"
                },
                {
                  "$type": "RPG.GameCore.PropEnableCollider",
                  "OPType": "TriggerOnly",
                  "TargetType": {
                    "$type": "RPG.GameCore.TargetFetchAdvPropEx"
                  }
                }
              ]
            }
          ]
        }
      ]
    },
    {
      "TaskList": [
        {
          "$type": "RPG.GameCore.WaitCustomString",
          "CustomString": {
            "Custom": true,
            "Key": "Bird_BubbleTalk_01"
          }
        },
        {
          "$type": "RPG.GameCore.PlayNPCBubbleTalk",
          "BubbleTalkInfoList": [
            {
              "GroupID": 95,
              "GroupNpcID": 400001,
              "TalkSentenceID": 407020134
            }
          ],
          "InstantFinish": false
        },
        {
          "$type": "RPG.GameCore.WaitSecond",
          "WaitTime": 1
        },
        {
          "$type": "RPG.GameCore.PlayNPCBubbleTalk",
          "BubbleTalkInfoList": [
            {
              "GroupID": 95,
              "GroupNpcID": 400001,
              "TalkSentenceID": 407020135
            }
          ],
          "InstantFinish": false
        }
      ]
    },
    {
      "TaskList": [
        {
          "$type": "RPG.GameCore.WaitCustomString",
          "CustomString": {
            "Custom": true,
            "Key": "Bird_BubbleTalk_02"
          }
        },
        {
          "$type": "RPG.GameCore.PlayNPCBubbleTalk",
          "BubbleTalkInfoList": [
            {
              "GroupID": 95,
              "GroupNpcID": 400001,
              "TalkSentenceID": 407020136
            }
          ],
          "InstantFinish": false
        },
        {
          "$type": "RPG.GameCore.WaitSecond",
          "WaitTime": 1
        },
        {
          "$type": "RPG.GameCore.PlayNPCBubbleTalk",
          "BubbleTalkInfoList": [
            {
              "GroupID": 95,
              "GroupNpcID": 400001,
              "TalkSentenceID": 407020137
            }
          ],
          "InstantFinish": false
        }
      ]
    }
  ],
  "ValueSource": {
    "Values": [
      {
        "$type": "RPG.GameCore.SharedString",
        "Key": "Bird"
      },
      {
        "$type": "RPG.GameCore.SharedString",
        "Key": "Bird_BubbleTalk_01"
      },
      {
        "$type": "RPG.GameCore.SharedString",
        "Key": "Bird_BubbleTalk_02"
      },
      {
        "$type": "RPG.GameCore.SharedString",
        "Key": "Bird_Listener"
      },
      {
        "$type": "RPG.GameCore.SharedString",
        "Key": "LogisticsRobotActivate"
      },
      {
        "$type": "RPG.GameCore.SharedString",
        "Key": "BirdSet"
      }
    ]
  }
}