{
  "OnInitSequece": [],
  "OnStartSequece": [
    {
      "TaskList": [
        {
          "$type": "RPG.GameCore.PropSetupTrigger",
          "TargetType": {
            "$type": "RPG.GameCore.TargetFetchAdvPropEx",
            "FetchType": "SinglePropByPropKey",
            "SinglePropKey": {
              "Custom": true,
              "Key": "BirdSet"
            }
          },
          "TargetEntityType": "LocalPlayer",
          "TargetGroupID": {
            "IsDynamic": false,
            "FixedValue": {
              "Value": 0
            }
          },
          "TargetID": {
            "IsDynamic": false,
            "FixedValue": {
              "Value": 0
            }
          },
          "TargetTypes": [],
          "OnTriggerEnter": [
            {
              "$type": "RPG.GameCore.PlayMunicipalChat",
              "MunicipalChatConfigPath": "Config/Level/MunicipalChat/MunicipalChatConfig_X201.json",
              "MunicipalChatName": "MunicipalChat25"
            }
          ],
          "OnTriggerExit": [
            {
              "$type": "RPG.GameCore.StopMunicipalChat",
              "MunicipalChatName": "MunicipalChat25"
            }
          ]
        }
      ]
    },
    {
      "TaskList": [
        {
          "$type": "RPG.GameCore.WaitCustomString",
          "CustomString": {
            "Custom": true,
            "Key": "Bird_BubbleTalk_01"
          }
        },
        {
          "$type": "RPG.GameCore.PlayNPCBubbleTalk",
          "BubbleTalkInfoList": [
            {
              "GroupID": 143,
              "GroupNpcID": 400001,
              "TalkSentenceID": 407020134
            }
          ],
          "InstantFinish": false
        },
        {
          "$type": "RPG.GameCore.WaitSecond",
          "WaitTime": 1
        },
        {
          "$type": "RPG.GameCore.PlayNPCBubbleTalk",
          "BubbleTalkInfoList": [
            {
              "GroupID": 143,
              "GroupNpcID": 400001,
              "TalkSentenceID": 407020135
            }
          ],
          "InstantFinish": false
        }
      ]
    },
    {
      "TaskList": [
        {
          "$type": "RPG.GameCore.WaitCustomString",
          "CustomString": {
            "Custom": true,
            "Key": "Bird_BubbleTalk_02"
          }
        },
        {
          "$type": "RPG.GameCore.PlayNPCBubbleTalk",
          "BubbleTalkInfoList": [
            {
              "GroupID": 143,
              "GroupNpcID": 400001,
              "TalkSentenceID": 407020136
            }
          ],
          "InstantFinish": false
        },
        {
          "$type": "RPG.GameCore.WaitSecond",
          "WaitTime": 1
        },
        {
          "$type": "RPG.GameCore.PlayNPCBubbleTalk",
          "BubbleTalkInfoList": [
            {
              "GroupID": 143,
              "GroupNpcID": 400001,
              "TalkSentenceID": 407020137
            }
          ],
          "InstantFinish": false
        }
      ]
    }
  ],
  "ValueSource": {
    "Values": [
      {
        "$type": "RPG.GameCore.SharedString",
        "Key": "Bird"
      },
      {
        "$type": "RPG.GameCore.SharedString",
        "Key": "Bird_BubbleTalk_01"
      },
      {
        "$type": "RPG.GameCore.SharedString",
        "Key": "Bird_BubbleTalk_02"
      },
      {
        "$type": "RPG.GameCore.SharedString",
        "Key": "BirdSet"
      }
    ]
  }
}