{
  "OnInitSequece": [],
  "OnStartSequece": [
    {
      "TaskList": [
        {
          "$type": "RPG.GameCore.BlockInputController",
          "Enable": true,
          "ActionNameList": []
        },
        {
          "$type": "RPG.GameCore.BlockSubmitEvents"
        },
        {
          "$type": "RPG.GameCore.ShowUINodes",
          "Nodes": [
            "AboveDialog/TutorialDialog(Clone)/MaskRaycastTarget"
          ],
          "Open": true
        },
        {
          "$type": "RPG.GameCore.WaitTutorial",
          "Event": "ShowUIContext",
          "Param": "ActivityRogueChallengeMainPage"
        },
        {
          "$type": "RPG.GameCore.WaitSecond",
          "WaitTime": 1.5
        },
        {
          "$type": "RPG.GameCore.BlockInputController",
          "ActionNameList": []
        },
        {
          "$type": "RPG.GameCore.BlockSubmitEvents",
          "Enable": true
        },
        {
          "$type": "RPG.GameCore.ShowUINodes",
          "Nodes": [
            "AboveDialog/TutorialDialog(Clone)/MaskRaycastTarget"
          ]
        },
        {
          "$type": "RPG.GameCore.ShowTutorialGuide",
          "GuideID": 8009,
          "WaitForExit": true
        },
        {
          "$type": "RPG.GameCore.TutorialFinish",
          "TutorialID": 9103
        }
      ]
    }
  ]
}