{
  "OnInitSequece": [],
  "OnStartSequece": [
    {
      "TaskList": [
        {
          "$type": "RPG.GameCore.ShowTutorialUI"
        },
        {
          "$type": "RPG.GameCore.WaitTutorial",
          "Event": "ShowUIContext",
          "Param": "RogueMiracleDetailDialog"
        },
        {
          "$type": "RPG.GameCore.WaitUINodeOpen",
          "NodeID": "RogueRelicDialog.Info",
          "Reverse": true
        },
        {
          "$type": "RPG.GameCore.WaitSecond",
          "WaitTime": 0.5
        },
        {
          "$type": "RPG.GameCore.WaitTutorial",
          "Event": "ShowUIMainPage"
        },
        {
          "$type": "RPG.GameCore.ShowUINodes",
          "Nodes": [
            "AboveDialog/TutorialDialog(Clone)/Bg"
          ],
          "Open": true
        },
        {
          "$type": "RPG.GameCore.ShowTutorialGuideTalk",
          "GuideResID": 19,
          "GuideTalkIDList": [
            90494,
            90495
          ]
        },
        {
          "$type": "RPG.GameCore.ShowUINodes",
          "Nodes": [
            "AboveDialog/TutorialDialog(Clone)/Bg"
          ]
        },
        {
          "$type": "RPG.GameCore.ShowTutorialUI",
          "IsHide": true
        },
        {
          "$type": "RPG.GameCore.TutorialFinish",
          "TutorialID": 9044
        }
      ]
    }
  ]
}