{
  "OnInitSequece": [],
  "OnStartSequece": [
    {
      "TaskList": [
        {
          "$type": "RPG.GameCore.ShowTutorialUI"
        },
        {
          "$type": "RPG.GameCore.TutorialLockControl"
        },
        {
          "$type": "RPG.GameCore.TutorialNotify",
          "Type": "TutorialCleanUI",
          "Param": "1"
        },
        {
          "$type": "RPG.GameCore.WaitTutorial",
          "Event": "ShowUIContext",
          "Param": "MazeMainPage"
        },
        {
          "$type": "RPG.GameCore.WaitUINodeOpen",
          "NodeID": "MazeMainPage.4"
        },
        {
          "$type": "RPG.GameCore.ShowUINodes",
          "Nodes": [
            "AboveDialog/TutorialDialog(Clone)/MaskRaycastTarget"
          ],
          "Open": true
        },
        {
          "$type": "RPG.GameCore.TutorialNotify",
          "Type": "LockController",
          "Param": "1"
        }
      ]
    },
    {
      "TaskList": [
        {
          "$type": "RPG.GameCore.ShowTutorialUI"
        },
        {
          "$type": "RPG.GameCore.CheckUIMode",
          "OnMobile": [
            {
              "$type": "RPG.GameCore.WaitTutorial",
              "Event": "ShowUIContext",
              "Param": "MazeMainPage"
            },
            {
              "$type": "RPG.GameCore.WaitUINodeOpen",
              "NodeID": "MazeMainPage.4"
            },
            {
              "$type": "RPG.GameCore.ShowTutorialUIMask",
              "NodeID": "MazeMainPage.4",
              "Show": true,
              "Type": 1,
              "PCGuide": {
                "Path": "Page/MazeMainPage(Clone)/RightButtomArea/PcMazeSkillPanel/RushBtn"
              },
              "AnimConfig": {
                "UseAnim": true,
                "InitScale": 1.0001,
                "TotalTime": 0.25
              }
            },
            {
              "$type": "RPG.GameCore.ShowGuide",
              "ID": 101,
              "GuideResID": 1,
              "NodeID": "MazeMainPage.4",
              "Show": true,
              "CopyAnchorAndSale": true,
              "PCGuide": {},
              "AnimConfig": {}
            },
            {
              "$type": "RPG.GameCore.ShowGuideText",
              "ID": 201,
              "GuideResID": 15,
              "NodeID": "MazeMainPage.4",
              "Show": true,
              "Text": "TutorialTextmap_300101",
              "OffsetX": -75,
              "PCGuide": {
                "UsePCGuide": true,
                "GuideResID": 15,
                "Path": "Page/MazeMainPage(Clone)/RightTopArea/MainIconItem4",
                "Text": "TutorialTextmap_300101_pc",
                "ControllerText": "TutorialTextmap_300101",
                "ActionName": "Maze_Avatar",
                "OffsetX": -75
              }
            },
            {
              "$type": "RPG.GameCore.MoveUINodeToMask",
              "NodeID": "MazeMainPage.4",
              "Follow": true
            },
            {
              "$type": "RPG.GameCore.BlockInputController",
              "Enable": true,
              "ActionNameList": [
                "Maze_Avatar"
              ]
            },
            {
              "$type": "RPG.GameCore.WaitTutorial",
              "Event": "Goto",
              "Param": "400",
              "PCParam": "400"
            },
            {
              "$type": "RPG.GameCore.BlockInputController",
              "Enable": true,
              "ActionNameList": []
            },
            {
              "$type": "RPG.GameCore.MoveUINodeToMask",
              "NodeID": "MazeMainPage.4",
              "Reset": true
            },
            {
              "$type": "RPG.GameCore.ShowGuideText",
              "ID": 201,
              "GuideResID": 5,
              "Path": "Page",
              "TextPath": "Contents/Text",
              "PCGuide": {
                "UsePCGuide": true,
                "GuideResID": 5,
                "Path": "Page",
                "TextPath": "Contents/Text",
                "ActionName": "Maze_Avatar"
              }
            },
            {
              "$type": "RPG.GameCore.ShowGuide",
              "ID": 101,
              "GuideResID": 1,
              "Path": "Page/MazeMainPage(Clone)/RightTopArea/MainIconItem4",
              "PCGuide": {}
            },
            {
              "$type": "RPG.GameCore.ShowGuide",
              "ID": 301,
              "GuideResID": 10,
              "Path": "Page/MazeMainPage(Clone)/RightTopArea/MainIconItem4",
              "Animation": "GuidEffLine_S_TtoB",
              "PCGuide": {}
            },
            {
              "$type": "RPG.GameCore.ShowTutorialUIMask",
              "Path": "Page/MazeMainPage(Clone)/RightTopArea/MainIconItem4",
              "Type": 1,
              "PCGuide": {
                "Path": "Page/MazeMainPage(Clone)/RightButtomArea/PcMazeSkillPanel/RushBtn"
              },
              "AnimConfig": {
                "UseAnim": true,
                "InitScale": 1.0001,
                "TotalTime": 0.25
              }
            }
          ],
          "OnPC": []
        }
      ]
    },
    {
      "TaskList": [
        {
          "$type": "RPG.GameCore.ShowTutorialUI"
        },
        {
          "$type": "RPG.GameCore.CheckUIMode",
          "OnMobile": [],
          "OnPC": [
            {
              "$type": "RPG.GameCore.WaitTutorial",
              "Event": "ShowUIContext",
              "Param": "MazeMainPage"
            },
            {
              "$type": "RPG.GameCore.WaitUINodeOpen",
              "NodeID": "MazeMainPage.4"
            },
            {
              "$type": "RPG.GameCore.BlockInputController",
              "Enable": true,
              "ActionNameList": []
            },
            {
              "$type": "RPG.GameCore.ShowGuideText",
              "ID": 202,
              "GuideResID": 5,
              "Show": true,
              "TextPath": "Contents/Text",
              "Text": "TutorialTextmap_300300",
              "ActionName": "Special_MouseOperating",
              "CopyAnchorAndSale": true,
              "PCGuide": {}
            },
            {
              "$type": "RPG.GameCore.ShowGuide",
              "ID": 101,
              "GuideResID": 1,
              "NodeID": "MazeMainPage.4",
              "Show": true,
              "CopyAnchorAndSale": true,
              "PCGuide": {},
              "AnimConfig": {}
            },
            {
              "$type": "RPG.GameCore.ShowGuideText",
              "ID": 201,
              "GuideResID": 15,
              "NodeID": "MazeMainPage.4",
              "Show": true,
              "Text": "TutorialTextmap_300101",
              "OffsetX": -75,
              "PCGuide": {
                "GuideResID": 5,
                "Path": "Page",
                "TextPath": "Contents/Text",
                "Text": "TutorialTextmap_300201_pc"
              }
            },
            {
              "$type": "RPG.GameCore.ShowTutorialUIMask",
              "NodeID": "MazeMainPage.4",
              "Show": true,
              "Type": 1,
              "PCGuide": {},
              "AnimConfig": {
                "UseAnim": true,
                "TotalTime": 0.25
              }
            },
            {
              "$type": "RPG.GameCore.MoveUINodeToMask",
              "NodeID": "MazeMainPage.4",
              "Follow": true
            },
            {
              "$type": "RPG.GameCore.WaitTutorial",
              "Event": "Goto",
              "Param": "400",
              "PCParam": "400"
            },
            {
              "$type": "RPG.GameCore.BlockInputController",
              "Enable": true,
              "ActionNameList": []
            },
            {
              "$type": "RPG.GameCore.MoveUINodeToMask",
              "NodeID": "MazeMainPage.4",
              "Reset": true
            },
            {
              "$type": "RPG.GameCore.ShowGuideText",
              "ID": 201,
              "GuideResID": 5,
              "Path": "Page",
              "TextPath": "Contents/Text",
              "PCGuide": {
                "UsePCGuide": true,
                "GuideResID": 5,
                "Path": "Page",
                "TextPath": "Contents/Text",
                "ActionName": "Maze_Avatar"
              }
            },
            {
              "$type": "RPG.GameCore.ShowGuide",
              "ID": 101,
              "GuideResID": 1,
              "Path": "Page/MazeMainPage(Clone)/RightTopArea/MainIconItem4",
              "PCGuide": {}
            },
            {
              "$type": "RPG.GameCore.ShowGuide",
              "ID": 301,
              "GuideResID": 10,
              "Path": "Page/MazeMainPage(Clone)/RightTopArea/MainIconItem4",
              "Animation": "GuidEffLine_S_TtoB",
              "PCGuide": {}
            },
            {
              "$type": "RPG.GameCore.ShowTutorialUIMask",
              "Path": "Page/MazeMainPage(Clone)/RightTopArea/MainIconItem4",
              "Type": 1,
              "PCGuide": {
                "Path": "Page/MazeMainPage(Clone)/RightButtomArea/PcMazeSkillPanel/RushBtn"
              },
              "AnimConfig": {
                "UseAnim": true,
                "InitScale": 1.0001,
                "TotalTime": 0.25
              }
            },
            {
              "$type": "RPG.GameCore.ShowGuideText",
              "ID": 202,
              "GuideResID": 5,
              "TextPath": "Contents/Text",
              "Text": "TutorialTextmap_300300",
              "ActionName": "Special_MouseOperating",
              "CopyAnchorAndSale": true,
              "PCGuide": {}
            }
          ]
        }
      ]
    },
    {
      "IsLoop": true,
      "TaskList": [
        {
          "$type": "RPG.GameCore.ShowTutorialUI"
        },
        {
          "$type": "RPG.GameCore.CheckUIMode",
          "OnMobile": [],
          "OnPC": [],
          "OnController": [
            {
              "$type": "RPG.GameCore.WaitTutorial",
              "Event": "ShowUIContext",
              "Param": "MazeMainPage"
            },
            {
              "$type": "RPG.GameCore.WaitUINodeOpen",
              "NodeID": "MazeMainPage.4"
            },
            {
              "$type": "RPG.GameCore.ShowGuideText",
              "ID": 202,
              "GuideResID": 5,
              "Show": true,
              "TextPath": "Contents/Text",
              "Text": "TutorialTextmap_400100",
              "ActionName": "Maze_ShortCutWheel",
              "CopyAnchorAndSale": true,
              "PCGuide": {}
            },
            {
              "$type": "RPG.GameCore.ShowTutorialUIMask",
              "Path": "Page/MazeMainPage(Clone)/RightTopArea/MainIconItem15",
              "Type": 1,
              "PCGuide": {},
              "AnimConfig": {
                "UseAnim": true,
                "TotalTime": 0.25
              }
            },
            {
              "$type": "RPG.GameCore.BlockSubmitEvents"
            },
            {
              "$type": "RPG.GameCore.WaitTutorial",
              "Event": "ActionRelease",
              "Param": "Maze_ShortCutWheel"
            },
            {
              "$type": "RPG.GameCore.ShowGuideText",
              "ID": 201,
              "GuideResID": 3,
              "Path": "Page/MazeMainPage(Clone)/RightTopArea/MainIconItem23",
              "CopyAnchorAndSale": true,
              "OffsetX": -62,
              "OffsetY": 60,
              "PCGuide": {}
            },
            {
              "$type": "RPG.GameCore.ShowGuide",
              "ID": 101,
              "GuideResID": 1,
              "Path": "Page/MazeMainPage(Clone)/RightTopArea/MainIconItem23",
              "CopyAnchorAndSale": true,
              "PCGuide": {},
              "AnimConfig": {}
            },
            {
              "$type": "RPG.GameCore.ShowGuide",
              "ID": 301,
              "GuideResID": 10,
              "Path": "Page/MazeMainPage(Clone)/RightTopArea/MainIconItem23",
              "Animation": "GuidEffLine_S_BtoT",
              "PCGuide": {}
            }
          ]
        }
      ]
    },
    {
      "IsLoop": true,
      "TaskList": [
        {
          "$type": "RPG.GameCore.ShowTutorialUI"
        },
        {
          "$type": "RPG.GameCore.CheckUIMode",
          "OnMobile": [],
          "OnPC": [],
          "OnController": [
            {
              "$type": "RPG.GameCore.WaitTutorial",
              "Event": "ShowUIContext",
              "Param": "MazeMainPage"
            },
            {
              "$type": "RPG.GameCore.WaitUINodeOpen",
              "NodeID": "MazeMainPage.4"
            },
            {
              "$type": "RPG.GameCore.BlockInputController",
              "Enable": true,
              "ActionNameList": [
                "Maze_ShortCutWheel"
              ]
            },
            {
              "$type": "RPG.GameCore.BlockWheelItem",
              "Enable": true,
              "TutorialGuideWheelItem": "AvatarDetail"
            },
            {
              "$type": "RPG.GameCore.WaitTutorial",
              "Event": "ActionPress",
              "Param": "Maze_ShortCutWheel"
            },
            {
              "$type": "RPG.GameCore.ShowGuideText",
              "ID": 202,
              "GuideResID": 5,
              "Path": "Page",
              "TextPath": "Contents/Text",
              "Text": "TutorialTextmap_300300",
              "ActionName": "Special_MouseOperating",
              "CopyAnchorAndSale": true,
              "PCGuide": {}
            },
            {
              "$type": "RPG.GameCore.ShowGuideText",
              "ID": 201,
              "GuideResID": 5,
              "Show": true,
              "TextPath": "Contents/Text",
              "Text": "TutorialTextmap_300101",
              "PCGuide": {
                "GuideResID": 5,
                "Path": "Page",
                "TextPath": "Contents/Text",
                "Text": "TutorialTextmap_300201_pc"
              }
            },
            {
              "$type": "RPG.GameCore.WaitTutorial",
              "Event": "ActionRelease",
              "Param": "Maze_ShortCutWheel"
            }
          ]
        }
      ]
    },
    {
      "IsLoop": true,
      "TaskList": [
        {
          "$type": "RPG.GameCore.ShowTutorialUI"
        },
        {
          "$type": "RPG.GameCore.CheckUIMode",
          "OnMobile": [],
          "OnPC": [],
          "OnController": [
            {
              "$type": "RPG.GameCore.WaitTutorial",
              "Event": "ShowUIContext",
              "Param": "MazeMainPage"
            },
            {
              "$type": "RPG.GameCore.WaitTutorial",
              "Event": "ActionPress",
              "Param": "Maze_ShortCutWheel"
            },
            {
              "$type": "RPG.GameCore.WaitUINodeOpen",
              "NodeID": "ShortCutItem.1"
            },
            {
              "$type": "RPG.GameCore.ShowGuide",
              "ID": 101,
              "GuideResID": 1,
              "NodeID": "ShortCutItem.1",
              "Show": true,
              "CopyAnchorAndSale": true,
              "UseOriginRatio": true,
              "Scale": 1.2,
              "PCGuide": {},
              "AnimConfig": {}
            },
            {
              "$type": "RPG.GameCore.WaitUINodeOpen",
              "NodeID": "ShortCutItem.1",
              "SkipCheck": true,
              "Reverse": true
            },
            {
              "$type": "RPG.GameCore.ShowGuide",
              "ID": 101,
              "GuideResID": 1,
              "NodeID": "ShortCutItem.1",
              "CopyAnchorAndSale": true,
              "UseOriginRatio": true,
              "PCGuide": {},
              "AnimConfig": {}
            }
          ]
        }
      ]
    },
    {
      "TaskList": [
        {
          "$type": "RPG.GameCore.ShowTutorialUI"
        },
        {
          "$type": "RPG.GameCore.WaitTutorial",
          "Event": "ShowUIContext",
          "Param": "AvatarMainPage"
        },
        {
          "$type": "RPG.GameCore.WaitUINodeOpen",
          "NodeID": "AvatarMainPage"
        },
        {
          "$type": "RPG.GameCore.BlockInputController",
          "Enable": true,
          "ActionNameList": []
        },
        {
          "$type": "RPG.GameCore.ShowUINodes",
          "Nodes": [
            "AboveDialog/TutorialDialog(Clone)/MaskRaycastTarget"
          ],
          "Open": true
        },
        {
          "$type": "RPG.GameCore.MoveUINodeToMask",
          "NodeID": "MazeMainPage.4",
          "Reset": true
        },
        {
          "$type": "RPG.GameCore.ShowGuideText",
          "ID": 201,
          "GuideResID": 5,
          "Path": "Page",
          "TextPath": "Contents/Text",
          "PCGuide": {
            "UsePCGuide": true,
            "GuideResID": 5,
            "Path": "Page",
            "TextPath": "Contents/Text",
            "ActionName": "Maze_Avatar"
          }
        },
        {
          "$type": "RPG.GameCore.ShowGuide",
          "ID": 101,
          "GuideResID": 1,
          "Path": "Page/MazeMainPage(Clone)/RightTopArea/MainIconItem4",
          "PCGuide": {}
        },
        {
          "$type": "RPG.GameCore.ShowGuide",
          "ID": 301,
          "GuideResID": 10,
          "Path": "Page/MazeMainPage(Clone)/RightTopArea/MainIconItem4",
          "Animation": "GuidEffLine_S_TtoB",
          "PCGuide": {}
        }
      ]
    },
    {
      "TaskList": [
        {
          "$type": "RPG.GameCore.ShowTutorialUI"
        },
        {
          "$type": "RPG.GameCore.WaitTutorial",
          "Event": "ShowUIContext",
          "Param": "AvatarMainPage"
        },
        {
          "$type": "RPG.GameCore.WaitUINodeOpen",
          "NodeID": "AvatarMainPage.ViewPoint"
        },
        {
          "$type": "RPG.GameCore.TutorialNotify",
          "Type": "MoveScrollView",
          "Param": "8001"
        },
        {
          "$type": "RPG.GameCore.WaitUINodeOpen",
          "NodeID": "AvatarMainPage.Image.8001"
        },
        {
          "$type": "RPG.GameCore.ShowTutorialUIMask",
          "NodeID": "AvatarMainPage.8001",
          "Show": true,
          "Type": 1,
          "PCGuide": {
            "UsePCGuide": true,
            "Path": "Page/AvatarMainPage(Clone)/AvatarTopListPanel/AvatarTopListPanel(Clone)/ScrollView/ViewPoint/Content/AvatarHeadIcon8001"
          },
          "AnimConfig": {
            "UseAnim": true,
            "InitScale": 1.0001,
            "TotalTime": 0.25
          }
        },
        {
          "$type": "RPG.GameCore.ShowGuide",
          "ID": 102,
          "GuideResID": 1,
          "NodeID": "AvatarMainPage.8001",
          "Show": true,
          "CopyAnchorAndSale": true,
          "UseOriginRatio": true,
          "PCGuide": {
            "UsePCGuide": true,
            "GuideResID": 1,
            "Path": "Page/AvatarMainPage(Clone)/AvatarTopListPanel/AvatarTopListPanel(Clone)/ScrollView/ViewPoint/Content/AvatarHeadIcon8001",
            "CopyAnchorAndSale": true
          },
          "AnimConfig": {}
        },
        {
          "$type": "RPG.GameCore.ShowGuideText",
          "ID": 202,
          "GuideResID": 14,
          "NodeID": "AvatarMainPage.8001",
          "Show": true,
          "Text": "TutorialTextmap_300102",
          "ActionName": "Menu_Confirm",
          "OffsetX": 120,
          "OffsetY": -40,
          "PCGuide": {
            "UsePCGuide": true,
            "GuideResID": 4,
            "Path": "Page/AvatarMainPage(Clone)/AvatarTopListPanel/AvatarTopListPanel(Clone)/ScrollView/ViewPoint/Content/AvatarHeadIcon8001",
            "Text": "TutorialTextmap_300102",
            "ControllerText": "TutorialTextmap_300102",
            "OffsetX": 38,
            "OffsetY": -120
          }
        },
        {
          "$type": "RPG.GameCore.WaitSecond",
          "WaitTime": 0.3
        },
        {
          "$type": "RPG.GameCore.CheckUIMode",
          "OnMobile": [],
          "OnController": [
            {
              "$type": "RPG.GameCore.SetNavigationTarget",
              "NodeID": "AvatarMainPage.8001"
            }
          ]
        },
        {
          "$type": "RPG.GameCore.MoveUINodeToMask",
          "NodeID": "AvatarMainPage.8001",
          "Follow": true
        },
        {
          "$type": "RPG.GameCore.BlockSubmitEvents",
          "Enable": true
        },
        {
          "$type": "RPG.GameCore.WaitTutorial",
          "Event": "ClickBtnWithPath",
          "Param": "AvatarMainPage.8001",
          "OnSuccessImmediate": [
            {
              "$type": "RPG.GameCore.BlockSubmitEvents"
            }
          ]
        },
        {
          "$type": "RPG.GameCore.ShowTutorialUIMask",
          "Path": "Page/AvatarMainPage(Clone)/AvatarListPanel/AvatarListPanel(Clone)/ScrollView/ViewPoint/Content/AvatarHeadIcon8002",
          "Type": 1,
          "PCGuide": {
            "Path": "Page/AvatarMainPage(Clone)/AvatarTopListPanel/AvatarTopListPanel(Clone)/ScrollView/ViewPoint/Content/AvatarHeadIcon8002"
          },
          "AnimConfig": {
            "InitScale": 1.0001,
            "TotalTime": 0.25
          }
        },
        {
          "$type": "RPG.GameCore.ShowGuideText",
          "ID": 202,
          "GuideResID": 5,
          "Path": "Page",
          "TextPath": "Contents/Text",
          "CopyAnchorAndSale": true,
          "PCGuide": {}
        },
        {
          "$type": "RPG.GameCore.ShowGuide",
          "ID": 102,
          "GuideResID": 2,
          "Path": "Page/AvatarMainPage(Clone)/AvatarListPanel/AvatarListPanel(Clone)/ScrollView/ViewPoint/Content/AvatarHeadIcon8001",
          "PCGuide": {
            "UsePCGuide": true,
            "GuideResID": 2,
            "Path": "Page/AvatarMainPage(Clone)/AvatarTopListPanel/AvatarTopListPanel(Clone)/ScrollView/ViewPoint/Content/AvatarHeadIcon8001"
          },
          "AnimConfig": {}
        },
        {
          "$type": "RPG.GameCore.MoveUINodeToMask",
          "NodeID": "AvatarMainPage.8001",
          "Reset": true,
          "Follow": true
        },
        {
          "$type": "RPG.GameCore.TriggerCustomString",
          "CustomString": {
            "Value": "tutorial_3001_1"
          }
        }
      ]
    },
    {
      "TaskList": [
        {
          "$type": "RPG.GameCore.WaitCustomString",
          "CustomString": {
            "Value": "tutorial_3001_1"
          }
        },
        {
          "$type": "RPG.GameCore.WaitUINodeOpen",
          "NodeID": "AvatarMainPage.LightConeEmptyPlus"
        },
        {
          "$type": "RPG.GameCore.ShowGuide",
          "ID": 103,
          "GuideResID": 2,
          "NodeID": "AvatarMainPage.LightConeEmptyBtn",
          "Show": true,
          "CopyAnchorAndSale": true,
          "PCGuide": {},
          "AnimConfig": {}
        },
        {
          "$type": "RPG.GameCore.ShowGuideText",
          "ID": 203,
          "GuideResID": 3,
          "NodeID": "AvatarMainPage.LightConeEmptyBtn",
          "Show": true,
          "Text": "TutorialTextmap_300103",
          "CopyAnchorAndSale": true,
          "OffsetY": 70,
          "PCGuide": {}
        },
        {
          "$type": "RPG.GameCore.ShowTutorialUIMask",
          "NodeID": "AvatarMainPage.LightConeEmptyBtn",
          "Show": true,
          "PCGuide": {
            "Path": "Page/AvatarMainPage(Clone)/AvatarTopListPanel/AvatarTopListPanel(Clone)/ScrollView/ViewPoint/Content/AvatarHeadIcon8001"
          },
          "AnimConfig": {
            "InitScale": 1.0001,
            "TotalTime": 0.25
          }
        },
        {
          "$type": "RPG.GameCore.WaitSecond",
          "WaitTime": 0.3
        },
        {
          "$type": "RPG.GameCore.MoveUINodeToMask",
          "NodeID": "AvatarMainPage.LightConeEmptyBtn",
          "Follow": true
        },
        {
          "$type": "RPG.GameCore.CheckUIMode",
          "OnMobile": [],
          "OnController": [
            {
              "$type": "RPG.GameCore.SetNavigationTarget",
              "NodeID": "AvatarMainPage.LightConeEmptyBtn"
            }
          ]
        },
        {
          "$type": "RPG.GameCore.BlockSubmitEvents",
          "Enable": true
        },
        {
          "$type": "RPG.GameCore.WaitTutorial",
          "Event": "ClickBtnWithPath",
          "Param": "AvatarMainPage.LightConeEmptyBtn",
          "OnSuccessImmediate": [
            {
              "$type": "RPG.GameCore.BlockSubmitEvents"
            }
          ]
        },
        {
          "$type": "RPG.GameCore.MoveUINodeToMask",
          "NodeID": "AvatarMainPage.LightConeEmptyBtn",
          "Reset": true,
          "Follow": true
        },
        {
          "$type": "RPG.GameCore.ShowGuideText",
          "ID": 203,
          "GuideResID": 3,
          "Path": "Page/AvatarMainPage(Clone)/AvatarSubMenuPanel_Vertical/AvatarSubMenuPanel_Vertical(Clone)/FunctionBtnPanel/BtnLightCone/TabButton_3",
          "OffsetY": 80,
          "PCGuide": {}
        },
        {
          "$type": "RPG.GameCore.ShowGuide",
          "ID": 103,
          "GuideResID": 2,
          "Path": "Page/AvatarMainPage(Clone)/AvatarSubMenuPanel_Vertical/AvatarSubMenuPanel_Vertical(Clone)/FunctionBtnPanel/BtnLightCone/TabButton_3",
          "PCGuide": {}
        },
        {
          "$type": "RPG.GameCore.ShowTutorialUIMask",
          "Path": "Page/AvatarMainPage(Clone)/AvatarDetailPanel/AvatarDetailPanel(Clone)/AvatarDetailInfoPanel/DetailInfoPanel/LightConeSmallPanel/EmptyBtn",
          "PCGuide": {
            "Path": "Page/AvatarMainPage(Clone)/AvatarTopListPanel/AvatarTopListPanel(Clone)/ScrollView/ViewPoint/Content/AvatarHeadIcon8001"
          },
          "AnimConfig": {
            "InitScale": 1.0001,
            "TotalTime": 0.25
          }
        },
        {
          "$type": "RPG.GameCore.WaitTutorial",
          "Event": "ShowUIContext",
          "Param": "LightConeReplacePage"
        },
        {
          "$type": "RPG.GameCore.WaitSecond",
          "WaitTime": 1
        },
        {
          "$type": "RPG.GameCore.WaitUINodeOpen",
          "NodeID": "InventoryPage.20002",
          "SkipCheck": true
        },
        {
          "$type": "RPG.GameCore.ShowGuide",
          "ID": 104,
          "GuideResID": 2,
          "NodeID": "AvatarMainPage.LightConeStatus",
          "Show": true,
          "CopyAnchorAndSale": true,
          "PCGuide": {},
          "AnimConfig": {}
        },
        {
          "$type": "RPG.GameCore.ShowGuideText",
          "ID": 204,
          "GuideResID": 8,
          "NodeID": "AvatarMainPage.LightConeStatus",
          "Show": true,
          "Text": "TutorialTextmap_300104",
          "CopyAnchorAndSale": true,
          "OffsetY": -120,
          "PCGuide": {}
        },
        {
          "$type": "RPG.GameCore.ShowTutorialUIMask",
          "NodeID": "AvatarMainPage.LightConeStatus",
          "Show": true,
          "PCGuide": {
            "Path": "Page/AvatarMainPage(Clone)/AvatarTopListPanel/AvatarTopListPanel(Clone)/ScrollView/ViewPoint/Content/AvatarHeadIcon8002"
          },
          "AnimConfig": {
            "UseAnim": true,
            "InitScale": 1.0001,
            "TotalTime": 0.25
          }
        },
        {
          "$type": "RPG.GameCore.ShowUINodes",
          "Nodes": [
            "AboveDialog/TutorialDialog(Clone)/FullScreenButton"
          ],
          "Open": true
        },
        {
          "$type": "RPG.GameCore.WaitSecond",
          "WaitTime": 0.8
        },
        {
          "$type": "RPG.GameCore.WaitTutorial",
          "Event": "ActionPress"
        },
        {
          "$type": "RPG.GameCore.ShowUINodes",
          "Nodes": [
            "AboveDialog/TutorialDialog(Clone)/FullScreenButton"
          ]
        },
        {
          "$type": "RPG.GameCore.ShowTutorialUIMask",
          "Path": "Page/LightConeReplacePage(Clone)/LightConeReplacePanel/Contents/StatusPanel",
          "PCGuide": {
            "Path": "Page/AvatarMainPage(Clone)/AvatarTopListPanel/AvatarTopListPanel(Clone)/ScrollView/ViewPoint/Content/AvatarHeadIcon8002"
          },
          "AnimConfig": {
            "InitScale": 1.0001,
            "TotalTime": 0.25
          }
        },
        {
          "$type": "RPG.GameCore.ShowGuideText",
          "ID": 204,
          "GuideResID": 3,
          "Path": "Page/LightConeReplacePage(Clone)/LightConeListArea/ItemArea(Clone)/ItemList/ScrollView/ViewPoint/Content",
          "CopyAnchorAndSale": true,
          "OffsetX": -45,
          "OffsetY": 50,
          "PCGuide": {}
        },
        {
          "$type": "RPG.GameCore.ShowGuide",
          "ID": 104,
          "GuideResID": 2,
          "NodeID": "AvatarMainPage.LightConeStatus",
          "CopyAnchorAndSale": true,
          "PCGuide": {},
          "AnimConfig": {}
        },
        {
          "$type": "RPG.GameCore.ShowGuide",
          "ID": 106,
          "GuideResID": 2,
          "NodeID": "LightConeReplace.SkillContent",
          "Show": true,
          "CopyAnchorAndSale": true,
          "PCGuide": {},
          "AnimConfig": {}
        },
        {
          "$type": "RPG.GameCore.ShowGuideText",
          "ID": 206,
          "GuideResID": 9,
          "NodeID": "LightConeReplace.SkillContent",
          "Show": true,
          "Text": "TutorialTextmap_300106",
          "CopyAnchorAndSale": true,
          "OffsetX": -50,
          "OffsetY": 50,
          "PCGuide": {}
        },
        {
          "$type": "RPG.GameCore.ShowTutorialUIMask",
          "NodeID": "LightConeReplace.SkillContent",
          "Show": true,
          "PCGuide": {
            "Path": "Page/AvatarMainPage(Clone)/AvatarTopListPanel/AvatarTopListPanel(Clone)/ScrollView/ViewPoint/Content/AvatarHeadIcon8002"
          },
          "AnimConfig": {
            "InitScale": 1.0001,
            "TotalTime": 0.25
          }
        },
        {
          "$type": "RPG.GameCore.ShowUINodes",
          "Nodes": [
            "AboveDialog/TutorialDialog(Clone)/FullScreenButton"
          ],
          "Open": true
        },
        {
          "$type": "RPG.GameCore.WaitSecond",
          "WaitTime": 0.8
        },
        {
          "$type": "RPG.GameCore.WaitTutorial",
          "Event": "ActionPress"
        },
        {
          "$type": "RPG.GameCore.ShowUINodes",
          "Nodes": [
            "AboveDialog/TutorialDialog(Clone)/FullScreenButton"
          ]
        },
        {
          "$type": "RPG.GameCore.ShowGuide",
          "ID": 106,
          "GuideResID": 2,
          "NodeID": "AvatarMainPage.LightConeStatus",
          "CopyAnchorAndSale": true,
          "PCGuide": {},
          "AnimConfig": {}
        },
        {
          "$type": "RPG.GameCore.ShowGuideText",
          "ID": 206,
          "GuideResID": 3,
          "Path": "Page/LightConeReplacePage(Clone)/LightConeListArea/ItemArea(Clone)/ItemList/ScrollView/ViewPoint/Content",
          "CopyAnchorAndSale": true,
          "OffsetX": -45,
          "OffsetY": 50,
          "PCGuide": {}
        },
        {
          "$type": "RPG.GameCore.ShowTutorialUIMask",
          "Path": "Page/LightConeReplacePage(Clone)/LightConeReplacePanel/Contents/StatusPanel",
          "PCGuide": {
            "Path": "Page/AvatarMainPage(Clone)/AvatarTopListPanel/AvatarTopListPanel(Clone)/ScrollView/ViewPoint/Content/AvatarHeadIcon8002"
          },
          "AnimConfig": {
            "InitScale": 1.0001,
            "TotalTime": 0.25
          }
        },
        {
          "$type": "RPG.GameCore.WaitUINodeOpen",
          "NodeID": "AvatarMainPage.BtnEquipFrameBg"
        },
        {
          "$type": "RPG.GameCore.ShowTutorialUIMask",
          "NodeID": "AvatarMainPage.BtnEquip",
          "Show": true,
          "PCGuide": {
            "Path": "Page/AvatarMainPage(Clone)/AvatarTopListPanel/AvatarTopListPanel(Clone)/ScrollView/ViewPoint/Content/AvatarHeadIcon8002"
          },
          "AnimConfig": {
            "InitScale": 1.0001,
            "TotalTime": 0.25
          }
        },
        {
          "$type": "RPG.GameCore.ShowGuide",
          "ID": 107,
          "GuideResID": 2,
          "NodeID": "AvatarMainPage.BtnEquip",
          "Show": true,
          "CopyAnchorAndSale": true,
          "PCGuide": {},
          "AnimConfig": {}
        },
        {
          "$type": "RPG.GameCore.ShowGuideText",
          "ID": 205,
          "GuideResID": 3,
          "NodeID": "AvatarMainPage.BtnEquip",
          "Show": true,
          "Text": "TutorialTextmap_300105",
          "CopyAnchorAndSale": true,
          "OffsetY": 70,
          "PCGuide": {}
        },
        {
          "$type": "RPG.GameCore.MoveUINodeToMask",
          "NodeID": "AvatarMainPage.BtnEquip",
          "Follow": true
        },
        {
          "$type": "RPG.GameCore.BlockInputController",
          "Enable": true,
          "ActionNameList": [
            "Menu_Confirm"
          ]
        },
        {
          "$type": "RPG.GameCore.WaitTutorial",
          "Event": "ClickBtnWithPath",
          "Param": "AvatarMainPage.BtnEquip",
          "OnSuccessImmediate": [
            {
              "$type": "RPG.GameCore.TutorialSave",
              "TutorialID": 3001
            },
            {
              "$type": "RPG.GameCore.BlockInputController",
              "Enable": true,
              "ActionNameList": []
            },
            {
              "$type": "RPG.GameCore.BlockWheelItem"
            },
            {
              "$type": "RPG.GameCore.BlockSubmitEvents",
              "Enable": true
            }
          ]
        },
        {
          "$type": "RPG.GameCore.MoveUINodeToMask",
          "NodeID": "AvatarMainPage.BtnEquip",
          "Reset": true,
          "Follow": true
        },
        {
          "$type": "RPG.GameCore.ShowGuide",
          "ID": 107,
          "GuideResID": 2,
          "Path": "Page/LightConeReplacePage(Clone)/LightConeReplacePanel/Contents/FunctionPanel/BtnEquip",
          "CopyAnchorAndSale": true,
          "PCGuide": {}
        },
        {
          "$type": "RPG.GameCore.ShowGuideText",
          "ID": 205,
          "GuideResID": 9,
          "Path": "Page/LightConeReplacePage(Clone)/LightConeReplacePanel/Contents/FunctionPanel/BtnEquip",
          "Text": "TutorialTextmap_300105",
          "CopyAnchorAndSale": true,
          "OffsetX": -178,
          "OffsetY": 75,
          "PCGuide": {}
        },
        {
          "$type": "RPG.GameCore.ShowTutorialUIMask",
          "Path": "Page/LightConeReplacePage(Clone)/LightConeReplacePanel/Contents/FunctionPanel/BtnEquip",
          "PCGuide": {
            "Path": "Page/AvatarMainPage(Clone)/AvatarTopListPanel/AvatarTopListPanel(Clone)/ScrollView/ViewPoint/Content/AvatarHeadIcon8002"
          },
          "AnimConfig": {
            "InitScale": 1.0001,
            "TotalTime": 0.25
          }
        },
        {
          "$type": "RPG.GameCore.ShowUINodes",
          "Nodes": [
            "AboveDialog/TutorialDialog(Clone)/MaskRaycastTarget"
          ]
        },
        {
          "$type": "RPG.GameCore.ShowTutorialUI",
          "IsHide": true
        },
        {
          "$type": "RPG.GameCore.TutorialNotify",
          "Type": "TutorialCleanUI",
          "Param": "0"
        },
        {
          "$type": "RPG.GameCore.TutorialLockControl",
          "Reset": true
        },
        {
          "$type": "RPG.GameCore.BlockInputController",
          "ActionNameList": []
        },
        {
          "$type": "RPG.GameCore.TutorialNotify",
          "Type": "LockController",
          "Param": "0"
        },
        {
          "$type": "RPG.GameCore.TutorialFinish",
          "TutorialID": 3001
        }
      ]
    }
  ]
}