{
  "OnInitSequece": [],
  "OnStartSequece": [
    {
      "TaskList": [
        {
          "$type": "RPG.GameCore.BlockInputController",
          "Enable": true,
          "ActionNameList": []
        },
        {
          "$type": "RPG.GameCore.ShowUINodes",
          "Nodes": [
            "AboveDialog/TutorialDialog(Clone)/MaskRaycastTarget"
          ],
          "Open": true
        },
        {
          "$type": "RPG.GameCore.BlockSubmitEvents"
        },
        {
          "$type": "RPG.GameCore.WaitSecond",
          "WaitTime": 1,
          "TaskEnabled": false
        },
        {
          "$type": "RPG.GameCore.ShowGuideText",
          "ID": 101,
          "GuideResID": 5,
          "Show": true,
          "TextPath": "Contents/Text",
          "Text": "TutorialTextmap_505901",
          "CopyAnchorAndSale": true,
          "PCGuide": {}
        },
        {
          "$type": "RPG.GameCore.WaitSecond",
          "WaitTime": 2
        },
        {
          "$type": "RPG.GameCore.WaitTutorial",
          "Event": "ActionPress"
        },
        {
          "$type": "RPG.GameCore.ShowGuideText",
          "ID": 101,
          "GuideResID": 5,
          "TextPath": "Contents/Text",
          "Text": "TutorialTextmap_505201",
          "CopyAnchorAndSale": true,
          "PCGuide": {}
        },
        {
          "$type": "RPG.GameCore.BlockInputController",
          "ActionNameList": []
        },
        {
          "$type": "RPG.GameCore.BlockSubmitEvents",
          "Enable": true
        },
        {
          "$type": "RPG.GameCore.ShowUINodes",
          "Nodes": [
            "AboveDialog/TutorialDialog(Clone)/MaskRaycastTarget"
          ]
        },
        {
          "$type": "RPG.GameCore.ShowTutorialGuide",
          "GuideID": 8019,
          "WaitForExit": true
        },
        {
          "$type": "RPG.GameCore.BlockInputController",
          "Enable": true,
          "ActionNameList": [
            "Menu_UnchangeBack"
          ]
        },
        {
          "$type": "RPG.GameCore.BlockSubmitEvents"
        },
        {
          "$type": "RPG.GameCore.ShowUINodes",
          "Nodes": [
            "AboveDialog/TutorialDialog(Clone)/MaskRaycastTarget"
          ],
          "Open": true
        },
        {
          "$type": "RPG.GameCore.ShowGuide",
          "ID": 201,
          "GuideResID": 11,
          "NodeID": "TreasureDungeonMainPage.BtnMonsterDetail",
          "Show": true,
          "CopyAnchorAndSale": true,
          "PCGuide": {},
          "AnimConfig": {}
        },
        {
          "$type": "RPG.GameCore.ShowGuideText",
          "ID": 202,
          "GuideResID": 4,
          "NodeID": "TreasureDungeonMainPage.BtnMonsterDetail",
          "Show": true,
          "Text": "TutorialTextmap_505902",
          "OffsetX": 75,
          "PCGuide": {
            "GuideResID": 14,
            "Text": "TutorialTextmap_502701",
            "ControllerText": "TutorialTextmap_502701",
            "ActionName": "Menu_PhoneOrQuitGame",
            "ControllerActionName": "Menu_PhoneOrQuitGame",
            "OffsetX": 75,
            "OffsetY": -20
          }
        },
        {
          "$type": "RPG.GameCore.ShowTutorialUIMask",
          "NodeID": "TreasureDungeonMainPage.BtnMonsterDetail",
          "Show": true,
          "PCGuide": {},
          "AnimConfig": {}
        },
        {
          "$type": "RPG.GameCore.WaitSecond",
          "WaitTime": 2
        },
        {
          "$type": "RPG.GameCore.ShowGuide",
          "ID": 201,
          "GuideResID": 11,
          "NodeID": "TreasureDungeonMainPage.BtnMonsterDetail",
          "CopyAnchorAndSale": true,
          "PCGuide": {},
          "AnimConfig": {}
        },
        {
          "$type": "RPG.GameCore.ShowGuideText",
          "ID": 202,
          "GuideResID": 4,
          "NodeID": "TreasureDungeonMainPage.BtnMonsterDetail",
          "Text": "TutorialTextmap_502706",
          "OffsetX": 75,
          "PCGuide": {
            "GuideResID": 14,
            "Text": "TutorialTextmap_502701",
            "ControllerText": "TutorialTextmap_502701",
            "ActionName": "Menu_PhoneOrQuitGame",
            "ControllerActionName": "Menu_PhoneOrQuitGame",
            "OffsetX": 75,
            "OffsetY": -20
          }
        },
        {
          "$type": "RPG.GameCore.ShowTutorialUIMask",
          "NodeID": "TreasureDungeonMainPage.BtnMonsterDetail",
          "PCGuide": {},
          "AnimConfig": {}
        },
        {
          "$type": "RPG.GameCore.BlockInputController",
          "ActionNameList": []
        },
        {
          "$type": "RPG.GameCore.BlockSubmitEvents",
          "Enable": true
        },
        {
          "$type": "RPG.GameCore.ShowUINodes",
          "Nodes": [
            "AboveDialog/TutorialDialog(Clone)/MaskRaycastTarget"
          ]
        },
        {
          "$type": "RPG.GameCore.TutorialFinish",
          "TutorialID": 5044
        }
      ]
    },
    {
      "TaskList": []
    }
  ],
  "ValueSource": {}
}