{
  "OnInitSequece": [],
  "OnStartSequece": [
    {
      "TaskList": [
        {
          "$type": "RPG.GameCore.WaitSecond",
          "WaitTime": 0.5
        },
        {
          "$type": "RPG.GameCore.WaitUINodeOpen",
          "NodeID": "BtnChessman.301"
        },
        {
          "$type": "RPG.GameCore.TutorialNotify",
          "Type": "LockController",
          "Param": "1"
        },
        {
          "$type": "RPG.GameCore.TutorialNotify",
          "Type": "BlockClick",
          "Param": "1"
        },
        {
          "$type": "RPG.GameCore.BlockInputController",
          "Enable": true,
          "ActionNameList": [
            "Menu_Confirm"
          ]
        },
        {
          "$type": "RPG.GameCore.BlockSubmitEvents"
        },
        {
          "$type": "RPG.GameCore.ShowGuide",
          "ID": 212,
          "GuideResID": 11,
          "NodeID": "DiceMainConsole.InfoDesc",
          "Show": true,
          "CopyAnchorAndSale": true,
          "PCGuide": {},
          "AnimConfig": {}
        },
        {
          "$type": "RPG.GameCore.ShowTutorialGuideTalk",
          "GuideResID": 19,
          "GuideTalkIDList": [
            90299
          ],
          "NodeID": "DiceMainConsole.InfoDesc",
          "OffsetX": 100,
          "Follow": true
        },
        {
          "$type": "RPG.GameCore.ShowGuide",
          "ID": 212,
          "GuideResID": 11,
          "NodeID": "DiceMainConsole.InfoDesc",
          "CopyAnchorAndSale": true,
          "Follow": false,
          "PCGuide": {},
          "AnimConfig": {}
        },
        {
          "$type": "RPG.GameCore.TutorialNotify",
          "Type": "BlockClick",
          "Param": "0"
        },
        {
          "$type": "RPG.GameCore.BlockInputController",
          "ActionNameList": []
        },
        {
          "$type": "RPG.GameCore.TutorialTaskUnlock",
          "TriggerParam": {
            "Value": "9116"
          }
        },
        {
          "$type": "RPG.GameCore.ShowTutorialGuide",
          "GuideID": 9116,
          "WaitForExit": true
        },
        {
          "$type": "RPG.GameCore.BlockInputController",
          "Enable": true,
          "ActionNameList": []
        },
        {
          "$type": "RPG.GameCore.ShowGuide",
          "ID": 204,
          "GuideResID": 2,
          "NodeID": "BtnChessman.301",
          "Show": true,
          "CopyAnchorAndSale": true,
          "Follow": false,
          "PCGuide": {},
          "AnimConfig": {}
        },
        {
          "$type": "RPG.GameCore.ShowTutorialMask",
          "NodeIDList": [
            "BtnChessman.301"
          ],
          "Show": true,
          "BlockClick": true,
          "AnimConfig": {}
        },
        {
          "$type": "RPG.GameCore.ShowGuideTalk",
          "ID": 104,
          "Show": true,
          "GuideResID": 19,
          "GuideTalkID": 90291,
          "NodeID": "BtnChessman.301",
          "OffsetX": 50
        },
        {
          "$type": "RPG.GameCore.CheckUIMode",
          "OnMobile": [
            {
              "$type": "RPG.GameCore.WaitTutorial",
              "Event": "ClickBtnWithPath",
              "Param": "BtnChessman.301"
            },
            {
              "$type": "RPG.GameCore.ShowGuide",
              "ID": 204,
              "GuideResID": 2,
              "NodeID": "BtnChessman.301",
              "CopyAnchorAndSale": true,
              "Follow": false,
              "PCGuide": {},
              "AnimConfig": {}
            },
            {
              "$type": "RPG.GameCore.ShowTutorialMask",
              "NodeIDList": [
                "BtnChessman.301"
              ],
              "BlockClick": true,
              "AnimConfig": {}
            },
            {
              "$type": "RPG.GameCore.ShowGuideTalk",
              "ID": 104,
              "GuideResID": 19,
              "GuideTalkID": 90291,
              "NodeID": "BtnChessman.301",
              "OffsetX": 50
            },
            {
              "$type": "RPG.GameCore.TriggerCustomString",
              "CustomString": {
                "Value": "tutorial_9029_01"
              }
            }
          ],
          "OnPC": [
            {
              "$type": "RPG.GameCore.WaitTutorial",
              "Event": "ClickBtnWithPath",
              "Param": "BtnChessman.301"
            },
            {
              "$type": "RPG.GameCore.ShowGuide",
              "ID": 204,
              "GuideResID": 2,
              "NodeID": "BtnChessman.301",
              "CopyAnchorAndSale": true,
              "Follow": false,
              "PCGuide": {},
              "AnimConfig": {}
            },
            {
              "$type": "RPG.GameCore.ShowTutorialMask",
              "NodeIDList": [
                "BtnChessman.301"
              ],
              "BlockClick": true,
              "AnimConfig": {}
            },
            {
              "$type": "RPG.GameCore.ShowGuideTalk",
              "ID": 104,
              "GuideResID": 19,
              "GuideTalkID": 90291,
              "NodeID": "BtnChessman.301",
              "OffsetX": 50
            },
            {
              "$type": "RPG.GameCore.TriggerCustomString",
              "CustomString": {
                "Value": "tutorial_9029_01"
              }
            }
          ],
          "OnController": [
            {
              "$type": "RPG.GameCore.SetNavigationTarget",
              "NodeID": "BtnChessman.301"
            },
            {
              "$type": "RPG.GameCore.WaitTutorial",
              "Event": "ActionPress"
            },
            {
              "$type": "RPG.GameCore.ShowGuide",
              "ID": 204,
              "GuideResID": 2,
              "NodeID": "BtnChessman.301",
              "CopyAnchorAndSale": true,
              "Follow": false,
              "PCGuide": {},
              "AnimConfig": {}
            },
            {
              "$type": "RPG.GameCore.ShowTutorialMask",
              "NodeIDList": [
                "BtnChessman.301"
              ],
              "BlockClick": true,
              "AnimConfig": {}
            },
            {
              "$type": "RPG.GameCore.ShowGuideTalk",
              "ID": 104,
              "GuideResID": 19,
              "GuideTalkID": 90291,
              "NodeID": "BtnChessman.301",
              "OffsetX": 50
            },
            {
              "$type": "RPG.GameCore.TriggerCustomString",
              "CustomString": {
                "Value": "tutorial_9029_01"
              }
            }
          ]
        }
      ]
    },
    {
      "TaskList": [
        {
          "$type": "RPG.GameCore.WaitCustomString",
          "CustomString": {
            "Value": "tutorial_9029_01"
          }
        },
        {
          "$type": "RPG.GameCore.WaitUINodeOpen",
          "NodeID": "DiceMain.EventDo"
        },
        {
          "$type": "RPG.GameCore.ShowGuide",
          "ID": 203,
          "GuideResID": 2,
          "NodeID": "DiceMain.EventDo",
          "Show": true,
          "CopyAnchorAndSale": true,
          "Follow": false,
          "PCGuide": {},
          "AnimConfig": {}
        },
        {
          "$type": "RPG.GameCore.ShowTutorialMask",
          "NodeIDList": [
            "DiceMain.EventDo"
          ],
          "Show": true,
          "BlockClick": true,
          "AnimConfig": {}
        },
        {
          "$type": "RPG.GameCore.ShowGuideTalk",
          "ID": 103,
          "Show": true,
          "GuideResID": 17,
          "GuideTalkID": 90294,
          "NodeID": "DiceMain.EventDo",
          "OffsetX": -50,
          "OffsetY": 50
        },
        {
          "$type": "RPG.GameCore.BlockInputController",
          "Enable": true,
          "ActionNameList": [
            "Menu_UnchangeY"
          ]
        },
        {
          "$type": "RPG.GameCore.WaitTutorial",
          "Event": "ClickBtnWithPath",
          "Param": "DiceMain.EventDo"
        },
        {
          "$type": "RPG.GameCore.ShowGuide",
          "ID": 203,
          "GuideResID": 2,
          "NodeID": "DiceMain.EventDo",
          "CopyAnchorAndSale": true,
          "Follow": false,
          "PCGuide": {},
          "AnimConfig": {}
        },
        {
          "$type": "RPG.GameCore.ShowTutorialMask",
          "NodeIDList": [
            "DiceMain.EventDo"
          ],
          "BlockClick": true,
          "AnimConfig": {}
        },
        {
          "$type": "RPG.GameCore.ShowGuideTalk",
          "ID": 103,
          "GuideResID": 17,
          "GuideTalkID": 90294,
          "NodeID": "DiceMain.EventDo",
          "OffsetX": -50,
          "OffsetY": 50
        },
        {
          "$type": "RPG.GameCore.WaitUINodeOpen",
          "NodeID": "DiceMain.EventDo",
          "Reverse": true
        },
        {
          "$type": "RPG.GameCore.TutorialNotify",
          "Type": "BlockClick",
          "Param": "1"
        },
        {
          "$type": "RPG.GameCore.BlockInputController",
          "Enable": true,
          "ActionNameList": [
            "Menu_Confirm"
          ]
        },
        {
          "$type": "RPG.GameCore.WaitSecond",
          "WaitTime": 1
        },
        {
          "$type": "RPG.GameCore.ShowGuide",
          "ID": 201,
          "GuideResID": 11,
          "NodeID": "DiceMain.BtnPanel",
          "Show": true,
          "CopyAnchorAndSale": true,
          "PCGuide": {},
          "AnimConfig": {}
        },
        {
          "$type": "RPG.GameCore.ShowTutorialMask",
          "NodeIDList": [
            "DiceMain.BtnPanel"
          ],
          "Show": true,
          "AnimConfig": {}
        },
        {
          "$type": "RPG.GameCore.ShowTutorialGuideTalk",
          "GuideResID": 19,
          "GuideTalkIDList": [
            90295
          ],
          "NodeID": "DiceMain.BtnPanel",
          "OffsetY": 80,
          "Follow": true
        },
        {
          "$type": "RPG.GameCore.ShowGuide",
          "ID": 201,
          "GuideResID": 1,
          "NodeID": "DiceMain.App",
          "CopyAnchorAndSale": true,
          "Follow": false,
          "PCGuide": {},
          "AnimConfig": {}
        },
        {
          "$type": "RPG.GameCore.ShowTutorialMask",
          "NodeIDList": [
            "DiceMain.BtnPanel"
          ],
          "AnimConfig": {}
        },
        {
          "$type": "RPG.GameCore.ShowGuide",
          "ID": 211,
          "GuideResID": 11,
          "NodeID": "BtnChessman.301",
          "Show": true,
          "CopyAnchorAndSale": true,
          "PCGuide": {},
          "AnimConfig": {}
        },
        {
          "$type": "RPG.GameCore.ShowTutorialMask",
          "NodeIDList": [
            "BtnChessman.301"
          ],
          "Show": true,
          "AnimConfig": {}
        },
        {
          "$type": "RPG.GameCore.ShowTutorialGuideTalk",
          "GuideResID": 19,
          "GuideTalkIDList": [
            90296
          ],
          "NodeID": "BtnChessman.301",
          "OffsetX": 50,
          "Follow": true
        },
        {
          "$type": "RPG.GameCore.ShowGuide",
          "ID": 211,
          "GuideResID": 1,
          "NodeID": "DiceMain.App",
          "CopyAnchorAndSale": true,
          "Follow": false,
          "PCGuide": {},
          "AnimConfig": {}
        },
        {
          "$type": "RPG.GameCore.ShowTutorialMask",
          "NodeIDList": [
            "BtnChessman.301"
          ],
          "AnimConfig": {}
        },
        {
          "$type": "RPG.GameCore.BlockInputController",
          "ActionNameList": [
            "Menu_Confirm"
          ]
        },
        {
          "$type": "RPG.GameCore.BlockSubmitEvents",
          "Enable": true
        },
        {
          "$type": "RPG.GameCore.TutorialNotify",
          "Type": "LockController",
          "Param": "0"
        },
        {
          "$type": "RPG.GameCore.TutorialFinish",
          "TutorialID": 9029
        }
      ]
    }
  ]
}