{
  "SingleTemplateList": [
    {
      "TemplateName": "BridgeRecoverShake_01",
      "ShakeConfig": {
        "ShakeRange": 0.5,
        "PositionAmplitude": 0,
        "ShakeTime": 9,
        "ShakeDistance": 100,
        "ShakeDir": {
          "X": 0.8,
          "Y": 0.3,
          "Z": 0
        },
        "BaseCycle": 0.25,
        "CycleDamping": 0,
        "RangeAttenuation": 1,
        "RangeAttenuationDelay": 7,
        "RangeAttenuationTarget": 0.1,
        "RangeAttenuationDuration": 2,
        "PerlinNoiseAmplitude": {
          "X": 0.2,
          "Y": 0.3,
          "Z": 0.1
        },
        "PerlinNoiseFreq": {
          "X": 0.4,
          "Y": 0.2,
          "Z": 0.5
        },
        "RotationalAmplitude": {
          "X": 0.4,
          "Y": 0.4,
          "Z": 0.7
        },
        "RotationalFreq": 4.5
      }
    },
    {
      "TemplateName": "BridgeShake_End",
      "ShakeConfig": {
        "ShakeRange": 1,
        "PositionAmplitude": 0,
        "ShakeTime": 0.5,
        "ShakeDistance": 100,
        "ShakeDir": {
          "X": 0,
          "Y": 0,
          "Z": 0
        },
        "BaseCycle": 0.15,
        "CycleDamping": 0,
        "RangeAttenuation": 1,
        "RotationalAmplitude": {
          "X": 2,
          "Y": 1.5,
          "Z": 0
        },
        "RotationalFreq": 1
      }
    },
    {
      "TemplateName": "BridgeShake",
      "ShakeConfig": {
        "ShakeRange": 1,
        "PositionAmplitude": 0,
        "ShakeTime": 3,
        "ShakeDistance": 100,
        "ShakeDir": {
          "X": 0,
          "Y": 0,
          "Z": 0
        },
        "BaseCycle": 0.1,
        "CycleDamping": 0,
        "RangeAttenuation": 1,
        "RotationalAmplitude": {
          "X": 0.1,
          "Y": 0,
          "Z": 0.1
        },
        "RotationalFreq": 5
      }
    },
    {
      "TemplateName": "OneShake_Middle",
      "ShakeConfig": {
        "ShakeRange": 0.2,
        "ShakeTime": 0.1,
        "ShakeDistance": 30,
        "ShakeDir": {
          "X": 0,
          "Y": 0.2,
          "Z": 0.8
        },
        "CycleDamping": 0,
        "RangeAttenuation": 0.05
      }
    },
    {
      "TemplateName": "Spike_Light",
      "ShakeConfig": {
        "ShakeRange": 0.6,
        "ShakeTime": 0.4,
        "ShakeDistance": 30,
        "ShakeDir": {
          "X": 0,
          "Y": 0.2,
          "Z": 0.8
        },
        "CycleDamping": -0.12,
        "RangeAttenuation": 0.3
      }
    },
    {
      "TemplateName": "Player_BPSkill",
      "ShakeConfig": {
        "ShakeRange": 1.2,
        "ShakeTime": 2,
        "ShakeDistance": 10,
        "ShakeDir": {
          "X": 0,
          "Y": 0,
          "Z": 1
        },
        "BaseCycle": 0.1,
        "CycleDamping": -0.1,
        "RangeAttenuation": 0.3
      }
    },
    {
      "TemplateName": "Player_BPSkill02",
      "ShakeConfig": {
        "ShakeRange": 0.05,
        "ShakeTime": 5,
        "ShakeDistance": 1,
        "ShakeDir": {
          "X": 0,
          "Y": -0.2,
          "Z": -0.8
        },
        "BaseCycle": 1,
        "CycleDamping": 0,
        "RangeAttenuation": 0
      }
    },
    {
      "TemplateName": "Spike_Test1",
      "ShakeConfig": {
        "ShakeRange": 1,
        "ShakeTime": 0.7,
        "ShakeDistance": 30,
        "ShakeDir": {
          "X": 0,
          "Y": 0.2,
          "Z": 0.8
        },
        "CycleDamping": -0.12,
        "RangeAttenuation": 0.3
      }
    },
    {
      "TemplateName": "Impact_Light",
      "ShakeConfig": {
        "ShakeRange": 0.1,
        "ShakeTime": 0.25,
        "ShakeDistance": 30,
        "ShakeDir": {
          "X": 0,
          "Y": 0.2,
          "Z": 0
        },
        "BaseCycle": 0.06,
        "CycleDamping": -0.01,
        "RangeAttenuation": 0.06
      }
    },
    {
      "TemplateName": "Impact_Middle",
      "ShakeConfig": {
        "ShakeRange": 0.15,
        "ShakeTime": 0.3,
        "ShakeDistance": 30,
        "ShakeDir": {
          "X": 0,
          "Y": 0.2,
          "Z": 0
        },
        "BaseCycle": 0.06,
        "CycleDamping": -0.01,
        "RangeAttenuation": 0.1
      }
    },
    {
      "TemplateName": "Impact_Heavy",
      "ShakeConfig": {
        "ShakeRange": 0.3,
        "ShakeTime": 0.4,
        "ShakeDistance": 30,
        "ShakeDir": {
          "X": 0,
          "Y": 0.2,
          "Z": 0
        },
        "BaseCycle": 0.06,
        "CycleDamping": -0.02,
        "RangeAttenuation": 0.1
      }
    },
    {
      "TemplateName": "Impact_Heavier",
      "ShakeConfig": {
        "ShakeRange": 0.5,
        "ShakeTime": 0.8,
        "ShakeDistance": 30,
        "ShakeDir": {
          "X": 0,
          "Y": 0.2,
          "Z": 0
        },
        "BaseCycle": 0.08,
        "CycleDamping": -0.02,
        "RangeAttenuation": 0.1
      }
    },
    {
      "TemplateName": "Punch_Light",
      "ShakeConfig": {
        "ShakeRange": 0.1,
        "ShakeTime": 0.25,
        "ShakeDistance": 30,
        "ShakeDir": {
          "X": 0,
          "Y": 0,
          "Z": -0.2
        },
        "BaseCycle": 0.06,
        "CycleDamping": -0.01,
        "RangeAttenuation": 0.06
      }
    },
    {
      "TemplateName": "Punch_Middle",
      "ShakeConfig": {
        "ShakeRange": 0.5,
        "ShakeTime": 0.2,
        "ShakeDistance": 30,
        "ShakeDir": {
          "X": 0,
          "Y": 0,
          "Z": -0.2
        },
        "BaseCycle": 0.1
      }
    },
    {
      "TemplateName": "Punch_Heavy",
      "ShakeConfig": {
        "ShakeRange": 0.3,
        "ShakeTime": 0.4,
        "ShakeDistance": 30,
        "ShakeDir": {
          "X": 0,
          "Y": 0,
          "Z": -0.2
        },
        "BaseCycle": 0.06,
        "CycleDamping": -0.02,
        "RangeAttenuation": 0.1
      }
    },
    {
      "TemplateName": "Mar_7th_Normal",
      "ShakeConfig": {
        "ShakeRange": 1,
        "ShakeTime": 0.09,
        "ShakeDistance": 30,
        "ShakeDir": {
          "X": 0,
          "Y": 0,
          "Z": 0
        },
        "BaseCycle": 0.09,
        "CycleDamping": 0.2,
        "RangeAttenuation": 0.2
      }
    },
    {
      "TemplateName": "Mar_7th_Passive_Counter",
      "ShakeConfig": {
        "ShakeRange": 0.15,
        "ShakeTime": 0.2,
        "ShakeDistance": 30,
        "ShakeDir": {
          "X": 0,
          "Y": 0.1,
          "Z": -0.1
        },
        "CycleDamping": 0,
        "RangeAttenuation": 0.05
      }
    },
    {
      "TemplateName": "Arlan_Skill03_01",
      "ShakeConfig": {
        "ShakeRange": 0.6,
        "ShakeTime": 0.4,
        "ShakeDistance": 30,
        "ShakeDir": {
          "X": -0.5,
          "Y": -0.5,
          "Z": 0
        },
        "BaseCycle": 0.05,
        "CycleDamping": 0.2
      }
    },
    {
      "TemplateName": "Unique_W1_Mecha02_P1_Run",
      "ShakeConfig": {
        "ShakeRange": 0.07,
        "ShakeTime": 0.1,
        "ShakeDistance": 30,
        "ShakeDir": {
          "X": 0.04,
          "Y": 0.1,
          "Z": 0
        },
        "BaseCycle": 0.1
      }
    },
    {
      "TemplateName": "Unique_W1_Mecha02_P1_Jump",
      "ShakeConfig": {
        "ShakeRange": 0.15,
        "ShakeTime": 0.1,
        "ShakeDistance": 30,
        "ShakeDir": {
          "X": 0.04,
          "Y": 0.1,
          "Z": 0
        },
        "BaseCycle": 0.1
      }
    },
    {
      "TemplateName": "Common_Rapid_Light",
      "ShakeConfig": {
        "ShakeRange": 0.12,
        "ShakeTime": 0.1,
        "ShakeDistance": 30,
        "ShakeDir": {
          "X": 0.1,
          "Y": 0.1,
          "Z": 0
        },
        "BaseCycle": 0.1
      }
    },
    {
      "TemplateName": "Common_Rapid_Middle",
      "ShakeConfig": {
        "ShakeRange": 0.3,
        "ShakeTime": 0.2,
        "ShakeDistance": 30,
        "ShakeDir": {
          "X": 0.3,
          "Y": 0.3,
          "Z": 0
        },
        "BaseCycle": 0.1
      }
    },
    {
      "TemplateName": "Common_Rapid_Big",
      "ShakeConfig": {
        "ShakeRange": 0.5,
        "ShakeTime": 0.3,
        "ShakeDistance": 30,
        "ShakeDir": {
          "X": 0.5,
          "Y": 0.5,
          "Z": 0
        },
        "BaseCycle": 0.1
      }
    },
    {
      "TemplateName": "Common_Explode_Middle",
      "ShakeConfig": {
        "ShakeRange": 0.5,
        "ShakeTime": 0.2,
        "ShakeDistance": 30,
        "ShakeDir": {
          "X": 0.1,
          "Y": 0.5,
          "Z": 0.4
        },
        "BaseCycle": 0.1
      }
    },
    {
      "TemplateName": "Common_Explode_Big",
      "ShakeConfig": {
        "ShakeRange": 2,
        "ShakeTime": 0.3,
        "ShakeDistance": 30,
        "ShakeDir": {
          "X": 0.1,
          "Y": 0.3,
          "Z": -0.9
        },
        "BaseCycle": 0.075
      }
    },
    {
      "TemplateName": "Unique_Gepard_MazeAttack",
      "ShakeConfig": {
        "ShakeRange": 0.2,
        "ShakeTime": 0.2,
        "ShakeDistance": 30,
        "ShakeDir": {
          "X": 0,
          "Y": 0,
          "Z": -0.2
        },
        "BaseCycle": 0.1
      }
    },
    {
      "TemplateName": "LocalPlayer_Arlan_MazeAttack",
      "ShakeConfig": {
        "ShakeRange": 0.22,
        "ShakeTime": 0.15,
        "ShakeDistance": 30,
        "ShakeDir": {
          "X": -0.5,
          "Y": -0.5,
          "Z": 0
        },
        "BaseCycle": 0.05,
        "CycleDamping": 0.2
      }
    },
    {
      "TemplateName": "LocalPlayer_Arlan_MazeSkill",
      "ShakeConfig": {
        "ShakeRange": 0.55,
        "ShakeTime": 0.5,
        "ShakeDistance": 30,
        "ShakeDir": {
          "X": 0,
          "Y": 0.2,
          "Z": 0
        },
        "BaseCycle": 0.05,
        "CycleDamping": 0.1,
        "RangeAttenuation": 0.1
      }
    },
    {
      "TemplateName": "LocalPlayer_DanHeng_NormalAttack_OnTarget",
      "ShakeConfig": {
        "ShakeRange": 0.7,
        "ShakeTime": 0.1,
        "ShakeDistance": 30,
        "ShakeDir": {
          "X": 0.1,
          "Y": 0,
          "Z": 0.7
        },
        "BaseCycle": 0.1,
        "CycleDamping": 0.5
      }
    },
    {
      "TemplateName": "LocalPlayer_JingYuan_NormalAttack_NoTarget",
      "ShakeConfig": {
        "ShakeRange": 0.1,
        "ShakeTime": 0.15,
        "ShakeDistance": 30,
        "ShakeDir": {
          "X": 0.5,
          "Y": 0.5,
          "Z": 0
        },
        "BaseCycle": 0.15,
        "CycleDamping": 0.5
      }
    },
    {
      "TemplateName": "LocalPlayer_JingYuan_NormalAttack_OnTarget",
      "ShakeConfig": {
        "ShakeRange": 0.1,
        "ShakeTime": 0.1,
        "ShakeDistance": 30,
        "ShakeDir": {
          "X": -0.5,
          "Y": -0.5,
          "Z": 0
        },
        "BaseCycle": 0.1,
        "CycleDamping": 0.5
      }
    },
    {
      "TemplateName": "LocalPlayer_Silwolf_NormalAttack_OnTarget",
      "ShakeConfig": {
        "ShakeRange": 0.1,
        "ShakeTime": 0.1,
        "ShakeDistance": 30,
        "ShakeDir": {
          "X": 0.5,
          "Y": 0,
          "Z": 0
        },
        "BaseCycle": 0.1,
        "CycleDamping": 0.5
      }
    },
    {
      "TemplateName": "LocalPlayer_Himeko_NormalAttack_NoTarget",
      "ShakeConfig": {
        "ShakeRange": 0.1,
        "ShakeTime": 0.15,
        "ShakeDistance": 30,
        "ShakeDir": {
          "X": -0.5,
          "Y": -0.5,
          "Z": 0
        },
        "BaseCycle": 0.15,
        "CycleDamping": 0.5
      }
    },
    {
      "TemplateName": "LocalPlayer_Himeko_NormalAttack_OnTarget",
      "ShakeConfig": {
        "ShakeRange": 0.15,
        "ShakeTime": 0.1,
        "ShakeDistance": 30,
        "ShakeDir": {
          "X": -0.5,
          "Y": -0.5,
          "Z": 0
        },
        "BaseCycle": 0.1,
        "CycleDamping": 0.5
      }
    },
    {
      "TemplateName": "LocalPlayer_Himeko_Skill",
      "ShakeConfig": {
        "ShakeRange": 0.3,
        "ShakeTime": 0.15,
        "ShakeDistance": 30,
        "ShakeDir": {
          "X": 0,
          "Y": -0.4,
          "Z": 0
        },
        "BaseCycle": 0.15,
        "CycleDamping": 0.7
      }
    },
    {
      "TemplateName": "LocalPlayer_PlayerBoy_NormalAttack_NoTarget",
      "ShakeConfig": {
        "ShakeRange": 0.1,
        "ShakeTime": 0.05,
        "ShakeDistance": 30,
        "ShakeDir": {
          "X": -0.5,
          "Y": -0.4,
          "Z": 0
        },
        "BaseCycle": 0.05,
        "CycleDamping": 0.7
      }
    },
    {
      "TemplateName": "LocalPlayer_PlayerBoy_NormalAttack_OnTarget",
      "ShakeConfig": {
        "ShakeRange": 0.15,
        "ShakeTime": 0.1,
        "ShakeDistance": 30,
        "ShakeDir": {
          "X": -0.5,
          "Y": -0.4,
          "Z": 0
        },
        "BaseCycle": 0.1,
        "CycleDamping": 0.7
      }
    },
    {
      "TemplateName": "LocalPlayer_Hook_NormalAttack_OnTarget",
      "ShakeConfig": {
        "ShakeRange": 0.25,
        "ShakeTime": 0.1,
        "ShakeDistance": 30,
        "ShakeDir": {
          "X": -0.5,
          "Y": -0.4,
          "Z": 0
        },
        "BaseCycle": 0.1,
        "CycleDamping": 0.7
      }
    },
    {
      "TemplateName": "LocalPlayer_Hook_Skill_Hit",
      "ShakeConfig": {
        "ShakeRange": 0.35,
        "ShakeTime": 0.25,
        "ShakeDistance": 30,
        "BaseCycle": 0.05,
        "CycleDamping": 0.8
      }
    },
    {
      "TemplateName": "LocalPlayer_PlayerBoy_Skill",
      "ShakeConfig": {
        "ShakeRange": 0.035,
        "ShakeTime": 0.15,
        "ShakeDistance": 30,
        "ShakeDir": {
          "X": 0.4,
          "Y": 0.2,
          "Z": 0.1
        },
        "BaseCycle": 0.15,
        "CycleDamping": 0.7
      }
    },
    {
      "TemplateName": "LocalPlayer_Sampo_NormalAttack_NoTarget",
      "ShakeConfig": {
        "ShakeRange": 0.25,
        "ShakeTime": 0.05,
        "ShakeDistance": 30,
        "ShakeDir": {
          "X": 0.1,
          "Y": -0.7,
          "Z": 0.1
        },
        "BaseCycle": 0.05,
        "CycleDamping": 0.3
      }
    },
    {
      "TemplateName": "LocalPlayer_Sampo_NormalAttack_OnTarget",
      "ShakeConfig": {
        "ShakeRange": 0.2,
        "ShakeTime": 0.1,
        "ShakeDistance": 30,
        "ShakeDir": {
          "X": 0.1,
          "Y": -0.7,
          "Z": 0.1
        },
        "BaseCycle": 0.1,
        "CycleDamping": 0.5
      }
    },
    {
      "TemplateName": "LocalPlayer_Seele_NormalAttack_NoTarget",
      "ShakeConfig": {
        "ShakeRange": 0.15,
        "ShakeTime": 0.05,
        "ShakeDistance": 30,
        "ShakeDir": {
          "X": -0.6,
          "Y": 0.5,
          "Z": 0.2
        },
        "BaseCycle": 0.05,
        "CycleDamping": 0.5
      }
    },
    {
      "TemplateName": "LocalPlayer_Seele_NormalAttack_OnTarget",
      "ShakeConfig": {
        "ShakeRange": 0.25,
        "ShakeTime": 0.1,
        "ShakeDistance": 30,
        "ShakeDir": {
          "X": -0.6,
          "Y": 0.5,
          "Z": 0.2
        },
        "BaseCycle": 0.1,
        "CycleDamping": 0.3
      }
    },
    {
      "TemplateName": "LocalPlayer_Gepard_NormalAttack_OnTarget",
      "ShakeConfig": {
        "ShakeRange": 0.7,
        "ShakeTime": 0.15,
        "ShakeDistance": 30,
        "ShakeDir": {
          "X": 0.3,
          "Y": 0,
          "Z": 0.7
        },
        "BaseCycle": 0.15,
        "CycleDamping": 0.3
      }
    },
    {
      "TemplateName": "LocalPlayer_Gepard_NormalAttack_NoTarget",
      "ShakeConfig": {
        "ShakeRange": 0.6,
        "ShakeTime": 0.05,
        "ShakeDistance": 30,
        "ShakeDir": {
          "X": 0.3,
          "Y": 0,
          "Z": 0.7
        },
        "BaseCycle": 0.05,
        "CycleDamping": 0.5
      }
    },
    {
      "TemplateName": "LocalPlayer_Natasha_NormalAttack_Fire",
      "ShakeConfig": {
        "ShakeRange": 0.6,
        "ShakeTime": 0.15,
        "ShakeDistance": 30,
        "ShakeDir": {
          "X": 0.1,
          "Y": 0,
          "Z": -0.6
        },
        "BaseCycle": 0.15,
        "CycleDamping": 0.5
      }
    },
    {
      "TemplateName": "LocalPlayer_Natasha_NormalAttack_Hit",
      "ShakeConfig": {
        "ShakeRange": 0.2,
        "ShakeTime": 0.15,
        "ShakeDistance": 30,
        "ShakeDir": {
          "X": 0.3,
          "Y": 0.6,
          "Z": 0
        },
        "BaseCycle": 0.05,
        "CycleDamping": 0.8
      }
    },
    {
      "TemplateName": "LocalPlayer_Welt_NormalAttack_Pre",
      "ShakeConfig": {
        "ShakeRange": 0.1,
        "ShakeTime": 0.05,
        "ShakeDistance": 30,
        "ShakeDir": {
          "X": 0,
          "Y": -0.3,
          "Z": 0
        },
        "BaseCycle": 0.05,
        "CycleDamping": 0.6
      }
    },
    {
      "TemplateName": "LocalPlayer_Welt_NormalAttack_Ready",
      "ShakeConfig": {
        "ShakeRange": 0.01,
        "ShakeTime": 0.01,
        "ShakeDistance": 30,
        "ShakeDir": {
          "X": 0.2,
          "Y": 0.2,
          "Z": 0
        },
        "BaseCycle": 0.01
      }
    },
    {
      "TemplateName": "LocalPlayer_Welt_NormalAttack_boom",
      "ShakeConfig": {
        "ShakeRange": 0.3,
        "ShakeTime": 0.16,
        "ShakeDistance": 30,
        "BaseCycle": 0.08,
        "CycleDamping": 0.8
      }
    },
    {
      "TemplateName": "LocalPlayer_Pela_Skill",
      "ShakeConfig": {
        "ShakeRange": 0.15,
        "ShakeTime": 0.1,
        "ShakeDistance": 30,
        "ShakeDir": {
          "X": 0.1,
          "Y": -0.4,
          "Z": 0
        },
        "BaseCycle": 0.1,
        "CycleDamping": 0.3
      }
    },
    {
      "TemplateName": "OneShake_Light_04s_XY",
      "ShakeConfig": {
        "ShakeRange": 0.15,
        "ShakeTime": 0.3,
        "ShakeDistance": 30,
        "ShakeDir": {
          "X": 0,
          "Y": 0,
          "Z": 0
        },
        "BaseCycle": 0.15,
        "CycleDamping": 0.8
      }
    },
    {
      "TemplateName": "OneShake_Normal_03s_XY",
      "ShakeConfig": {
        "ShakeRange": 0.3,
        "ShakeTime": 0.15,
        "ShakeDistance": 30,
        "ShakeDir": {
          "X": 0,
          "Y": 0,
          "Z": 0
        },
        "BaseCycle": 0.1,
        "CycleDamping": 0.2,
        "RangeAttenuation": 0.2
      }
    },
    {
      "TemplateName": "OneShake_Normal_03s_Z",
      "ShakeConfig": {
        "ShakeRange": 0.5,
        "ShakeTime": 0.05,
        "ShakeDistance": 30,
        "ShakeDir": {
          "X": 0,
          "Y": 0,
          "Z": 0
        },
        "BaseCycle": 0.1,
        "CycleDamping": 0.2,
        "RangeAttenuation": 0.2
      }
    },
    {
      "TemplateName": "OneShake_Heavy_03s_XY",
      "ShakeConfig": {
        "ShakeRange": 0.6,
        "ShakeTime": 0.3,
        "ShakeDistance": 30,
        "ShakeDir": {
          "X": 0,
          "Y": 0,
          "Z": 0
        },
        "BaseCycle": 0.1,
        "CycleDamping": 0.2,
        "RangeAttenuation": 0.2
      }
    },
    {
      "TemplateName": "OneShake_Heavy_03s_Z",
      "ShakeConfig": {
        "ShakeRange": 1,
        "ShakeTime": 0.1,
        "ShakeDistance": 30,
        "ShakeDir": {
          "X": 0,
          "Y": 0,
          "Z": 0
        },
        "BaseCycle": 0.1,
        "CycleDamping": 0.2,
        "RangeAttenuation": 0.2
      }
    },
    {
      "TemplateName": "Avatar_Arlan_Common",
      "ShakeConfig": {
        "ShakeRange": 0.3,
        "ShakeTime": 0.35,
        "ShakeDistance": 30,
        "ShakeDir": {
          "X": 0,
          "Y": 0.2,
          "Z": 0.8
        },
        "CycleDamping": 0,
        "RangeAttenuation": 0.05
      }
    },
    {
      "TemplateName": "Avatar_Asta_Skill02_Y",
      "ShakeConfig": {
        "ShakeRange": 0.3,
        "ShakeTime": 0.5,
        "ShakeDistance": 30,
        "ShakeDir": {
          "X": 0,
          "Y": -0.3,
          "Z": -0.2
        },
        "BaseCycle": 0.05,
        "CycleDamping": 0.2,
        "RangeAttenuation": 0.1
      }
    },
    {
      "TemplateName": "LocalPlayer_Bronya_Skill",
      "ShakeConfig": {
        "ShakeRange": 0.035,
        "ShakeTime": 0.05,
        "ShakeDistance": 30,
        "ShakeDir": {
          "X": 0,
          "Y": 0.4,
          "Z": 0
        },
        "BaseCycle": 0.05,
        "CycleDamping": 0.7
      }
    },
    {
      "TemplateName": "LocalPlayer_Bronya_Attack",
      "ShakeConfig": {
        "ShakeRange": 0.1,
        "ShakeTime": 0.1,
        "ShakeDistance": 30,
        "ShakeDir": {
          "X": 0,
          "Y": 0,
          "Z": -0.2
        },
        "BaseCycle": 0.15,
        "CycleDamping": 0.7
      }
    },
    {
      "TemplateName": "Avatar_Bronya_NormalAttack_Fire",
      "ShakeConfig": {
        "ShakeRange": 0.2,
        "ShakeTime": 0.16,
        "ShakeDistance": 30,
        "ShakeDir": {
          "X": -0.2,
          "Y": -0.2,
          "Z": -0.6
        },
        "BaseCycle": 0.16,
        "CycleDamping": 0.5
      }
    },
    {
      "TemplateName": "Klara_BP_04s",
      "ShakeConfig": {
        "ShakeRange": 0.25,
        "ShakeTime": 0.4,
        "ShakeDistance": 30,
        "ShakeDir": {
          "X": 0,
          "Y": 0,
          "Z": 0
        },
        "BaseCycle": 0.15,
        "CycleDamping": 0.2,
        "RangeAttenuation": 0.2
      }
    },
    {
      "TemplateName": "Serval_NormalAttack_Impact_Heavy",
      "ShakeConfig": {
        "ShakeRange": 0.6,
        "ShakeDistance": 30,
        "ShakeDir": {
          "X": 0,
          "Y": 0.2,
          "Z": 0
        },
        "BaseCycle": 0.06,
        "CycleDamping": 0,
        "RangeAttenuation": 0.1
      }
    },
    {
      "TemplateName": "Serval_Skill02_Impact_Heavy",
      "ShakeConfig": {
        "ShakeRange": 0.6,
        "ShakeDistance": 30,
        "ShakeDir": {
          "X": 0,
          "Y": 0.2,
          "Z": 0
        },
        "BaseCycle": 0.08,
        "CycleDamping": 0,
        "RangeAttenuation": 0.1
      }
    },
    {
      "TemplateName": "Serval_UltraAttack_Impact_Heavy",
      "ShakeConfig": {
        "ShakeRange": 0.5,
        "ShakeDistance": 30,
        "ShakeDir": {
          "X": 0,
          "Y": 0.2,
          "Z": 0
        },
        "BaseCycle": 0.06,
        "CycleDamping": 0,
        "RangeAttenuation": 0.1
      }
    },
    {
      "TemplateName": "Kafka_Skill01_X",
      "ShakeConfig": {
        "ShakeRange": 0.15,
        "ShakeTime": 0.35,
        "ShakeDistance": 30,
        "ShakeDir": {
          "X": 0.5,
          "Y": 0,
          "Z": 0
        },
        "BaseCycle": 0.3,
        "CycleDamping": 0.3
      }
    },
    {
      "TemplateName": "Kafka_Skill01_XY",
      "ShakeConfig": {
        "ShakeRange": 0.075,
        "ShakeTime": 0.25,
        "ShakeDistance": 30,
        "ShakeDir": {
          "X": 0.35,
          "Y": 0.75,
          "Z": 0.5
        },
        "BaseCycle": 0.25,
        "CycleDamping": 0.3
      }
    },
    {
      "TemplateName": "Kafka_Skill01_XY_01",
      "ShakeConfig": {
        "ShakeRange": 0.15,
        "ShakeTime": 0.2,
        "ShakeDistance": 30,
        "ShakeDir": {
          "X": -0.35,
          "Y": -0.75,
          "Z": 0
        },
        "BaseCycle": 0.2,
        "CycleDamping": 0.3
      }
    },
    {
      "TemplateName": "Kafka_Skill01_XY_02",
      "ShakeConfig": {
        "ShakeRange": 0.05,
        "ShakeTime": 0.15,
        "ShakeDistance": 30,
        "ShakeDir": {
          "X": 0.25,
          "Y": -0.5,
          "Z": 0
        },
        "BaseCycle": 0.15,
        "CycleDamping": 0.3
      }
    },
    {
      "TemplateName": "Kafka_Skill01_FX",
      "ShakeConfig": {
        "ShakeRange": 0.15,
        "ShakeTime": 0.35,
        "ShakeDistance": 30,
        "ShakeDir": {
          "X": -0.5,
          "Y": 0,
          "Z": 0
        },
        "BaseCycle": 0.3,
        "CycleDamping": 0.3
      }
    },
    {
      "TemplateName": "Kafka_Skill02_X",
      "ShakeConfig": {
        "ShakeRange": 0.05,
        "ShakeTime": 0.15,
        "ShakeDistance": 30,
        "ShakeDir": {
          "X": -0.3,
          "Y": 0,
          "Z": 0
        },
        "BaseCycle": 0.1,
        "CycleDamping": 0.3
      }
    },
    {
      "TemplateName": "Kafka_MazeSkill_Random",
      "ShakeConfig": {
        "ShakeRange": 0.3,
        "ShakeTime": 0.9,
        "ShakeDistance": 35,
        "ShakeDir": {
          "X": 0.05,
          "Y": 1,
          "Z": 0
        },
        "BaseCycle": 0.05,
        "CycleDamping": 0,
        "RangeAttenuation": 0.4
      }
    },
    {
      "TemplateName": "LocalPlayer_DanHengIL_NormalAttack01",
      "ShakeConfig": {
        "ShakeRange": 0.1,
        "ShakeTime": 0.1,
        "ShakeDistance": 30,
        "ShakeDir": {
          "X": 0,
          "Y": 0.4,
          "Z": 0
        },
        "BaseCycle": 0.05,
        "CycleDamping": 0.15
      }
    },
    {
      "TemplateName": "Gepard_Skill01_XY",
      "ShakeConfig": {
        "ShakeRange": 0.5,
        "ShakeTime": 0.5,
        "ShakeDistance": 100,
        "ShakeDir": {
          "X": 0.05,
          "Y": 0.05,
          "Z": 1
        },
        "BaseCycle": 0.18,
        "CycleDamping": 0,
        "RangeAttenuation": 1,
        "PerlinNoiseAmplitude": {
          "X": 0.1,
          "Y": 0.1,
          "Z": 0.1
        },
        "PerlinNoiseFreq": {
          "X": 16,
          "Y": 14,
          "Z": 12
        },
        "RotationalAmplitude": {
          "X": 0,
          "Y": 0,
          "Z": 1.5
        },
        "RotationFreqV3": {
          "X": 4,
          "Y": 0,
          "Z": 8
        }
      }
    },
    {
      "TemplateName": "Gepard_Skill02_XY",
      "ShakeConfig": {
        "ShakeRange": 0.2,
        "ShakeTime": 0.5,
        "ShakeDistance": 100,
        "ShakeDir": {
          "X": 3,
          "Y": 2,
          "Z": 0
        },
        "BaseCycle": 0.18,
        "CycleDamping": 0,
        "RangeAttenuation": 1,
        "PerlinNoiseAmplitude": {
          "X": 0.1,
          "Y": 0.1,
          "Z": 0.1
        },
        "PerlinNoiseFreq": {
          "X": 10,
          "Y": 10,
          "Z": 10
        },
        "RotationalAmplitude": {
          "X": 0,
          "Y": 0,
          "Z": 1.5
        },
        "RotationFreqV3": {
          "X": 4,
          "Y": 0,
          "Z": 8
        }
      }
    },
    {
      "TemplateName": "Gepard_Skill02_XY2",
      "ShakeConfig": {
        "ShakeRange": 0.2,
        "ShakeTime": 0.5,
        "ShakeDistance": 100,
        "ShakeDir": {
          "X": 3,
          "Y": 2,
          "Z": 0
        },
        "BaseCycle": 0.18,
        "CycleDamping": 0,
        "RangeAttenuation": 1,
        "PerlinNoiseAmplitude": {
          "X": 0.1,
          "Y": 0.1,
          "Z": 0.1
        },
        "PerlinNoiseFreq": {
          "X": 10,
          "Y": 10,
          "Z": 10
        },
        "RotationalAmplitude": {
          "X": 0,
          "Y": 0,
          "Z": 3.5
        },
        "RotationFreqV3": {
          "X": 4,
          "Y": 0,
          "Z": 8
        }
      }
    },
    {
      "TemplateName": "CommonShake_Middle_01",
      "ShakeConfig": {
        "ShakeRange": 0.2,
        "ShakeTime": 0.2,
        "ShakeDistance": 100,
        "ShakeDir": {
          "X": 0.2,
          "Y": 0.05,
          "Z": 0
        },
        "BaseCycle": 0.25,
        "CycleDamping": 0,
        "RangeAttenuation": 1,
        "PerlinNoiseAmplitude": {
          "X": 0.1,
          "Y": 0.1,
          "Z": 0.1
        },
        "PerlinNoiseFreq": {
          "X": 16,
          "Y": 14,
          "Z": 12
        },
        "RotationalAmplitude": {
          "X": 0,
          "Y": 0,
          "Z": 3.5
        },
        "RotationFreqV3": {
          "X": 4,
          "Y": 0,
          "Z": 8
        }
      }
    },
    {
      "TemplateName": "CommonShake_Little_01",
      "ShakeConfig": {
        "ShakeRange": 0.25,
        "ShakeTime": 0.2,
        "ShakeDistance": 100,
        "ShakeDir": {
          "X": 0.2,
          "Y": 0.05,
          "Z": 0
        },
        "BaseCycle": 0.14,
        "CycleDamping": 0,
        "RangeAttenuation": 0.95
      }
    },
    {
      "TemplateName": "CommonShake_Little_02",
      "ShakeConfig": {
        "ShakeRange": 0.3,
        "ShakeTime": 0.2,
        "ShakeDistance": 100,
        "ShakeDir": {
          "X": -0.3,
          "Y": 0.05,
          "Z": 0
        },
        "BaseCycle": 0.08,
        "CycleDamping": 0,
        "RangeAttenuation": 0.95
      }
    },
    {
      "TemplateName": "HimekoBPShake01",
      "ShakeConfig": {
        "ShakeRange": 0.2,
        "ShakeTime": 0.25,
        "ShakeDistance": 100,
        "ShakeDir": {
          "X": 0.2,
          "Y": 0,
          "Z": 0
        },
        "BaseCycle": 0.08,
        "CycleDamping": 0,
        "RangeAttenuation": 0.95
      }
    },
    {
      "TemplateName": "HimekoBPShake02",
      "ShakeConfig": {
        "ShakeRange": 0.3,
        "ShakeTime": 0.2,
        "ShakeDistance": 100,
        "ShakeDir": {
          "X": 0.2,
          "Y": 0.2,
          "Z": 0
        },
        "CycleDamping": 0,
        "RangeAttenuation": 0.95
      }
    },
    {
      "TemplateName": "HimekoPassiveShake01",
      "ShakeConfig": {
        "ShakeRange": 0.3,
        "ShakeTime": 0.02,
        "ShakeDistance": 100,
        "ShakeDir": {
          "X": 0.2,
          "Y": 0.2,
          "Z": 0
        },
        "CycleDamping": 0,
        "RangeAttenuation": 0.95
      }
    },
    {
      "TemplateName": "HimekoPassiveShake02",
      "ShakeConfig": {
        "ShakeRange": 0.45,
        "ShakeTime": 0.3,
        "ShakeDistance": 100,
        "ShakeDir": {
          "X": 0.2,
          "Y": 0.4,
          "Z": 0
        },
        "BaseCycle": 0.2,
        "CycleDamping": 0,
        "RangeAttenuation": 0.95
      }
    },
    {
      "TemplateName": "ScrewllumSkillShake01",
      "ShakeConfig": {
        "ShakeRange": 0.5,
        "IsUseFullPeriod": true,
        "ShakeDistance": 100,
        "ShakeDir": {
          "X": 0.1,
          "Y": 0.1,
          "Z": 0.2
        },
        "BaseCycle": 0.1,
        "CycleDamping": -0.01,
        "RangeAttenuation": 0.9,
        "PerlinNoiseAmplitude": {
          "X": 0.05,
          "Y": 0.05,
          "Z": 0.1
        },
        "PerlinNoiseFreq": {
          "X": 10,
          "Y": 10,
          "Z": 10
        }
      }
    },
    {
      "TemplateName": "_SR0.14_T0.06_ST0.25：Avatar_Klara_00_Camera_1",
      "ShakeConfig": {
        "ShakeRange": 0.14,
        "ShakeTime": 0.25,
        "ShakeDistance": 100,
        "ShakeDir": {
          "X": 0.1,
          "Y": 0.1,
          "Z": 0
        },
        "BaseCycle": 0.06,
        "CycleDamping": 0,
        "RangeAttenuation": 0.95,
        "PerlinNoiseAmplitude": {
          "X": 0.1,
          "Y": 0.2,
          "Z": 0
        },
        "PerlinNoiseFreq": {
          "X": 16,
          "Y": 14,
          "Z": 0
        },
        "RotationalAmplitude": {
          "X": 1,
          "Y": 0,
          "Z": 1
        },
        "RotationFreqV3": {
          "X": 12,
          "Y": 0,
          "Z": 16
        }
      }
    },
    {
      "TemplateName": "_SR0.1_T0.05_ST0.4：Boss_Cocolia_P2_Camera_1",
      "ShakeConfig": {
        "ShakeRange": 0.1,
        "ShakeTime": 0.4,
        "ShakeDistance": 100,
        "ShakeDir": {
          "X": 0,
          "Y": 0.1,
          "Z": 0
        },
        "BaseCycle": 0.05,
        "CycleDamping": 0,
        "RangeAttenuation": 0.95
      }
    },
    {
      "TemplateName": "_SR0.1_T0.08_ST0.4：Boss_Cocolia_P2_Camera_2",
      "ShakeConfig": {
        "ShakeRange": 0.1,
        "ShakeTime": 0.4,
        "ShakeDistance": 100,
        "ShakeDir": {
          "X": 0,
          "Y": 0.1,
          "Z": 0
        },
        "BaseCycle": 0.08,
        "CycleDamping": 0,
        "RangeAttenuation": 0.95
      }
    },
    {
      "TemplateName": "_SR0.0_T0.08_ST1.0：Boss_Cocolia_P2_Camera_3",
      "ShakeConfig": {
        "ShakeDistance": 100,
        "ShakeDir": {
          "X": 0,
          "Y": 0,
          "Z": 0
        },
        "BaseCycle": 0.08,
        "CycleDamping": 0,
        "RangeAttenuation": 0.95
      }
    },
    {
      "TemplateName": "_SR0.0_T0.08_ST1.0：Boss_Cocolia_P2_Camera_4",
      "ShakeConfig": {
        "ShakeDistance": 100,
        "ShakeDir": {
          "X": 0,
          "Y": 0,
          "Z": 0
        },
        "BaseCycle": 0.08,
        "CycleDamping": 0,
        "RangeAttenuation": 0.95
      }
    },
    {
      "TemplateName": "_SR0.0_T0.08_ST1.0：Boss_Cocolia_P2_Camera_5",
      "ShakeConfig": {
        "ShakeDistance": 100,
        "ShakeDir": {
          "X": 0,
          "Y": 0,
          "Z": 0
        },
        "BaseCycle": 0.08,
        "CycleDamping": 0,
        "RangeAttenuation": 0.95
      }
    },
    {
      "TemplateName": "_SR0.29_T0.05_ST0.2：Monster_AML_Elite01_00_Camera_1",
      "ShakeConfig": {
        "ShakeRange": 0.29,
        "ShakeTime": 0.2,
        "ShakeDistance": 100,
        "ShakeDir": {
          "X": 0.15,
          "Y": 0.15,
          "Z": 0.2
        },
        "BaseCycle": 0.05,
        "CycleDamping": 0,
        "RangeAttenuation": 0.95,
        "PerlinNoiseAmplitude": {
          "X": 0.1,
          "Y": 0.1,
          "Z": 0.1
        },
        "PerlinNoiseFreq": {
          "X": 16,
          "Y": 14,
          "Z": 12
        },
        "RotationalAmplitude": {
          "X": 0,
          "Y": 0,
          "Z": 3.5
        },
        "RotationFreqV3": {
          "X": 4,
          "Y": 0,
          "Z": 8
        }
      }
    },
    {
      "TemplateName": "_SR0.29_T0.05_ST0.2：Monster_AML_Minion03_00_Camera_1",
      "ShakeConfig": {
        "ShakeRange": 0.29,
        "ShakeTime": 0.2,
        "ShakeDistance": 100,
        "ShakeDir": {
          "X": 0.15,
          "Y": 0.15,
          "Z": 0.2
        },
        "BaseCycle": 0.05,
        "CycleDamping": 0,
        "RangeAttenuation": 0.95,
        "PerlinNoiseAmplitude": {
          "X": 0.1,
          "Y": 0.1,
          "Z": 0.1
        },
        "PerlinNoiseFreq": {
          "X": 16,
          "Y": 14,
          "Z": 12
        },
        "RotationalAmplitude": {
          "X": 0,
          "Y": 0,
          "Z": 3.5
        },
        "RotationFreqV3": {
          "X": 4,
          "Y": 0,
          "Z": 8
        }
      }
    },
    {
      "TemplateName": "_SR0.29_T0.05_ST0.2：Monster_AML_Minion04_00_Camera_1",
      "ShakeConfig": {
        "ShakeRange": 0.29,
        "ShakeTime": 0.2,
        "ShakeDistance": 100,
        "ShakeDir": {
          "X": 0.15,
          "Y": 0.15,
          "Z": 0.2
        },
        "BaseCycle": 0.05,
        "CycleDamping": 0,
        "RangeAttenuation": 0.95,
        "PerlinNoiseAmplitude": {
          "X": 0.1,
          "Y": 0.1,
          "Z": 0.1
        },
        "PerlinNoiseFreq": {
          "X": 16,
          "Y": 14,
          "Z": 12
        },
        "RotationalAmplitude": {
          "X": 0,
          "Y": 0,
          "Z": 3.5
        },
        "RotationFreqV3": {
          "X": 4,
          "Y": 0,
          "Z": 8
        }
      }
    },
    {
      "TemplateName": "_SR0.14_T0.06_ST0.3：Monster_W1_CWMecha_03_Camera_1",
      "ShakeConfig": {
        "ShakeRange": 0.14,
        "ShakeTime": 0.3,
        "ShakeDistance": 100,
        "ShakeDir": {
          "X": 0,
          "Y": 0.14,
          "Z": 0
        },
        "BaseCycle": 0.06,
        "CycleDamping": 0,
        "RangeAttenuation": 0.95,
        "PerlinNoiseAmplitude": {
          "X": 0.03,
          "Y": 0.03,
          "Z": 0
        },
        "PerlinNoiseFreq": {
          "X": 16,
          "Y": 16,
          "Z": 0
        },
        "RotationalAmplitude": {
          "X": 0,
          "Y": 0,
          "Z": 2
        },
        "RotationFreqV3": {
          "X": 0,
          "Y": 0,
          "Z": 8
        }
      }
    },
    {
      "TemplateName": "_SR0.1_T0.08_ST0.1：Monster_W1_CWMecha_03_Camera_2",
      "ShakeConfig": {
        "ShakeRange": 0.1,
        "ShakeTime": 0.1,
        "ShakeDistance": 100,
        "ShakeDir": {
          "X": 0.08,
          "Y": 0.06,
          "Z": 0
        },
        "BaseCycle": 0.08,
        "CycleDamping": 0,
        "RangeAttenuation": 0.95
      }
    },
    {
      "TemplateName": "_SR0.1_T0.08_ST0.1：Monster_W1_CWMecha_03_Camera_3",
      "ShakeConfig": {
        "ShakeRange": 0.1,
        "ShakeTime": 0.1,
        "ShakeDistance": 100,
        "ShakeDir": {
          "X": 0.08,
          "Y": 0.06,
          "Z": 0
        },
        "BaseCycle": 0.08,
        "CycleDamping": 0,
        "RangeAttenuation": 0.95
      }
    },
    {
      "TemplateName": "_SR0.2_T0.1_ST0.25：Monster_W1_CWMecha_03_Camera_4",
      "ShakeConfig": {
        "ShakeRange": 0.2,
        "ShakeTime": 0.25,
        "ShakeDistance": 100,
        "ShakeDir": {
          "X": 0,
          "Y": 0.2,
          "Z": 0
        },
        "BaseCycle": 0.1,
        "CycleDamping": 0,
        "RangeAttenuation": 0.95,
        "PerlinNoiseAmplitude": {
          "X": 0.1,
          "Y": 0.1,
          "Z": 0.1
        },
        "PerlinNoiseFreq": {
          "X": 16,
          "Y": 16,
          "Z": 0
        }
      }
    },
    {
      "TemplateName": "_SR0.14_T0.06_ST0.2：Monster_W1_CWSoldier_01_Camera_1",
      "ShakeConfig": {
        "ShakeRange": 0.14,
        "ShakeTime": 0.2,
        "ShakeDistance": 100,
        "ShakeDir": {
          "X": 0.1,
          "Y": 0.1,
          "Z": 0
        },
        "BaseCycle": 0.06,
        "CycleDamping": 0,
        "RangeAttenuation": 0.95,
        "PerlinNoiseAmplitude": {
          "X": 0.03,
          "Y": 0.03,
          "Z": 0.03
        },
        "PerlinNoiseFreq": {
          "X": 16,
          "Y": 14,
          "Z": 12
        }
      }
    },
    {
      "TemplateName": "_SR0.21_T0.28_ST0.1：Monster_W1_Gepard_00_Camera_1",
      "ShakeConfig": {
        "ShakeRange": 0.21,
        "ShakeTime": 0.1,
        "ShakeDistance": 100,
        "ShakeDir": {
          "X": 0.2,
          "Y": 0.05,
          "Z": 0
        },
        "BaseCycle": 0.28,
        "CycleDamping": 0,
        "RangeAttenuation": 0.95,
        "PerlinNoiseAmplitude": {
          "X": 0.1,
          "Y": 0.1,
          "Z": 0.1
        },
        "PerlinNoiseFreq": {
          "X": 16,
          "Y": 14,
          "Z": 12
        },
        "RotationalAmplitude": {
          "X": 0,
          "Y": 0,
          "Z": 3.5
        },
        "RotationFreqV3": {
          "X": 4,
          "Y": 0,
          "Z": 8
        }
      }
    },
    {
      "TemplateName": "_SR0.21_T0.28_ST0.25：Monster_W1_Gepard_00_Camera_2",
      "ShakeConfig": {
        "ShakeRange": 0.21,
        "ShakeTime": 0.25,
        "ShakeDistance": 100,
        "ShakeDir": {
          "X": 0.2,
          "Y": 0.05,
          "Z": 0
        },
        "BaseCycle": 0.28,
        "CycleDamping": 0,
        "RangeAttenuation": 0.95,
        "PerlinNoiseAmplitude": {
          "X": 0.1,
          "Y": 0.1,
          "Z": 0.1
        },
        "PerlinNoiseFreq": {
          "X": 16,
          "Y": 14,
          "Z": 12
        },
        "RotationalAmplitude": {
          "X": 0,
          "Y": 0,
          "Z": 3.5
        },
        "RotationFreqV3": {
          "X": 4,
          "Y": 0,
          "Z": 8
        }
      }
    },
    {
      "TemplateName": "_SR0.11_T0.06_ST2.3：Monster_W1_Mecha03_00_Camera_1",
      "ShakeConfig": {
        "ShakeRange": 0.11,
        "ShakeTime": 2.3,
        "ShakeDistance": 100,
        "ShakeDir": {
          "X": 0.04,
          "Y": 0.04,
          "Z": 0.1
        },
        "BaseCycle": 0.06,
        "CycleDamping": 0,
        "RangeAttenuation": 0.95,
        "PerlinNoiseAmplitude": {
          "X": 0.04,
          "Y": 0.04,
          "Z": 0.07
        },
        "PerlinNoiseFreq": {
          "X": 18,
          "Y": 24,
          "Z": 12
        }
      }
    },
    {
      "TemplateName": "_SR0.22_T0.06_ST0.2：Monster_W1_Mecha03_00_Camera_2",
      "ShakeConfig": {
        "ShakeRange": 0.22,
        "ShakeTime": 0.2,
        "ShakeDistance": 100,
        "ShakeDir": {
          "X": 0.1,
          "Y": 0.2,
          "Z": 0
        },
        "BaseCycle": 0.06,
        "CycleDamping": 0,
        "RangeAttenuation": 0.95,
        "PerlinNoiseAmplitude": {
          "X": 0.1,
          "Y": 0.2,
          "Z": 0
        },
        "PerlinNoiseFreq": {
          "X": 16,
          "Y": 14,
          "Z": 0
        },
        "RotationalAmplitude": {
          "X": 1,
          "Y": 0,
          "Z": 1
        },
        "RotationFreqV3": {
          "X": 12,
          "Y": 0,
          "Z": 16
        }
      }
    },
    {
      "TemplateName": "_SR0.14_T0.06_ST0.3：Monster_W1_Mecha03_00_Camera_3",
      "ShakeConfig": {
        "ShakeRange": 0.14,
        "ShakeTime": 0.3,
        "ShakeDistance": 100,
        "ShakeDir": {
          "X": 0.1,
          "Y": 0.1,
          "Z": 0
        },
        "BaseCycle": 0.06,
        "CycleDamping": 0,
        "RangeAttenuation": 0.95,
        "PerlinNoiseAmplitude": {
          "X": 0.1,
          "Y": 0.2,
          "Z": 0
        },
        "PerlinNoiseFreq": {
          "X": 16,
          "Y": 14,
          "Z": 0
        },
        "RotationalAmplitude": {
          "X": 1,
          "Y": 0,
          "Z": 1
        },
        "RotationFreqV3": {
          "X": 12,
          "Y": 0,
          "Z": 16
        }
      }
    },
    {
      "TemplateName": "_SR0.35_T0.1_ST0.1：Monster_W1_Mecha03_00_Camera_4",
      "ShakeConfig": {
        "ShakeRange": 0.35,
        "ShakeTime": 0.1,
        "ShakeDistance": 100,
        "ShakeDir": {
          "X": 0.2,
          "Y": 0.2,
          "Z": 0.2
        },
        "BaseCycle": 0.1,
        "CycleDamping": 0,
        "RangeAttenuation": 0.95,
        "PerlinNoiseAmplitude": {
          "X": 0.05,
          "Y": 0.05,
          "Z": 0.05
        },
        "PerlinNoiseFreq": {
          "X": 16,
          "Y": 14,
          "Z": 12
        }
      }
    },
    {
      "TemplateName": "_SR0.35_T0.1_ST0.1：Monster_W1_Mecha03_00_Camera_5",
      "ShakeConfig": {
        "ShakeRange": 0.35,
        "ShakeTime": 0.1,
        "ShakeDistance": 100,
        "ShakeDir": {
          "X": 0.2,
          "Y": 0.2,
          "Z": 0.2
        },
        "BaseCycle": 0.1,
        "CycleDamping": 0,
        "RangeAttenuation": 0.95,
        "PerlinNoiseAmplitude": {
          "X": 0.05,
          "Y": 0.05,
          "Z": 0.05
        },
        "PerlinNoiseFreq": {
          "X": 16,
          "Y": 14,
          "Z": 12
        }
      }
    },
    {
      "TemplateName": "_SR0.11_T0.06_ST0.8：Monster_W1_Mecha03_00_Camera_6",
      "ShakeConfig": {
        "ShakeRange": 0.11,
        "ShakeTime": 0.8,
        "ShakeDistance": 100,
        "ShakeDir": {
          "X": 0.04,
          "Y": 0.04,
          "Z": 0.1
        },
        "BaseCycle": 0.06,
        "CycleDamping": 0,
        "RangeAttenuation": 0.95,
        "PerlinNoiseAmplitude": {
          "X": 0.04,
          "Y": 0.04,
          "Z": 0.07
        },
        "PerlinNoiseFreq": {
          "X": 18,
          "Y": 24,
          "Z": 12
        }
      }
    },
    {
      "TemplateName": "_SR0.11_T0.06_ST0.7：Monster_W1_Mecha03_00_Camera_7",
      "ShakeConfig": {
        "ShakeRange": 0.11,
        "ShakeTime": 0.7,
        "ShakeDistance": 100,
        "ShakeDir": {
          "X": 0.04,
          "Y": 0.04,
          "Z": 0.1
        },
        "BaseCycle": 0.06,
        "CycleDamping": 0,
        "RangeAttenuation": 0.95,
        "PerlinNoiseAmplitude": {
          "X": 0.04,
          "Y": 0.04,
          "Z": 0.07
        },
        "PerlinNoiseFreq": {
          "X": 18,
          "Y": 24,
          "Z": 12
        }
      }
    },
    {
      "TemplateName": "_SR0.14_T0.06_ST0.2：Monster_W1_Soldier01_03_Camera_1",
      "ShakeConfig": {
        "ShakeRange": 0.14,
        "ShakeTime": 0.2,
        "ShakeDistance": 100,
        "ShakeDir": {
          "X": 0.1,
          "Y": 0.1,
          "Z": 0
        },
        "BaseCycle": 0.06,
        "CycleDamping": 0,
        "RangeAttenuation": 0.95,
        "PerlinNoiseAmplitude": {
          "X": 0.03,
          "Y": 0.03,
          "Z": 0.03
        },
        "PerlinNoiseFreq": {
          "X": 16,
          "Y": 14,
          "Z": 12
        }
      }
    },
    {
      "TemplateName": "_SR0.14_T0.06_ST0.2：Monster_W1_Soldier01_03_Camera_2",
      "ShakeConfig": {
        "ShakeRange": 0.14,
        "ShakeTime": 0.2,
        "ShakeDistance": 100,
        "ShakeDir": {
          "X": 0.1,
          "Y": 0.1,
          "Z": 0
        },
        "BaseCycle": 0.06,
        "CycleDamping": 0,
        "RangeAttenuation": 0.95,
        "PerlinNoiseAmplitude": {
          "X": 0.03,
          "Y": 0.03,
          "Z": 0.03
        },
        "PerlinNoiseFreq": {
          "X": 16,
          "Y": 14,
          "Z": 12
        }
      }
    },
    {
      "TemplateName": "_SR0.29_T0.05_ST0.2：Monster_W1_Soldier02_00_Camera_1",
      "ShakeConfig": {
        "ShakeRange": 0.29,
        "ShakeTime": 0.2,
        "ShakeDistance": 100,
        "ShakeDir": {
          "X": 0.15,
          "Y": 0.15,
          "Z": 0.2
        },
        "BaseCycle": 0.05,
        "CycleDamping": 0,
        "RangeAttenuation": 0.95,
        "PerlinNoiseAmplitude": {
          "X": 0.1,
          "Y": 0.1,
          "Z": 0.1
        },
        "PerlinNoiseFreq": {
          "X": 16,
          "Y": 14,
          "Z": 12
        },
        "RotationalAmplitude": {
          "X": 0,
          "Y": 0,
          "Z": 3.5
        },
        "RotationFreqV3": {
          "X": 4,
          "Y": 0,
          "Z": 8
        }
      }
    },
    {
      "TemplateName": "_SR0.14_T0.06_ST0.2：Monster_W1_Soldier03_00_Camera_1",
      "ShakeConfig": {
        "ShakeRange": 0.14,
        "ShakeTime": 0.2,
        "ShakeDistance": 100,
        "ShakeDir": {
          "X": 0.1,
          "Y": 0.1,
          "Z": 0
        },
        "BaseCycle": 0.06,
        "CycleDamping": 0,
        "RangeAttenuation": 0.95,
        "PerlinNoiseAmplitude": {
          "X": 0.03,
          "Y": 0.03,
          "Z": 0.03
        },
        "PerlinNoiseFreq": {
          "X": 16,
          "Y": 14,
          "Z": 12
        }
      }
    },
    {
      "TemplateName": "_SR0.1_T0.08_ST0.1：Monster_W1_Soldier03_00_Camera_2",
      "ShakeConfig": {
        "ShakeRange": 0.1,
        "ShakeTime": 0.1,
        "ShakeDistance": 100,
        "ShakeDir": {
          "X": 0.08,
          "Y": 0.06,
          "Z": 0
        },
        "BaseCycle": 0.08,
        "CycleDamping": 0,
        "RangeAttenuation": 0.95
      }
    },
    {
      "TemplateName": "_SR0.1_T0.08_ST0.1：Monster_W1_Soldier03_00_Camera_3",
      "ShakeConfig": {
        "ShakeRange": 0.1,
        "ShakeTime": 0.1,
        "ShakeDistance": 100,
        "ShakeDir": {
          "X": 0.08,
          "Y": 0.06,
          "Z": 0
        },
        "BaseCycle": 0.08,
        "CycleDamping": 0,
        "RangeAttenuation": 0.95
      }
    },
    {
      "TemplateName": "_SR0.1_T0.08_ST0.1：Monster_W1_Soldier03_00_Camera_4",
      "ShakeConfig": {
        "ShakeRange": 0.1,
        "ShakeTime": 0.1,
        "ShakeDistance": 100,
        "ShakeDir": {
          "X": 0.08,
          "Y": 0.06,
          "Z": 0
        },
        "BaseCycle": 0.08,
        "CycleDamping": 0,
        "RangeAttenuation": 0.95
      }
    },
    {
      "TemplateName": "_SR0.1_T0.08_ST0.1：Monster_W1_Soldier03_00_Camera_5",
      "ShakeConfig": {
        "ShakeRange": 0.1,
        "ShakeTime": 0.1,
        "ShakeDistance": 100,
        "ShakeDir": {
          "X": 0.08,
          "Y": 0.06,
          "Z": 0
        },
        "BaseCycle": 0.08,
        "CycleDamping": 0,
        "RangeAttenuation": 0.95
      }
    },
    {
      "TemplateName": "_SR0.1_T0.08_ST0.1：Monster_W1_Soldier03_00_Camera_6",
      "ShakeConfig": {
        "ShakeRange": 0.1,
        "ShakeTime": 0.1,
        "ShakeDistance": 100,
        "ShakeDir": {
          "X": 0.08,
          "Y": 0.06,
          "Z": 0
        },
        "BaseCycle": 0.08,
        "CycleDamping": 0,
        "RangeAttenuation": 0.95
      }
    },
    {
      "TemplateName": "_SR0.14_T0.08_ST0.15：Monster_W1_Soldier03_00_Camera_7",
      "ShakeConfig": {
        "ShakeRange": 0.14,
        "ShakeTime": 0.15,
        "ShakeDistance": 100,
        "ShakeDir": {
          "X": 0.1,
          "Y": 0.1,
          "Z": 0
        },
        "BaseCycle": 0.08,
        "CycleDamping": 0,
        "RangeAttenuation": 0.95,
        "PerlinNoiseAmplitude": {
          "X": 0.05,
          "Y": 0.05,
          "Z": 0.05
        },
        "PerlinNoiseFreq": {
          "X": 16,
          "Y": 14,
          "Z": 12
        }
      }
    },
    {
      "TemplateName": "_SR0.11_T0.08_ST0.1：Monster_W1_Soldier03_00_Camera_8",
      "ShakeConfig": {
        "ShakeRange": 0.11,
        "ShakeTime": 0.1,
        "ShakeDistance": 100,
        "ShakeDir": {
          "X": 0.08,
          "Y": 0.08,
          "Z": 0
        },
        "BaseCycle": 0.08,
        "CycleDamping": 0,
        "RangeAttenuation": 0.95,
        "PerlinNoiseAmplitude": {
          "X": 0.02,
          "Y": 0.02,
          "Z": 0.02
        },
        "PerlinNoiseFreq": {
          "X": 16,
          "Y": 14,
          "Z": 12
        }
      }
    },
    {
      "TemplateName": "_SR0.11_T0.08_ST0.1：Monster_W1_Soldier03_00_Camera_9",
      "ShakeConfig": {
        "ShakeRange": 0.11,
        "ShakeTime": 0.1,
        "ShakeDistance": 100,
        "ShakeDir": {
          "X": 0.08,
          "Y": 0.08,
          "Z": 0
        },
        "BaseCycle": 0.08,
        "CycleDamping": 0,
        "RangeAttenuation": 0.95,
        "PerlinNoiseAmplitude": {
          "X": 0.02,
          "Y": 0.02,
          "Z": 0.02
        },
        "PerlinNoiseFreq": {
          "X": 16,
          "Y": 14,
          "Z": 12
        }
      }
    },
    {
      "TemplateName": "_SR0.11_T0.08_ST0.1：Monster_W1_Soldier03_00_Camera_10",
      "ShakeConfig": {
        "ShakeRange": 0.11,
        "ShakeTime": 0.1,
        "ShakeDistance": 100,
        "ShakeDir": {
          "X": 0.08,
          "Y": 0.08,
          "Z": 0
        },
        "BaseCycle": 0.08,
        "CycleDamping": 0,
        "RangeAttenuation": 0.95,
        "PerlinNoiseAmplitude": {
          "X": 0.02,
          "Y": 0.02,
          "Z": 0.02
        },
        "PerlinNoiseFreq": {
          "X": 16,
          "Y": 14,
          "Z": 12
        }
      }
    },
    {
      "TemplateName": "_SR0.2_T0.08_ST0.3：Monster_W1_Soldier03_00_Camera_11",
      "ShakeConfig": {
        "ShakeRange": 0.2,
        "ShakeTime": 0.3,
        "ShakeDistance": 100,
        "ShakeDir": {
          "X": 0.14,
          "Y": 0.14,
          "Z": 0
        },
        "BaseCycle": 0.08,
        "CycleDamping": 0,
        "RangeAttenuation": 0.95,
        "PerlinNoiseAmplitude": {
          "X": 0.07,
          "Y": 0.07,
          "Z": 0.07
        },
        "PerlinNoiseFreq": {
          "X": 16,
          "Y": 14,
          "Z": 12
        }
      }
    },
    {
      "TemplateName": "_SR0.24_T0.05_ST0.25：Monster_W1_Svarog_00_Camera_1",
      "ShakeConfig": {
        "ShakeRange": 0.24,
        "ShakeTime": 0.25,
        "ShakeDistance": 100,
        "ShakeDir": {
          "X": 0.1,
          "Y": 0.2,
          "Z": 0.1
        },
        "BaseCycle": 0.05,
        "CycleDamping": 0,
        "RangeAttenuation": 0.95,
        "PerlinNoiseAmplitude": {
          "X": 0.05,
          "Y": 0.05,
          "Z": 0
        },
        "PerlinNoiseFreq": {
          "X": 16,
          "Y": 14,
          "Z": 0
        },
        "RotationalAmplitude": {
          "X": 2,
          "Y": 0,
          "Z": 2
        },
        "RotationFreqV3": {
          "X": 18,
          "Y": 0,
          "Z": 16
        }
      }
    },
    {
      "TemplateName": "_SR0.05_T0.1_ST2.0：Monster_W1_Svarog_00_Camera_2",
      "ShakeConfig": {
        "ShakeRange": 0.05,
        "ShakeTime": 2,
        "ShakeDistance": 100,
        "ShakeDir": {
          "X": 0,
          "Y": 0.05,
          "Z": 0
        },
        "BaseCycle": 0.1,
        "CycleDamping": 0,
        "RangeAttenuation": 0.95,
        "RotationalAmplitude": {
          "X": 0.05,
          "Y": 0,
          "Z": 0
        },
        "RotationFreqV3": {
          "X": 10,
          "Y": 0,
          "Z": 0
        }
      }
    },
    {
      "TemplateName": "_SR0.24_T0.05_ST0.25：Monster_W1_Svarog_00_Camera_3",
      "ShakeConfig": {
        "ShakeRange": 0.24,
        "ShakeTime": 0.25,
        "ShakeDistance": 100,
        "ShakeDir": {
          "X": 0.1,
          "Y": 0.2,
          "Z": 0.1
        },
        "BaseCycle": 0.05,
        "CycleDamping": 0,
        "RangeAttenuation": 0.95,
        "PerlinNoiseAmplitude": {
          "X": 0.05,
          "Y": 0.05,
          "Z": 0
        },
        "PerlinNoiseFreq": {
          "X": 16,
          "Y": 14,
          "Z": 0
        },
        "RotationalAmplitude": {
          "X": 2,
          "Y": 0,
          "Z": 2
        },
        "RotationFreqV3": {
          "X": 18,
          "Y": 0,
          "Z": 16
        }
      }
    },
    {
      "TemplateName": "_SR0.29_T0.05_ST0.2：Monster_XP_Minion02_00_Camera_1",
      "ShakeConfig": {
        "ShakeRange": 0.29,
        "ShakeTime": 0.2,
        "ShakeDistance": 100,
        "ShakeDir": {
          "X": 0.15,
          "Y": 0.15,
          "Z": 0.2
        },
        "BaseCycle": 0.05,
        "CycleDamping": 0,
        "RangeAttenuation": 0.95,
        "PerlinNoiseAmplitude": {
          "X": 0.1,
          "Y": 0.1,
          "Z": 0.1
        },
        "PerlinNoiseFreq": {
          "X": 16,
          "Y": 14,
          "Z": 12
        },
        "RotationalAmplitude": {
          "X": 0,
          "Y": 0,
          "Z": 3.5
        },
        "RotationFreqV3": {
          "X": 4,
          "Y": 0,
          "Z": 8
        }
      }
    },
    {
      "TemplateName": "_SR0.29_T0.05_ST0.2：Monster_XP_Minion02_00_Camera_2",
      "ShakeConfig": {
        "ShakeRange": 0.29,
        "ShakeTime": 0.2,
        "ShakeDistance": 100,
        "ShakeDir": {
          "X": 0.15,
          "Y": 0.15,
          "Z": 0.2
        },
        "BaseCycle": 0.05,
        "CycleDamping": 0,
        "RangeAttenuation": 0.95,
        "PerlinNoiseAmplitude": {
          "X": 0.1,
          "Y": 0.1,
          "Z": 0.1
        },
        "PerlinNoiseFreq": {
          "X": 16,
          "Y": 14,
          "Z": 12
        },
        "RotationalAmplitude": {
          "X": 0,
          "Y": 0,
          "Z": 3.5
        },
        "RotationFreqV3": {
          "X": 4,
          "Y": 0,
          "Z": 8
        }
      }
    },
    {
      "TemplateName": "_SR0.21_T0.28_ST0.1：WMonster_Gepard_00_Camera_1",
      "ShakeConfig": {
        "ShakeRange": 0.21,
        "ShakeTime": 0.1,
        "ShakeDistance": 100,
        "ShakeDir": {
          "X": 0.2,
          "Y": 0.05,
          "Z": 0
        },
        "BaseCycle": 0.28,
        "CycleDamping": 0,
        "RangeAttenuation": 0.95,
        "PerlinNoiseAmplitude": {
          "X": 0.1,
          "Y": 0.1,
          "Z": 0.1
        },
        "PerlinNoiseFreq": {
          "X": 16,
          "Y": 14,
          "Z": 12
        },
        "RotationalAmplitude": {
          "X": 0,
          "Y": 0,
          "Z": 3.5
        },
        "RotationFreqV3": {
          "X": 4,
          "Y": 0,
          "Z": 8
        }
      }
    },
    {
      "TemplateName": "_SR0.21_T0.28_ST0.25：WMonster_Gepard_00_Camera_2",
      "ShakeConfig": {
        "ShakeRange": 0.21,
        "ShakeTime": 0.25,
        "ShakeDistance": 100,
        "ShakeDir": {
          "X": 0.2,
          "Y": 0.05,
          "Z": 0
        },
        "BaseCycle": 0.28,
        "CycleDamping": 0,
        "RangeAttenuation": 0.95,
        "PerlinNoiseAmplitude": {
          "X": 0.1,
          "Y": 0.1,
          "Z": 0.1
        },
        "PerlinNoiseFreq": {
          "X": 16,
          "Y": 14,
          "Z": 12
        },
        "RotationalAmplitude": {
          "X": 0,
          "Y": 0,
          "Z": 3.5
        },
        "RotationFreqV3": {
          "X": 4,
          "Y": 0,
          "Z": 8
        }
      }
    },
    {
      "TemplateName": "_SR0.21_T0.28_ST0.25：WMonster_Gepard_00_Camera_3",
      "ShakeConfig": {
        "ShakeRange": 0.21,
        "ShakeTime": 0.25,
        "ShakeDistance": 100,
        "ShakeDir": {
          "X": 0.2,
          "Y": 0.05,
          "Z": 0
        },
        "BaseCycle": 0.28,
        "CycleDamping": 0,
        "RangeAttenuation": 0.95,
        "PerlinNoiseAmplitude": {
          "X": 0.1,
          "Y": 0.1,
          "Z": 0.1
        },
        "PerlinNoiseFreq": {
          "X": 16,
          "Y": 14,
          "Z": 12
        },
        "RotationalAmplitude": {
          "X": 0,
          "Y": 0,
          "Z": 3.5
        },
        "RotationFreqV3": {
          "X": 4,
          "Y": 0,
          "Z": 8
        }
      }
    },
    {
      "TemplateName": "_SR0.31_T0.06_ST0.6：WMonster_Gepard_00_Camera_4",
      "ShakeConfig": {
        "ShakeRange": 0.31,
        "ShakeTime": 0.6,
        "ShakeDistance": 100,
        "ShakeDir": {
          "X": 0.04,
          "Y": 0.04,
          "Z": 0.3
        },
        "BaseCycle": 0.06,
        "CycleDamping": 0,
        "RangeAttenuation": 0.95,
        "PerlinNoiseAmplitude": {
          "X": 0.04,
          "Y": 0.04,
          "Z": 0.07
        },
        "PerlinNoiseFreq": {
          "X": 18,
          "Y": 24,
          "Z": 12
        }
      }
    },
    {
      "TemplateName": "_SR0.21_T0.28_ST0.1：WMonster_Gepard_00_Camera_5",
      "ShakeConfig": {
        "ShakeRange": 0.21,
        "ShakeTime": 0.1,
        "ShakeDistance": 100,
        "ShakeDir": {
          "X": 0.2,
          "Y": 0.05,
          "Z": 0
        },
        "BaseCycle": 0.28,
        "CycleDamping": 0,
        "RangeAttenuation": 0.95,
        "PerlinNoiseAmplitude": {
          "X": 0.1,
          "Y": 0.1,
          "Z": 0.1
        },
        "PerlinNoiseFreq": {
          "X": 16,
          "Y": 14,
          "Z": 12
        },
        "RotationalAmplitude": {
          "X": 0,
          "Y": 0,
          "Z": 3.5
        },
        "RotationFreqV3": {
          "X": 4,
          "Y": 0,
          "Z": 8
        }
      }
    },
    {
      "TemplateName": "_SR0.21_T0.28_ST0.25：WMonster_Gepard_00_Camera_6",
      "ShakeConfig": {
        "ShakeRange": 0.21,
        "ShakeTime": 0.25,
        "ShakeDistance": 100,
        "ShakeDir": {
          "X": 0.2,
          "Y": 0.05,
          "Z": 0
        },
        "BaseCycle": 0.28,
        "CycleDamping": 0,
        "RangeAttenuation": 0.95,
        "PerlinNoiseAmplitude": {
          "X": 0.1,
          "Y": 0.1,
          "Z": 0.1
        },
        "PerlinNoiseFreq": {
          "X": 16,
          "Y": 14,
          "Z": 12
        },
        "RotationalAmplitude": {
          "X": 0,
          "Y": 0,
          "Z": 3.5
        },
        "RotationFreqV3": {
          "X": 4,
          "Y": 0,
          "Z": 8
        }
      }
    },
    {
      "TemplateName": "_SR0.21_T0.28_ST0.25：WMonster_Gepard_00_Camera_7",
      "ShakeConfig": {
        "ShakeRange": 0.21,
        "ShakeTime": 0.25,
        "ShakeDistance": 100,
        "ShakeDir": {
          "X": 0.2,
          "Y": 0.05,
          "Z": 0
        },
        "BaseCycle": 0.28,
        "CycleDamping": 0,
        "RangeAttenuation": 0.95,
        "PerlinNoiseAmplitude": {
          "X": 0.1,
          "Y": 0.1,
          "Z": 0.1
        },
        "PerlinNoiseFreq": {
          "X": 16,
          "Y": 14,
          "Z": 12
        },
        "RotationalAmplitude": {
          "X": 0,
          "Y": 0,
          "Z": 3.5
        },
        "RotationFreqV3": {
          "X": 4,
          "Y": 0,
          "Z": 8
        }
      }
    },
    {
      "TemplateName": "_SR0.21_T0.28_ST0.1：WMonster_Gepard_00_Camera_8",
      "ShakeConfig": {
        "ShakeRange": 0.21,
        "ShakeTime": 0.1,
        "ShakeDistance": 100,
        "ShakeDir": {
          "X": 0.2,
          "Y": 0.05,
          "Z": 0
        },
        "BaseCycle": 0.28,
        "CycleDamping": 0,
        "RangeAttenuation": 0.95,
        "PerlinNoiseAmplitude": {
          "X": 0.1,
          "Y": 0.1,
          "Z": 0.1
        },
        "PerlinNoiseFreq": {
          "X": 16,
          "Y": 14,
          "Z": 12
        },
        "RotationalAmplitude": {
          "X": 0,
          "Y": 0,
          "Z": 1.5
        },
        "RotationFreqV3": {
          "X": 4,
          "Y": 0,
          "Z": 8
        }
      }
    },
    {
      "TemplateName": "_SR0.21_T0.28_ST0.1：WMonster_Gepard_00_Camera_9",
      "ShakeConfig": {
        "ShakeRange": 0.21,
        "ShakeTime": 0.1,
        "ShakeDistance": 100,
        "ShakeDir": {
          "X": 0.2,
          "Y": 0.05,
          "Z": 0
        },
        "BaseCycle": 0.28,
        "CycleDamping": 0,
        "RangeAttenuation": 0.95,
        "PerlinNoiseAmplitude": {
          "X": 0.1,
          "Y": 0.1,
          "Z": 0.1
        },
        "PerlinNoiseFreq": {
          "X": 16,
          "Y": 14,
          "Z": 12
        },
        "RotationalAmplitude": {
          "X": 0,
          "Y": 0,
          "Z": 3.5
        },
        "RotationFreqV3": {
          "X": 4,
          "Y": 0,
          "Z": 8
        }
      }
    },
    {
      "TemplateName": "_SR0.21_T0.2_ST0.25：WMonster_Gepard_00_Camera_10",
      "ShakeConfig": {
        "ShakeRange": 0.21,
        "ShakeTime": 0.25,
        "ShakeDistance": 100,
        "ShakeDir": {
          "X": 0.2,
          "Y": 0.05,
          "Z": 0
        },
        "BaseCycle": 0.2,
        "CycleDamping": 0,
        "RangeAttenuation": 0.95,
        "PerlinNoiseAmplitude": {
          "X": 0.1,
          "Y": 0.1,
          "Z": 0.1
        },
        "PerlinNoiseFreq": {
          "X": 16,
          "Y": 14,
          "Z": 12
        },
        "RotationalAmplitude": {
          "X": 0,
          "Y": 0,
          "Z": 3.5
        },
        "RotationFreqV3": {
          "X": 4,
          "Y": 0,
          "Z": 8
        }
      }
    },
    {
      "TemplateName": "_SR0.31_T0.06_ST0.6：WMonster_Gepard_00_Camera_11",
      "ShakeConfig": {
        "ShakeRange": 0.31,
        "ShakeTime": 0.6,
        "ShakeDistance": 100,
        "ShakeDir": {
          "X": 0.04,
          "Y": 0.04,
          "Z": 0.3
        },
        "BaseCycle": 0.06,
        "CycleDamping": 0,
        "RangeAttenuation": 0.95,
        "PerlinNoiseAmplitude": {
          "X": 0.04,
          "Y": 0.04,
          "Z": 0.07
        },
        "PerlinNoiseFreq": {
          "X": 18,
          "Y": 24,
          "Z": 12
        }
      }
    },
    {
      "TemplateName": "_SR0.31_T0.06_ST0.6：WMonster_Gepard_00_Camera_12",
      "ShakeConfig": {
        "ShakeRange": 0.31,
        "ShakeTime": 0.6,
        "ShakeDistance": 100,
        "ShakeDir": {
          "X": 0.04,
          "Y": 0.04,
          "Z": 0.3
        },
        "BaseCycle": 0.06,
        "CycleDamping": 0,
        "RangeAttenuation": 0.95,
        "PerlinNoiseAmplitude": {
          "X": 0.04,
          "Y": 0.04,
          "Z": 0.07
        },
        "PerlinNoiseFreq": {
          "X": 18,
          "Y": 24,
          "Z": 12
        }
      }
    },
    {
      "TemplateName": "_SR0.22_T0.06_ST0.2：WMonster_W1_CocoliaP2_00_Camera_1",
      "ShakeConfig": {
        "ShakeRange": 0.22,
        "ShakeTime": 0.2,
        "ShakeDistance": 100,
        "ShakeDir": {
          "X": 0.1,
          "Y": 0.2,
          "Z": 0
        },
        "BaseCycle": 0.06,
        "CycleDamping": 0,
        "RangeAttenuation": 0.95,
        "PerlinNoiseAmplitude": {
          "X": 0.1,
          "Y": 0.2,
          "Z": 0
        },
        "PerlinNoiseFreq": {
          "X": 16,
          "Y": 14,
          "Z": 0
        },
        "RotationalAmplitude": {
          "X": 1,
          "Y": 0,
          "Z": 1
        },
        "RotationFreqV3": {
          "X": 12,
          "Y": 0,
          "Z": 16
        }
      }
    },
    {
      "TemplateName": "_SR0.29_T0.05_ST0.2：WMonster_W1_CocoliaP2_01_Camera_1",
      "ShakeConfig": {
        "ShakeRange": 0.29,
        "ShakeTime": 0.2,
        "ShakeDistance": 100,
        "ShakeDir": {
          "X": 0.15,
          "Y": 0.15,
          "Z": 0.2
        },
        "BaseCycle": 0.05,
        "CycleDamping": 0,
        "RangeAttenuation": 0.95,
        "PerlinNoiseAmplitude": {
          "X": 0.1,
          "Y": 0.1,
          "Z": 0.1
        },
        "PerlinNoiseFreq": {
          "X": 16,
          "Y": 14,
          "Z": 12
        },
        "RotationalAmplitude": {
          "X": 0,
          "Y": 0,
          "Z": 3.5
        },
        "RotationFreqV3": {
          "X": 4,
          "Y": 0,
          "Z": 8
        }
      }
    },
    {
      "TemplateName": "_SR0.14_T0.06_ST0.2：WMonster_W1_GSMecha_02_Camera_1",
      "ShakeConfig": {
        "ShakeRange": 0.14,
        "ShakeTime": 0.2,
        "ShakeDistance": 100,
        "ShakeDir": {
          "X": 0.1,
          "Y": 0.1,
          "Z": 0
        },
        "BaseCycle": 0.06,
        "CycleDamping": 0,
        "RangeAttenuation": 0.95,
        "PerlinNoiseAmplitude": {
          "X": 0.03,
          "Y": 0.03,
          "Z": 0.03
        },
        "PerlinNoiseFreq": {
          "X": 16,
          "Y": 14,
          "Z": 12
        }
      }
    },
    {
      "TemplateName": "_SR0.14_T0.06_ST0.2：WMonster_W1_WRSoldier_01_Camera_1",
      "ShakeConfig": {
        "ShakeRange": 0.14,
        "ShakeTime": 0.2,
        "ShakeDistance": 100,
        "ShakeDir": {
          "X": 0.1,
          "Y": 0.1,
          "Z": 0
        },
        "BaseCycle": 0.06,
        "CycleDamping": 0,
        "RangeAttenuation": 0.95,
        "PerlinNoiseAmplitude": {
          "X": 0.03,
          "Y": 0.03,
          "Z": 0.03
        },
        "PerlinNoiseFreq": {
          "X": 16,
          "Y": 14,
          "Z": 12
        }
      }
    },
    {
      "TemplateName": "_SR0.14_T0.06_ST0.2：WMonster_W1_WRSoldier_01_Camera_2",
      "ShakeConfig": {
        "ShakeRange": 0.14,
        "ShakeTime": 0.2,
        "ShakeDistance": 100,
        "ShakeDir": {
          "X": 0.1,
          "Y": 0.1,
          "Z": 0
        },
        "BaseCycle": 0.06,
        "CycleDamping": 0,
        "RangeAttenuation": 0.95,
        "PerlinNoiseAmplitude": {
          "X": 0.03,
          "Y": 0.03,
          "Z": 0.03
        },
        "PerlinNoiseFreq": {
          "X": 16,
          "Y": 14,
          "Z": 12
        }
      }
    },
    {
      "TemplateName": "_SR0.21_T0.2_ST0.2：Monster_W1_CocoliaP1_01_Designer_AnimEvent_1",
      "ShakeConfig": {
        "ShakeRange": 0.21,
        "ShakeTime": 0.2,
        "ShakeDistance": 100,
        "ShakeDir": {
          "X": 0.15,
          "Y": 0.15,
          "Z": 0
        },
        "BaseCycle": 0.2,
        "CycleDamping": 0,
        "RangeAttenuation": 0.95,
        "RotationalAmplitude": {
          "X": 0,
          "Y": 0,
          "Z": 1.5
        },
        "RotationFreqV3": {
          "X": 1,
          "Y": 0,
          "Z": 8
        }
      }
    },
    {
      "TemplateName": "_SR0.21_T0.2_ST0.2：Monster_W1_CocoliaP1_01_Designer_AnimEvent_2",
      "ShakeConfig": {
        "ShakeRange": 0.21,
        "ShakeTime": 0.2,
        "ShakeDistance": 100,
        "ShakeDir": {
          "X": 0.15,
          "Y": 0.15,
          "Z": 0
        },
        "BaseCycle": 0.2,
        "CycleDamping": 0,
        "RangeAttenuation": 0.95,
        "RotationalAmplitude": {
          "X": 0,
          "Y": 0,
          "Z": 1.5
        },
        "RotationFreqV3": {
          "X": 1,
          "Y": 0,
          "Z": 8
        }
      }
    },
    {
      "TemplateName": "_SR0.1_T0.05_ST0.4：Boss_Cocolia_P1_Camera_1",
      "ShakeConfig": {
        "ShakeRange": 0.1,
        "ShakeTime": 0.4,
        "ShakeDistance": 100,
        "ShakeDir": {
          "X": 0,
          "Y": 0.1,
          "Z": 0
        },
        "BaseCycle": 0.05,
        "CycleDamping": 0,
        "RangeAttenuation": 0.95
      }
    },
    {
      "TemplateName": "_SR0.1_T0.08_ST0.4：Boss_Cocolia_P1_Camera_2",
      "ShakeConfig": {
        "ShakeRange": 0.1,
        "ShakeTime": 0.4,
        "ShakeDistance": 100,
        "ShakeDir": {
          "X": 0,
          "Y": 0.1,
          "Z": 0
        },
        "BaseCycle": 0.08,
        "CycleDamping": 0,
        "RangeAttenuation": 0.95
      }
    },
    {
      "TemplateName": "_SR0.29_T0.05_ST0.2：Monster_W1_Soldier04_00_Camera_1",
      "ShakeConfig": {
        "ShakeRange": 0.39,
        "ShakeTime": 0.2,
        "ShakeDistance": 100,
        "ShakeDir": {
          "X": 0.15,
          "Y": 0.15,
          "Z": 0.2
        },
        "BaseCycle": 0.05,
        "CycleDamping": 0,
        "RangeAttenuation": 0.95,
        "PerlinNoiseAmplitude": {
          "X": 0.1,
          "Y": 0.1,
          "Z": 0.1
        },
        "PerlinNoiseFreq": {
          "X": 16,
          "Y": 14,
          "Z": 12
        },
        "RotationalAmplitude": {
          "X": 0,
          "Y": 0,
          "Z": 3.5
        }
      }
    },
    {
      "TemplateName": "Herta_Skill01_XY",
      "ShakeConfig": {
        "ShakeRange": 0.25,
        "ShakeTime": 0.35,
        "ShakeDistance": 30,
        "ShakeDir": {
          "X": -0.75,
          "Y": 0.75,
          "Z": 0
        },
        "BaseCycle": 0.15,
        "CycleDamping": 0.5,
        "RangeAttenuation": 0.8
      }
    },
    {
      "TemplateName": "Herta_Skill02_ZY",
      "ShakeConfig": {
        "ShakeRange": 0.5,
        "ShakeTime": 0.3,
        "ShakeDistance": 30,
        "ShakeDir": {
          "X": 0.2,
          "Y": 0,
          "Z": 0.4
        },
        "BaseCycle": 0.05,
        "CycleDamping": 0.5,
        "RangeAttenuation": 0.8
      }
    },
    {
      "TemplateName": "Herta_Passive",
      "ShakeConfig": {
        "ShakeRange": 0.2,
        "ShakeTime": 0.35,
        "ShakeDistance": 30,
        "BaseCycle": 0.085,
        "CycleDamping": 0.8
      }
    },
    {
      "TemplateName": "Herta_Skill02_Random",
      "ShakeConfig": {
        "ShakeRange": 0.35,
        "ShakeTime": 0.9,
        "BaseCycle": 0.075,
        "CycleDamping": 0.3
      }
    },
    {
      "TemplateName": "Silwolf_Skill01_XY",
      "ShakeConfig": {
        "ShakeRange": 0.2,
        "ShakeTime": 0.15,
        "ShakeDistance": 30,
        "ShakeDir": {
          "X": 0.35,
          "Y": -0.75,
          "Z": -0.5
        },
        "BaseCycle": 0.125,
        "CycleDamping": 0.3
      }
    },
    {
      "TemplateName": "JingYuan_Skill02_X",
      "ShakeConfig": {
        "ShakeRange": 0.6,
        "ShakeTime": 0.2,
        "ShakeDistance": 30,
        "ShakeDir": {
          "X": -0.6,
          "Y": 0.5,
          "Z": 0.2
        },
        "BaseCycle": 0.1,
        "CycleDamping": 0.2
      }
    },
    {
      "TemplateName": "LocalPlayer_Xueyi_PassiveSkill01",
      "ShakeConfig": {
        "ShakeRange": 0.35,
        "ShakeTime": 0.3,
        "ShakeDistance": 30,
        "ShakeDir": {
          "X": 0,
          "Y": 0.1,
          "Z": 0
        },
        "BaseCycle": 0.05,
        "CycleDamping": 0.1,
        "RangeAttenuation": 0.1
      }
    },
    {
      "TemplateName": "LocalPlayer_Xueyi_PassiveSkill02",
      "ShakeConfig": {
        "ShakeRange": 0.35,
        "ShakeTime": 0.3,
        "ShakeDistance": 30,
        "ShakeDir": {
          "X": 0,
          "Y": 0.1,
          "Z": 0
        },
        "BaseCycle": 0.05,
        "CycleDamping": 0.1,
        "RangeAttenuation": 0.1
      }
    },
    {
      "TemplateName": "LocalPlayer_Xueyi_PassiveSkill03",
      "ShakeConfig": {
        "ShakeRange": 0.25,
        "ShakeTime": 0.4,
        "ShakeDistance": 30,
        "ShakeDir": {
          "X": 0,
          "Y": 0,
          "Z": 0
        },
        "BaseCycle": 0.15,
        "CycleDamping": 0.2,
        "RangeAttenuation": 0.2
      }
    },
    {
      "TemplateName": "Monster_LongTime",
      "ShakeConfig": {
        "ShakeRange": 0.2,
        "ShakeTime": 3,
        "ShakeDistance": 100,
        "ShakeDir": {
          "X": 0.2,
          "Y": 0,
          "Z": 0.2
        },
        "BaseCycle": 0.1,
        "CycleDamping": 0,
        "RangeAttenuation": 0
      }
    },
    {
      "TemplateName": "Rogue_620101_LongTime",
      "ShakeConfig": {
        "ShakeRange": 0.3,
        "ShakeTime": 3,
        "ShakeDistance": 30,
        "ShakeDir": {
          "X": 0.4,
          "Y": 0,
          "Z": 0.3
        },
        "BaseCycle": 0.1,
        "CycleDamping": 0,
        "RangeAttenuation": 0,
        "RangeAttenuationDelay": 0,
        "RangeAttenuationTarget": 5,
        "RangeAttenuationDuration": 2.8,
        "MaxAttenuationProtect": true
      }
    },
    {
      "TemplateName": "Rogue_620201_LongTime",
      "ShakeConfig": {
        "ShakeRange": 0.3,
        "ShakeTime": 3,
        "ShakeDistance": 30,
        "ShakeDir": {
          "X": 0.4,
          "Y": 0,
          "Z": 0.3
        },
        "BaseCycle": 0.1,
        "CycleDamping": 0,
        "RangeAttenuation": 0,
        "RangeAttenuationDelay": 0,
        "RangeAttenuationDuration": 2.8
      }
    },
    {
      "TemplateName": "Rogue_620501_LongTime",
      "ShakeConfig": {
        "ShakeRange": 0.1,
        "ShakeTime": 3,
        "ShakeDistance": 30,
        "ShakeDir": {
          "X": 0.1,
          "Y": 0.1,
          "Z": 0.1
        },
        "BaseCycle": 0.07,
        "CycleDamping": 0,
        "RangeAttenuation": 0,
        "RangeAttenuationDelay": 0,
        "RangeAttenuationTarget": 5,
        "RangeAttenuationDuration": 2.8,
        "MaxAttenuationProtect": true
      }
    },
    {
      "TemplateName": "Rogue_620701_LongTime2",
      "ShakeConfig": {
        "ShakeRange": 0.3,
        "ShakeTime": 3,
        "ShakeDistance": 30,
        "ShakeDir": {
          "X": 0.1,
          "Y": 0.1,
          "Z": 0.1
        },
        "BaseCycle": 0.15,
        "CycleDamping": 0,
        "RangeAttenuation": 0,
        "RangeAttenuationDelay": 0,
        "RangeAttenuationTarget": 5,
        "RangeAttenuationDuration": 2.8
      }
    },
    {
      "TemplateName": "Rogue_620701_LongTime3",
      "ShakeConfig": {
        "ShakeRange": 0.3,
        "ShakeTime": 3,
        "ShakeDistance": 30,
        "ShakeDir": {
          "X": 0.1,
          "Y": 0.1,
          "Z": 0.1
        },
        "BaseCycle": 0.1,
        "CycleDamping": 0,
        "RangeAttenuation": 0,
        "RangeAttenuationDelay": 0,
        "RangeAttenuationTarget": 5,
        "RangeAttenuationDuration": 2.8
      }
    },
    {
      "TemplateName": "OneShake_Normal_SR0.49_T0.2_ST0.25",
      "ShakeConfig": {
        "ShakeRange": 0.49,
        "ShakeTime": 0.25,
        "ShakeDistance": 100,
        "ShakeDir": {
          "X": 0.45,
          "Y": 0.2,
          "Z": 0
        },
        "BaseCycle": 0.2,
        "CycleDamping": 0,
        "RangeAttenuation": 0.95
      }
    }
  ]
}