{
  "EffectPriorityMap": {
    "Effects/Eff_Prefab/Eff_Avatar/Eff_Seele/Eff_Avatar_Seele_00_MazeSkill_Body.prefab": 30,
    "Effects/Eff_Prefab/Eff_Avatar/Eff_Seele/Eff_Avatar_Seele_00_MazeSkill_Face.prefab": 30,
    "Effects/Eff_Prefab/Eff_Avatar/Eff_Seele/Eff_Avatar_Seele_00_MazeSkill_Hair.prefab": 30,
    "Effects/Eff_Prefab/Eff_Avatar/Eff_Yukong/Eff_Avatar_Yukong_00_MazeSkill_Root.prefab": 100,
    "Effects/Eff_Prefab/Eff_Avatar/Eff_Yukong/Eff_Avatar_Yukong_00_MazeSkill_Loop.prefab": 100,
    "Effects/Eff_Prefab/Eff_Scene/Scene_Void/Eff_BossDoman/Eff_Common_BossDomain_01_Inactive_01.prefab": 30,
    "Effects/Eff_Prefab/Eff_Scene/Scene_Void/Eff_BossDoman/Eff_Common_BossDomain_01_Inactive_02.prefab": 30,
    "Effects/Eff_Prefab/Eff_Scene/Scene_Void/Eff_BossDoman/Eff_Common_BossDomain_01_Inactive_03.prefab": 30
  },
  "EffectHideWhiteList": [
    "Effects/Eff_Prefab/Eff_Avatar/Eff_JingYuan/Eff_Avatar_JingYuan_00_Common_Weapon.prefab",
    "Effects/Eff_Prefab/Eff_Monster/Eff_W1_Svarog_00/Eff_W1_Svarog_00_Skill03_Shield_Loop.prefab",
    "Effects/Eff_Prefab/Eff_Avatar/Eff_Silwolf/Eff_Avatar_Silwolf_00_Common_Lightsaber.prefab",
    "Effects/Eff_Prefab/Eff_Avatar/Eff_Silwolf/Eff_Avatar_Silwolf_00_Common_WeaponEffect_Lightsaber.prefab",
    "Effects/Eff_Prefab/Eff_Avatar/Eff_Yanqing/Eff_Avatar_Yanqing_00_PassiveSkill_Buff.prefab",
    "Effects/Eff_Prefab/Eff_Avatar/Eff_Tingyun/Eff_Avatar_Tingyun_00_Skill02_Buff_Loop.prefab",
    "Effects/Eff_Prefab/Eff_Avatar/Eff_Serval/Eff_Avatar_Serval_00_Common_Weapon_Effect.prefab",
    "Effects/Eff_Prefab/Eff_Avatar/Eff_Ren/Eff_Avatar_Ren_00_Skill02_Weapon_JNT.prefab",
    "Effects/Eff_Prefab/Eff_Avatar/Eff_DanHeng/Eff_Avatar_DanHeng_00_Passive01.prefab",
    "Effects/Eff_Prefab/Eff_Avatar/Eff_Sushang/Eff_Avatar_Sushang_00_Passive_Ultrabuff.prefab",
    "Effects/Eff_Prefab/Eff_Avatar/Eff_Seele/Eff_Avatar_Seele_00_Common_Weapon.prefab",
    "Effects/Eff_Prefab/Eff_Avatar/Eff_Seele/Eff_Avatar_Seele_00_Common_Weapon2.prefab",
    "Effects/Eff_Prefab/Eff_Avatar/Eff_PlayerBoy/Eff_Avatar_PlayerBoy_00_Skill03_Weapon_JNT_2.prefab",
    "Effects/Eff_Prefab/Eff_Avatar/Eff_PlayerBoy/Eff_Avatar_PlayerBoy_00_Skill03_Weapon_Mat_E_1.prefab",
    "Effects/Eff_Prefab/Eff_Avatar/Eff_PlayerGirl/Eff_Avatar_PlayerGirl_00_Skill03_Weapon_JNT_2.prefab",
    "Effects/Eff_Prefab/Eff_Avatar/Eff_PlayerBoy_10/Eff_Avatar_PlayerBoy_10_Common_WeaponEffect_V0.prefab",
    "Effects/Eff_Prefab/Eff_Avatar/Eff_PlayerBoy_10/Eff_Avatar_PlayerBoy_10_Common_WeaponEffect_V1.prefab",
    "Effects/Eff_Prefab/Eff_Avatar/Eff_PlayerBoy_10/Eff_Avatar_PlayerBoy_10_Common_WeaponEffect_V2.prefab",
    "Effects/Eff_Prefab/Eff_Avatar/Eff_PlayerBoy_10/Eff_Avatar_PlayerBoy_10_Common_WeaponEffect_V3.prefab",
    "Effects/Eff_Prefab/Eff_Avatar/Eff_PlayerBoy_10/Eff_Avatar_PlayerBoy_10_Common_V3_Light.prefab",
    "Effects/Eff_Prefab/Eff_Avatar/Eff_Luka/Eff_Avatar_Luka_00_Skill01_V2_Ready.prefab",
    "Effects/Eff_Prefab/Eff_Avatar/Eff_Huohuo/Eff_Avatar_Huohuo_00_Common_fire.prefab",
    "Effects/Eff_Prefab/Eff_Monster/Eff_W1_Soldier01_02/Eff_Monster_W1_Soldier01_02_Common_Chest_M.prefab",
    "Effects/Eff_Prefab/Eff_Monster/Eff_W1_Soldier01_02/Eff_Monster_W1_Soldier01_02_Common_Ice_Axe_All_JNT.prefab",
    "Effects/Eff_Prefab/Eff_Monster/Eff_W1_Soldier01_02/Eff_Monster_W1_Soldier01_02_Common_Knee_R.prefab",
    "Effects/Eff_Prefab/Eff_Monster/Eff_W1_Soldier01_01/Eff_Monster_W1_Soldier01_01_Common_Chest_M.prefab",
    "Effects/Eff_Prefab/Eff_Monster/Eff_W1_Soldier01_01/Eff_Monster_W1_Soldier01_01_Common_Head_M.prefab",
    "Effects/Eff_Prefab/Eff_Monster/Eff_W1_Soldier01_01/Eff_Monster_W1_Soldier01_01_Common_Knee_R.prefab",
    "Effects/Eff_Prefab/Eff_Monster/Eff_W1_Soldier01_01/Eff_Monster_W1_Soldier01_01_Common_Weapon.prefab",
    "Effects/Eff_Prefab/Eff_Monster/Eff_XP_Minion01_01/Eff_Monster_XP_Minion01_01_Common_Ball1_M.prefab",
    "Effects/Eff_Prefab/Eff_Monster/Eff_XP_Minion01_01/Eff_Monster_XP_Minion01_01_Common_wing2_L.prefab",
    "Effects/Eff_Prefab/Eff_Monster/Eff_XP_Minion01_01/Eff_Monster_XP_Minion01_01_Common_wing2_R.prefab",
    "Effects/Eff_Prefab/Eff_Monster/Eff_XP_Minion01_00/Eff_Monster_XP_Minion01_00_Common_Ball_M.prefab",
    "Effects/Eff_Prefab/Eff_Monster/Eff_XP_Minion01_00/Eff_Monster_XP_Minion01_00_Common_flameB_02_JNT.prefab",
    "Effects/Eff_Prefab/Eff_Monster/Eff_XP_Minion01_00/Eff_Monster_XP_Minion01_00_Common_flameD_02_JNT.prefab",
    "Effects/Eff_Prefab/Eff_Monster/Eff_XP_Minion01_02/Eff_Monster_XP_Minion01_02_Common_Front_L.prefab",
    "Effects/Eff_Prefab/Eff_Monster/Eff_XP_Minion01_02/Eff_Monster_XP_Minion01_02_Common_Front_R.prefab",
    "Effects/Eff_Prefab/Eff_Monster/Eff_XP_Minion01_03/Eff_Monster_XP_Minion01_03_Common_Ball_M.prefab",
    "Effects/Eff_Prefab/Eff_Monster/Eff_XP_Minion01_03/Eff_Monster_XP_Minion01_03_Common_wing2_L.prefab",
    "Effects/Eff_Prefab/Eff_Monster/Eff_XP_Minion01_03/Eff_Monster_XP_Minion01_03_Common_wing2_R.prefab",
    "Effects/Eff_Prefab/Eff_Monster/Eff_XP_Minion04_00/Eff_Monster_XP_Minion04_00_Skill01_Loop.prefab",
    "Effects/Eff_Prefab/Eff_Monster/Eff_XP_Minion04_00/Eff_Monster_XP_Minion04_00_Skill02_Loop.prefab",
    "Effects/Eff_Prefab/Eff_Monster/Eff_XP_Minion04_01/Eff_Monster_XP_Minion04_01_Skill01_Loop.prefab",
    "Effects/Eff_Prefab/Eff_Monster/Eff_XP_Minion04_01/Eff_Monster_XP_Minion04_01_Skill02_Loop.prefab",
    "Effects/Eff_Prefab/Eff_Monster/Eff_W1_CocoliaP1_00/Eff_Monster_W1_CocoliaP1_00_Common_Standby.prefab",
    "Effects/Eff_Prefab/Eff_Monster/Eff_W1_CocoliaP1_00/Eff_Monster_W1_CocoliaP1_00_Common_Standby_Root.prefab",
    "Effects/Eff_Prefab/Eff_Monster/Eff_W1_CocoliaP2_00/Eff_Monster_W1_CocoliaP2_00_Common_StandBy01.prefab",
    "Effects/Eff_Prefab/Eff_Monster/Eff_W1_CocoliaP2_00/Eff_Monster_W1_CocoliaP2_00_Common_StandBy02.prefab",
    "Effects/Eff_Prefab/Eff_Monster/Eff_W1_Mecha04_00/Eff_Monster_W1_Mecha04_00_Skill01_Start01.prefab",
    "Effects/Eff_Prefab/Eff_Monster/Eff_W2_Abomi01_00/Eff_Monster_W2_Abomi01_00_Passive_buff.prefab",
    "Effects/Eff_Prefab/Eff_Monster/Eff_W2_Abomi01_00/Eff_Monster_W2_Abomi01_00_Passive_buffBody.prefab",
    "Effects/Eff_Prefab/Eff_Monster/Eff_AML_Boss_00/Eff_Monster_AML_Boss_00_Skill08_Full.prefab",
    "Effects/Eff_Prefab/Eff_Monster/Eff_AML_Boss_00/Eff_Monster_AML_Boss_00_Skill08_Loop.prefab",
    "Effects/Eff_Prefab/Eff_Monster/Eff_AML_Boss_00/Eff_Monster_AML_Boss_00_Skill08_Loop1.prefab",
    "Effects/Eff_Prefab/Eff_Monster/Eff_AML_Boss_00/Eff_Monster_AML_Boss_00_Skill07_Loop.prefab",
    "Effects/Eff_Prefab/Eff_Monster/Eff_AML_Boss_00/Eff_Monster_AML_Boss_00_Skill07_Loop1.prefab",
    "Effects/Eff_Prefab/Eff_Monster/Eff_AML_Boss_00/Eff_Monster_AML_Boss_00_Skill07_Full.prefab",
    "Effects/Eff_Prefab/Eff_Monster/Eff_XP_Elite02_02/Eff_Monster_XP_Elite02_02_Skill04_Loop.prefab",
    "Effects/Eff_Prefab/Eff_Monster/Eff_SW_Minion01_00/Eff_Monster_SW_Minion01_00_Skill02_Body.prefab"
  ],
  "EffectSurfaceTypeMap": {
    "Effects/Eff_Prefab/Eff_Common/Eff_Common_Run_smoke.prefab": {
      "EffectOverrideList": [
        {
          "StandSurfaceType": "Snow",
          "EffectPathOverride": "Effects/Eff_Prefab/Eff_Common/Eff_Common_Run_smoke.prefab"
        },
        {
          "StandSurfaceType": "Rock",
          "EffectPathOverride": "Effects/Eff_Prefab/Eff_Common/Eff_Common_Run_smoke.prefab"
        },
        {
          "StandSurfaceType": "Dirt",
          "EffectPathOverride": "Effects/Eff_Prefab/Eff_Common/Eff_Common_Run_smoke.prefab"
        },
        {
          "StandSurfaceType": "Sand",
          "EffectPathOverride": "Effects/Eff_Prefab/Eff_Common/Eff_Common_Run_smoke.prefab"
        },
        {
          "StandSurfaceType": "Wood",
          "EffectPathOverride": "Effects/Eff_Prefab/Eff_Common/Eff_Common_Run_smoke.prefab"
        },
        {
          "StandSurfaceType": "Hollow",
          "EffectPathOverride": "Effects/Eff_Prefab/Eff_Common/Eff_Common_Ripples.prefab"
        },
        {
          "StandSurfaceType": "SuiGarden_LightBridge",
          "EffectPathOverride": "Effects/Eff_Prefab/Eff_Scene/InteractiveProp/Eff_Chap02_Prop_SuiGarden_01_SkyBridge02_Lod0.prefab"
        }
      ]
    },
    "Effects/Eff_Prefab/Eff_Common/Eff_Common_FootStep_Left.prefab": {
      "EffectOverrideList": [
        {
          "StandSurfaceType": "Snow",
          "EffectPathOverride": "Effects/Eff_Prefab/Eff_Common/Eff_MaZ_FootPrint_Left.prefab"
        }
      ]
    },
    "Effects/Eff_Prefab/Eff_Common/Eff_Common_FootStep_Right.prefab": {
      "EffectOverrideList": [
        {
          "StandSurfaceType": "Snow",
          "EffectPathOverride": "Effects/Eff_Prefab/Eff_Common/Eff_MaZ_FootPrint_Right.prefab"
        }
      ]
    },
    "Effects/Eff_Prefab/Eff_Common/Eff_Common_FastRunStop_L.prefab": {
      "EffectOverrideList": [
        {
          "StandSurfaceType": "Snow",
          "EffectPathOverride": "Effects/Eff_Prefab/Eff_Common/Eff_Common_FastRunStop_L.prefab"
        }
      ]
    },
    "Effects/Eff_Prefab/Eff_Common/Eff_Common_FastRunStop_R.prefab": {
      "EffectOverrideList": [
        {
          "StandSurfaceType": "Snow",
          "EffectPathOverride": "Effects/Eff_Prefab/Eff_Common/Eff_Common_FastRunStop_L.prefab"
        }
      ]
    }
  },
  "TesellationCharacterIDList": [
    8003030,
    8003031,
    8003040,
    8003041
  ],
  "MaterialScaleHugeMonsterIDList": [
    8015010,
    8015011,
    2024010,
    8015020,
    8015021,
    8025010,
    9005020,
    9005021
  ],
  "CharacterEnhancedStateSuffixList": [
    "Empty",
    "_V2"
  ],
  "ModifierBehaviorFlagBindEffectMap": {
    "STAT_SpeedDown": {
      "BindEffectList": [
        "Effects/Eff_Prefab/Eff_Common/Eff_Debuff_Common_SpeedDown.prefab"
      ]
    },
    "STAT_DefenceDown": {
      "BindEffectList": [
        "Effects/Eff_Prefab/Eff_Common/Eff_Debuff_Common_DefenceDown.prefab"
      ]
    },
    "STAT_Fatigue": {
      "BindEffectList": [
        "Effects/Eff_Prefab/Eff_Common/Eff_Debuff_Common_AttackDown.prefab"
      ]
    },
    "STAT_AttackDown": {
      "BindEffectList": [
        "Effects/Eff_Prefab/Eff_Common/Eff_Debuff_Common_AttackDown.prefab"
      ]
    }
  },
  "ModifierBindEffectAttachConfig": {
    "AttachPoint": "Origin",
    "MinMutexTime": 1,
    "MutexType": "Entity"
  },
  "EffectMutexMap": {
    "Effects/Eff_Prefab/Eff_Common/Eff_Buff_Common_OtherRise.prefab": {
      "MinMutexTime": 0.85,
      "MinMutexType": "Entity"
    },
    "Effects/Eff_Prefab/Eff_Common/Eff_Common_Heal.prefab": {
      "MinMutexTime": 0.85,
      "MinMutexType": "Entity"
    },
    "Effects/Eff_Prefab/Eff_Common/Eff_Buff_Common_DispelDebuff.prefab": {
      "MinMutexTime": 0.85,
      "MinMutexType": "Entity"
    }
  }
}