{
  "OnInitSequece": [
    {
      "TaskList": []
    }
  ],
  "OnStartSequece": [
    {
      "TaskList": [
        {
          "$type": "RPG.GameCore.CollectDataConditions",
          "TaskIDList": [
            801511406,
            801511407
          ],
          "MainMissionIDList": [],
          "PerformanceIDList": [],
          "CustomValueMainMissionIDList": []
        },
        {
          "$type": "RPG.GameCore.PredicateTaskList",
          "Predicate": {
            "$type": "RPG.GameCore.ByCompareSubMissionState",
            "SubMissionID": 801511406,
            "SubMissionState": "Finish"
          },
          "SuccessTaskList": [
            {
              "$type": "RPG.GameCore.AdvCreateGroupEntity",
              "InstanceIDList": [
                400001
              ]
            }
          ]
        }
      ]
    },
    {
      "TaskList": [
        {
          "$type": "RPG.GameCore.CollectDataConditions",
          "TaskIDList": [
            801511406,
            801511409,
            801511410
          ],
          "MainMissionIDList": [],
          "PerformanceIDList": [],
          "CustomValueMainMissionIDList": []
        },
        {
          "$type": "RPG.GameCore.PredicateTaskList",
          "Predicate": {
            "$type": "RPG.GameCore.ByCompareSubMissionState",
            "SubMissionID": 801511407,
            "SubMissionState": "Finish"
          },
          "SuccessTaskList": [
            {
              "$type": "RPG.GameCore.AdvCreateGroupEntity",
              "InstanceIDList": [
                400002
              ]
            }
          ]
        }
      ]
    },
    {
      "TaskList": [
        {
          "$type": "RPG.GameCore.CollectDataConditions",
          "TaskIDList": [
            801511406,
            801511409,
            801511410
          ],
          "MainMissionIDList": [],
          "PerformanceIDList": [],
          "CustomValueMainMissionIDList": []
        },
        {
          "$type": "RPG.GameCore.PredicateTaskList",
          "Predicate": {
            "$type": "RPG.GameCore.ByCompareSubMissionState",
            "SubMissionID": 801511407,
            "SubMissionState": "Finish"
          },
          "SuccessTaskList": [
            {
              "$type": "RPG.GameCore.AdvCreateGroupEntity",
              "InstanceIDList": [
                400003
              ]
            }
          ]
        }
      ]
    },
    {
      "IsLoop": true,
      "TaskList": [
        {
          "$type": "RPG.GameCore.WaitCustomString",
          "CustomString": {
            "Value": "Trigger_8015114_Huohuo"
          }
        },
        {
          "$type": "RPG.GameCore.TriggerPerformance",
          "ValueSource": {},
          "PerformanceType": "E",
          "PerformanceID": 801511451
        }
      ]
    },
    {
      "TaskList": [
        {
          "$type": "RPG.GameCore.WaitCustomString",
          "CustomString": {
            "Value": "Talk_801511404"
          }
        },
        {
          "$type": "RPG.GameCore.WaitSecond",
          "WaitTime": 1.5
        },
        {
          "$type": "RPG.GameCore.PlayMissionTalk",
          "SimpleTalkList": [
            {
              "TalkSentenceID": 815113213,
              "ProtectTime": 2
            }
          ]
        }
      ]
    },
    {
      "TaskList": [
        {
          "$type": "RPG.GameCore.WaitCustomString",
          "CustomString": {
            "Value": "Trigger_8015114_Npc_Arrive_1"
          }
        },
        {
          "$type": "RPG.GameCore.WaitSecond",
          "WaitTime": 1
        },
        {
          "$type": "RPG.GameCore.AdvCreateGroupEntity",
          "InstanceIDList": [
            400001
          ]
        }
      ]
    }
  ],
  "Type": "Group"
}