{
  "OnInitSequece": [
    {
      "TaskList": []
    }
  ],
  "OnStartSequece": [
    {
      "TaskList": [
        {
          "$type": "RPG.GameCore.PropSetupTrigger",
          "TargetType": {
            "$type": "RPG.GameCore.TargetFetchAdvPropEx",
            "FetchType": "SinglePropByPropID",
            "SinglePropID": {
              "GroupID": {
                "IsDynamic": false,
                "FixedValue": {
                  "Value": 7
                }
              },
              "ID": {
                "IsDynamic": false,
                "FixedValue": {
                  "Value": 300001
                }
              }
            }
          },
          "IsSingle": true,
          "TargetEntityType": "LocalPlayer",
          "TargetTypes": [],
          "OnTriggerEnter": [
            {
              "$type": "RPG.GameCore.TriggerCustomString",
              "CustomString": {
                "Value": "PropTrigger_801511401_1"
              }
            }
          ],
          "TriggerByFakeAvatar": true,
          "SkipFakeAvatar": false
        }
      ]
    },
    {
      "TaskList": [
        {
          "$type": "RPG.GameCore.WaitCustomString",
          "CustomString": {
            "Value": "PropTrigger_801511401_1"
          }
        },
        {
          "$type": "RPG.GameCore.WaitSecond",
          "WaitTime": 0.5
        },
        {
          "$type": "RPG.GameCore.PlayMissionTalk",
          "SimpleTalkList": [
            {
              "TalkSentenceID": 815113202,
              "ProtectTime": 2
            },
            {
              "TalkSentenceID": 815113203,
              "ProtectTime": 2
            },
            {
              "TalkSentenceID": 815113204,
              "ProtectTime": 2
            },
            {
              "TalkSentenceID": 815113205,
              "ProtectTime": 2
            }
          ]
        }
      ]
    },
    {
      "TaskList": [
        {
          "$type": "RPG.GameCore.PropSetupTrigger",
          "TargetType": {
            "$type": "RPG.GameCore.TargetFetchAdvPropEx",
            "FetchType": "SinglePropByPropID",
            "SinglePropID": {
              "GroupID": {
                "IsDynamic": false,
                "FixedValue": {
                  "Value": 7
                }
              },
              "ID": {
                "IsDynamic": false,
                "FixedValue": {
                  "Value": 300003
                }
              }
            }
          },
          "IsSingle": true,
          "TargetEntityType": "LocalPlayer",
          "TargetTypes": [],
          "OnTriggerEnter": [
            {
              "$type": "RPG.GameCore.TriggerCustomString",
              "CustomString": {
                "Value": "PropTrigger_801511401_3"
              }
            }
          ],
          "TriggerByFakeAvatar": true,
          "SkipFakeAvatar": false
        }
      ]
    },
    {
      "TaskList": [
        {
          "$type": "RPG.GameCore.WaitCustomString",
          "CustomString": {
            "Value": "PropTrigger_801511401_3"
          }
        },
        {
          "$type": "RPG.GameCore.AdvDestroyGroupEntity",
          "InstanceIDList": [
            300002
          ]
        },
        {
          "$type": "RPG.GameCore.AdvCreateGroupEntity",
          "InstanceIDList": [
            400001
          ]
        },
        {
          "$type": "RPG.GameCore.WaitSecond",
          "WaitTime": 1.5
        },
        {
          "$type": "RPG.GameCore.TriggerPerformance",
          "ValueSource": {},
          "PerformanceType": "D",
          "PerformanceID": 801511401
        },
        {
          "$type": "RPG.GameCore.TriggerCustomString",
          "CustomString": {
            "Value": "Talk_801511401"
          }
        }
      ]
    }
  ],
  "Type": "Group"
}