{
  "AbilityList": [
    {
      "Name": "MazeMonster_W2_Beast01_00_NormalAtk01",
      "TargetInfo": {
        "TargetType": "SkillPointEntity"
      },
      "OnStart": [
        {
          "$type": "RPG.GameCore.AdventureTriggerAnimStateWithMove",
          "TargetType": {
            "$type": "RPG.GameCore.TargetAlias",
            "Alias": "Caster"
          },
          "AnimLogicState": "NormalAtk",
          "AnimStateName": "Attack",
          "MovingRangeList": [
            {
              "TargetType": {
                "$type": "RPG.GameCore.TargetAlias",
                "Alias": "AdvLocalPlayer"
              },
              "SteerNormalizedTimeStart": {
                "IsDynamic": false,
                "FixedValue": {
                  "Value": 0.10000000009313226
                }
              },
              "SteerNormalizedTimeEnd": {
                "IsDynamic": false,
                "FixedValue": {
                  "Value": 0.40000000037252903
                }
              },
              "MaxSteerSpeed": {
                "IsDynamic": false,
                "FixedValue": {
                  "Value": 70
                }
              }
            }
          ]
        },
        {
          "$type": "RPG.GameCore.WaitAnimState",
          "TargetType": {
            "$type": "RPG.GameCore.TargetAlias",
            "Alias": "Caster"
          },
          "AnimStateName": "Attack",
          "NormalizedTimeEnd": {
            "IsDynamic": false,
            "FixedValue": {
              "Value": 0.2029999999795109
            }
          }
        },
        {
          "$type": "RPG.GameCore.AdventureTriggerAttack",
          "AttackTargetType": {
            "$type": "RPG.GameCore.TargetAlias",
            "Alias": "AllEnemy"
          },
          "TriggerBattleDelay": 0.1,
          "AttackDetectConfig": {
            "$type": "RPG.GameCore.AdventureAttackDetectCircleConfig",
            "MaxRadius": 2.5,
            "FanAngle": 90,
            "Offset": {
              "X": 0,
              "Y": 0.5,
              "Z": -0.3
            }
          },
          "HitConfig": {
            "HitAnimation": "Hit",
            "HitEffect": "Effects/Eff_Prefab/Eff_Monster/Eff_W2_Beast01_00/Eff_Monster_W2_Beast01_00_Skill01_Hit.prefab"
          }
        },
        {
          "$type": "RPG.GameCore.VCameraConfigChange",
          "CameraConfig": {
            "ShakeTemplateName": "Impact_Middle"
          }
        },
        {
          "$type": "RPG.GameCore.WaitAnimState",
          "TargetType": {
            "$type": "RPG.GameCore.TargetAlias",
            "Alias": "Caster"
          },
          "AnimStateName": "Attack",
          "NormalizedTimeEnd": {
            "IsDynamic": false,
            "FixedValue": {
              "Value": 1
            }
          }
        }
      ]
    },
    {
      "Name": "MazeMonster_W2_Beast01_00_Passive",
      "TargetInfo": {
        "TargetType": "Caster"
      },
      "OnAdd": [
        {
          "$type": "RPG.GameCore.TriggerEffect",
          "TargetType": {
            "$type": "RPG.GameCore.TargetAlias",
            "Alias": "Caster"
          },
          "IsAttachToTargetEntity": true,
          "Flags": [
            "Resident"
          ],
          "EffectPath": "Effects/Eff_Prefab/Eff_Monster/Eff_W2_Beast01_00/Eff_Monster_W2_Beast01_00_Common_TailSky.prefab"
        },
        {
          "$type": "RPG.GameCore.TriggerEffect",
          "TargetType": {
            "$type": "RPG.GameCore.TargetAlias",
            "Alias": "Caster"
          },
          "IsAttachToTargetEntity": true,
          "Flags": [
            "Resident"
          ],
          "EffectPath": "Effects/Eff_Prefab/Eff_Monster/Eff_W2_Beast01_00/Eff_Monster_W2_Beast01_00_Maze_Common_Trail01.prefab"
        },
        {
          "$type": "RPG.GameCore.TriggerEffect",
          "TargetType": {
            "$type": "RPG.GameCore.TargetAlias",
            "Alias": "Caster"
          },
          "IsAttachToTargetEntity": true,
          "Flags": [
            "Resident"
          ],
          "EffectPath": "Effects/Eff_Prefab/Eff_Monster/Eff_W2_Beast01_00/Eff_Monster_W2_Beast01_00_Maze_Common_Trail02.prefab"
        }
      ]
    },
    {
      "Name": "ManikinMonster_W2_Beast01_00_Passive",
      "TargetInfo": {
        "TargetType": "Caster"
      },
      "OnAdd": [
        {
          "$type": "RPG.GameCore.TriggerEffectForUI",
          "TargetType": {
            "$type": "RPG.GameCore.TargetAlias",
            "Alias": "Caster"
          },
          "Flags": [
            "Resident"
          ],
          "EffectPath": "Effects/Eff_Prefab/Eff_Monster/Eff_W2_Beast01_00/Eff_Monster_W2_Beast01_00_Common_TailSky.prefab"
        },
        {
          "$type": "RPG.GameCore.TriggerEffectForUI",
          "TargetType": {
            "$type": "RPG.GameCore.TargetAlias",
            "Alias": "Caster"
          },
          "Flags": [
            "Resident"
          ],
          "EffectPath": "Effects/Eff_Prefab/Eff_Monster/Eff_W2_Beast01_00/Eff_Monster_W2_Beast01_00_Maze_Common_Trail01.prefab"
        },
        {
          "$type": "RPG.GameCore.TriggerEffectForUI",
          "TargetType": {
            "$type": "RPG.GameCore.TargetAlias",
            "Alias": "Caster"
          },
          "Flags": [
            "Resident"
          ],
          "EffectPath": "Effects/Eff_Prefab/Eff_Monster/Eff_W2_Beast01_00/Eff_Monster_W2_Beast01_00_Maze_Common_Trail02.prefab"
        }
      ]
    }
  ]
}