{
  "AbilityList": [
    {
      "Name": "MazeMonster_XP_Elite02_01_NormalAtk01",
      "TargetInfo": {
        "TargetType": "SkillPointEntity"
      },
      "OnStart": [
        {
          "$type": "RPG.GameCore.LookAt",
          "TargetType": "AbilityTargetEntity",
          "Duration": 0.2
        },
        {
          "$type": "RPG.GameCore.AdventureTriggerAnimStateWithMove",
          "TargetType": {
            "$type": "RPG.GameCore.TargetAlias",
            "Alias": "Caster"
          },
          "AnimLogicState": "NormalAtk",
          "AnimStateName": "Attack",
          "MovingRangeList": [
            {
              "TargetType": {
                "$type": "RPG.GameCore.TargetAlias",
                "Alias": "AdvLocalPlayer"
              },
              "SteerNormalizedTimeStart": {
                "IsDynamic": false,
                "FixedValue": {
                  "Value": 0.010000000009313226
                }
              },
              "SteerNormalizedTimeEnd": {
                "IsDynamic": false,
                "FixedValue": {
                  "Value": 0.12000000011175871
                }
              },
              "MaxSteerSpeed": {
                "IsDynamic": false,
                "FixedValue": {
                  "Value": 100
                }
              }
            }
          ]
        },
        {
          "$type": "RPG.GameCore.WaitAnimState",
          "TargetType": {
            "$type": "RPG.GameCore.TargetAlias",
            "Alias": "Caster"
          },
          "AnimStateName": "Attack",
          "NormalizedTimeEnd": {
            "IsDynamic": false,
            "FixedValue": {
              "Value": 0.48000000044703484
            }
          }
        },
        {
          "$type": "RPG.GameCore.TriggerEffect",
          "TargetType": {
            "$type": "RPG.GameCore.TargetAlias",
            "Alias": "Caster"
          },
          "EffectPath": "Effects/Eff_Prefab/Eff_Monster/Eff_XP_Elite02_01/Eff_Monster_XP_Elite02_01_Skill02_Start02.prefab",
          "AttachPoint": "Origin",
          "PositionOffset": {
            "X": 0,
            "Y": 1.825,
            "Z": 1.8
          },
          "TowardTarget": {
            "$type": "RPG.GameCore.TargetAlias",
            "Alias": "AdvLocalPlayer"
          },
          "TowardAttachPoint": "Root",
          "TowardRotatePitchOnly": true,
          "TowardMaxPitchAngle": 30
        },
        {
          "$type": "RPG.GameCore.CalcPitchAngle",
          "FromTarget": {
            "$type": "RPG.GameCore.TargetAlias",
            "Alias": "Caster"
          },
          "FromAttachPoint": "Origin",
          "FromOffset": {
            "X": 0,
            "Y": 1.825,
            "Z": 1.8
          },
          "ToTarget": {
            "$type": "RPG.GameCore.TargetAlias",
            "Alias": "AdvLocalPlayer"
          },
          "ToAttachPoint": "Root",
          "DynamicKey": "AttackAngle"
        },
        {
          "$type": "RPG.GameCore.AdventureFireProjectile",
          "TargetType": {
            "$type": "RPG.GameCore.TargetAlias",
            "Alias": "None"
          },
          "Projectile": {
            "ColliderTemplate": "CapsuleZ_MazeMonsterLaserBullet",
            "Behavior": "LinearWithHitDetect",
            "FlySpeed": 150,
            "EnableRayCast": true,
            "Gravity": 0,
            "MaxLifeTime": 0.5,
            "AttachPoint": "Origin",
            "AttachOffset": {
              "X": 0,
              "Y": 1.825,
              "Z": 1.8
            },
            "TargetAttachPoint": "Root",
            "FlyEffect": "Effects/Eff_Prefab/Eff_Common/Eff_Empty_Projectile.prefab",
            "LinearPitchAngle": {
              "IsDynamic": true,
              "PostfixExpr": {
                "OpCodes": "AQAK",
                "FixedValues": [],
                "DynamicHashes": [
                  -1735103955
                ]
              }
            }
          },
          "OnProjectileHit": [
            {
              "$type": "RPG.GameCore.AdventureTriggerAttack",
              "AttackTargetType": {
                "$type": "RPG.GameCore.TargetAlias",
                "Alias": "ProjectileHitEntity"
              },
              "AttackRootTargetType": {
                "$type": "RPG.GameCore.TargetAlias",
                "Alias": "ProjectileHitEntity"
              },
              "TriggerBattleDelay": 0.1,
              "AttackDetectConfig": {
                "$type": "RPG.GameCore.AdventureAttackDetectCircleConfig",
                "MaxRadius": 0.1,
                "FanAngle": 360
              },
              "HitConfig": {
                "HitAnimation": "Hit",
                "HitEffect": "Effects/Eff_Prefab/Eff_Monster/Eff_XP_Elite02_01/Eff_Monster_XP_Elite02_01_Skill02_Hit.prefab"
              }
            },
            {
              "$type": "RPG.GameCore.VCameraConfigChange",
              "CameraConfig": {
                "ShakeTemplateName": "Impact_Middle"
              }
            }
          ]
        },
        {
          "$type": "RPG.GameCore.WaitAnimState",
          "TargetType": {
            "$type": "RPG.GameCore.TargetAlias",
            "Alias": "Caster"
          },
          "AnimStateName": "Attack",
          "NormalizedTimeEnd": {
            "IsDynamic": false,
            "FixedValue": {
              "Value": 1
            }
          }
        }
      ],
      "DynamicValues": {
        "Values": {
          "-1735103955": {}
        }
      }
    },
    {
      "Name": "MazeMonster_XP_Elite02_01_Passive",
      "TargetInfo": {
        "TargetType": "Caster"
      },
      "OnAdd": [
        {
          "$type": "RPG.GameCore.TriggerEffect",
          "TargetType": {
            "$type": "RPG.GameCore.TargetAlias",
            "Alias": "Caster"
          },
          "IsAttachToTargetEntity": true,
          "EffectPath": "Effects/Eff_Prefab/Eff_Monster/Eff_XP_Elite02_01/Eff_Monster_XP_Elite02_01_Cloak_04.prefab"
        },
        {
          "$type": "RPG.GameCore.SetAttachmentVisibility",
          "TargetType": {
            "$type": "RPG.GameCore.TargetAlias",
            "Alias": "Caster"
          },
          "AttachPoints": [
            {
              "Name": "BookM"
            }
          ]
        }
      ]
    },
    {
      "Name": "ManikinMonster_XP_Elite02_01_Passive",
      "TargetInfo": {
        "TargetType": "Caster"
      },
      "OnAdd": [
        {
          "$type": "RPG.GameCore.TriggerEffectForUI",
          "TargetType": {
            "$type": "RPG.GameCore.TargetAlias",
            "Alias": "Caster"
          },
          "EffectPath": "Effects/Eff_Prefab/Eff_Monster/Eff_XP_Elite02_01/Eff_Monster_XP_Elite02_01_Cloak_04.prefab"
        },
        {
          "$type": "RPG.GameCore.SetAttachmentVisibility",
          "TargetType": {
            "$type": "RPG.GameCore.TargetAlias",
            "Alias": "Caster"
          },
          "AttachPoints": [
            {
              "Name": "BookM"
            }
          ]
        }
      ]
    }
  ]
}