{
  "WalkSpeedRatio": 1.15,
  "RunSpeedRatio": 0.8,
  "AnimEventConfigList": [
    "Config/ConfigAnimEvents/NPCMonster/Designer/NPCMonster_W1_Soldier01_04_Designer_AnimEvent.json",
    "Config/ConfigAnimEvents/NPCMonster/Audio/NPCMonster_W1_Soldier01_04_Audio_AnimEvent.json",
    "Config/ConfigAnimEvents/NPCMonster/Effect/NPCMonster_W1_Soldier01_04_Effect_AnimEvent.json"
  ],
  "AnimZoneConfigPath": "Config/ConfigAnimZone/NPCMonster/NPCMonster_W1_Soldier01_04_AnimZone.json",
  "SkillList": [
    {
      "Name": "MazeAtk01",
      "UseType": "UIButtonClick",
      "TargetInfo": {
        "TargetType": "EnemySelect"
      },
      "EntryAbility": "MazeMonster_W1_Soldier01_04_NormalAtk01"
    },
    {
      "Name": "Maze_DisAdventage",
      "UseType": "Passive",
      "TargetInfo": {
        "TargetType": "Caster"
      },
      "EntryAbility": "MazeMonster_CommonAbility_DisAdventage"
    },
    {
      "Name": "MazeSkill01",
      "AdventureSkillType": "MazeSkill",
      "TargetInfo": {
        "TargetType": "Caster"
      },
      "EntryAbility": "MazeMonster_W1_Soldier_Common_WarRoar"
    }
  ],
  "AbilityList": [
    "MazeMonster_W1_Soldier01_04_NormalAtk01",
    "MazeMonster_CommonAbility_DisAdventage",
    "MazeMonster_W1_Soldier_Common_WarRoar"
  ],
  "DisableAnimEventLayers": [
    "Riboon Layer"
  ],
  "AdvAIConfig": {
    "AttackAngle": 90,
    "AttackCD": 4,
    "VisionSetConfigs": {
      "DefaultVision_Relaxed": {
        "VisionNames": [
          "DefaultVision_Relaxed",
          "DefaultVision_Relaxed_Fast",
          "DefaultVision_Relaxed_Back"
        ]
      },
      "DefaultVision_Chase": {
        "VisionNames": [
          "DefaultVision_Chase"
        ]
      }
    },
    "OverrideVisionConfigs": {}
  },
  "AdvAIControllerConfig": {
    "HasTurn": false,
    "HasWalkStop": false
  }
}