{
  "WalkSpeedRatio": 0.7,
  "RunSpeedRatio": 0.5,
  "AnimEventConfigList": [
    "Config/ConfigAnimEvents/NPCMonster/Designer/NPCMonster_AML_Minion01_00_Designer_AnimEvent.json",
    "Config/ConfigAnimEvents/NPCMonster/Audio/NPCMonster_AML_Minion01_00_Audio_AnimEvent.json",
    "Config/ConfigAnimEvents/NPCMonster/Effect/NPCMonster_AML_Minion01_00_Effect_AnimEvent.json"
  ],
  "AnimZoneConfigPath": "Config/ConfigAnimZone/NPCMonster/NPCMonster_AML_Minion01_00_AnimZone.json",
  "SkillList": [
    {
      "Name": "MazeAtk01",
      "UseType": "SelectEntity",
      "TargetInfo": {
        "TargetType": "EnemySelect"
      },
      "EntryAbility": "MazeMonster_AML_Minion01_00_NormalAtk01"
    },
    {
      "Name": "Maze_Passive",
      "UseType": "Passive",
      "TargetInfo": {
        "TargetType": "Caster"
      },
      "EntryAbility": "MazeMonster_AML_Minion01_00_Passive"
    },
    {
      "Name": "Maze_DisAdventage",
      "UseType": "Passive",
      "TargetInfo": {
        "TargetType": "Caster"
      },
      "EntryAbility": "MazeMonster_CommonAbility_DisAdventage"
    }
  ],
  "AbilityList": [
    "MazeMonster_AML_Minion01_00_NormalAtk01",
    "MazeMonster_AML_Minion01_00_Passive",
    "MazeMonster_CommonAbility_DisAdventage"
  ],
  "DisableAnimEventLayers": [
    "Riboon Layer"
  ],
  "AdvAIConfig": {
    "AttackRange": 5,
    "AttackAngle": 90,
    "AttackCD": 4,
    "ChaseTolerance": 4,
    "VisionSetConfigs": {
      "DefaultVision_Relaxed": {
        "VisionNames": [
          "VisionConfig"
        ]
      },
      "DefaultVision_Chase": {
        "VisionNames": [
          "VisionConfig"
        ]
      }
    },
    "OverrideVisionConfigs": {
      "VisionConfig": {
        "DistanceRange": 15,
        "YawAngleRange": 360,
        "AlertIntervalLeftValue": 30,
        "AlertIntervalRightValue": 0,
        "RayStartPointName": "Vision"
      }
    }
  },
  "AdvAIControllerConfig": {
    "HasTurn": false,
    "HasWalkStop": false
  }
}