{
  "RunSpeedRatio": 1.5,
  "AnimEventConfigList": [
    "Config/ConfigAnimEvents/NPCMonster/Designer/NPCMonster_XP_Minion04_00_Designer_AnimEvent.json",
    "Config/ConfigAnimEvents/NPCMonster/Audio/NPCMonster_XP_Minion04_00_Audio_AnimEvent.json",
    "Config/ConfigAnimEvents/NPCMonster/Effect/NPCMonster_XP_Minion04_00_Effect_AnimEvent.json"
  ],
  "AnimZoneConfigPath": "Config/ConfigAnimZone/NPCMonster/NPCMonster_XP_Minion04_00_AnimZone.json",
  "SkillList": [
    {
      "Name": "Maze_DisAdventage",
      "UseType": "Passive",
      "TargetInfo": {
        "TargetType": "Caster"
      },
      "EntryAbility": "MazeMonster_CommonAbility_DisAdventage"
    },
    {
      "Name": "Maze_Escape",
      "UseType": "UIButtonClick",
      "TargetInfo": {
        "TargetType": "Caster"
      },
      "EntryAbility": "MazeMonster_XP_Minion04_00_Escape"
    },
    {
      "Name": "Maze_Attracted",
      "CanCastWithoutTarget": true,
      "AdventureSkillType": "CustomSkill",
      "TargetInfo": {
        "TargetType": "Caster"
      },
      "EntryAbility": "MazeMonster_XP_Minion04_Interact_ZhangZhangArrive",
      "CustomSkillAnimStates": [
        "StandBy"
      ]
    }
  ],
  "AbilityList": [
    "MazeMonster_CommonAbility_DisAdventage",
    "MazeMonster_XP_Minion04_00_Escape",
    "MazeMonster_XP_Minion04_Interact_ZhangZhangArrive",
    "MazeMonster_XP_Minion04_Interact_ZhangZhangLeft",
    "MazeMonster_XP_Minion04_VisionIgnore"
  ],
  "DisableAnimEventLayers": [
    "Riboon Layer"
  ],
  "AdvAIConfig": {
    "AttackCD": 4,
    "ChaseAngleTolerance": 30,
    "VisionSetConfigs": {
      "DefaultVision": {
        "VisionNames": [
          "VisionConfig_XP_Minion04"
        ]
      }
    }
  },
  "AdvAIControllerConfig": {
    "HasTurn": false,
    "HasWalkStop": false
  },
  "Tag": [
    "Trotter",
    "ResistInstantKill"
  ]
}