{
  "AnimEventConfigList": [
    "Config/ConfigAnimEvents/NPCMonster/Designer/NPCMonster_XP_Elite01_00_Designer_AnimEvent.json",
    "Config/ConfigAnimEvents/NPCMonster/Audio/NPCMonster_XP_Elite01_00_Audio_AnimEvent.json",
    "Config/ConfigAnimEvents/NPCMonster/Effect/NPCMonster_XP_Elite01_00_Effect_AnimEvent.json"
  ],
  "AnimZoneConfigPath": "Config/ConfigAnimZone/NPCMonster/NPCMonster_XP_Elite01_00_AnimZone.json",
  "SkillList": [
    {
      "Name": "MazeAtk01",
      "UseType": "UIButtonClick",
      "TargetInfo": {
        "TargetType": "EnemySelect"
      },
      "EntryAbility": "MazeMonster_XP_Elite01_00_NormalAtk01"
    },
    {
      "Name": "Maze_DisAdventage",
      "UseType": "Passive",
      "TargetInfo": {
        "TargetType": "Caster"
      },
      "EntryAbility": "MazeMonster_CommonAbility_DisAdventage"
    }
  ],
  "AbilityList": [
    "MazeMonster_XP_Elite01_00_NormalAtk01",
    "MazeMonster_CommonAbility_DisAdventage"
  ],
  "DisableAnimEventLayers": [
    "Riboon Layer"
  ],
  "AdventureSomatoType": "LargeMonster",
  "AdvAIConfig": {
    "AttackRange": 8,
    "AttackCD": 4,
    "ChaseTolerance": 7,
    "ChaseAngleTolerance": 30,
    "VisionSetConfigs": {
      "DefaultVision_Relaxed": {
        "VisionNames": [
          "DefaultVision_Relaxed",
          "DefaultVision_Relaxed_Fast",
          "DefaultVision_Relaxed_Back"
        ]
      },
      "DefaultVision_Chase": {
        "VisionNames": [
          "DefaultVision_Chase"
        ]
      }
    },
    "OverrideVisionConfigs": {
      "DefaultVision_Relaxed": {
        "VisionID": "Default",
        "DistanceRange": 15,
        "PitchAngleLimitMin": -30,
        "PitchAngleLimitMax": 30,
        "AlertIntervalLeftValue": 35,
        "AlertIntervalRightValue": 0,
        "RayStartPointName": "Vision"
      },
      "DefaultVision_Relaxed_Fast": {
        "VisionID": "Extra_Fast",
        "DistanceRange": 8,
        "PitchAngleLimitMin": -30,
        "PitchAngleLimitMax": 30,
        "AlertIntervalLeftValue": 100,
        "AlertIntervalRightValue": 0,
        "RayStartPointName": "Vision"
      },
      "DefaultVision_Relaxed_Back": {
        "VisionID": "Extra_Back",
        "DistanceRange": 4,
        "YawAngleRange": 360,
        "PitchAngleLimitMin": -30,
        "PitchAngleLimitMax": 30,
        "AlertIntervalLeftValue": 3,
        "AlertIntervalRightValue": 0,
        "RayStartPointName": "Vision"
      },
      "DefaultVision_Chase": {
        "VisionID": "Default",
        "DistanceRange": 15,
        "YawAngleRange": 360,
        "PitchAngleLimitMin": -30,
        "PitchAngleLimitMax": 30,
        "AlertIntervalLeftValue": 30,
        "AlertIntervalRightValue": 0,
        "RayStartPointName": "Vision"
      }
    }
  },
  "AdvAIControllerConfig": {
    "HasTurn": false,
    "HasWalkStop": false
  }
}