{
  "AnimEventConfigList": [
    "Config/ConfigAnimEvents/NPCMonster/Designer/NPCMonster_W2_Valkyrie01_01_Designer_AnimEvent.json",
    "Config/ConfigAnimEvents/NPCMonster/Audio/NPCMonster_W2_Valkyrie01_01_Audio_AnimEvent.json",
    "Config/ConfigAnimEvents/NPCMonster/Effect/NPCMonster_W2_Valkyrie01_01_Effect_AnimEvent.json"
  ],
  "AnimZoneConfigPath": "Config/ConfigAnimZone/NPCMonster/NPCMonster_W2_Valkyrie01_01_AnimZone.json",
  "SkillList": [
    {
      "Name": "MazeAtk01",
      "TargetInfo": {
        "TargetType": "EnemySelect"
      },
      "EntryAbility": "MazeMonster_W2_Valkyrie01_01_NormalAtk01"
    },
    {
      "Name": "Maze_DisAdventage",
      "UseType": "Passive",
      "TargetInfo": {
        "TargetType": "Caster"
      },
      "EntryAbility": "MazeMonster_CommonAbility_DisAdventage"
    }
  ],
  "AbilityList": [
    "MazeMonster_W2_Valkyrie01_01_NormalAtk01",
    "MazeMonster_CommonAbility_DisAdventage"
  ],
  "DisableAnimEventLayers": [
    "Riboon Layer"
  ],
  "AdvAIConfig": {
    "AttackRange": 5.5,
    "AttackCD": 4,
    "ChaseTolerance": 4.5,
    "ChaseAngleTolerance": 30,
    "VisionSetConfigs": {
      "DefaultVision_Relaxed": {
        "VisionNames": [
          "DefaultVision_Relaxed",
          "DefaultVision_Relaxed_Fast",
          "DefaultVision_Relaxed_Back"
        ]
      },
      "DefaultVision_Chase": {
        "VisionNames": [
          "DefaultVision_Chase"
        ]
      }
    },
    "OverrideVisionConfigs": {}
  },
  "AdvAIControllerConfig": {
    "HasTurn": false,
    "HasWalkStop": false
  }
}