{
  "OnInitSequece": [],
  "OnStartSequece": [
    {
      "TaskList": [
        {
          "$type": "RPG.GameCore.WaitCustomString",
          "CustomString": {
            "Value": "Stage_WaveMonsterPerformEnd1"
          }
        },
        {
          "$type": "RPG.GameCore.WaitSecond",
          "WaitTime": 1
        },
        {
          "$type": "RPG.GameCore.PlayMissionTalk",
          "SimpleTalkList": [
            {
              "TalkSentenceID": 814112020,
              "ProtectTime": 2
            }
          ]
        }
      ]
    },
    {
      "TaskList": [
        {
          "$type": "RPG.GameCore.WaitCustomString",
          "CustomString": {
            "Value": "AetherDivide_StageShow_Type1"
          }
        },
        {
          "$type": "RPG.GameCore.PlayMissionTalk",
          "SimpleTalkList": [
            {
              "TalkSentenceID": 814112021,
              "ProtectTime": 2
            }
          ]
        },
        {
          "$type": "RPG.GameCore.FinishLevelGraph"
        }
      ]
    }
  ]
}