{
  "OnInitSequece": [],
  "OnStartSequece": [
    {
      "TaskList": [
        {
          "$type": "RPG.GameCore.WaitCustomString",
          "CustomString": {
            "Value": "Stage_WaveMonsterPerformEnd1"
          }
        },
        {
          "$type": "RPG.GameCore.WaitSecond",
          "WaitTime": 1
        },
        {
          "$type": "RPG.GameCore.PlayMissionTalk",
          "SimpleTalkList": [
            {
              "TalkSentenceID": 815156842,
              "ProtectTime": 2
            },
            {
              "TalkSentenceID": 815156843,
              "ProtectTime": 2
            }
          ]
        },
        {
          "$type": "RPG.GameCore.WaitMissionTalkFinish"
        }
      ]
    },
    {
      "TaskList": [
        {
          "$type": "RPG.GameCore.WaitCustomString",
          "CustomString": {
            "Value": "Stage_WaveMonsterPerformEnd2"
          }
        },
        {
          "$type": "RPG.GameCore.WaitSecond",
          "WaitTime": 1
        },
        {
          "$type": "RPG.GameCore.PlayMissionTalk",
          "SimpleTalkList": [
            {
              "TalkSentenceID": 815156844,
              "ProtectTime": 2
            },
            {
              "TalkSentenceID": 815156845,
              "ProtectTime": 2
            }
          ]
        },
        {
          "$type": "RPG.GameCore.WaitMissionTalkFinish"
        }
      ]
    },
    {
      "TaskList": [
        {
          "$type": "RPG.GameCore.WaitCustomString",
          "CustomString": {
            "Value": "Stage_BgTalk"
          }
        },
        {
          "$type": "RPG.GameCore.WaitSecond",
          "WaitTime": 1
        },
        {
          "$type": "RPG.GameCore.PlayMissionTalk",
          "SimpleTalkList": [
            {
              "TalkSentenceID": 815156846,
              "ProtectTime": 2
            }
          ]
        },
        {
          "$type": "RPG.GameCore.WaitMissionTalkFinish"
        },
        {
          "$type": "RPG.GameCore.FinishLevelGraph"
        }
      ]
    }
  ]
}