{
  "OnInitSequece": [],
  "OnStartSequece": [
    {
      "TaskList": [
        {
          "$type": "RPG.GameCore.CreateProp",
          "GroupID": {
            "IsDynamic": false,
            "FixedValue": {
              "Value": 0
            }
          },
          "GroupPropID": {
            "IsDynamic": false,
            "FixedValue": {
              "Value": 0
            }
          },
          "CreateList": [
            {
              "$type": "RPG.GameCore.GroupEntityInfo",
              "GroupID": {
                "IsDynamic": false,
                "FixedValue": {
                  "Value": 15
                }
              },
              "GroupInstanceID": {
                "IsDynamic": false,
                "FixedValue": {
                  "Value": 300016
                }
              }
            },
            {
              "$type": "RPG.GameCore.GroupEntityInfo",
              "GroupID": {
                "IsDynamic": false,
                "FixedValue": {
                  "Value": 15
                }
              },
              "GroupInstanceID": {
                "IsDynamic": false,
                "FixedValue": {
                  "Value": 300019
                }
              }
            }
          ]
        }
      ]
    },
    {
      "TaskList": [
        {
          "$type": "RPG.GameCore.PropSetupUITrigger",
          "IconType": "CheckIcon",
          "ButtonText": {
            "Hash": -644675121
          },
          "ButtonCallback": [
            {
              "$type": "RPG.GameCore.SwitchPhotoGraphMode",
              "PhotoGraphMode": "Identify",
              "SkipPhotoPreviewDialog": true,
              "IdentifyRadiusOverride": {
                "IsDynamic": false,
                "FixedValue": {
                  "Value": 0
                }
              },
              "IdentifyMaxExitDistance": 50,
              "IdentifyLookAt": {
                "$type": "RPG.GameCore.TargetFetchAdvProp",
                "MultiGroupFetch": [
                  {
                    "GroupID": {
                      "IsDynamic": false,
                      "FixedValue": {
                        "Value": 15
                      }
                    },
                    "ID": {
                      "IsDynamic": false,
                      "FixedValue": {
                        "Value": 300019
                      }
                    }
                  }
                ],
                "MultiGroupFetchByUniqueName": [],
                "MultiGroupFetchByPropKey": []
              },
              "InitFov": 1
            },
            {
              "$type": "RPG.GameCore.PhotoGraphAimTarget",
              "AimTargetType": {
                "$type": "RPG.GameCore.TargetFetchAdvProp",
                "MultiGroupFetch": [
                  {
                    "GroupID": {
                      "IsDynamic": false,
                      "FixedValue": {
                        "Value": 15
                      }
                    },
                    "ID": {
                      "IsDynamic": false,
                      "FixedValue": {
                        "Value": 300019
                      }
                    }
                  }
                ],
                "MultiGroupFetchByUniqueName": [],
                "MultiGroupFetchByPropKey": []
              },
              "IsAim": true,
              "AimIdentifyType": "Manual"
            },
            {
              "$type": "RPG.GameCore.PhotoGraphWaitIdentifyFinish",
              "WaitTargetType": {
                "$type": "RPG.GameCore.TargetFetchAdvProp",
                "MultiGroupFetch": [
                  {
                    "GroupID": {
                      "IsDynamic": false,
                      "FixedValue": {
                        "Value": 15
                      }
                    },
                    "ID": {
                      "IsDynamic": false,
                      "FixedValue": {
                        "Value": 300019
                      }
                    }
                  }
                ],
                "MultiGroupFetchByUniqueName": [],
                "MultiGroupFetchByPropKey": []
              },
              "OnIdentifyFinish": [],
              "OnPreviewFinish": []
            },
            {
              "$type": "RPG.GameCore.LockPhotoIdentifyHint"
            },
            {
              "$type": "RPG.GameCore.PhotoGraphAimTarget",
              "AimTargetType": {
                "$type": "RPG.GameCore.TargetFetchAdvProp",
                "MultiGroupFetch": [
                  {
                    "GroupID": {
                      "IsDynamic": false,
                      "FixedValue": {
                        "Value": 15
                      }
                    },
                    "ID": {
                      "IsDynamic": false,
                      "FixedValue": {
                        "Value": 300019
                      }
                    }
                  }
                ],
                "MultiGroupFetchByUniqueName": [],
                "MultiGroupFetchByPropKey": []
              }
            },
            {
              "$type": "RPG.GameCore.PhotoGraphShowIdentifyResult",
              "IsIdentifySuccess": true,
              "IsShowToast": true,
              "ToastText": {
                "Hash": -372170477
              }
            },
            {
              "$type": "RPG.GameCore.DestroyProp",
              "TargetType": {
                "$type": "RPG.GameCore.TargetFetchAdvPropEx"
              },
              "ID": {
                "IsDynamic": false,
                "FixedValue": {
                  "Value": 0
                }
              },
              "GroupID": {
                "IsDynamic": false,
                "FixedValue": {
                  "Value": 0
                }
              },
              "DestroyList": [
                {
                  "$type": "RPG.GameCore.GroupEntityInfo",
                  "GroupID": {
                    "IsDynamic": false,
                    "FixedValue": {
                      "Value": 15
                    }
                  },
                  "GroupInstanceID": {
                    "IsDynamic": false,
                    "FixedValue": {
                      "Value": 300016
                    }
                  }
                },
                {
                  "$type": "RPG.GameCore.GroupEntityInfo",
                  "GroupID": {
                    "IsDynamic": false,
                    "FixedValue": {
                      "Value": 15
                    }
                  },
                  "GroupInstanceID": {
                    "IsDynamic": false,
                    "FixedValue": {
                      "Value": 300019
                    }
                  }
                }
              ]
            },
            {
              "$type": "RPG.GameCore.WaitSecond",
              "WaitTime": 1
            },
            {
              "$type": "RPG.GameCore.TriggerCustomString",
              "CustomString": {
                "Value": "8000203_DamageUp_2"
              }
            }
          ],
          "OverrideTargetTypes": [],
          "TargetType": {
            "$type": "RPG.GameCore.TargetFetchAdvPropEx",
            "FetchType": "SinglePropByPropID",
            "SinglePropID": {
              "GroupID": {
                "IsDynamic": false,
                "FixedValue": {
                  "Value": 15
                }
              },
              "ID": {
                "IsDynamic": false,
                "FixedValue": {
                  "Value": 300019
                }
              }
            }
          }
        }
      ]
    },
    {
      "TaskList": [
        {
          "$type": "RPG.GameCore.WaitCustomString",
          "CustomString": {
            "Value": "8000203_DamageUp_2"
          }
        },
        {
          "$type": "RPG.GameCore.SwitchPhotoGraphMode",
          "IdentifyRadiusOverride": {
            "IsDynamic": false,
            "FixedValue": {
              "Value": 0
            }
          }
        },
        {
          "$type": "RPG.GameCore.WaitSecond",
          "WaitTime": 1
        },
        {
          "$type": "RPG.GameCore.ToastPile",
          "DescTextID": {
            "Hash": -526880923
          }
        },
        {
          "$type": "RPG.GameCore.UpdateTreasureChallengeProgress",
          "RaidTargetID": 400021111,
          "IsIncrease": true,
          "DeltaValue": 1
        },
        {
          "$type": "RPG.GameCore.FinishPerformanceMission",
          "Key": "Mission_800020310"
        }
      ]
    }
  ]
}