{
  "OnInitSequece": [],
  "OnStartSequece": [
    {
      "TaskList": [
        {
          "$type": "RPG.GameCore.LockPlayerControl"
        },
        {
          "$type": "RPG.GameCore.ShowTalkUI",
          "Show": true
        },
        {
          "$type": "RPG.GameCore.PlayScreenTransfer",
          "Mode": "SwitchOut",
          "CustomTime": 1
        },
        {
          "$type": "RPG.GameCore.ActiveVirtualCamera",
          "AreaName": "LevelArea_P40002_F40002103_G1",
          "AnchorName": "C2"
        },
        {
          "$type": "RPG.GameCore.PlayScreenTransfer",
          "CustomTime": 1
        },
        {
          "$type": "RPG.GameCore.WaitSecond",
          "WaitTime": 1
        },
        {
          "$type": "RPG.GameCore.DestroyProp",
          "TargetType": {
            "$type": "RPG.GameCore.TargetFetchAdvPropEx"
          },
          "ID": {
            "IsDynamic": false,
            "FixedValue": {
              "Value": 0
            }
          },
          "GroupID": {
            "IsDynamic": false,
            "FixedValue": {
              "Value": 0
            }
          },
          "DestroyList": [
            {
              "$type": "RPG.GameCore.GroupEntityInfo",
              "GroupID": {
                "IsDynamic": false,
                "FixedValue": {
                  "Value": 20
                }
              },
              "GroupInstanceID": {
                "IsDynamic": false,
                "FixedValue": {
                  "Value": 300007
                }
              }
            }
          ]
        },
        {
          "$type": "RPG.GameCore.TriggerCustomString",
          "CustomString": {
            "Value": "800020308_ChangeMonster"
          }
        },
        {
          "$type": "RPG.GameCore.CreateProp",
          "GroupID": {
            "IsDynamic": false,
            "FixedValue": {
              "Value": 21
            }
          },
          "GroupPropID": {
            "IsDynamic": false,
            "FixedValue": {
              "Value": 300008
            }
          },
          "CreateList": []
        },
        {
          "$type": "RPG.GameCore.WaitSecond",
          "WaitTime": 1
        },
        {
          "$type": "RPG.GameCore.PlayScreenTransfer",
          "Mode": "SwitchOut",
          "CustomTime": 1
        },
        {
          "$type": "RPG.GameCore.ActiveVirtualCamera",
          "AreaName": "LevelArea_P40002_F40002103_G1",
          "AnchorName": "C2",
          "IsActive": false
        },
        {
          "$type": "RPG.GameCore.ShowTalkUI"
        },
        {
          "$type": "RPG.GameCore.PlayScreenTransfer",
          "CustomTime": 1
        },
        {
          "$type": "RPG.GameCore.UnLockPlayerControl"
        },
        {
          "$type": "RPG.GameCore.FinishPerformanceMission",
          "Key": "Mission_800020308"
        }
      ]
    }
  ]
}