{
  "OnInitSequece": [],
  "OnStartSequece": [
    {
      "TaskList": [
        {
          "$type": "RPG.GameCore.LevelPerformanceInitialize",
          "PerformanceType": "E",
          "CreateCharacterList": [],
          "EntityVisiableList": [],
          "MarkStreamingItems": []
        },
        {
          "$type": "RPG.GameCore.AdvEnablePropDialogMode",
          "EnablePropCamera": false,
          "LockPlayerControl": false,
          "TargetType": {
            "$type": "RPG.GameCore.TargetFetchAdvPropEx",
            "FetchType": "SinglePropByPropID",
            "SinglePropID": {
              "GroupID": {
                "IsDynamic": false,
                "FixedValue": {
                  "Value": 62
                }
              },
              "ID": {
                "IsDynamic": false,
                "FixedValue": {
                  "Value": 300003
                }
              }
            }
          }
        },
        {
          "$type": "RPG.GameCore.PlayAndWaitSimpleTalk",
          "SimpleTalkList": [
            {
              "TalkSentenceID": 404000301,
              "ProtectTime": 0.3
            },
            {
              "TalkSentenceID": 404000303,
              "ProtectTime": 0.3
            },
            {
              "TalkSentenceID": 404000304,
              "ProtectTime": 0.3
            }
          ]
        },
        {
          "$type": "RPG.GameCore.PlayOptionTalk",
          "OptionList": [
            {
              "TalkSentenceID": 404000305,
              "OptionIconType": "ChatContinueIcon",
              "TriggerCustomString": "TalkSentence_404000306"
            },
            {
              "TalkSentenceID": 404000319,
              "OptionIconType": "ChatOutIcon",
              "TriggerCustomString": "TalkSentence_404000320"
            }
          ]
        }
      ]
    },
    {
      "TaskList": [
        {
          "$type": "RPG.GameCore.WaitCustomString",
          "CustomString": {
            "Value": "TalkSentence_404000306"
          }
        },
        {
          "$type": "RPG.GameCore.PlayAndWaitSimpleTalk",
          "SimpleTalkList": [
            {
              "TalkSentenceID": 404000306,
              "ProtectTime": 0.3
            }
          ]
        },
        {
          "$type": "RPG.GameCore.PlayOptionTalk",
          "OptionList": [
            {
              "TalkSentenceID": 404000307,
              "OptionIconType": "ChatContinueIcon",
              "TriggerCustomString": "TalkSentence_404000308"
            },
            {
              "TalkSentenceID": 404000309,
              "OptionIconType": "ChatOutIcon",
              "TriggerCustomString": "TalkSentence_404000310"
            }
          ]
        }
      ]
    },
    {
      "TaskList": [
        {
          "$type": "RPG.GameCore.WaitCustomString",
          "CustomString": {
            "Value": "TalkSentence_404000308"
          }
        },
        {
          "$type": "RPG.GameCore.PlayAndWaitSimpleTalk",
          "SimpleTalkList": [
            {
              "TalkSentenceID": 404000308,
              "ProtectTime": 0.3
            }
          ]
        },
        {
          "$type": "RPG.GameCore.TriggerCustomString",
          "CustomString": {
            "Value": "TalkSentence_404000311"
          }
        }
      ]
    },
    {
      "TaskList": [
        {
          "$type": "RPG.GameCore.WaitCustomString",
          "CustomString": {
            "Value": "TalkSentence_404000310"
          }
        },
        {
          "$type": "RPG.GameCore.PlayAndWaitSimpleTalk",
          "SimpleTalkList": [
            {
              "TalkSentenceID": 404000310,
              "ProtectTime": 0.3
            }
          ]
        },
        {
          "$type": "RPG.GameCore.TriggerCustomString",
          "CustomString": {
            "Value": "ALL_TALK_END"
          }
        }
      ]
    },
    {
      "TaskList": [
        {
          "$type": "RPG.GameCore.WaitCustomString",
          "CustomString": {
            "Value": "TalkSentence_404000311"
          }
        },
        {
          "$type": "RPG.GameCore.PlayAndWaitSimpleTalk",
          "SimpleTalkList": [
            {
              "TalkSentenceID": 404000311,
              "ProtectTime": 0.3
            }
          ]
        },
        {
          "$type": "RPG.GameCore.PlayOptionTalk",
          "OptionList": [
            {
              "TalkSentenceID": 404000312,
              "OptionIconType": "ChatContinueIcon",
              "TriggerCustomString": "TalkSentence_404000313"
            },
            {
              "TalkSentenceID": 404000317,
              "OptionIconType": "ChatOutIcon",
              "TriggerCustomString": "TalkSentence_404000318"
            }
          ]
        }
      ]
    },
    {
      "TaskList": [
        {
          "$type": "RPG.GameCore.WaitCustomString",
          "CustomString": {
            "Value": "TalkSentence_404000313"
          }
        },
        {
          "$type": "RPG.GameCore.PlayScreenTransfer",
          "Mode": "SwitchOut",
          "CustomTime": 0.5
        },
        {
          "$type": "RPG.GameCore.WaitSecond",
          "WaitTime": 0.25
        },
        {
          "$type": "RPG.GameCore.DestroyProp",
          "TargetType": {
            "$type": "RPG.GameCore.TargetFetchAdvPropEx"
          },
          "ID": {
            "IsDynamic": false,
            "FixedValue": {
              "Value": 300001
            }
          },
          "GroupID": {
            "IsDynamic": false,
            "FixedValue": {
              "Value": 62
            }
          }
        },
        {
          "$type": "RPG.GameCore.CreateProp",
          "GroupID": {
            "IsDynamic": false,
            "FixedValue": {
              "Value": 62
            }
          },
          "GroupPropID": {
            "IsDynamic": false,
            "FixedValue": {
              "Value": 300002
            }
          }
        },
        {
          "$type": "RPG.GameCore.WaitSecond",
          "WaitTime": 0.25
        },
        {
          "$type": "RPG.GameCore.PlayScreenTransfer",
          "CustomTime": 0.5
        },
        {
          "$type": "RPG.GameCore.PlayAndWaitSimpleTalk",
          "SimpleTalkList": [
            {
              "TalkSentenceID": 404000313,
              "ProtectTime": 0.3
            },
            {
              "TalkSentenceID": 404000314,
              "ProtectTime": 0.3
            }
          ]
        },
        {
          "$type": "RPG.GameCore.TriggerCustomString",
          "CustomString": {
            "Value": "404000301_Finish"
          }
        },
        {
          "$type": "RPG.GameCore.TriggerCustomString",
          "CustomString": {
            "Value": "ALL_TALK_END"
          }
        }
      ]
    },
    {
      "TaskList": [
        {
          "$type": "RPG.GameCore.WaitCustomString",
          "CustomString": {
            "Value": "TalkSentence_404000318"
          }
        },
        {
          "$type": "RPG.GameCore.PlayAndWaitSimpleTalk",
          "SimpleTalkList": [
            {
              "TalkSentenceID": 404000318,
              "ProtectTime": 0.3
            }
          ]
        },
        {
          "$type": "RPG.GameCore.TriggerCustomString",
          "CustomString": {
            "Value": "ALL_TALK_END"
          }
        }
      ]
    },
    {
      "TaskList": [
        {
          "$type": "RPG.GameCore.WaitCustomString",
          "CustomString": {
            "Value": "TalkSentence_404000320"
          }
        },
        {
          "$type": "RPG.GameCore.PlayAndWaitSimpleTalk",
          "SimpleTalkList": [
            {
              "TalkSentenceID": 404000320,
              "ProtectTime": 0.3
            }
          ]
        },
        {
          "$type": "RPG.GameCore.TriggerCustomString",
          "CustomString": {
            "Value": "ALL_TALK_END"
          }
        }
      ]
    },
    {
      "TaskList": [
        {
          "$type": "RPG.GameCore.WaitCustomString",
          "CustomString": {
            "Value": "ALL_TALK_END"
          }
        },
        {
          "$type": "RPG.GameCore.EndPerformance"
        }
      ]
    },
    {
      "TaskList": [
        {
          "$type": "RPG.GameCore.WaitPerformanceEnd"
        },
        {
          "$type": "RPG.GameCore.FinishLevelGraph"
        }
      ]
    }
  ]
}