{
  "OnInitSequece": [],
  "OnStartSequece": [
    {
      "TaskList": [
        {
          "$type": "RPG.GameCore.PropStateExecute",
          "TargetType": {
            "$type": "RPG.GameCore.TargetFetchAdvPropEx"
          },
          "Execute": [
            {
              "$type": "RPG.GameCore.PropSetupTrigger",
              "TargetType": {
                "$type": "RPG.GameCore.TargetFetchAdvPropEx"
              },
              "TargetGroupID": {
                "IsDynamic": false,
                "FixedValue": {
                  "Value": 0
                }
              },
              "TargetID": {
                "IsDynamic": false,
                "FixedValue": {
                  "Value": 0
                }
              },
              "TargetTypes": [],
              "OnTriggerEnter": [
                {
                  "$type": "RPG.GameCore.BlockInputController",
                  "Enable": true,
                  "ActionNameList": []
                },
                {
                  "$type": "RPG.GameCore.LockPlayerControl"
                },
                {
                  "$type": "RPG.GameCore.PlayScreenTransfer",
                  "Mode": "SwitchOut",
                  "CustomTime": 1
                },
                {
                  "$type": "RPG.GameCore.ActiveVirtualCamera",
                  "LevelAreaCameraKey": {
                    "Custom": true,
                    "Key": "Camera_01"
                  }
                },
                {
                  "$type": "RPG.GameCore.PlayScreenTransfer",
                  "CustomTime": 1
                },
                {
                  "$type": "RPG.GameCore.PlayMissionTalk",
                  "SimpleTalkList": [
                    {
                      "TalkSentenceID": 407132013,
                      "ProtectTime": 2
                    },
                    {
                      "TalkSentenceID": 407132014,
                      "ProtectTime": 2
                    }
                  ]
                },
                {
                  "$type": "RPG.GameCore.WaitSecond",
                  "WaitTime": 5
                },
                {
                  "$type": "RPG.GameCore.PlayScreenTransfer",
                  "Mode": "SwitchOut",
                  "CustomTime": 1
                },
                {
                  "$type": "RPG.GameCore.ActiveVirtualCamera",
                  "LevelAreaCameraKey": {
                    "Custom": true,
                    "Key": "Camera_02"
                  }
                },
                {
                  "$type": "RPG.GameCore.PlayScreenTransfer",
                  "CustomTime": 1
                },
                {
                  "$type": "RPG.GameCore.PlayMissionTalk",
                  "SimpleTalkList": [
                    {
                      "TalkSentenceID": 407132013,
                      "ProtectTime": 2
                    },
                    {
                      "TalkSentenceID": 407132014,
                      "ProtectTime": 2
                    }
                  ]
                },
                {
                  "$type": "RPG.GameCore.WaitSecond",
                  "WaitTime": 5
                },
                {
                  "$type": "RPG.GameCore.PlayScreenTransfer",
                  "Mode": "SwitchOut",
                  "CustomTime": 1
                },
                {
                  "$type": "RPG.GameCore.ActiveVirtualCamera",
                  "LevelAreaCameraKey": {
                    "Custom": true,
                    "Key": "Camera_02"
                  },
                  "IsActive": false
                },
                {
                  "$type": "RPG.GameCore.ActiveVirtualCamera",
                  "LevelAreaCameraKey": {
                    "Custom": true,
                    "Key": "Camera_01"
                  },
                  "IsActive": false
                },
                {
                  "$type": "RPG.GameCore.PlayScreenTransfer",
                  "CustomTime": 1
                },
                {
                  "$type": "RPG.GameCore.BlockInputController",
                  "ActionNameList": []
                },
                {
                  "$type": "RPG.GameCore.UnLockPlayerControl"
                }
              ]
            }
          ]
        }
      ]
    },
    {
      "TaskList": [
        {
          "$type": "RPG.GameCore.WaitCustomString",
          "CustomString": {
            "Value": "TriggerCamera"
          }
        }
      ]
    }
  ],
  "ValueSource": {
    "Values": [
      {
        "$type": "RPG.GameCore.SharedString",
        "Key": "Camera"
      }
    ]
  }
}