{
  "OnInitSequece": [],
  "OnStartSequece": [
    {
      "TaskList": [
        {
          "$type": "RPG.GameCore.WaitCustomString",
          "CustomString": {
            "Value": "Talk_412210309"
          }
        },
        {
          "$type": "RPG.GameCore.ResetMissionWayPoint",
          "SubMissionID": 412210309
        },
        {
          "$type": "RPG.GameCore.PlayScreenTransfer",
          "Mode": "SwitchOut",
          "CustomTime": 0.5
        },
        {
          "$type": "RPG.GameCore.TriggerCustomString",
          "CustomString": {
            "Value": "OnClose_X301_03"
          }
        },
        {
          "$type": "RPG.GameCore.WaitSecond",
          "WaitTime": 0.1
        },
        {
          "$type": "RPG.GameCore.FinishPerformanceMission",
          "Key": "Mission_412210309"
        }
      ]
    },
    {
      "TaskList": [
        {
          "$type": "RPG.GameCore.WaitCustomString",
          "CustomString": {
            "Value": "Re-search"
          }
        },
        {
          "$type": "RPG.GameCore.TriggerCustomString",
          "CustomString": {
            "Value": "Talk_412210308"
          }
        }
      ]
    },
    {
      "IsLoop": true,
      "TaskList": [
        {
          "$type": "RPG.GameCore.WaitCustomString",
          "CustomString": {
            "Value": "OnClose_X301_03"
          }
        },
        {
          "$type": "RPG.GameCore.ResetMissionWayPoint",
          "SubMissionID": 412210309
        }
      ]
    },
    {
      "IsLoop": true,
      "TaskList": [
        {
          "$type": "RPG.GameCore.WaitCustomString",
          "CustomString": {
            "Value": "OnClose_X301_01"
          }
        },
        {
          "$type": "RPG.GameCore.ResetMissionWayPoint",
          "SubMissionID": 412210309
        }
      ]
    },
    {
      "IsLoop": true,
      "TaskList": [
        {
          "$type": "RPG.GameCore.WaitCustomString",
          "CustomString": {
            "Value": "OnClose_X301_03"
          }
        },
        {
          "$type": "RPG.GameCore.ResetMissionWayPoint",
          "SubMissionID": 412210309
        }
      ]
    },
    {
      "IsLoop": true,
      "TaskList": [
        {
          "$type": "RPG.GameCore.WaitCustomString",
          "CustomString": {
            "Value": "OnEnter"
          },
          "GoNextImmediately": true
        },
        {
          "$type": "RPG.GameCore.SetMissionWayPoint",
          "SubMissionID": 412210309,
          "OverideMissionWayPointType": true,
          "OverideWayPointGroupID": true,
          "OverideWayPointEntityID": true,
          "OverideWayPointShowRangeMin": true,
          "OverideMapWaypointRange": true
        }
      ]
    },
    {
      "TaskList": [
        {
          "$type": "RPG.GameCore.PredicateTaskList",
          "Predicate": {
            "$type": "RPG.GameCore.ByLocalPlayerIsFakeAvatar"
          },
          "SuccessTaskList": [
            {
              "$type": "RPG.GameCore.SetMissionWayPoint",
              "SubMissionID": 412210309,
              "OverideMissionWayPointType": true,
              "MissionWayPointType": "NPC",
              "OverideWayPointGroupID": true,
              "WayPointGroupID": 38,
              "OverideWayPointEntityID": true,
              "WayPointEntityID": 400001,
              "OverideWayPointShowRangeMin": true,
              "OverideMapWaypointRange": true
            }
          ]
        }
      ]
    },
    {
      "IsLoop": true,
      "TaskList": [
        {
          "$type": "RPG.GameCore.WaitCustomString",
          "CustomString": {
            "Value": "OnStart_X301_03"
          },
          "GoNextImmediately": true
        },
        {
          "$type": "RPG.GameCore.SetMissionWayPoint",
          "SubMissionID": 412210309,
          "OverideMissionWayPointType": true,
          "MissionWayPointType": "NPC",
          "OverideWayPointGroupID": true,
          "WayPointGroupID": 38,
          "OverideWayPointEntityID": true,
          "WayPointEntityID": 400001,
          "OverideWayPointShowRangeMin": true,
          "OverideMapWaypointRange": true
        }
      ]
    }
  ]
}