{
  "OnInitSequece": [],
  "OnStartSequece": [
    {
      "TaskList": [
        {
          "$type": "RPG.GameCore.PropStateExecute",
          "TargetType": {
            "$type": "RPG.GameCore.TargetFetchAdvPropEx",
            "FetchType": "SinglePropByPropID",
            "SinglePropID": {
              "GroupID": {
                "IsDynamic": false,
                "FixedValue": {
                  "Value": 34
                }
              },
              "ID": {
                "IsDynamic": false,
                "FixedValue": {
                  "Value": 300006
                }
              }
            }
          },
          "State": "Open",
          "Execute": [
            {
              "$type": "RPG.GameCore.UpdateTreasureChallengeProgress",
              "RaidTargetID": 412210101,
              "IsIncrease": true,
              "DeltaValue": 1
            },
            {
              "$type": "RPG.GameCore.FinishPerformanceMission",
              "Key": "Mission_412210305"
            }
          ]
        }
      ]
    },
    {
      "TaskList": [
        {
          "$type": "RPG.GameCore.WaitCustomString",
          "CustomString": {
            "Value": "Talk_412210305"
          },
          "GoNextImmediately": true
        },
        {
          "$type": "RPG.GameCore.WaitSecond",
          "WaitTime": 1
        },
        {
          "$type": "RPG.GameCore.LockPlayerControl"
        },
        {
          "$type": "RPG.GameCore.ShowTalkUI",
          "Show": true
        },
        {
          "$type": "RPG.GameCore.SelectorConfig",
          "TaskList": [
            {
              "$type": "RPG.GameCore.PropStateExecute",
              "TargetType": {
                "$type": "RPG.GameCore.TargetFetchAdvPropEx",
                "FetchType": "SinglePropByPropID",
                "SinglePropID": {
                  "GroupID": {
                    "IsDynamic": false,
                    "FixedValue": {
                      "Value": 34
                    }
                  },
                  "ID": {
                    "IsDynamic": false,
                    "FixedValue": {
                      "Value": 300001
                    }
                  }
                }
              },
              "Execute": [
                {
                  "$type": "RPG.GameCore.PlayAndWaitSimpleTalk",
                  "Backgrounds": [],
                  "SimpleTalkList": [
                    {
                      "TalkSentenceID": 412210350
                    }
                  ]
                },
                {
                  "$type": "RPG.GameCore.ShowTalkUI"
                },
                {
                  "$type": "RPG.GameCore.UnLockPlayerControl"
                },
                {
                  "$type": "RPG.GameCore.UpdateTreasureChallengeProgress",
                  "RaidTargetID": 412210101,
                  "IsIncrease": true,
                  "DeltaValue": 1
                },
                {
                  "$type": "RPG.GameCore.FinishPerformanceMission",
                  "Key": "Mission_412210305"
                }
              ]
            },
            {
              "$type": "RPG.GameCore.PropStateExecute",
              "TargetType": {
                "$type": "RPG.GameCore.TargetFetchAdvPropEx",
                "FetchType": "SinglePropByPropID",
                "SinglePropID": {
                  "GroupID": {
                    "IsDynamic": false,
                    "FixedValue": {
                      "Value": 34
                    }
                  },
                  "ID": {
                    "IsDynamic": false,
                    "FixedValue": {
                      "Value": 300001
                    }
                  }
                }
              },
              "State": "Open",
              "Execute": [
                {
                  "$type": "RPG.GameCore.PlayAndWaitSimpleTalk",
                  "Backgrounds": [],
                  "SimpleTalkList": [
                    {
                      "TalkSentenceID": 412210350
                    },
                    {
                      "TalkSentenceID": 412210426
                    }
                  ]
                },
                {
                  "$type": "RPG.GameCore.PlayOptionTalk",
                  "OptionList": [
                    {
                      "TalkSentenceID": 412210405,
                      "OptionIconType": "ChatContinueIcon",
                      "TriggerCustomString": "TalkSentence_412210405"
                    }
                  ]
                }
              ]
            }
          ]
        }
      ]
    },
    {
      "TaskList": [
        {
          "$type": "RPG.GameCore.WaitCustomString",
          "CustomString": {
            "Value": "TalkSentence_412210405"
          },
          "WaitOwnerOnly": true,
          "GoNextImmediately": true
        },
        {
          "$type": "RPG.GameCore.PlayScreenTransfer",
          "Mode": "SwitchOut",
          "CustomTime": 0.5,
          "TextEnabled": true,
          "TalkSentenceID": 412210407
        },
        {
          "$type": "RPG.GameCore.ShowTalkUI"
        },
        {
          "$type": "RPG.GameCore.TriggerCustomString",
          "CustomString": {
            "Value": "OnClose_X301_02"
          }
        },
        {
          "$type": "RPG.GameCore.WaitSecond",
          "WaitTime": 0.5
        },
        {
          "$type": "RPG.GameCore.SwitchCharacterAnchor",
          "IsLocalPlayer": true,
          "CharacterUniqueName": "LocalPlayer",
          "AreaName": {
            "Value": "LevelArea_P41221_F41221003_G34"
          },
          "AnchorName": {
            "Value": "Anchor2"
          }
        },
        {
          "$type": "RPG.GameCore.SetForceStreamingThisFrame",
          "StartLoadingTick": true
        },
        {
          "$type": "RPG.GameCore.WaitSecond",
          "WaitTime": 0.1
        },
        {
          "$type": "RPG.GameCore.WaitStreamingJobFinished",
          "StopLoadingTick": true
        },
        {
          "$type": "RPG.GameCore.BlockInputController",
          "ActionNameList": []
        },
        {
          "$type": "RPG.GameCore.UnLockPlayerControl",
          "UnLockCameraControl": false
        },
        {
          "$type": "RPG.GameCore.PlayScreenTransfer",
          "CustomTime": 0.5
        },
        {
          "$type": "RPG.GameCore.TriggerCustomString",
          "CustomString": {
            "Value": "Talk_412210306"
          }
        },
        {
          "$type": "RPG.GameCore.UpdateTreasureChallengeProgress",
          "RaidTargetID": 412210101,
          "IsIncrease": true,
          "DeltaValue": 1
        },
        {
          "$type": "RPG.GameCore.FinishPerformanceMission",
          "Key": "Mission_412210305"
        }
      ]
    }
  ]
}