{
  "SomatoType": "MiddleAvatar",
  "BuffPanelOffset": {
    "X": 0,
    "Y": 1.2,
    "Z": 0
  },
  "HitBoxWidth": 0.3,
  "HitBoxHeight": 1.5,
  "Location": {
    "Width": 0.8
  },
  "SaveModelWhenDead": true,
  "AnimEventConfigList": [
    "Config/ConfigAnimEvents/Avatar/Designer/Avatar_Topaz_00_Designer_AnimEvent.json",
    "Config/ConfigAnimEvents/Avatar/Effect/Avatar_Topaz_00_Effect_AnimEvent.json",
    "Config/ConfigAnimEvents/Avatar/Audio/Avatar_Topaz_00_Audio_AnimEvent.json",
    "Config/ConfigAnimEvents/Avatar/Audio/Avatar_Common_ControllerVibration_AnimEvent.json"
  ],
  "SkillList": [
    {
      "Name": "Skill01",
      "UseType": "SelectEntity",
      "TargetInfo": {
        "TargetType": "EnemySelect"
      },
      "UseReadyTransitAnim": true,
      "ReadyAnimState": "Skill01_Ready",
      "ReadyAnimWaitTime": 0.3,
      "CameraConfig": {
        "NormalConfig": {
          "CameraState": "SelectDarkTeamEntity",
          "IsLocalOffset": true,
          "AnchorOffset": {
            "X": 0.5,
            "Y": 0.24,
            "Z": -0.25
          },
          "AimOffset": {
            "X": -1.8,
            "Y": 0.45,
            "Z": 0
          },
          "FollowRadius": 3,
          "AnchorToAimAngle": 30,
          "Dutch": 2
        },
        "BlendConfig": {
          "BlendType": "Cut"
        }
      },
      "CameraConfigAdded": {
        "NormalConfig": {
          "CameraState": "SelectDarkTeamEntity",
          "IsLocalOffset": true,
          "AnchorOffset": {
            "X": 0.23,
            "Y": 0.12,
            "Z": -0.25
          },
          "AimOffset": {
            "X": -1.51,
            "Y": 0.45,
            "Z": 0
          },
          "FollowRadius": 2.65,
          "AnchorToAimAngle": 23
        },
        "BlendConfig": {
          "BlendType": "Custom",
          "CustomCurveName": "BlendCut_00to1",
          "BlendTime": 1
        }
      },
      "EntryAbility": "Avatar_Topaz_00_Skill01_Phase01",
      "ParaMapping": [],
      "ComplexSkillAIPreCheck": {
        "Groups": [
          {
            "GroupName": "DefaultNormalSkill_PreCheck"
          },
          {
            "GroupName": "BaseWeight",
            "Weight": {
              "Value": 0.6000000005587935
            }
          },
          {
            "GroupName": "BasePp_Common_SingleAttack",
            "Weight": {
              "Value": 0.40000000037252903
            }
          }
        ]
      },
      "ComplexSkillAI": {
        "Groups": [
          {
            "GroupName": "DefaultNormalSkill"
          },
          {
            "GroupName": "Add_Topaz_BETargetTag",
            "Weight": {
              "Value": 0.5000000004656613
            }
          },
          {
            "GroupName": "BasePp_Common_SingleAttack",
            "Weight": {
              "Value": 0.40000000037252903
            }
          },
          {
            "GroupName": "BasePp_Common_WeakBreak",
            "Weight": {
              "Value": 0.3000000002793968
            }
          }
        ]
      }
    },
    {
      "Name": "Skill02",
      "SkillType": "Skill",
      "UseType": "SelectEntity",
      "TargetInfo": {
        "TargetType": "EnemySelect"
      },
      "UseReadyTransitAnim": true,
      "ReadyAnimState": "Skill02_Ready_Loop",
      "ReadyAnimWaitTime": 0.3,
      "CameraConfig": {
        "NormalConfig": {
          "CameraState": "SelectDarkTeamEntity",
          "AnchorOffset": {
            "X": -0.3,
            "Y": 0.4,
            "Z": -0.1
          }
        },
        "BlendConfig": {
          "BlendType": "Custom",
          "CustomCurveName": "BlendCut01",
          "BlendTime": 1
        }
      },
      "EntryAbility": "Avatar_Topaz_00_Skill02_Phase01",
      "ComplexSkillAIPreCheck": {
        "Groups": [
          {
            "GroupName": "DefaultBPSkill_PreCheck"
          },
          {
            "GroupName": "AddNP_Common_BPSkill",
            "Weight": {
              "Value": 0.8000000007450581
            }
          },
          {
            "GroupName": "BasePp_Common_WeakBreak",
            "Weight": {
              "Value": 0.20000000018626451
            }
          }
        ]
      },
      "ComplexSkillAI": {
        "Groups": [
          {
            "GroupName": "DefaultBPSkill"
          },
          {
            "GroupName": "Add_Topaz_BETargetTag",
            "Weight": {
              "Value": 0.8000000007450581
            }
          },
          {
            "GroupName": "BasePp_Common_WeakBreak",
            "Weight": {
              "Value": 0.5000000004656613
            }
          },
          {
            "GroupName": "AddNP_Common_BPSkill",
            "Weight": {
              "Value": 0.3000000002793968
            }
          },
          {
            "GroupName": "BasePp_Common_SingleAttack",
            "Weight": {
              "Value": 0.10000000009313226
            }
          }
        ]
      }
    },
    {
      "Name": "Skill03",
      "SkillType": "Ultra",
      "UseType": "SelectEntity",
      "TargetInfo": {
        "TargetType": "Caster"
      },
      "UseReadyTransitAnim": true,
      "SkillNameHUD": false,
      "ReadyAnimState": "Skill03_Ready",
      "ReadyAnimWaitTime": 0.3,
      "EntryAbility": "Avatar_Topaz_00_Skill03_Phase01",
      "PrepareAbility": "Avatar_Topaz_00_Skill03_EnterReady",
      "ComplexSkillAI": {
        "SkillBasicPower": {
          "Value": 100
        },
        "Groups": [
          {
            "GroupName": "DefaultUltra"
          },
          {
            "GroupName": "Ultra_Common_ImmediateRelease"
          }
        ]
      },
      "AIUltraSkillPriority": "OnlyBuff"
    },
    {
      "Name": "SkillP01",
      "SkillType": "Passive",
      "UseType": "Passive",
      "TargetInfo": {
        "TargetType": "Caster"
      },
      "SkillNameHUD": false,
      "EntryAbility": "Avatar_Topaz_00_PassiveSkill01"
    },
    {
      "Name": "SkillMaze",
      "SkillType": "Maze",
      "TargetInfo": {
        "TargetType": "AllEnemy"
      },
      "EntryAbility": "Avatar_Topaz_00_SkillMazeInLevel"
    },
    {
      "Name": "PassiveSkill02",
      "SkillType": "Passive",
      "UseType": "Passive",
      "TargetInfo": {
        "TargetType": "Caster"
      },
      "EntryAbility": "Avatar_Common_PassiveSkill"
    }
  ],
  "AbilityList": [
    "Avatar_Common_PassiveSkill"
  ],
  "SkillAbilityList": [
    {
      "Skill": "Skill01",
      "AbilityList": [
        "Avatar_Topaz_00_Skill01_Camera",
        "Avatar_Topaz_00_Skill01_Phase01",
        "Avatar_Topaz_00_Skill01_Phase02"
      ]
    },
    {
      "Skill": "Skill02",
      "AbilityList": [
        "Avatar_Topaz_00_Skill02_Camera",
        "Avatar_Topaz_00_Skill02_Phase01",
        "Avatar_Topaz_00_Skill02_Phase02"
      ]
    },
    {
      "Skill": "Skill03",
      "AbilityList": [
        "Avatar_Topaz_00_Skill03_Camera",
        "Avatar_Topaz_00_Skill03_EnterReady",
        "Avatar_Topaz_00_Skill03_Phase01",
        "Avatar_Topaz_00_Skill03_Phase02",
        "Avatar_Klara_00_Skill03_EnterReady",
        "Avatar_Klara_00_Skill03_Phase01"
      ]
    },
    {
      "Skill": "SkillP01",
      "AbilityList": [
        "Avatar_Topaz_00_PassiveSkill01",
        "Avatar_Topaz_Rank04_ReduceDelay",
        "Avatar_Topaz_00_BE_NormalAttackDamage",
        "Avatar_Topaz_00_BE_UltraAttackDamage"
      ]
    },
    {
      "Skill": "SkillMaze",
      "AbilityList": [
        "Avatar_Topaz_00_SkillMazeInLevel"
      ]
    }
  ],
  "DynamicValues": {
    "Values": {
      "-1126825319": {
        "ReadInfo": {
          "Type": "None",
          "Str": "Skill01"
        }
      },
      "679921981": {
        "ReadInfo": {
          "Type": "None",
          "Str": "SkillMaze"
        }
      },
      "812579544": {
        "ReadInfo": {
          "Type": "None",
          "Str": "Skill02"
        }
      },
      "-177893025": {
        "ReadInfo": {
          "Type": "SkillTreeParam",
          "Str": "Skill02"
        }
      },
      "892461053": {
        "ReadInfo": {
          "Type": "None",
          "Str": "Skill03"
        }
      },
      "-1659923336": {
        "ReadInfo": {
          "Type": "SkillTreeParam",
          "Str": "Skill03"
        }
      },
      "1463446638": {
        "ReadInfo": {
          "Type": "SkillRank",
          "Str": "Skill03"
        }
      },
      "-209901344": {
        "ReadInfo": {
          "Type": "BattleEvent",
          "Str": "Skill03"
        }
      },
      "805596816": {
        "ReadInfo": {
          "Type": "None",
          "Str": "SkillP01"
        }
      },
      "-1900945986": {
        "ReadInfo": {
          "Type": "SkillTreeParam",
          "Str": "SkillP01"
        }
      },
      "-1413852560": {
        "ReadInfo": {
          "Type": "SkillRank",
          "Str": "SkillP01"
        }
      },
      "-1058610391": {
        "ReadInfo": {
          "Type": "None",
          "Str": "PointB2"
        }
      },
      "-409246801": {
        "ReadInfo": {
          "Type": "None",
          "Str": "PointB3"
        }
      },
      "-1091326327": {
        "ReadInfo": {
          "Type": "None",
          "Str": "Rank01"
        }
      },
      "843766416": {
        "ReadInfo": {
          "Type": "SkillTreeParam",
          "Str": "Rank01"
        }
      },
      "-800455586": {
        "ReadInfo": {
          "Type": "None",
          "Str": "Rank02"
        }
      },
      "-1749482627": {
        "ReadInfo": {
          "Type": "None",
          "Str": "Rank04"
        }
      },
      "1842958745": {
        "ReadInfo": {
          "Type": "None",
          "Str": "Rank06"
        }
      },
      "1271855107": {
        "ReadInfo": {
          "Type": "SkillTreeParam",
          "Str": "Rank06"
        }
      },
      "1273803603": {},
      "952611016": {},
      "-1075012314": {},
      "1798905670": {},
      "1119119098": {}
    }
  },
  "WeaponType": "WP_Magic",
  "DisableAnimEventLayers": [
    "Riboon Layer"
  ],
  "AITagList": {
    "Values": {
      "762466": {},
      "-1570322415": {}
    }
  }
}