{
  "SomatoType": "MiddleAvatar",
  "BuffPanelOffset": {
    "X": 0,
    "Y": 0.8,
    "Z": 0
  },
  "HitBoxWidth": 0.3,
  "HitBoxHeight": 1.5,
  "Location": {
    "Width": 0.8
  },
  "SaveModelWhenDead": true,
  "AnimEventConfigList": [
    "Config/ConfigAnimEvents/Avatar/Designer/Avatar_Pela_00_Designer_AnimEvent.json",
    "Config/ConfigAnimEvents/Avatar/Effect/Avatar_Pela_00_Effect_AnimEvent.json",
    "Config/ConfigAnimEvents/Avatar/Audio/Avatar_Pela_00_Audio_AnimEvent.json",
    "Config/ConfigAnimEvents/Avatar/Audio/Avatar_Common_ControllerVibration_AnimEvent.json"
  ],
  "SkillList": [
    {
      "Name": "Skill01",
      "UseType": "SelectEntity",
      "TargetInfo": {
        "TargetType": "EnemySelect"
      },
      "UseReadyTransitAnim": true,
      "ReadyAnimState": "Skill01_Ready",
      "ReadyAnimWaitTime": 0.3,
      "CameraConfig": {
        "NormalConfig": {
          "CameraState": "SelectDarkTeamEntity",
          "IsLocalOffset": true,
          "AnchorOffset": {
            "X": 0.5,
            "Y": 0.24,
            "Z": -0.56
          },
          "AimOffset": {
            "X": -2.8,
            "Y": 0.45,
            "Z": 0
          },
          "FollowRadius": 3,
          "AnchorToAimAngle": 30,
          "Dutch": 2
        },
        "BlendConfig": {
          "BlendType": "Cut"
        }
      },
      "CameraConfigAdded": {
        "NormalConfig": {
          "CameraState": "SelectDarkTeamEntity",
          "IsLocalOffset": true,
          "AnchorOffset": {
            "X": -0.4,
            "Y": -0.25,
            "Z": 0.08
          },
          "AimOffset": {
            "X": -2.8,
            "Y": 0.88,
            "Z": 0
          },
          "FollowRadius": 3.06,
          "AnchorToAimAngle": 27
        },
        "BlendConfig": {
          "BlendType": "Custom",
          "CustomCurveName": "BlendCut_00to1",
          "BlendTime": 1
        }
      },
      "EntryAbility": "Avatar_Pela_00_Skill01_Phase01",
      "ComplexSkillAIPreCheck": {
        "Groups": [
          {
            "GroupName": "DefaultNormalSkill_PreCheck"
          },
          {
            "GroupName": "BaseWeight",
            "Weight": {
              "Value": 0.3000000002793968
            }
          },
          {
            "GroupName": "BasePp_Common_SingleAttack",
            "Weight": {
              "Value": 0.40000000037252903
            }
          },
          {
            "GroupName": "BasePp_Common_WeakBreak",
            "Weight": {
              "Value": 0.3000000002793968
            }
          }
        ]
      },
      "ComplexSkillAI": {
        "Groups": [
          {
            "GroupName": "DefaultNormalSkill"
          },
          {
            "GroupName": "BaseWeight",
            "Weight": {
              "Value": 0.3000000002793968
            }
          },
          {
            "GroupName": "BasePp_Common_SingleAttack",
            "Weight": {
              "Value": 0.40000000037252903
            }
          },
          {
            "GroupName": "BasePp_Common_WeakBreak",
            "Weight": {
              "Value": 0.3000000002793968
            }
          }
        ]
      }
    },
    {
      "Name": "Skill02",
      "SkillType": "Skill",
      "UseType": "SelectEntity",
      "TargetInfo": {
        "TargetType": "EnemySelect"
      },
      "UseReadyTransitAnim": true,
      "ReadyAnimState": "Skill02_Ready_Loop",
      "ReadyAnimWaitTime": 0.3,
      "CameraConfig": {
        "NormalConfig": {
          "CameraState": "SelectDarkTeamEntity",
          "IsLocalOffset": true,
          "AnchorOffset": {
            "X": -0.64,
            "Y": 0.07,
            "Z": 0.12
          },
          "AimOffset": {
            "X": -2.07,
            "Y": 1.03,
            "Z": 0
          },
          "AimRatio": 1,
          "AnchorToAimAngle": 27
        },
        "BlendConfig": {
          "BlendType": "Custom",
          "CustomCurveName": "BlendCut_05to1",
          "BlendTime": 1
        }
      },
      "EntryAbility": "Avatar_Pela_00_Skill02_Phase01",
      "ComplexSkillAIPreCheck": {
        "Groups": [
          {
            "GroupName": "DefaultBPSkill_PreCheck"
          },
          {
            "GroupName": "BasePp_Common_WeakBreak",
            "Weight": {
              "Value": 0.10000000009313226
            }
          },
          {
            "GroupName": "Add01_Pela_CompareEnemyED",
            "Weight": {
              "Value": 0.5000000004656613
            }
          },
          {
            "GroupName": "AddNP_Common_BPSkill",
            "Weight": {
              "Value": 0.20000000018626451
            }
          },
          {
            "GroupName": "Add10_Pela_BuffPelaBPSkill",
            "Weight": {
              "Value": 0.20000000018626451
            }
          }
        ]
      },
      "ComplexSkillAI": {
        "Groups": [
          {
            "GroupName": "DefaultBPSkill"
          },
          {
            "GroupName": "BasePp_Common_WeakBreak",
            "Weight": {
              "Value": 0.10000000009313226
            }
          },
          {
            "GroupName": "Add01_Pela_CompareEnemyED",
            "Weight": {
              "Value": 0.5000000004656613
            }
          },
          {
            "GroupName": "AddNP_Common_BPSkill",
            "Weight": {
              "Value": 0.20000000018626451
            }
          },
          {
            "GroupName": "Add10_Pela_BuffPelaBPSkill",
            "Weight": {
              "Value": 0.20000000018626451
            }
          }
        ]
      }
    },
    {
      "Name": "Skill03",
      "SkillType": "Ultra",
      "UseType": "SelectEntity",
      "TargetInfo": {
        "TargetType": "AllEnemy"
      },
      "SkillNameHUD": false,
      "ReadyAnimState": "Skill03_Ready",
      "EntryAbility": "Avatar_Pela_00_Skill03_Phase01",
      "PrepareAbility": "Avatar_Pela_00_Skill03_Cutin",
      "ComplexSkillAI": {
        "SkillBasicPower": {
          "Value": 95
        },
        "Groups": [
          {
            "GroupName": "DefaultUltra"
          },
          {
            "GroupName": "Ultra_Common_ImmediateRelease"
          }
        ]
      },
      "AIUltraSkillPriority": "DamageAndBuff"
    },
    {
      "Name": "SkillP01",
      "SkillType": "Passive",
      "UseType": "Passive",
      "TargetInfo": {
        "TargetType": "Caster"
      },
      "EntryAbility": "Avatar_Pela_00_PassiveSkill01"
    },
    {
      "Name": "PassiveSkill02",
      "SkillType": "Passive",
      "UseType": "Passive",
      "TargetInfo": {
        "TargetType": "Caster"
      },
      "EntryAbility": "Avatar_Common_PassiveSkill"
    },
    {
      "Name": "SkillMaze",
      "SkillType": "Maze",
      "TargetInfo": {
        "TargetType": "AllEnemy"
      },
      "EntryAbility": "Avatar_Pela_00_SkillMazeInLevel"
    }
  ],
  "AbilityList": [
    "Avatar_Common_PassiveSkill"
  ],
  "SkillAbilityList": [
    {
      "Skill": "Skill01",
      "AbilityList": [
        "Avatar_Pela_00_Skill01_Camera",
        "Avatar_Pela_00_Skill01_Phase01",
        "Avatar_Pela_00_Skill01_Phase02"
      ]
    },
    {
      "Skill": "Skill02",
      "AbilityList": [
        "Avatar_Pela_00_Skill02_Camera",
        "Avatar_Pela_00_Skill02_Phase01",
        "Avatar_Pela_00_Skill02_Phase02"
      ]
    },
    {
      "Skill": "Skill03",
      "AbilityList": [
        "Avatar_Pela_00_Skill03_Camera",
        "Avatar_Pela_00_Skill03_Phase01",
        "Avatar_Pela_00_Skill03_Phase02",
        "Avatar_Pela_00_Skill03_Cutin"
      ]
    },
    {
      "Skill": "SkillP01",
      "AbilityList": [
        "Avatar_Pela_00_PassiveSkill01"
      ]
    },
    {
      "Skill": "SkillMaze",
      "AbilityList": [
        "Avatar_Pela_00_SkillMazeInLevel"
      ]
    }
  ],
  "DynamicValues": {
    "Values": {
      "-648181786": {},
      "2612209": {},
      "928530724": {},
      "-1126825319": {
        "ReadInfo": {
          "Type": "None",
          "Str": "Skill01"
        }
      },
      "-1847083384": {
        "ReadInfo": {
          "Type": "None",
          "Str": "Skill02"
        }
      },
      "1861895866": {
        "ReadInfo": {
          "Type": "SkillTreeParam",
          "Str": "Skill02"
        }
      },
      "1506568621": {
        "ReadInfo": {
          "Type": "None",
          "Str": "Skill03"
        }
      },
      "-2030605416": {
        "ReadInfo": {
          "Type": "SkillTreeParam",
          "Str": "Skill03"
        }
      },
      "-1998230578": {
        "ReadInfo": {
          "Type": "SkillRank",
          "Str": "Skill03"
        }
      },
      "1364825941": {
        "ReadInfo": {
          "Type": "BattleEvent",
          "Str": "Skill03"
        }
      },
      "-876414897": {
        "ReadInfo": {
          "Type": "None",
          "Str": "SkillP01"
        }
      },
      "-1055957040": {
        "ReadInfo": {
          "Type": "None",
          "Str": "SkillMaze"
        }
      },
      "-1146290400": {
        "ReadInfo": {
          "Type": "SkillTreeParam",
          "Str": "SkillMaze"
        }
      },
      "1010499383": {
        "ReadInfo": {
          "Type": "SkillRank",
          "Str": "SkillMaze"
        }
      },
      "836547932": {
        "ReadInfo": {
          "Type": "BattleEvent",
          "Str": "SkillMaze"
        }
      },
      "-1893757241": {
        "ReadInfo": {
          "Type": "None",
          "Str": "PointB1"
        }
      },
      "279271427": {
        "ReadInfo": {
          "Type": "None",
          "Str": "PointB2"
        }
      },
      "1958914557": {
        "ReadInfo": {
          "Type": "None",
          "Str": "PointB3"
        }
      },
      "-1952504763": {
        "ReadInfo": {
          "Type": "None",
          "Str": "Rank01"
        }
      },
      "38526325": {
        "ReadInfo": {
          "Type": "None",
          "Str": "Rank02"
        }
      },
      "-1192966194": {
        "ReadInfo": {
          "Type": "SkillTreeParam",
          "Str": "Rank02"
        }
      },
      "143135699": {
        "ReadInfo": {
          "Type": "SkillRank",
          "Str": "Rank02"
        }
      },
      "-1376435470": {
        "ReadInfo": {
          "Type": "None",
          "Str": "Rank04"
        }
      },
      "-1905081199": {
        "ReadInfo": {
          "Type": "SkillTreeParam",
          "Str": "Rank04"
        }
      },
      "-2106354587": {
        "ReadInfo": {
          "Type": "SkillRank",
          "Str": "Rank04"
        }
      },
      "1487778557": {
        "ReadInfo": {
          "Type": "None",
          "Str": "Rank06"
        }
      }
    }
  },
  "WeaponType": "WP_Bullet",
  "SkillReadyTransits": [
    {
      "From": 1,
      "To": 2,
      "AnimStateName": "Skill01toSkill02",
      "TransitionInTime": 0.05,
      "ReverseOutroTime": 0.06
    },
    {
      "From": 2,
      "To": 1,
      "AnimStateName": "Skill02toSkill01",
      "TransitionInTime": 0.05,
      "ReverseOutroTime": 0.06
    }
  ],
  "DisableAnimEventLayers": [
    "Riboon Layer"
  ],
  "AITagList": {
    "Values": {
      "762466": {},
      "-1570322415": {}
    }
  }
}