{
  "SomatoType": "MiddleAvatar",
  "BuffPanelOffset": {
    "X": 0,
    "Y": 1.4,
    "Z": 0
  },
  "HitBoxWidth": 0.3,
  "HitBoxHeight": 1.5,
  "Location": {
    "Width": 0.8
  },
  "SaveModelWhenDead": true,
  "AnimEventConfigList": [
    "Config/ConfigAnimEvents/Avatar/Designer/Avatar_Luocha_00_Designer_AnimEvent.json",
    "Config/ConfigAnimEvents/Avatar/Effect/Avatar_Luocha_00_Effect_AnimEvent.json",
    "Config/ConfigAnimEvents/Avatar/Audio/Avatar_Luocha_00_Audio_AnimEvent.json",
    "Config/ConfigAnimEvents/Avatar/Audio/Avatar_Common_ControllerVibration_AnimEvent.json"
  ],
  "SkillList": [
    {
      "Name": "Skill01",
      "UseType": "SelectEntity",
      "TargetInfo": {
        "TargetType": "EnemySelect"
      },
      "UseReadyTransitAnim": true,
      "ReadyAnimState": "Skill01_Ready",
      "CameraConfig": {
        "NormalConfig": {
          "CameraState": "SelectDarkTeamEntity",
          "IsLocalOffset": true,
          "AnchorOffset": {
            "X": 0.5,
            "Y": 0.24,
            "Z": -0.56
          },
          "AimOffset": {
            "X": -2.8,
            "Y": 0.45,
            "Z": 0
          },
          "FollowRadius": 3,
          "AnchorToAimAngle": 30,
          "Dutch": 2
        },
        "BlendConfig": {
          "BlendType": "Cut"
        }
      },
      "CameraConfigAdded": {
        "NormalConfig": {
          "CameraState": "SelectDarkTeamEntity",
          "IsLocalOffset": true,
          "AnchorOffset": {
            "X": -0.1,
            "Y": 0.16,
            "Z": -0.15
          },
          "AimOffset": {
            "X": -2.8,
            "Y": 0.45,
            "Z": 0
          },
          "FollowRadius": 3.1,
          "AnchorToAimAngle": 27
        },
        "BlendConfig": {
          "BlendType": "Custom",
          "CustomCurveName": "BlendCut_05to1",
          "BlendTime": 1
        }
      },
      "FormationType": "LightTeamSelectTarget",
      "EntryAbility": "Avatar_Luocha_00_Skill01_Phase01",
      "ComplexSkillAIPreCheck": {
        "Groups": [
          {
            "GroupName": "DefaultNormalSkill_PreCheck"
          },
          {
            "GroupName": "BaseWeight",
            "Weight": {
              "Value": 0.3000000002793968
            }
          },
          {
            "GroupName": "BasePp_Common_SingleAttack",
            "Weight": {
              "Value": 0.40000000037252903
            }
          },
          {
            "GroupName": "BasePp_Common_WeakBreak",
            "Weight": {
              "Value": 0.3000000002793968
            }
          }
        ]
      },
      "ComplexSkillAI": {
        "Groups": [
          {
            "GroupName": "DefaultNormalSkill"
          },
          {
            "GroupName": "BaseWeight",
            "Weight": {
              "Value": 0.3000000002793968
            }
          },
          {
            "GroupName": "BasePp_Common_SingleAttack",
            "Weight": {
              "Value": 0.40000000037252903
            }
          },
          {
            "GroupName": "BasePp_Common_WeakBreak",
            "Weight": {
              "Value": 0.3000000002793968
            }
          }
        ]
      }
    },
    {
      "Name": "Skill02",
      "SkillType": "Skill",
      "UseType": "SelectEntity",
      "AlwaysDoAutoLock": true,
      "LockType": "LowHP",
      "TargetInfo": {
        "TargetType": "FriendSelect"
      },
      "UseReadyTransitAnim": true,
      "ReadyAnimState": "Skill02_Ready_Loop",
      "ReadyAnimWaitTime": 0.3,
      "CameraConfig": {
        "NormalConfig": {
          "CameraState": "SelectLightTeamEntity",
          "AnchorOffset": {
            "X": 0,
            "Y": 1,
            "Z": 0.5
          },
          "FollowDamp": 0.65,
          "NeedCutBlending": true
        },
        "CloseupShotConfig": {},
        "ShowEntityConfig": {
          "ShowTargetType": {
            "$type": "RPG.GameCore.TargetAlias",
            "Alias": "AllLightTeam"
          },
          "IsAliveOnly": false
        }
      },
      "FormationType": "LightTeamNormal",
      "TeamFormationConfigTemplateName": "LowSpacing",
      "EntryAbility": "Avatar_Luocha_00_Skill02_Phase01",
      "ComplexSkillAIPreCheck": {
        "Groups": [
          {
            "GroupName": "DefaultBPSkill_PreCheck"
          },
          {
            "GroupName": "Base_Natasha_SingleHeal"
          }
        ]
      },
      "ComplexSkillAI": {
        "Groups": [
          {
            "GroupName": "DefaultBPSkill"
          },
          {
            "GroupName": "Base_Natasha_SingleHeal"
          }
        ]
      }
    },
    {
      "Name": "Skill03",
      "SkillType": "Ultra",
      "UseType": "SelectEntity",
      "TargetInfo": {
        "TargetType": "AllEnemy"
      },
      "UseReadyTransitAnim": true,
      "SkillNameHUD": false,
      "ReadyAnimState": "Skill03_Ready",
      "ReadyAnimWaitTime": 0.3,
      "EntryAbility": "Avatar_Luocha_00_Skill03_Phase01",
      "PrepareAbility": "Avatar_Luocha_00_Skill03_EnterReady",
      "ComplexSkillAI": {
        "SkillBasicPower": {
          "Value": 90
        },
        "Groups": [
          {
            "GroupName": "DefaultUltra"
          },
          {
            "GroupName": "Ultra_Common_ImmediateRelease"
          }
        ]
      },
      "AIUltraSkillPriority": "DamageAndBuff"
    },
    {
      "Name": "SkillP01",
      "SkillType": "Passive",
      "UseType": "Passive",
      "TargetInfo": {
        "TargetType": "Caster"
      },
      "EntryAbility": "Avatar_Luocha_00_PassiveSkill01"
    },
    {
      "Name": "SkillMaze",
      "SkillType": "Maze",
      "TargetInfo": {
        "TargetType": "Caster"
      },
      "EntryAbility": "Avatar_Luocha_00_SkillMazeInLevel"
    },
    {
      "Name": "PassiveSkill02",
      "SkillType": "Passive",
      "UseType": "Passive",
      "TargetInfo": {
        "TargetType": "Caster"
      },
      "EntryAbility": "Avatar_Common_PassiveSkill"
    }
  ],
  "AbilityList": [
    "Avatar_Common_PassiveSkill"
  ],
  "SkillAbilityList": [
    {
      "Skill": "Skill01",
      "AbilityList": [
        "Avatar_Luocha_00_Skill01_Camera",
        "Avatar_Luocha_00_Skill01_Phase01",
        "Avatar_Luocha_00_Skill01_Phase02"
      ]
    },
    {
      "Skill": "Skill02",
      "AbilityList": [
        "Avatar_Luocha_00_Skill02_Camera",
        "Avatar_Luocha_00_Skill02_Phase01",
        "Avatar_Luocha_00_Skill02_Phase02"
      ]
    },
    {
      "Skill": "Skill03",
      "AbilityList": [
        "Avatar_Luocha_00_Skill03_Camera",
        "Avatar_Luocha_00_Skill03_EnterReady",
        "Avatar_Luocha_00_Skill03_Phase01",
        "Avatar_Luocha_00_Skill03_Phase02"
      ]
    },
    {
      "Skill": "SkillP01",
      "AbilityList": [
        "Avatar_Luocha_00_PassiveSkill01_Camera",
        "Avatar_Luocha_00_PassiveSkill01",
        "Avatar_Luocha_00_Passive01_InsertAbility",
        "Avatar_Luocha_00_Skill02_InsertAbility"
      ]
    },
    {
      "Skill": "SkillMaze",
      "AbilityList": [
        "Avatar_Luocha_00_SkillMazeInLevel"
      ]
    }
  ],
  "DynamicValues": {
    "Values": {
      "618157311": {},
      "2048458358": {},
      "-648181786": {},
      "-1126825319": {
        "ReadInfo": {
          "Type": "None",
          "Str": "Skill01"
        }
      },
      "-1820862454": {
        "ReadInfo": {
          "Type": "None",
          "Str": "Skill02"
        }
      },
      "26571817": {
        "ReadInfo": {
          "Type": "SkillTreeParam",
          "Str": "Skill02"
        }
      },
      "398047946": {
        "ReadInfo": {
          "Type": "SkillRank",
          "Str": "Skill02"
        }
      },
      "-1022829777": {
        "ReadInfo": {
          "Type": "BattleEvent",
          "Str": "Skill02"
        }
      },
      "-56289053": {
        "ReadInfo": {
          "Type": "None",
          "Str": "Skill03"
        }
      },
      "766655108": {
        "ReadInfo": {
          "Type": "SkillTreeParam",
          "Str": "Skill03"
        }
      },
      "1060848106": {
        "ReadInfo": {
          "Type": "None",
          "Str": "SkillP01"
        }
      },
      "-416268945": {
        "ReadInfo": {
          "Type": "SkillTreeParam",
          "Str": "SkillP01"
        }
      },
      "-1156924325": {
        "ReadInfo": {
          "Type": "SkillRank",
          "Str": "SkillP01"
        }
      },
      "-327200280": {
        "ReadInfo": {
          "Type": "BattleEvent",
          "Str": "SkillP01"
        }
      },
      "35540605": {
        "ReadInfo": {
          "Type": "None",
          "Str": "PointB1"
        }
      },
      "733354018": {
        "ReadInfo": {
          "Type": "None",
          "Str": "PointB2"
        }
      },
      "-1385120060": {
        "ReadInfo": {
          "Type": "SkillTreeParam",
          "Str": "PointB2"
        }
      },
      "1153510288": {
        "ReadInfo": {
          "Type": "None",
          "Str": "PointB3"
        }
      },
      "1436166012": {
        "ReadInfo": {
          "Type": "None",
          "Str": "Rank01"
        }
      },
      "-1691734324": {
        "ReadInfo": {
          "Type": "None",
          "Str": "Rank02"
        }
      },
      "-1017436078": {
        "ReadInfo": {
          "Type": "SkillTreeParam",
          "Str": "Rank02"
        }
      },
      "-1709651598": {
        "ReadInfo": {
          "Type": "SkillRank",
          "Str": "Rank02"
        }
      },
      "748852886": {
        "ReadInfo": {
          "Type": "BattleEvent",
          "Str": "Rank02"
        }
      },
      "-1421947882": {
        "ReadInfo": {
          "Type": "None",
          "Str": "Rank04"
        }
      },
      "-1146371148": {
        "ReadInfo": {
          "Type": "None",
          "Str": "Rank06"
        }
      },
      "-1542092415": {
        "ReadInfo": {
          "Type": "SkillTreeParam",
          "Str": "Rank06"
        }
      },
      "1190804835": {
        "ReadInfo": {
          "Type": "SkillRank",
          "Str": "Rank06"
        }
      }
    }
  },
  "WeaponType": "WP_Magic",
  "SkillReadyTransits": [
    {
      "From": 1,
      "To": 2,
      "AnimStateName": "Skill01toSkill02",
      "TransitionInTime": 0.05,
      "ReverseOutroTime": 0.06
    },
    {
      "From": 2,
      "To": 1,
      "AnimStateName": "Skill02toSkill01",
      "TransitionInTime": 0.05,
      "ReverseOutroTime": 0.06
    }
  ],
  "DisableAnimEventLayers": [
    "Riboon Layer"
  ],
  "AITagList": {
    "Values": {
      "-833189093": {}
    }
  }
}