{
  "AbilityList": [
    {
      "Name": "StageBattleEventAbility_Common"
    }
  ],
  "GlobalModifiers": {
    "TurnEventMDF_AddDamage": {
      "_CallbackList": {
        "OnStack": {
          "CallbackConfig": [
            {
              "$type": "RPG.GameCore.StackProperty",
              "TargetType": {
                "$type": "RPG.GameCore.TargetAlias",
                "Alias": "ModifierOwnerEntity"
              },
              "Property": "Level_AllDamageAddedRatio",
              "PropertyValue": {
                "IsDynamic": true,
                "PostfixExpr": {
                  "OpCodes": "AQAJ",
                  "FixedValues": [],
                  "DynamicHashes": [
                    284336111
                  ]
                }
              }
            }
          ]
        }
      },
      "DynamicValues": {
        "Values": {
          "284336111": {
            "ReadInfo": {
              "Type": "None",
              "Str": "#StageBattleEvent"
            }
          }
        }
      }
    },
    "TurnEventMDF_HealSP": {
      "_CallbackList": {
        "OnPhase1": {
          "CallbackConfig": [
            {
              "$type": "RPG.GameCore.ModifySPNew",
              "TargetType": {
                "$type": "RPG.GameCore.TargetAlias",
                "Alias": "ModifierOwnerEntity"
              },
              "AddValue": {
                "IsDynamic": true,
                "PostfixExpr": {
                  "OpCodes": "AQAJ",
                  "FixedValues": [],
                  "DynamicHashes": [
                    284336111
                  ]
                }
              }
            }
          ]
        }
      },
      "DynamicValues": {
        "Values": {
          "284336111": {
            "ReadInfo": {
              "Type": "None",
              "Str": "#StageBattleEvent"
            }
          }
        }
      }
    },
    "TurnEventMDF_DecreaseBP": {
      "_CallbackList": {
        "OnPhase1": {
          "CallbackConfig": [
            {
              "$type": "RPG.GameCore.ModifyTeamBoostPoint",
              "ModifyFunction": "Add",
              "ModifyValue": {
                "IsDynamic": true,
                "PostfixExpr": {
                  "OpCodes": "AQAJ",
                  "FixedValues": [],
                  "DynamicHashes": [
                    284336111
                  ]
                }
              }
            }
          ]
        }
      },
      "DynamicValues": {
        "Values": {
          "284336111": {
            "ReadInfo": {
              "Type": "None",
              "Str": "#StageBattleEvent"
            }
          }
        }
      }
    },
    "TurnEventMDF_HealCommon": {
      "_CallbackList": {
        "OnPhase1": {
          "CallbackConfig": [
            {
              "$type": "RPG.GameCore.HealHP",
              "TargetType": {
                "$type": "RPG.GameCore.TargetAlias",
                "Alias": "ModifierOwnerEntity"
              },
              "FormulaType": "HealByTargetMaxHP",
              "HealPercentage": {
                "IsDynamic": true,
                "PostfixExpr": {
                  "OpCodes": "AQAJ",
                  "FixedValues": [],
                  "DynamicHashes": [
                    284336111
                  ]
                }
              }
            }
          ]
        }
      },
      "DynamicValues": {
        "Values": {
          "284336111": {
            "ReadInfo": {
              "Type": "None",
              "Str": "#StageBattleEvent"
            }
          }
        }
      }
    },
    "TurnEventMDF_AttackWithFrozen": {
      "_CallbackList": {
        "OnAfterAttack": {
          "CallbackConfig": [
            {
              "$type": "RPG.GameCore.Retarget",
              "TargetType": {
                "$type": "RPG.GameCore.TargetAlias",
                "Alias": "TurnActionEntitySkillTarget"
              },
              "TaskList": [
                {
                  "$type": "RPG.GameCore.AddModifier",
                  "TargetType": {
                    "$type": "RPG.GameCore.TargetAlias",
                    "Alias": "ParamEntity"
                  },
                  "ModifierName": "MCommon_CTRL_Frozen",
                  "Chance": {
                    "IsDynamic": false,
                    "FixedValue": {
                      "Value": 1
                    }
                  },
                  "LifeTime": {
                    "IsDynamic": false,
                    "FixedValue": {
                      "Value": 1
                    }
                  },
                  "DynamicValues": {
                    "Modifier_Frozen_DamagePercentage": {
                      "IsDynamic": false,
                      "FixedValue": {
                        "Value": 0.5000000004656613
                      }
                    }
                  }
                }
              ]
            }
          ]
        }
      },
      "DynamicValues": {
        "Values": {
          "284336111": {
            "ReadInfo": {
              "Type": "None",
              "Str": "#StageBattleEvent"
            }
          }
        }
      }
    },
    "TurnEventMDF_Corrupt": {
      "_CallbackList": {
        "OnStack": {
          "CallbackConfig": [
            {
              "$type": "RPG.GameCore.StackProperty",
              "TargetType": {
                "$type": "RPG.GameCore.TargetAlias",
                "Alias": "ModifierOwnerEntity"
              },
              "Property": "AttackAddedRatio",
              "PropertyValue": {
                "IsDynamic": false,
                "FixedValue": {
                  "Value": -1
                }
              }
            }
          ]
        }
      },
      "DynamicValues": {
        "Values": {
          "284336111": {
            "ReadInfo": {
              "Type": "None",
              "Str": "#StageBattleEvent"
            }
          }
        }
      }
    },
    "TurnEventMDF_Dispel": {
      "_CallbackList": {
        "OnAfterHit": {
          "CallbackConfig": [
            {
              "$type": "RPG.GameCore.DispelStatus",
              "TargetType": {
                "$type": "RPG.GameCore.TargetAlias",
                "Alias": "ParamEntity"
              },
              "BuffType": "Buff",
              "Numbers": {
                "IsDynamic": true,
                "PostfixExpr": {
                  "OpCodes": "AQAJ",
                  "FixedValues": [],
                  "DynamicHashes": [
                    284336111
                  ]
                }
              },
              "Order": "LastAdded"
            }
          ]
        }
      },
      "DynamicValues": {
        "Values": {
          "284336111": {
            "ReadInfo": {
              "Type": "None",
              "Str": "#StageBattleEvent"
            }
          }
        }
      }
    },
    "TurnEventMDF_purify": {
      "_CallbackList": {
        "OnStack": {
          "CallbackConfig": [
            {
              "$type": "RPG.GameCore.DispelStatus",
              "TargetType": {
                "$type": "RPG.GameCore.TargetAlias",
                "Alias": "ParamEntity"
              },
              "Numbers": {
                "IsDynamic": true,
                "PostfixExpr": {
                  "OpCodes": "AQAJ",
                  "FixedValues": [],
                  "DynamicHashes": [
                    284336111
                  ]
                }
              },
              "Order": "LastAdded"
            }
          ]
        }
      },
      "DynamicValues": {
        "Values": {
          "284336111": {
            "ReadInfo": {
              "Type": "None",
              "Str": "#StageBattleEvent"
            }
          }
        }
      }
    },
    "TurnEventMDF_DecreaseAttack": {
      "_CallbackList": {
        "OnStack": {
          "CallbackConfig": [
            {
              "$type": "RPG.GameCore.StackProperty",
              "TargetType": {
                "$type": "RPG.GameCore.TargetAlias",
                "Alias": "ModifierOwnerEntity"
              },
              "Property": "Level_AllDamageAddedRatio",
              "PropertyValue": {
                "IsDynamic": true,
                "PostfixExpr": {
                  "OpCodes": "AQAJ",
                  "FixedValues": [],
                  "DynamicHashes": [
                    284336111
                  ]
                }
              }
            }
          ]
        }
      },
      "DynamicValues": {
        "Values": {
          "284336111": {
            "ReadInfo": {
              "Type": "None",
              "Str": "#StageBattleEvent"
            }
          }
        }
      }
    },
    "TurnEventMDF_NoBPCost": {
      "_CallbackList": {
        "OnDestroy": {
          "CallbackConfig": [
            {
              "$type": "RPG.GameCore.ModifySkillPropertyBySlot",
              "TargetType": {
                "$type": "RPG.GameCore.TargetAlias",
                "Alias": "ModifierOwnerEntity"
              },
              "SkillType": "ControlSkill02",
              "Properties": [
                {
                  "PropertyType": "BPNeed",
                  "OperatorType": "Unset"
                }
              ]
            }
          ]
        },
        "OnStack": {
          "CallbackConfig": [
            {
              "$type": "RPG.GameCore.ModifySkillPropertyBySlot",
              "TargetType": {
                "$type": "RPG.GameCore.TargetAlias",
                "Alias": "ModifierOwnerEntity"
              },
              "SkillType": "ControlSkill02",
              "Properties": [
                {
                  "PropertyType": "BPNeed"
                }
              ]
            }
          ]
        }
      },
      "DynamicValues": {
        "Values": {
          "284336111": {
            "ReadInfo": {
              "Type": "None",
              "Str": "#StageBattleEvent"
            }
          }
        }
      }
    },
    "VanishTest_Modifier": {
      "_CallbackList": {
        "OnPhase1": {
          "CallbackConfig": [
            {
              "$type": "RPG.GameCore.PredicateTaskList",
              "Predicate": {
                "$type": "RPG.GameCore.ByAnd",
                "PredicateList": [
                  {
                    "$type": "RPG.GameCore.ByCompareTurnActionEntityTeamType",
                    "Team": "TeamLight"
                  }
                ]
              },
              "SuccessTaskList": [
                {
                  "$type": "RPG.GameCore.AddModifier",
                  "TargetType": {
                    "$type": "RPG.GameCore.TargetAlias",
                    "Alias": "ModifierOwnerEntity"
                  },
                  "ModifierName": "VanishAttack_Modifier_TeamLight",
                  "LifeTime": {
                    "IsDynamic": false,
                    "FixedValue": {
                      "Value": 1
                    }
                  },
                  "DynamicValues": {
                    "AddSPValue": {
                      "IsDynamic": true,
                      "PostfixExpr": {
                        "OpCodes": "AQAJ",
                        "FixedValues": [],
                        "DynamicHashes": [
                          284336111
                        ]
                      }
                    }
                  }
                }
              ],
              "FailedTaskList": []
            }
          ]
        },
        "OnListenTurnEnd": {
          "CallbackConfig": [
            {
              "$type": "RPG.GameCore.RemoveModifier",
              "TargetType": {
                "$type": "RPG.GameCore.TargetAlias",
                "Alias": "AllLightTeam"
              },
              "ModifierName": "VanishAttack_Modifier_TeamLight"
            },
            {
              "$type": "RPG.GameCore.RemoveModifier",
              "TargetType": {
                "$type": "RPG.GameCore.TargetAlias",
                "Alias": "AllLightTeam"
              },
              "ModifierName": "VanishAttack_CD"
            }
          ]
        }
      },
      "DynamicValues": {
        "Values": {
          "284336111": {
            "ReadInfo": {
              "Type": "None",
              "Str": "#StageBattleEvent"
            }
          }
        }
      }
    },
    "VanishAttack_Modifier_TeamLight": {
      "_CallbackList": {
        "OnAfterAttack": {
          "CallbackConfig": [
            {
              "$type": "RPG.GameCore.PredicateTaskList",
              "Predicate": {
                "$type": "RPG.GameCore.ByNot",
                "Predicate": {
                  "$type": "RPG.GameCore.ByIsContainModifier",
                  "TargetType": {
                    "$type": "RPG.GameCore.TargetAlias",
                    "Alias": "ModifierOwnerEntity"
                  },
                  "ModifierName": "VanishAttack_CD"
                }
              },
              "SuccessTaskList": [
                {
                  "$type": "RPG.GameCore.ModifySPNew",
                  "TargetType": {
                    "$type": "RPG.GameCore.TargetSequence",
                    "Sequence": [
                      {
                        "$type": "RPG.GameCore.TargetAlias",
                        "Alias": "BattleEventEntityList"
                      },
                      {
                        "$type": "RPG.GameCore.TargetFilter",
                        "Predicate": {
                          "$type": "RPG.GameCore.ByIsContainModifier",
                          "TargetType": {
                            "$type": "RPG.GameCore.TargetAlias",
                            "Alias": "ParamEntity"
                          },
                          "ModifierName": "W_BattleEvent_Vanish_00_PassiveAbility"
                        }
                      }
                    ]
                  },
                  "FixedAddValue": {
                    "IsDynamic": true,
                    "PostfixExpr": {
                      "OpCodes": "AQAJ",
                      "FixedValues": [],
                      "DynamicHashes": [
                        -1827764251
                      ]
                    }
                  }
                },
                {
                  "$type": "RPG.GameCore.AddModifier",
                  "TargetType": {
                    "$type": "RPG.GameCore.TargetAlias",
                    "Alias": "ModifierOwnerEntity"
                  },
                  "ModifierName": "VanishAttack_CD",
                  "LifeTime": {
                    "IsDynamic": false,
                    "FixedValue": {
                      "Value": 1
                    }
                  }
                }
              ],
              "FailedTaskList": []
            }
          ]
        }
      }
    },
    "VanishAttack_Modifier_TeamDark": {
      "_CallbackList": {
        "OnAfterHit": {
          "CallbackConfig": [
            {
              "$type": "RPG.GameCore.PredicateTaskList",
              "Predicate": {
                "$type": "RPG.GameCore.ByNot",
                "Predicate": {
                  "$type": "RPG.GameCore.ByIsContainModifier",
                  "TargetType": {
                    "$type": "RPG.GameCore.TargetAlias",
                    "Alias": "ModifierOwnerEntity"
                  },
                  "ModifierName": "VanishAttack_CD"
                }
              },
              "SuccessTaskList": [
                {
                  "$type": "RPG.GameCore.TriggerEffect",
                  "TargetType": {
                    "$type": "RPG.GameCore.TargetAlias",
                    "Alias": "ParamEntity"
                  },
                  "EffectPath": "Effects/Eff_Prefab/Eff_Avatar/Eff_Welt/Eff_Avatar_Welt_00_Skill01_Hit.prefab"
                },
                {
                  "$type": "RPG.GameCore.ModifyActionDelay",
                  "TargetType": {
                    "$type": "RPG.GameCore.TargetAlias",
                    "Alias": "ParamEntity"
                  },
                  "AddNormalizedValue": {
                    "IsDynamic": false,
                    "FixedValue": {
                      "Value": 1
                    }
                  }
                },
                {
                  "$type": "RPG.GameCore.AddModifier",
                  "TargetType": {
                    "$type": "RPG.GameCore.TargetAlias",
                    "Alias": "ModifierOwnerEntity"
                  },
                  "ModifierName": "VanishAttack_CD",
                  "LifeTime": {
                    "IsDynamic": false,
                    "FixedValue": {
                      "Value": 1
                    }
                  }
                }
              ],
              "FailedTaskList": []
            }
          ]
        }
      }
    },
    "VanishAttack_CD": {
      "LifeTime": 1
    },
    "TurnEventMDF_BPAdvance": {
      "_CallbackList": {
        "OnDestroy": {
          "CallbackConfig": [
            {
              "$type": "RPG.GameCore.ModifySkillPropertyBySlot",
              "TargetType": {
                "$type": "RPG.GameCore.TargetAlias",
                "Alias": "ModifierOwnerEntity"
              },
              "SkillType": "ControlSkill02",
              "Properties": [
                {
                  "PropertyType": "BPNeed",
                  "OperatorType": "Unset"
                }
              ]
            }
          ]
        },
        "OnBeforeHit": {
          "CallbackConfig": [
            {
              "$type": "RPG.GameCore.PredicateTaskList",
              "Predicate": {
                "$type": "RPG.GameCore.ByAttackType",
                "AttackTypes": [
                  "BPSkill"
                ]
              },
              "SuccessTaskList": [
                {
                  "$type": "RPG.GameCore.ModifyDamageData",
                  "Attacker_AllDamageTypeAddedRatio": {
                    "IsDynamic": false,
                    "FixedValue": {
                      "Value": 2
                    }
                  }
                }
              ]
            }
          ]
        },
        "OnStack": {
          "CallbackConfig": [
            {
              "$type": "RPG.GameCore.ModifySkillPropertyBySlot",
              "TargetType": {
                "$type": "RPG.GameCore.TargetAlias",
                "Alias": "ModifierOwnerEntity"
              },
              "SkillType": "ControlSkill02",
              "Properties": [
                {
                  "PropertyType": "BPNeed"
                }
              ]
            }
          ]
        }
      },
      "DynamicValues": {
        "Values": {
          "284336111": {
            "ReadInfo": {
              "Type": "None",
              "Str": "#StageBattleEvent"
            }
          }
        }
      }
    },
    "TurnEventMDF_CreatedEvent_DamageUP": {
      "_CallbackList": {
        "OnDestroy": {
          "CallbackConfig": [
            {
              "$type": "RPG.GameCore.ModifySkillPropertyBySlot",
              "TargetType": {
                "$type": "RPG.GameCore.TargetAlias",
                "Alias": "ModifierOwnerEntity"
              },
              "SkillType": "ControlSkill02",
              "Properties": [
                {
                  "PropertyType": "BPNeed",
                  "OperatorType": "Unset"
                }
              ]
            }
          ]
        },
        "OnStack": {
          "CallbackConfig": [
            {
              "$type": "RPG.GameCore.StackProperty",
              "TargetType": {
                "$type": "RPG.GameCore.TargetAlias",
                "Alias": "ModifierOwnerEntity"
              },
              "Property": "Level_AllDamageAddedRatio",
              "PropertyValue": {
                "IsDynamic": true,
                "PostfixExpr": {
                  "OpCodes": "AQAJ",
                  "FixedValues": [],
                  "DynamicHashes": [
                    284336111
                  ]
                }
              }
            },
            {
              "$type": "RPG.GameCore.ModifySkillPropertyBySlot",
              "TargetType": {
                "$type": "RPG.GameCore.TargetAlias",
                "Alias": "ModifierOwnerEntity"
              },
              "SkillType": "ControlSkill02",
              "Properties": [
                {
                  "PropertyType": "BPNeed"
                }
              ]
            }
          ]
        }
      },
      "DynamicValues": {
        "Values": {
          "284336111": {
            "ReadInfo": {
              "Type": "None",
              "Str": "#StageBattleEvent"
            }
          }
        }
      }
    }
  }
}