{
  "OnInitSequece": [],
  "OnStartSequece": [
    {
      "TaskList": [
        {
          "$type": "RPG.GameCore.WaitPhotoGraphResult",
          "WaitPhotoResult": [
            "Target_800210701"
          ],
          "OnSuccess": [
            {
              "$type": "RPG.GameCore.GuessTheSilhouetteResult",
              "SilhouetteID": 13,
              "IsExecuting": true
            },
            {
              "$type": "RPG.GameCore.FinishPerformanceMission",
              "Key": "Mission_800210701"
            }
          ]
        }
      ]
    },
    {
      "TaskList": [
        {
          "$type": "RPG.GameCore.WaitSecond",
          "WaitTime": 3
        },
        {
          "$type": "RPG.GameCore.PlayMissionTalk",
          "SimpleTalkList": [
            {
              "TalkSentenceID": 800210264,
              "ProtectTime": 2
            }
          ]
        }
      ]
    }
  ]
}