{
  "OnInitSequece": [],
  "OnStartSequece": [
    {
      "TaskList": [
        {
          "$type": "RPG.GameCore.CaptureNPCToCharacter",
          "GroupID": {
            "IsDynamic": false,
            "FixedValue": {
              "Value": 100
            }
          },
          "GroupNpcID": {
            "IsDynamic": false,
            "FixedValue": {
              "Value": 400001
            }
          },
          "CharacterUniqueName": {
            "Value": "4040214_kid"
          }
        },
        {
          "$type": "RPG.GameCore.CaptureNPCToCharacter",
          "GroupID": {
            "IsDynamic": false,
            "FixedValue": {
              "Value": 100
            }
          },
          "GroupNpcID": {
            "IsDynamic": false,
            "FixedValue": {
              "Value": 400002
            }
          },
          "CharacterUniqueName": {
            "Value": "4040214_man"
          }
        }
      ]
    },
    {
      "TaskList": [
        {
          "$type": "RPG.GameCore.LevelPerformanceInitialize",
          "PerformanceType": "D"
        },
        {
          "$type": "RPG.GameCore.PlayAndWaitSimpleTalk",
          "SimpleTalkList": [
            {
              "TalkSentenceID": 404021490,
              "ProtectTime": 0.3
            }
          ]
        },
        {
          "$type": "RPG.GameCore.PlayOptionTalk",
          "OptionList": [
            {
              "TalkSentenceID": 404021491,
              "OptionIconType": "ChatContinueIcon",
              "TriggerCustomString": "TalkSentence_404021492"
            },
            {
              "TalkSentenceID": 404021493,
              "OptionIconType": "ChatOutIcon",
              "TriggerCustomString": "TalkSentence_404021494"
            }
          ]
        }
      ]
    },
    {
      "TaskList": [
        {
          "$type": "RPG.GameCore.WaitCustomString",
          "CustomString": {
            "Value": "TalkSentence_404021492"
          }
        },
        {
          "$type": "RPG.GameCore.PlayAndWaitSimpleTalk",
          "SimpleTalkList": [
            {
              "TalkSentenceID": 404021492,
              "ProtectTime": 0.3
            }
          ]
        },
        {
          "$type": "RPG.GameCore.TriggerCustomString",
          "CustomString": {
            "Value": "TalkSentence_404021495"
          }
        }
      ]
    },
    {
      "TaskList": [
        {
          "$type": "RPG.GameCore.WaitCustomString",
          "CustomString": {
            "Value": "TalkSentence_404021494"
          }
        },
        {
          "$type": "RPG.GameCore.PlayAndWaitSimpleTalk",
          "SimpleTalkList": [
            {
              "TalkSentenceID": 404021494,
              "ProtectTime": 0.3
            }
          ]
        },
        {
          "$type": "RPG.GameCore.EndPerformance"
        }
      ]
    },
    {
      "TaskList": [
        {
          "$type": "RPG.GameCore.WaitCustomString",
          "CustomString": {
            "Value": "TalkSentence_404021495"
          }
        },
        {
          "$type": "RPG.GameCore.PerformanceTransition",
          "CreateNpcList": [],
          "CaptureNpcList": [],
          "DestroyNpcList": [],
          "CreateProp": {
            "GroupID": {
              "IsDynamic": false,
              "FixedValue": {
                "Value": 0
              }
            },
            "GroupPropID": {
              "IsDynamic": false,
              "FixedValue": {
                "Value": 0
              }
            },
            "TaskEnabled": false
          },
          "DestroyProp": {
            "TargetType": {
              "$type": "RPG.GameCore.TargetFetchAdvPropEx"
            },
            "ID": {
              "IsDynamic": false,
              "FixedValue": {
                "Value": 0
              }
            },
            "GroupID": {
              "IsDynamic": false,
              "FixedValue": {
                "Value": 0
              }
            },
            "TaskEnabled": false
          },
          "ActiveVirtualCamera": {
            "TaskEnabled": false
          },
          "ActiveTemplateVirtualCamera": {
            "TaskEnabled": false
          },
          "SwitchCharacterAnchor": {
            "IsLocalPlayer": true,
            "CharacterUniqueName": "LocalPlayer",
            "AreaName": {
              "Value": "LevelArea_P10201_F10201001_G100"
            },
            "AnchorName": {
              "Value": "Anchor4"
            }
          },
          "AdvNpcFaceToPlayer": {
            "TaskEnabled": false
          }
        },
        {
          "$type": "RPG.GameCore.PlayAndWaitSimpleTalk",
          "SimpleTalkList": [
            {
              "TalkSentenceID": 404021495,
              "ProtectTime": 0.3
            },
            {
              "TalkSentenceID": 404021496,
              "ProtectTime": 0.3
            },
            {
              "TalkSentenceID": 404021497,
              "ProtectTime": 0.3
            },
            {
              "TalkSentenceID": 404021498,
              "ProtectTime": 0.3
            },
            {
              "TalkSentenceID": 404021499,
              "ProtectTime": 0.3
            },
            {
              "TalkSentenceID": 404021500,
              "ProtectTime": 0.3
            }
          ]
        },
        {
          "$type": "RPG.GameCore.PlayOptionTalk",
          "OptionList": [
            {
              "TalkSentenceID": 404021501,
              "OptionIconType": "ChatContinueIcon",
              "TriggerCustomString": "TalkSentence_404021502"
            },
            {
              "TalkSentenceID": 404021544,
              "OptionIconType": "ChatContinueIcon",
              "TriggerCustomString": "TalkSentence_404021545"
            }
          ]
        }
      ]
    },
    {
      "TaskList": [
        {
          "$type": "RPG.GameCore.WaitCustomString",
          "CustomString": {
            "Value": "TalkSentence_404021495"
          }
        },
        {
          "$type": "RPG.GameCore.WaitSecond",
          "WaitTime": 0.5
        },
        {
          "$type": "RPG.GameCore.SwitchCharacterAnchor",
          "CharacterUniqueName": "4040214_kid",
          "AreaName": {
            "Value": "LevelArea_P10201_F10201001_G100"
          },
          "AnchorName": {
            "Value": "Anchor2"
          }
        },
        {
          "$type": "RPG.GameCore.SwitchCharacterAnchor",
          "CharacterUniqueName": "4040214_man",
          "AreaName": {
            "Value": "LevelArea_P10201_F10201001_G100"
          },
          "AnchorName": {
            "Value": "Anchor3"
          }
        },
        {
          "$type": "RPG.GameCore.CharacterTriggerFreeStyle",
          "CharacterUniqueName": "4040214_kid",
          "StoryAvatarID": "NPC_Child",
          "StoryMotionID": 100040000
        }
      ]
    },
    {
      "TaskList": [
        {
          "$type": "RPG.GameCore.WaitCustomString",
          "CustomString": {
            "Value": "TalkSentence_404021502"
          }
        },
        {
          "$type": "RPG.GameCore.PlayAndWaitSimpleTalk",
          "SimpleTalkList": [
            {
              "TalkSentenceID": 404021502,
              "ProtectTime": 0.3
            },
            {
              "TalkSentenceID": 404021503,
              "ProtectTime": 0.3
            }
          ]
        },
        {
          "$type": "RPG.GameCore.PlayOptionTalk",
          "OptionList": [
            {
              "TalkSentenceID": 404021504,
              "OptionIconType": "ChatContinueIcon",
              "TriggerCustomString": "TalkSentence_404021505"
            },
            {
              "TalkSentenceID": 404021540,
              "OptionIconType": "ChatContinueIcon",
              "TriggerCustomString": "TalkSentence_404021541"
            }
          ]
        }
      ]
    },
    {
      "TaskList": [
        {
          "$type": "RPG.GameCore.WaitCustomString",
          "CustomString": {
            "Value": "TalkSentence_404021505"
          }
        },
        {
          "$type": "RPG.GameCore.PlayAndWaitSimpleTalk",
          "SimpleTalkList": [
            {
              "TalkSentenceID": 404021505,
              "ProtectTime": 0.3
            },
            {
              "TalkSentenceID": 404021506,
              "ProtectTime": 0.3
            },
            {
              "TalkSentenceID": 404021507,
              "ProtectTime": 0.3
            },
            {
              "TalkSentenceID": 404021508,
              "ProtectTime": 0.3
            }
          ]
        },
        {
          "$type": "RPG.GameCore.PlayOptionTalk",
          "OptionList": [
            {
              "TalkSentenceID": 404021509,
              "OptionIconType": "ChatContinueIcon",
              "TriggerCustomString": "TalkSentence_404021510"
            },
            {
              "TalkSentenceID": 404021515,
              "OptionIconType": "ChatContinueIcon",
              "TriggerCustomString": "TalkSentence_404021516"
            },
            {
              "TalkSentenceID": 404021534,
              "OptionIconType": "ChatContinueIcon",
              "TriggerCustomString": "TalkSentence_404021535"
            }
          ]
        }
      ]
    },
    {
      "TaskList": [
        {
          "$type": "RPG.GameCore.WaitCustomString",
          "CustomString": {
            "Value": "TalkSentence_404021510"
          }
        },
        {
          "$type": "RPG.GameCore.PlayAndWaitSimpleTalk",
          "SimpleTalkList": [
            {
              "TalkSentenceID": 404021510,
              "ProtectTime": 0.3
            },
            {
              "TalkSentenceID": 404021511,
              "ProtectTime": 0.3
            }
          ]
        },
        {
          "$type": "RPG.GameCore.PlayAndWaitSimpleTalk",
          "BlackMask": true,
          "SimpleTalkList": [
            {
              "TalkSentenceID": 404021512,
              "ProtectTime": 0.3
            },
            {
              "TalkSentenceID": 404021513,
              "ProtectTime": 0.3
            },
            {
              "TalkSentenceID": 404021514,
              "ProtectTime": 0.3
            }
          ]
        },
        {
          "$type": "RPG.GameCore.TriggerCustomString",
          "CustomString": {
            "Value": "endingC"
          }
        }
      ]
    },
    {
      "TaskList": [
        {
          "$type": "RPG.GameCore.WaitCustomString",
          "CustomString": {
            "Value": "TalkSentence_404021516"
          }
        },
        {
          "$type": "RPG.GameCore.PlayAndWaitSimpleTalk",
          "SimpleTalkList": [
            {
              "TalkSentenceID": 404021516,
              "ProtectTime": 0.3
            },
            {
              "TalkSentenceID": 404021517,
              "ProtectTime": 0.3
            },
            {
              "TalkSentenceID": 404021518,
              "ProtectTime": 0.3
            }
          ]
        },
        {
          "$type": "RPG.GameCore.PlayOptionTalk",
          "OptionList": [
            {
              "TalkSentenceID": 404021519,
              "OptionIconType": "ChatContinueIcon",
              "TriggerCustomString": "TalkSentence_404021520"
            },
            {
              "TalkSentenceID": 404021525,
              "OptionIconType": "ChatContinueIcon",
              "TriggerCustomString": "TalkSentence_404021526"
            },
            {
              "TalkSentenceID": 404021529,
              "OptionIconType": "ChatContinueIcon",
              "TriggerCustomString": "TalkSentence_404021530"
            }
          ]
        }
      ]
    },
    {
      "TaskList": [
        {
          "$type": "RPG.GameCore.WaitCustomString",
          "CustomString": {
            "Value": "TalkSentence_404021520"
          }
        },
        {
          "$type": "RPG.GameCore.PlayAndWaitSimpleTalk",
          "SimpleTalkList": [
            {
              "TalkSentenceID": 404021520,
              "ProtectTime": 0.3
            },
            {
              "TalkSentenceID": 404021521,
              "ProtectTime": 0.3
            }
          ]
        },
        {
          "$type": "RPG.GameCore.PlayAndWaitSimpleTalk",
          "BlackMask": true,
          "SimpleTalkList": [
            {
              "TalkSentenceID": 404021522,
              "ProtectTime": 0.3
            },
            {
              "TalkSentenceID": 404021523,
              "ProtectTime": 0.3
            },
            {
              "TalkSentenceID": 404021524,
              "ProtectTime": 0.3
            }
          ]
        },
        {
          "$type": "RPG.GameCore.TriggerCustomString",
          "CustomString": {
            "Value": "endingC"
          }
        }
      ]
    },
    {
      "TaskList": [
        {
          "$type": "RPG.GameCore.WaitCustomString",
          "CustomString": {
            "Value": "TalkSentence_404021526"
          }
        },
        {
          "$type": "RPG.GameCore.PlayAndWaitSimpleTalk",
          "SimpleTalkList": [
            {
              "TalkSentenceID": 404021526,
              "ProtectTime": 0.3
            },
            {
              "TalkSentenceID": 404021527,
              "ProtectTime": 0.3
            },
            {
              "TalkSentenceID": 404021528,
              "ProtectTime": 0.3
            }
          ]
        },
        {
          "$type": "RPG.GameCore.TriggerCustomString",
          "CustomString": {
            "Value": "endingD"
          }
        }
      ]
    },
    {
      "TaskList": [
        {
          "$type": "RPG.GameCore.WaitCustomString",
          "CustomString": {
            "Value": "TalkSentence_404021530"
          }
        },
        {
          "$type": "RPG.GameCore.PlayAndWaitSimpleTalk",
          "SimpleTalkList": [
            {
              "TalkSentenceID": 404021530,
              "ProtectTime": 0.3
            },
            {
              "TalkSentenceID": 404021531,
              "ProtectTime": 0.3
            },
            {
              "TalkSentenceID": 404021532,
              "ProtectTime": 0.3
            },
            {
              "TalkSentenceID": 404021533,
              "ProtectTime": 0.3
            }
          ]
        },
        {
          "$type": "RPG.GameCore.PredicateTaskList",
          "Predicate": {
            "$type": "RPG.GameCore.ByCompareMissionCustomValue",
            "MainMissionID": 4040214,
            "MissionCustomValue": {
              "ValidValueParamList": [
                1,
                2,
                3,
                4,
                9
              ]
            },
            "EquationType": "Equal",
            "TargetValue": 11
          },
          "SuccessTaskList": [
            {
              "$type": "RPG.GameCore.TriggerCustomString",
              "CustomString": {
                "Value": "endingE"
              }
            }
          ],
          "FailedTaskList": [
            {
              "$type": "RPG.GameCore.TriggerCustomString",
              "CustomString": {
                "Value": "endingB"
              }
            }
          ]
        }
      ]
    },
    {
      "TaskList": [
        {
          "$type": "RPG.GameCore.WaitCustomString",
          "CustomString": {
            "Value": "TalkSentence_404021535"
          }
        },
        {
          "$type": "RPG.GameCore.PlayAndWaitSimpleTalk",
          "SimpleTalkList": [
            {
              "TalkSentenceID": 404021535,
              "ProtectTime": 0.3
            },
            {
              "TalkSentenceID": 404021536,
              "ProtectTime": 0.3
            }
          ]
        },
        {
          "$type": "RPG.GameCore.PlayAndWaitSimpleTalk",
          "BlackMask": true,
          "SimpleTalkList": [
            {
              "TalkSentenceID": 404021537,
              "ProtectTime": 0.3
            },
            {
              "TalkSentenceID": 404021538,
              "ProtectTime": 0.3
            },
            {
              "TalkSentenceID": 404021539,
              "ProtectTime": 0.3
            }
          ]
        },
        {
          "$type": "RPG.GameCore.TriggerCustomString",
          "CustomString": {
            "Value": "endingC"
          }
        }
      ]
    },
    {
      "TaskList": [
        {
          "$type": "RPG.GameCore.WaitCustomString",
          "CustomString": {
            "Value": "TalkSentence_404021541"
          }
        },
        {
          "$type": "RPG.GameCore.PlayAndWaitSimpleTalk",
          "SimpleTalkList": [
            {
              "TalkSentenceID": 404021541,
              "ProtectTime": 0.3
            },
            {
              "TalkSentenceID": 404021542,
              "ProtectTime": 0.3
            },
            {
              "TalkSentenceID": 404021543,
              "ProtectTime": 0.3
            }
          ]
        },
        {
          "$type": "RPG.GameCore.PredicateTaskList",
          "Predicate": {
            "$type": "RPG.GameCore.ByCompareMissionCustomValue",
            "MainMissionID": 4040214,
            "MissionCustomValue": {
              "ValidValueParamList": [
                1,
                2,
                3,
                4,
                9
              ]
            },
            "EquationType": "Equal",
            "TargetValue": 11
          },
          "SuccessTaskList": [
            {
              "$type": "RPG.GameCore.TriggerCustomString",
              "CustomString": {
                "Value": "endingE"
              }
            }
          ],
          "FailedTaskList": [
            {
              "$type": "RPG.GameCore.TriggerCustomString",
              "CustomString": {
                "Value": "endingB"
              }
            }
          ]
        }
      ]
    },
    {
      "TaskList": [
        {
          "$type": "RPG.GameCore.WaitCustomString",
          "CustomString": {
            "Value": "TalkSentence_404021545"
          }
        },
        {
          "$type": "RPG.GameCore.PlayAndWaitSimpleTalk",
          "SimpleTalkList": [
            {
              "TalkSentenceID": 404021545,
              "ProtectTime": 0.3
            },
            {
              "TalkSentenceID": 404021546,
              "ProtectTime": 0.3
            },
            {
              "TalkSentenceID": 404021547,
              "ProtectTime": 0.3
            }
          ]
        },
        {
          "$type": "RPG.GameCore.PredicateTaskList",
          "Predicate": {
            "$type": "RPG.GameCore.ByCompareMissionCustomValue",
            "MainMissionID": 4040214,
            "MissionCustomValue": {
              "ValidValueParamList": [
                1,
                2,
                3,
                4,
                9
              ]
            },
            "EquationType": "Equal",
            "TargetValue": 11
          },
          "SuccessTaskList": [
            {
              "$type": "RPG.GameCore.TriggerCustomString",
              "CustomString": {
                "Value": "endingE"
              }
            }
          ],
          "FailedTaskList": [
            {
              "$type": "RPG.GameCore.TriggerCustomString",
              "CustomString": {
                "Value": "endingA"
              }
            }
          ]
        }
      ]
    },
    {
      "TaskList": [
        {
          "$type": "RPG.GameCore.WaitCustomString",
          "CustomString": {
            "Value": "endingA"
          }
        },
        {
          "$type": "RPG.GameCore.PlayAndWaitSimpleTalk",
          "SimpleTalkList": [
            {
              "TalkSentenceID": 404021548,
              "ProtectTime": 0.3
            },
            {
              "TalkSentenceID": 404021549,
              "ProtectTime": 0.3
            },
            {
              "TalkSentenceID": 404021550,
              "ProtectTime": 0.3
            }
          ]
        },
        {
          "$type": "RPG.GameCore.TriggerCustomString",
          "CustomString": {
            "Value": "Talk_404021409"
          }
        }
      ]
    },
    {
      "TaskList": [
        {
          "$type": "RPG.GameCore.WaitCustomString",
          "CustomString": {
            "Value": "endingB"
          }
        },
        {
          "$type": "RPG.GameCore.PlayAndWaitSimpleTalk",
          "SimpleTalkList": [
            {
              "TalkSentenceID": 404021551,
              "ProtectTime": 0.3
            },
            {
              "TalkSentenceID": 404021552,
              "ProtectTime": 0.3
            }
          ]
        },
        {
          "$type": "RPG.GameCore.TriggerCustomString",
          "CustomString": {
            "Value": "Talk_404021409"
          }
        }
      ]
    },
    {
      "TaskList": [
        {
          "$type": "RPG.GameCore.WaitCustomString",
          "CustomString": {
            "Value": "endingC"
          }
        },
        {
          "$type": "RPG.GameCore.PlayAndWaitSimpleTalk",
          "SimpleTalkList": [
            {
              "TalkSentenceID": 404021553,
              "ProtectTime": 0.3
            },
            {
              "TalkSentenceID": 404021554,
              "ProtectTime": 0.3
            },
            {
              "TalkSentenceID": 404021555
            },
            {
              "TalkSentenceID": 404021556
            }
          ]
        },
        {
          "$type": "RPG.GameCore.TriggerCustomString",
          "CustomString": {
            "Value": "Talk_404021409"
          }
        }
      ]
    },
    {
      "TaskList": [
        {
          "$type": "RPG.GameCore.WaitCustomString",
          "CustomString": {
            "Value": "endingD"
          }
        },
        {
          "$type": "RPG.GameCore.PlayAndWaitSimpleTalk",
          "SimpleTalkList": [
            {
              "TalkSentenceID": 404021557,
              "ProtectTime": 0.3
            },
            {
              "TalkSentenceID": 404021558,
              "ProtectTime": 0.3
            },
            {
              "TalkSentenceID": 404021559
            }
          ]
        },
        {
          "$type": "RPG.GameCore.TriggerCustomString",
          "CustomString": {
            "Value": "Talk_404021408"
          }
        }
      ]
    },
    {
      "TaskList": [
        {
          "$type": "RPG.GameCore.WaitCustomString",
          "CustomString": {
            "Value": "endingE"
          }
        },
        {
          "$type": "RPG.GameCore.PlayAndWaitSimpleTalk",
          "SimpleTalkList": [
            {
              "TalkSentenceID": 404021560,
              "ProtectTime": 0.3
            },
            {
              "TalkSentenceID": 404021561,
              "ProtectTime": 0.3
            },
            {
              "TalkSentenceID": 404021562
            },
            {
              "TalkSentenceID": 404021563
            }
          ]
        },
        {
          "$type": "RPG.GameCore.TriggerCustomString",
          "CustomString": {
            "Value": "Talk_404021407"
          }
        }
      ]
    },
    {
      "TaskList": [
        {
          "$type": "RPG.GameCore.WaitCustomString",
          "CustomString": {
            "Value": "ALL_TALK_END"
          }
        },
        {
          "$type": "RPG.GameCore.PerformanceTransition",
          "CreateNpcList": [
            {
              "GroupID": {
                "IsDynamic": false,
                "FixedValue": {
                  "Value": 75
                }
              },
              "GroupNpcID": {
                "IsDynamic": false,
                "FixedValue": {
                  "Value": 400001
                }
              }
            }
          ],
          "CaptureNpcList": [],
          "DestroyNpcList": [
            {
              "GroupID": 100,
              "GroupNpcID": 400001
            },
            {
              "GroupID": 100,
              "GroupNpcID": 400002
            },
            {
              "GroupID": 100,
              "GroupNpcID": 400003
            }
          ],
          "CreateProp": {
            "GroupID": {
              "IsDynamic": false,
              "FixedValue": {
                "Value": 0
              }
            },
            "GroupPropID": {
              "IsDynamic": false,
              "FixedValue": {
                "Value": 0
              }
            },
            "TaskEnabled": false
          },
          "DestroyProp": {
            "TargetType": {
              "$type": "RPG.GameCore.TargetFetchAdvPropEx"
            },
            "ID": {
              "IsDynamic": false,
              "FixedValue": {
                "Value": 0
              }
            },
            "GroupID": {
              "IsDynamic": false,
              "FixedValue": {
                "Value": 0
              }
            },
            "TaskEnabled": false
          },
          "ActiveVirtualCamera": {
            "TaskEnabled": false
          },
          "ActiveTemplateVirtualCamera": {
            "TaskEnabled": false
          },
          "SwitchCharacterAnchor": {
            "TaskEnabled": false
          },
          "AdvNpcFaceToPlayer": {
            "TaskEnabled": false
          }
        },
        {
          "$type": "RPG.GameCore.TriggerCustomString",
          "CustomString": {
            "Value": "404021405_Finish"
          }
        },
        {
          "$type": "RPG.GameCore.EndPerformance"
        }
      ]
    },
    {
      "TaskList": [
        {
          "$type": "RPG.GameCore.WaitCustomString",
          "CustomString": {
            "Value": "Talk_404021409"
          }
        },
        {
          "$type": "RPG.GameCore.PerformanceTransition",
          "CreateNpcList": [
            {
              "GroupID": {
                "IsDynamic": false,
                "FixedValue": {
                  "Value": 75
                }
              },
              "GroupNpcID": {
                "IsDynamic": false,
                "FixedValue": {
                  "Value": 400001
                }
              }
            }
          ],
          "CaptureNpcList": [],
          "DestroyNpcList": [
            {
              "GroupID": 100,
              "GroupNpcID": 400001
            },
            {
              "GroupID": 100,
              "GroupNpcID": 400002
            },
            {
              "GroupID": 100,
              "GroupNpcID": 400003
            }
          ],
          "CreateProp": {
            "GroupID": {
              "IsDynamic": false,
              "FixedValue": {
                "Value": 0
              }
            },
            "GroupPropID": {
              "IsDynamic": false,
              "FixedValue": {
                "Value": 0
              }
            },
            "TaskEnabled": false
          },
          "DestroyProp": {
            "TargetType": {
              "$type": "RPG.GameCore.TargetFetchAdvPropEx"
            },
            "ID": {
              "IsDynamic": false,
              "FixedValue": {
                "Value": 0
              }
            },
            "GroupID": {
              "IsDynamic": false,
              "FixedValue": {
                "Value": 0
              }
            },
            "TaskEnabled": false
          },
          "ActiveVirtualCamera": {
            "TaskEnabled": false
          },
          "ActiveTemplateVirtualCamera": {
            "TaskEnabled": false
          },
          "SwitchCharacterAnchor": {
            "TaskEnabled": false
          },
          "AdvNpcFaceToPlayer": {
            "TaskEnabled": false
          }
        },
        {
          "$type": "RPG.GameCore.SetMissionCustomValue",
          "SubmissionID": 404021405,
          "MissionCustomValue": {
            "Index": 1,
            "ValidValueParamList": [
              1,
              2,
              3
            ]
          },
          "CustomValue": 3
        },
        {
          "$type": "RPG.GameCore.TriggerCustomString",
          "CustomString": {
            "Value": "404021405_Finish"
          }
        },
        {
          "$type": "RPG.GameCore.EndPerformance"
        }
      ]
    },
    {
      "TaskList": [
        {
          "$type": "RPG.GameCore.WaitPerformanceEnd"
        },
        {
          "$type": "RPG.GameCore.FinishLevelGraph"
        }
      ]
    },
    {
      "TaskList": [
        {
          "$type": "RPG.GameCore.WaitCustomString",
          "CustomString": {
            "Value": "Talk_404021408"
          }
        },
        {
          "$type": "RPG.GameCore.PerformanceTransition",
          "CreateNpcList": [
            {
              "GroupID": {
                "IsDynamic": false,
                "FixedValue": {
                  "Value": 75
                }
              },
              "GroupNpcID": {
                "IsDynamic": false,
                "FixedValue": {
                  "Value": 400001
                }
              }
            }
          ],
          "CaptureNpcList": [],
          "DestroyNpcList": [
            {
              "GroupID": 100,
              "GroupNpcID": 400001
            },
            {
              "GroupID": 100,
              "GroupNpcID": 400002
            },
            {
              "GroupID": 100,
              "GroupNpcID": 400003
            }
          ],
          "CreateProp": {
            "GroupID": {
              "IsDynamic": false,
              "FixedValue": {
                "Value": 0
              }
            },
            "GroupPropID": {
              "IsDynamic": false,
              "FixedValue": {
                "Value": 0
              }
            },
            "TaskEnabled": false
          },
          "DestroyProp": {
            "TargetType": {
              "$type": "RPG.GameCore.TargetFetchAdvPropEx"
            },
            "ID": {
              "IsDynamic": false,
              "FixedValue": {
                "Value": 0
              }
            },
            "GroupID": {
              "IsDynamic": false,
              "FixedValue": {
                "Value": 0
              }
            },
            "TaskEnabled": false
          },
          "ActiveVirtualCamera": {
            "TaskEnabled": false
          },
          "ActiveTemplateVirtualCamera": {
            "TaskEnabled": false
          },
          "SwitchCharacterAnchor": {
            "TaskEnabled": false
          },
          "AdvNpcFaceToPlayer": {
            "TaskEnabled": false
          }
        },
        {
          "$type": "RPG.GameCore.SetMissionCustomValue",
          "SubmissionID": 404021405,
          "MissionCustomValue": {
            "Index": 1,
            "ValidValueParamList": [
              1,
              2,
              3
            ]
          },
          "CustomValue": 2
        },
        {
          "$type": "RPG.GameCore.TriggerCustomString",
          "CustomString": {
            "Value": "404021405_Finish"
          }
        },
        {
          "$type": "RPG.GameCore.EndPerformance"
        }
      ]
    },
    {
      "TaskList": [
        {
          "$type": "RPG.GameCore.WaitCustomString",
          "CustomString": {
            "Value": "Talk_404021407"
          }
        },
        {
          "$type": "RPG.GameCore.PerformanceTransition",
          "CreateNpcList": [
            {
              "GroupID": {
                "IsDynamic": false,
                "FixedValue": {
                  "Value": 75
                }
              },
              "GroupNpcID": {
                "IsDynamic": false,
                "FixedValue": {
                  "Value": 400001
                }
              }
            }
          ],
          "CaptureNpcList": [],
          "DestroyNpcList": [
            {
              "GroupID": 100,
              "GroupNpcID": 400001
            },
            {
              "GroupID": 100,
              "GroupNpcID": 400002
            },
            {
              "GroupID": 100,
              "GroupNpcID": 400003
            }
          ],
          "CreateProp": {
            "GroupID": {
              "IsDynamic": false,
              "FixedValue": {
                "Value": 0
              }
            },
            "GroupPropID": {
              "IsDynamic": false,
              "FixedValue": {
                "Value": 0
              }
            },
            "TaskEnabled": false
          },
          "DestroyProp": {
            "TargetType": {
              "$type": "RPG.GameCore.TargetFetchAdvPropEx"
            },
            "ID": {
              "IsDynamic": false,
              "FixedValue": {
                "Value": 0
              }
            },
            "GroupID": {
              "IsDynamic": false,
              "FixedValue": {
                "Value": 0
              }
            },
            "TaskEnabled": false
          },
          "ActiveVirtualCamera": {
            "TaskEnabled": false
          },
          "ActiveTemplateVirtualCamera": {
            "TaskEnabled": false
          },
          "SwitchCharacterAnchor": {
            "TaskEnabled": false
          },
          "AdvNpcFaceToPlayer": {
            "TaskEnabled": false
          }
        },
        {
          "$type": "RPG.GameCore.SetMissionCustomValue",
          "SubmissionID": 404021405,
          "MissionCustomValue": {
            "Index": 1,
            "ValidValueParamList": [
              1,
              2,
              3
            ]
          },
          "CustomValue": 1
        },
        {
          "$type": "RPG.GameCore.TriggerCustomString",
          "CustomString": {
            "Value": "404021405_Finish"
          }
        },
        {
          "$type": "RPG.GameCore.EndPerformance"
        }
      ]
    }
  ]
}