{
  "OnInitSequece": [],
  "OnStartSequece": [
    {
      "TaskList": [
        {
          "$type": "RPG.GameCore.LevelPerformanceInitialize",
          "PerformanceType": "E",
          "HideMunicipalCrowd": false,
          "HideMunicipalPedestrian": false
        },
        {
          "$type": "RPG.GameCore.PlayAndWaitSimpleTalk",
          "UseBackground": true,
          "Backgrounds": [
            {
              "TalkBgID": 13
            }
          ],
          "SimpleTalkList": [
            {
              "TalkSentenceID": 403055221,
              "ProtectTime": 0.3
            }
          ]
        },
        {
          "$type": "RPG.GameCore.PlayOptionTalk",
          "OptionList": [
            {
              "TalkSentenceID": 403055222,
              "OptionIconType": "ChatContinueIcon",
              "TriggerCustomString": "TalkSentence_403055225"
            },
            {
              "TalkSentenceID": 403055223,
              "OptionIconType": "ChatContinueIcon",
              "TriggerCustomString": "TalkSentence_403055224"
            }
          ]
        }
      ]
    },
    {
      "TaskList": [
        {
          "$type": "RPG.GameCore.WaitCustomString",
          "CustomString": {
            "Value": "TalkSentence_403055224"
          }
        },
        {
          "$type": "RPG.GameCore.PlayAndWaitSimpleTalk",
          "UseBackground": true,
          "Backgrounds": [
            {
              "TalkBgID": 13
            }
          ],
          "SimpleTalkList": [
            {
              "TalkSentenceID": 403055224,
              "ProtectTime": 0.3
            }
          ]
        },
        {
          "$type": "RPG.GameCore.TriggerCustomString",
          "CustomString": {
            "Value": "TalkSentence_403055225"
          }
        }
      ]
    },
    {
      "TaskList": [
        {
          "$type": "RPG.GameCore.WaitCustomString",
          "CustomString": {
            "Value": "TalkSentence_403055225"
          }
        },
        {
          "$type": "RPG.GameCore.PlayAndWaitSimpleTalk",
          "UseBackground": true,
          "Backgrounds": [
            {
              "TalkBgID": 9
            },
            {
              "TalkBgID": 8
            }
          ],
          "SimpleTalkList": [
            {
              "TalkSentenceID": 403055225,
              "ProtectTime": 0.3
            },
            {
              "TalkSentenceID": 403055226,
              "ProtectTime": 0.3
            }
          ]
        },
        {
          "$type": "RPG.GameCore.PlayOptionTalk",
          "OptionList": [
            {
              "TalkSentenceID": 403055227,
              "OptionIconType": "ChatContinueIcon",
              "TriggerCustomString": "TalkSentence_403055228"
            },
            {
              "TalkSentenceID": 403055229,
              "OptionIconType": "ChatContinueIcon",
              "TriggerCustomString": "TalkSentence_403055230"
            }
          ]
        }
      ]
    },
    {
      "TaskList": [
        {
          "$type": "RPG.GameCore.WaitCustomString",
          "CustomString": {
            "Value": "TalkSentence_403055228"
          }
        },
        {
          "$type": "RPG.GameCore.PlayAndWaitSimpleTalk",
          "UseBackground": true,
          "Backgrounds": [
            {
              "TalkBgID": 8
            }
          ],
          "SimpleTalkList": [
            {
              "TalkSentenceID": 403055228,
              "ProtectTime": 0.3
            }
          ]
        },
        {
          "$type": "RPG.GameCore.TriggerCustomString",
          "CustomString": {
            "Value": "TalkSentence_403055231"
          }
        }
      ]
    },
    {
      "TaskList": [
        {
          "$type": "RPG.GameCore.WaitCustomString",
          "CustomString": {
            "Value": "TalkSentence_403055230"
          }
        },
        {
          "$type": "RPG.GameCore.PlayAndWaitSimpleTalk",
          "SimpleTalkList": [
            {
              "TalkSentenceID": 403055230,
              "ProtectTime": 0.3
            }
          ]
        },
        {
          "$type": "RPG.GameCore.TriggerCustomString",
          "CustomString": {
            "Value": "TalkSentence_403055231"
          }
        }
      ]
    },
    {
      "TaskList": [
        {
          "$type": "RPG.GameCore.WaitCustomString",
          "CustomString": {
            "Value": "TalkSentence_403055231"
          }
        },
        {
          "$type": "RPG.GameCore.PlayAndWaitSimpleTalk",
          "UseBackground": true,
          "Backgrounds": [
            {
              "TalkBgID": 14
            },
            {
              "TalkBgID": 8
            },
            {
              "TalkBgID": 8
            }
          ],
          "SimpleTalkList": [
            {
              "TalkSentenceID": 403055231,
              "ProtectTime": 0.3
            },
            {
              "TalkSentenceID": 403055232,
              "ProtectTime": 0.3
            },
            {
              "TalkSentenceID": 403055233
            }
          ]
        },
        {
          "$type": "RPG.GameCore.TriggerCustomString",
          "CustomString": {
            "Value": "Talk_801310606"
          }
        },
        {
          "$type": "RPG.GameCore.EndPerformance"
        }
      ]
    },
    {
      "TaskList": [
        {
          "$type": "RPG.GameCore.WaitPerformanceEnd"
        },
        {
          "$type": "RPG.GameCore.FinishLevelGraph"
        }
      ]
    }
  ]
}