{
  "DefaultOperations": {
    "UIOperations": []
  },
  "UIPrefabOperations": [
    {
      "PrefabName": "MuseumExhibitionMapPage",
      "UIOperations": [
        {
          "Path": "Root/PanelContent/MapPanel/MapContainer/MapContent/Scaler",
          "ScaleX": 1.2,
          "ScaleY": 1.2
        }
      ]
    },
    {
      "PrefabName": "MuseumAtlasPage",
      "UIOperations": [
        {
          "Path": "Root/PanelContent",
          "OffsetLeft": -94
        }
      ]
    },
    {
      "PrefabName": "QuestOverviewDialog",
      "UIOperations": [
        {
          "Path": "Root/Contents/PanelContainer/SingleTaskActivityPanel(Clone)/PictureBg",
          "ScaleX": 1.2,
          "ScaleY": 1.2
        },
        {
          "Path": "Root/Contents/PanelContainer/QuestBoxingClubPanel(Clone)/PictureBg/ImgMainGraph",
          "ScaleX": 1.2,
          "ScaleY": 1.2
        },
        {
          "Path": "Root/Contents/QuestLimitedTimePanel/Root/Contents/PanelContainer/QuestTreasureDungeonPanel(Clone)/PictureBg",
          "ScaleX": 1.3,
          "ScaleY": 1.3
        },
        {
          "Path": "Root/Contents/QuestLimitedTimePanel/Root/Contents/PanelContainer/QuestAetherDividePanel(Clone)/PictureBg",
          "ScaleX": 1,
          "ScaleY": 1
        },
        {
          "Path": "Root/Contents/QuestLimitedTimePanel/Root/Contents/PanelContainer/QuestHeliobusPanel(Clone)/PictureBg/Avatar",
          "ScaleX": 1.25,
          "ScaleY": 1.25
        },
        {
          "Path": "Root/Contents/QuestLimitedTimePanel/Root/Contents/PanelContainer/QuestHeliobusPanel(Clone)/PictureBg/QuestStage1/Avatar",
          "ScaleX": 1.25,
          "ScaleY": 1.25
        },
        {
          "Path": "Root/Contents/QuestLimitedTimePanel/Root/Contents/PanelContainer/QuestHeliobusPanel(Clone)/PictureBg/QuestStage2/Avatar",
          "ScaleX": 1.25,
          "ScaleY": 1.25
        },
        {
          "Path": "Root/Contents/QuestResidentPanel/Root/Contents/PanelContainer/QuestHeliobusPanel(Clone)/PictureBg/Avatar",
          "ScaleX": 1.25,
          "ScaleY": 1.25
        },
        {
          "Path": "Root/Contents/QuestResidentPanel/Root/Contents/PanelContainer/QuestHeliobusPanel(Clone)/PictureBg/QuestStage1/Avatar",
          "ScaleX": 1.25,
          "ScaleY": 1.25
        },
        {
          "Path": "Root/Contents/QuestResidentPanel/Root/Contents/PanelContainer/QuestHeliobusPanel(Clone)/PictureBg/QuestStage2/Avatar",
          "ScaleX": 1.25,
          "ScaleY": 1.25
        },
        {
          "Path": "Root/Contents/QuestLimitedTimePanel/Root/Contents/PanelContainer/QuestColleaguePanel(Clone)/PictureBg",
          "ScaleX": 1.2,
          "ScaleY": 1.2
        }
      ]
    },
    {
      "PrefabName": "AssignmentMissionMainPage",
      "UIOperations": [
        {
          "Path": "Root/Main",
          "ScaleX": 1.2,
          "ScaleY": 1.2
        }
      ]
    },
    {
      "PrefabName": "GachaResultDialog",
      "UIOperations": [
        {
          "Path": "Contents/ResultList/AdaptionScaler",
          "ScaleX": 1.2,
          "ScaleY": 1.2
        }
      ]
    },
    {
      "PrefabName": "NewAdventureMissionPage",
      "UIOperations": [
        {
          "Path": "Root/Contents",
          "OffsetLeft": -44,
          "OffsetRight": 32
        }
      ]
    },
    {
      "PrefabName": "InventoryPage",
      "UIOperations": [
        {
          "Path": "Root/Contents",
          "OffsetLeft": -44,
          "OffsetRight": 32
        }
      ]
    },
    {
      "PrefabName": "WikipediaOverviewPage",
      "UIOperations": [
        {
          "Path": "Root/Contents",
          "OffsetLeft": -44,
          "OffsetRight": 32
        }
      ]
    },
    {
      "PrefabName": "BooklistPage",
      "UIOperations": [
        {
          "Path": "Root/Contents",
          "OffsetLeft": -44,
          "OffsetRight": 32
        }
      ]
    },
    {
      "PrefabName": "SettingsPage",
      "UIOperations": [
        {
          "Path": "Root/Contents",
          "OffsetLeft": -44
        }
      ]
    },
    {
      "PrefabName": "MaterialHandbookPage",
      "UIOperations": [
        {
          "Path": "RightPanel/MaterialsPanel",
          "OffsetLeft": -90
        },
        {
          "Path": "RightPanel/Challenge",
          "OffsetLeft": -90
        },
        {
          "Path": "RightPanel/WikiContentsPanel",
          "OffsetLeft": -90
        }
      ]
    },
    {
      "PrefabName": "DailyMissionPage",
      "UIOperations": [
        {
          "Path": "TaskPanel/LeftInfo",
          "OffsetLeft": -120,
          "OffsetRight": -40
        },
        {
          "Path": "TaskPanel/TaskTitle",
          "OffsetLeft": 40
        },
        {
          "Path": "TaskPanel/TaskList",
          "OffsetLeft": 40
        },
        {
          "Path": "DocumentPanel/LeftInfo",
          "OffsetLeft": -120,
          "OffsetRight": -40
        },
        {
          "Path": "TaskPanel/MissionList",
          "OffsetLeft": 40
        }
      ]
    },
    {
      "PrefabName": "AvatarMainPage",
      "UIOperations": [
        {
          "Path": "Root/AvatarSubMenuPanel_Vertical",
          "OffsetLeft": -192
        },
        {
          "Path": "AvatarSkillTreePanel/AvatarSkillTreePanel(Clone)/SkillTreesContainer",
          "ScaleX": 1.2,
          "ScaleY": 1.2
        }
      ]
    },
    {
      "PrefabName": "TeamEditPage",
      "UIOperations": [
        {
          "Path": "Root/Contents/CurrentTeamEditPanel",
          "ScaleX": 1.25,
          "ScaleY": 1.25
        }
      ]
    },
    {
      "PrefabName": "MaterialSynthesisPage",
      "UIOperations": [
        {
          "Path": "Root/Contents/SynthesisPanel/Synthesis",
          "ScaleX": 1.25,
          "ScaleY": 1.25
        },
        {
          "Path": "Root/Contents",
          "OffsetLeft": -44,
          "OffsetRight": 32
        }
      ]
    },
    {
      "PrefabName": "MaterialSynthesisRelicPage",
      "UIOperations": [
        {
          "Path": "Root/Contents/SynthesisRelicPanel/Right",
          "ScaleX": 1,
          "ScaleY": 1
        },
        {
          "Path": "Root/Contents/SynthesisRelicPanel/Left",
          "ScaleX": 1.2,
          "ScaleY": 1.2
        }
      ]
    },
    {
      "PrefabName": "MaterialSynthesisMainPage",
      "UIOperations": [
        {
          "Path": "Root/Contents/SynthesisRelicSelectedPanel/RightPanel",
          "ScaleX": 1.2,
          "ScaleY": 1.2
        },
        {
          "Path": "Root/Contents/SynthesisPanel",
          "ScaleX": 1.2,
          "ScaleY": 1.2
        },
        {
          "Path": "Root/Contents",
          "OffsetLeft": -44,
          "OffsetRight": 32
        }
      ]
    },
    {
      "PrefabName": "PauseDialog",
      "UIOperations": [
        {
          "Path": "Root/Contents",
          "OffsetLeft": -44,
          "OffsetRight": 32
        },
        {
          "Path": "Root/FuctionButtonPanel",
          "OffsetLeft": -44,
          "OffsetRight": 32
        }
      ]
    },
    {
      "PrefabName": "EditPanelPage",
      "UIOperations": [
        {
          "Path": "PhotoImage",
          "ScaleX": 1.25,
          "ScaleY": 1.25
        }
      ]
    },
    {
      "PrefabName": "PhotoResultDialog",
      "UIOperations": [
        {
          "Path": "PhotoImage",
          "ScaleX": 1.25,
          "ScaleY": 1.25
        }
      ]
    },
    {
      "PrefabName": "PlayerInfoPage",
      "UIOperations": [
        {
          "Path": "Root/CardPanel",
          "ScaleX": 1.25,
          "ScaleY": 1.25
        }
      ]
    },
    {
      "PrefabName": "MemberListDialog",
      "UIOperations": [
        {
          "Path": "Contents/RightPanel/SupportPanel",
          "ScaleX": 1.25,
          "ScaleY": 1.25
        },
        {
          "Path": "Contents/RightPanel/DisplayAvatarPanel",
          "ScaleX": 1.25,
          "ScaleY": 1.25
        }
      ]
    },
    {
      "PrefabName": "FriendMainPage",
      "UIOperations": [
        {
          "Path": "Root/PanelContent",
          "OffsetLeft": -44,
          "OffsetRight": 32
        }
      ]
    },
    {
      "PrefabName": "MazeAdventureRewardListDialog",
      "UIOperations": [],
      "AdjustIndentBySafeArea": false,
      "AdjustIndentByScreenAspect": false
    },
    {
      "PrefabName": "FrameCaptureUI",
      "UIOperations": [],
      "AdjustIndentBySafeArea": false,
      "AdjustIndentByScreenAspect": false
    },
    {
      "PrefabName": "ScreenTransfer",
      "UIOperations": [],
      "AdjustIndentBySafeArea": false,
      "AdjustIndentByScreenAspect": false
    },
    {
      "PrefabName": "RogueAtlasOverviewPage",
      "UIOperations": [
        {
          "Path": "Root/Contents/BookPanel",
          "ScaleX": 1.2,
          "ScaleY": 1.2
        }
      ]
    },
    {
      "PrefabName": "TreasureTrotterRecordPage",
      "UIOperations": [
        {
          "Path": "Root/Content",
          "ScaleX": 1.2,
          "ScaleY": 1.2
        }
      ]
    },
    {
      "PrefabName": "PlayerReturnMainPage",
      "UIOperations": [
        {
          "Path": "Root/Contents",
          "ScaleX": 1.2,
          "ScaleY": 1.2
        }
      ]
    },
    {
      "PrefabName": "ReturnAwardDialog",
      "UIOperations": [
        {
          "Path": "Contents",
          "ScaleX": 1.2,
          "ScaleY": 1.2
        }
      ]
    },
    {
      "PrefabName": "DiceEnterGenrePage",
      "UIOperations": [
        {
          "Path": "Root/ChooseGenrePanel/Root/ListPanel/ScrollView",
          "ScaleX": 1.15,
          "ScaleY": 1.15
        }
      ]
    },
    {
      "PrefabName": "DiceMainStagePage",
      "UIOperations": [
        {
          "Path": "Root/DiceTurnPanel/Content/DiceShowPanel",
          "ScaleX": 1.2,
          "ScaleY": 1.2
        },
        {
          "Path": "Root/DiceTurnPanel/Content/EventPanel",
          "ScaleX": 1.2,
          "ScaleY": 1.2
        },
        {
          "Path": "Root/FramePanel",
          "ScaleX": 1.2,
          "ScaleY": 1.2
        },
        {
          "Path": "Root/DiceEventPanel/Content/EventPanel",
          "ScaleX": 1.2,
          "ScaleY": 1.2
        },
        {
          "Path": "Root/DiceMainConsolePanel/Content/ConsolePanel",
          "ScaleX": 1.2,
          "ScaleY": 1.2
        },
        {
          "Path": "Root/DiceBossChoosePanel/Root/BossPanel",
          "ScaleX": 1.2,
          "ScaleY": 1.2
        },
        {
          "Path": "Root/HUDPanel/TeamList",
          "ScaleX": 1.2,
          "ScaleY": 1.2
        },
        {
          "Path": "Root/DiceTurnPanel/Content/DiceShowPanel",
          "ScaleX": 1.2,
          "ScaleY": 1.2
        }
      ]
    },
    {
      "PrefabName": "RogueMenuPage",
      "UIOperations": [
        {
          "Path": "Root/Contents/DiceMap",
          "ScaleX": 1.2,
          "ScaleY": 1.2
        }
      ]
    },
    {
      "PrefabName": "DiceWelcomEnterPage",
      "UIOperations": [
        {
          "Path": "Root/PanelContent",
          "ScaleX": 1.2,
          "ScaleY": 1.2
        }
      ]
    },
    {
      "PrefabName": "DicePassLvMissionToastDialog",
      "UIOperations": [
        {
          "Path": "Contents/MainPanel/Content",
          "ScaleX": 1.2,
          "ScaleY": 1.2
        }
      ]
    },
    {
      "PrefabName": "DiceSkillPage",
      "UIOperations": [
        {
          "Path": "Root/PanelContent/OverviewPanel/Root/MainPanel/Content/DiceSkillShowRoot",
          "ScaleX": 1.2,
          "ScaleY": 1.2
        }
      ]
    },
    {
      "PrefabName": "NewDailyMissionPage",
      "UIOperations": [
        {
          "Path": "Root/PadBg",
          "ScaleX": 1.1,
          "ScaleY": 1.1
        }
      ]
    },
    {
      "PrefabName": "AetherDivideTerminalMainPage",
      "UIOperations": [
        {
          "Path": "Root/AetherDivideTerminalGymPanel",
          "ScaleX": 1.15,
          "ScaleY": 1.15
        },
        {
          "Path": "Root/AetherDivideTerminalChallengePanel/AetherDivideTerminalChallengePanel(Clone)/Content",
          "ScaleX": 1,
          "ScaleY": 1
        }
      ]
    },
    {
      "PrefabName": "AetherDivideBattleMainPage",
      "UIOperations": [
        {
          "Path": "Root/Content/CenterPanel",
          "ScaleX": 1,
          "ScaleY": 1
        }
      ]
    },
    {
      "PrefabName": "AetherDivideMemberChoosePage",
      "UIOperations": [
        {
          "Path": "Root/PanelContent/CurrentTeamEditPanel",
          "ScaleX": 1.2,
          "ScaleY": 1.2
        }
      ]
    },
    {
      "PrefabName": "AetherDivideMonsterAppearPage",
      "UIOperations": [
        {
          "Path": "Root/Content/MosterPanel",
          "ScaleX": 1.15,
          "ScaleY": 1.15
        }
      ]
    },
    {
      "PrefabName": "AetherDivideMonsterAtlasPage",
      "UIOperations": [
        {
          "Path": "Root/Content/MonsterAtlasPanel/Group4",
          "ScaleX": 1.1,
          "ScaleY": 1.1
        },
        {
          "Path": "Root/Content/MonsterAtlasPanel/Group5",
          "ScaleX": 1.2,
          "ScaleY": 1.2
        }
      ]
    },
    {
      "PrefabName": "GuessTheSilhouetteMainPage",
      "UIOperations": [
        {
          "Path": "Root/PanelContent",
          "ScaleX": 1.2,
          "ScaleY": 1.2
        }
      ]
    },
    {
      "PrefabName": "HeliobusSkillListPage",
      "UIOperations": [
        {
          "Path": "Bg/Gourd",
          "ScaleX": 1.2,
          "ScaleY": 1.2
        }
      ]
    },
    {
      "PrefabName": "HeliobusChallengelMainPage",
      "UIOperations": [
        {
          "Path": "Animator_Root/Bg/PCScaler",
          "ScaleX": 1.2,
          "ScaleY": 1.2
        },
        {
          "Path": "Animator_Root/Root/Contents/ChallengeTaskPanel/PCScaler",
          "ScaleX": 1.2,
          "ScaleY": 1.2
        }
      ]
    },
    {
      "PrefabName": "TutorialDialog",
      "AdjustIndentBySafeArea": false,
      "AdjustIndentByScreenAspect": false
    },
    {
      "PrefabName": "BoxingClubBattleEnterPage",
      "UIOperations": [
        {
          "Path": "Root/PanelContent",
          "OffsetLeft": -112
        }
      ]
    },
    {
      "PrefabName": "BoxingClubResonanceSelectBuffDialog",
      "UIOperations": [
        {
          "Path": "Root/PanelContent/BuffContent",
          "ScaleX": 1.15,
          "ScaleY": 1.15
        }
      ]
    }
  ]
}