{
  "OnInitSequece": [],
  "OnStartSequece": [
    {
      "TaskList": [
        {
          "$type": "RPG.GameCore.LevelPerformanceInitialize",
          "PerformanceType": "E",
          "CreateCharacterList": [],
          "EntityVisiableList": [],
          "HideMunicipalCrowd": false,
          "HideMunicipalPedestrian": false,
          "PropVisiableList": [],
          "MarkStreamingItems": []
        },
        {
          "$type": "RPG.GameCore.ShowTalkBackground",
          "TalkBgID": 113602
        },
        {
          "$type": "RPG.GameCore.PlaySimpleTalk",
          "SimpleTalkList": [
            {
              "TalkSentenceID": 403813601,
              "ProtectTime": 0.3
            },
            {
              "TalkSentenceID": 403813602,
              "ProtectTime": 0.3
            },
            {
              "TalkSentenceID": 403813603,
              "ProtectTime": 0.3
            },
            {
              "TalkSentenceID": 403813604,
              "ProtectTime": 0.3
            },
            {
              "TalkSentenceID": 403813605,
              "ProtectTime": 0.3
            }
          ]
        },
        {
          "$type": "RPG.GameCore.WaitSimpleTalkFinish"
        },
        {
          "$type": "RPG.GameCore.PlayOptionTalk",
          "OptionList": [
            {
              "OptionTextmapID": {
                "Hash": -222324117
              },
              "OptionIconType": "ChatContinueIcon",
              "TriggerCustomString": "ALL_TALK_END",
              "DialogueEventID": 113604
            },
            {
              "OptionTextmapID": {
                "Hash": -222324118
              },
              "OptionIconType": "ChatContinueIcon",
              "TriggerCustomString": "ALL_TALK_END",
              "DialogueEventID": 113605
            },
            {
              "OptionTextmapID": {
                "Hash": -222324119
              },
              "OptionIconType": "ChatContinueIcon",
              "TriggerCustomString": "ALL_TALK_END",
              "DialogueEventID": 113606
            },
            {
              "OptionTextmapID": {
                "Hash": -1788408057
              },
              "OptionIconType": "ChatContinueIcon",
              "TriggerCustomString": "ALL_TALK_END",
              "DialogueEventID": 113612
            },
            {
              "OptionTextmapID": {
                "Hash": -1788408058
              },
              "OptionIconType": "ChatContinueIcon",
              "TriggerCustomString": "ALL_TALK_END",
              "DialogueEventID": 113611
            }
          ]
        }
      ]
    },
    {
      "TaskList": [
        {
          "$type": "RPG.GameCore.WaitCustomString",
          "CustomString": {
            "Value": "ALL_TALK_END"
          }
        },
        {
          "$type": "RPG.GameCore.EndPerformance"
        }
      ]
    },
    {
      "TaskList": [
        {
          "$type": "RPG.GameCore.WaitPerformanceEnd"
        },
        {
          "$type": "RPG.GameCore.FinishLevelGraph"
        }
      ]
    }
  ]
}