{
  "OnInitSequece": [],
  "OnStartSequece": [
    {
      "TaskList": [
        {
          "$type": "RPG.GameCore.LevelPerformanceInitialize",
          "PerformanceType": "E",
          "HideMunicipalCrowd": false,
          "HideMunicipalPedestrian": false
        },
        {
          "$type": "RPG.GameCore.ShowTalkBackground",
          "TalkBgID": 118902
        },
        {
          "$type": "RPG.GameCore.PlayAndWaitSimpleTalk",
          "SimpleTalkList": [
            {
              "TalkSentenceID": 403815552,
              "ProtectTime": 0.3
            },
            {
              "TalkSentenceID": 403815553,
              "ProtectTime": 0.3
            },
            {
              "TalkSentenceID": 403815554,
              "ProtectTime": 0.3
            }
          ]
        },
        {
          "$type": "RPG.GameCore.PlayOptionTalk",
          "OptionList": [
            {
              "OptionTextmapID": {
                "Hash": -396985659
              },
              "OptionIconType": "ChatContinueIcon",
              "TriggerCustomString": "ALL_TALK_END",
              "DialogueEventID": 118903
            },
            {
              "OptionTextmapID": {
                "Hash": -396985666
              },
              "OptionIconType": "ChatContinueIcon",
              "TriggerCustomString": "ALL_TALK_END",
              "DialogueEventID": 118904
            }
          ]
        }
      ]
    },
    {
      "TaskList": [
        {
          "$type": "RPG.GameCore.WaitCustomString",
          "CustomString": {
            "Value": "ALL_TALK_END"
          }
        },
        {
          "$type": "RPG.GameCore.EndPerformance"
        }
      ]
    },
    {
      "TaskList": [
        {
          "$type": "RPG.GameCore.WaitPerformanceEnd"
        },
        {
          "$type": "RPG.GameCore.FinishLevelGraph"
        }
      ]
    }
  ]
}