{
  "OnInitSequece": [],
  "OnStartSequece": [
    {
      "TaskList": [
        {
          "$type": "RPG.GameCore.LevelPerformanceInitialize",
          "PerformanceType": "E",
          "CreateCharacterList": [],
          "CaptureNPCList": [],
          "EntityVisiableList": [],
          "HideMunicipalCrowd": false,
          "HideMunicipalPedestrian": false,
          "PropVisiableList": [],
          "StreamingSourcesInBlackMask": [],
          "StreamingSourcesAfterBlackMask": [],
          "MarkStreamingItems": []
        },
        {
          "$type": "RPG.GameCore.ShowTalkBackground",
          "TalkBgID": 112201
        },
        {
          "$type": "RPG.GameCore.PlayAndWaitSimpleTalk",
          "SimpleTalkList": [
            {
              "TalkSentenceID": 403815002,
              "ProtectTime": 0.3
            },
            {
              "TalkSentenceID": 403815003,
              "ProtectTime": 0.3
            },
            {
              "TalkSentenceID": 403815004,
              "ProtectTime": 0.3
            },
            {
              "TalkSentenceID": 403815005,
              "ProtectTime": 0.3
            }
          ]
        },
        {
          "$type": "RPG.GameCore.PlayOptionTalk",
          "OptionList": [
            {
              "OptionTextmapID": {
                "Hash": -1808610902
              },
              "OptionIconType": "ChatContinueIcon",
              "TriggerCustomString": "TalkSentence_403815007",
              "DialogueEventID": 112201
            },
            {
              "OptionTextmapID": {
                "Hash": -1808610903
              },
              "OptionIconType": "ChatContinueIcon",
              "TriggerCustomString": "TalkSentence_403815009",
              "DialogueEventID": 112202
            },
            {
              "OptionTextmapID": {
                "Hash": -1808610904
              },
              "OptionIconType": "ChatContinueIcon",
              "TriggerCustomString": "TalkSentence_403815011",
              "DialogueEventID": 112203
            },
            {
              "OptionTextmapID": {
                "Hash": -1808610904
              },
              "OptionIconType": "ChatContinueIcon",
              "TriggerCustomString": "TalkSentence_403815011",
              "DialogueEventID": 112210
            },
            {
              "OptionTextmapID": {
                "Hash": -1808610905
              },
              "OptionIconType": "ChatContinueIcon",
              "TriggerCustomString": "TalkSentence_403815013",
              "DialogueEventID": 112204
            },
            {
              "OptionTextmapID": {
                "Hash": -1808610906
              },
              "OptionIconType": "ChatContinueIcon",
              "TriggerCustomString": "TalkSentence_403815015_GiveMiracle",
              "DialogueEventID": 112205
            },
            {
              "OptionTextmapID": {
                "Hash": -1808610906
              },
              "OptionIconType": "ChatContinueIcon",
              "TriggerCustomString": "TalkSentence_403815015_SellMiracle",
              "DialogueEventID": 112211
            },
            {
              "OptionTextmapID": {
                "Hash": -1808610907
              },
              "OptionIconType": "ChatContinueIcon",
              "TriggerCustomString": "TalkSentence_403815017_TakeGugu",
              "DialogueEventID": 112212
            },
            {
              "OptionTextmapID": {
                "Hash": -1808610908
              },
              "OptionIconType": "ChatContinueIcon",
              "TriggerCustomString": "TalkSentence_403815019",
              "DialogueEventID": 112207
            },
            {
              "OptionTextmapID": {
                "Hash": -1808610893
              },
              "OptionIconType": "ChatContinueIcon",
              "TriggerCustomString": "TalkSentence_403815021_GiveItem",
              "DialogueEventID": 112208
            },
            {
              "OptionTextmapID": {
                "Hash": -1808610893
              },
              "TriggerCustomString": "TalkSentence_403815021_GiveMiracle",
              "DialogueEventID": 112213
            }
          ]
        }
      ]
    },
    {
      "TaskList": [
        {
          "$type": "RPG.GameCore.WaitCustomString",
          "CustomString": {
            "Value": "TalkSentence_403815015_SellMiracle"
          }
        },
        {
          "$type": "RPG.GameCore.PlayAndWaitSimpleTalk",
          "SimpleTalkList": [
            {
              "TalkSentenceID": 403815014
            },
            {
              "TalkSentenceID": 403815015
            }
          ]
        },
        {
          "$type": "RPG.GameCore.TriggerCustomString",
          "CustomString": {
            "Value": "SellMiracle"
          }
        }
      ]
    },
    {
      "TaskList": [
        {
          "$type": "RPG.GameCore.WaitCustomString",
          "CustomString": {
            "Value": "TalkSentence_403815007"
          }
        },
        {
          "$type": "RPG.GameCore.PlayAndWaitSimpleTalk",
          "SimpleTalkList": [
            {
              "TalkSentenceID": 403815006
            },
            {
              "TalkSentenceID": 403815007
            }
          ]
        },
        {
          "$type": "RPG.GameCore.TriggerCustomString",
          "CustomString": {
            "Value": "RelateToBuff"
          }
        }
      ]
    },
    {
      "TaskList": [
        {
          "$type": "RPG.GameCore.WaitCustomString",
          "CustomString": {
            "Value": "TalkSentence_403815017_GiveGugu"
          }
        },
        {
          "$type": "RPG.GameCore.PlayAndWaitSimpleTalk",
          "SimpleTalkList": [
            {
              "TalkSentenceID": 403815016
            },
            {
              "TalkSentenceID": 403815017
            }
          ]
        },
        {
          "$type": "RPG.GameCore.TriggerCustomString",
          "CustomString": {
            "Value": "GiveGugu"
          }
        }
      ]
    },
    {
      "TaskList": [
        {
          "$type": "RPG.GameCore.WaitCustomString",
          "CustomString": {
            "Value": "TalkSentence_403815009"
          }
        },
        {
          "$type": "RPG.GameCore.PlayAndWaitSimpleTalk",
          "SimpleTalkList": [
            {
              "TalkSentenceID": 403815008
            },
            {
              "TalkSentenceID": 403815009
            }
          ]
        },
        {
          "$type": "RPG.GameCore.TriggerCustomString",
          "CustomString": {
            "Value": "RelateToBuff"
          }
        }
      ]
    },
    {
      "TaskList": [
        {
          "$type": "RPG.GameCore.WaitCustomString",
          "CustomString": {
            "Value": "TalkSentence_403815017_TakeGugu"
          }
        },
        {
          "$type": "RPG.GameCore.PlayAndWaitSimpleTalk",
          "SimpleTalkList": [
            {
              "TalkSentenceID": 403815016
            },
            {
              "TalkSentenceID": 403815017
            }
          ]
        },
        {
          "$type": "RPG.GameCore.TriggerCustomString",
          "CustomString": {
            "Value": "TakeGugu"
          }
        }
      ]
    },
    {
      "TaskList": [
        {
          "$type": "RPG.GameCore.WaitCustomString",
          "CustomString": {
            "Value": "TalkSentence_403815011"
          }
        },
        {
          "$type": "RPG.GameCore.PlayAndWaitSimpleTalk",
          "SimpleTalkList": [
            {
              "TalkSentenceID": 403815010
            },
            {
              "TalkSentenceID": 403815011
            }
          ]
        },
        {
          "$type": "RPG.GameCore.TriggerCustomString",
          "CustomString": {
            "Value": "RelateToBuff"
          }
        }
      ]
    },
    {
      "TaskList": [
        {
          "$type": "RPG.GameCore.WaitCustomString",
          "CustomString": {
            "Value": "TalkSentence_403815019"
          }
        },
        {
          "$type": "RPG.GameCore.PlayAndWaitSimpleTalk",
          "SimpleTalkList": [
            {
              "TalkSentenceID": 403815018
            },
            {
              "TalkSentenceID": 403815019
            }
          ]
        },
        {
          "$type": "RPG.GameCore.TriggerCustomString",
          "CustomString": {
            "Value": "RelateToBuff"
          }
        }
      ]
    },
    {
      "TaskList": [
        {
          "$type": "RPG.GameCore.WaitCustomString",
          "CustomString": {
            "Value": "TalkSentence_403815013"
          }
        },
        {
          "$type": "RPG.GameCore.PlayAndWaitSimpleTalk",
          "SimpleTalkList": [
            {
              "TalkSentenceID": 403815012
            },
            {
              "TalkSentenceID": 403815013
            }
          ]
        },
        {
          "$type": "RPG.GameCore.TriggerCustomString",
          "CustomString": {
            "Value": "RelateToBuff"
          }
        }
      ]
    },
    {
      "TaskList": [
        {
          "$type": "RPG.GameCore.WaitCustomString",
          "CustomString": {
            "Value": "TalkSentence_403815021_GiveItem"
          }
        },
        {
          "$type": "RPG.GameCore.PlayAndWaitSimpleTalk",
          "SimpleTalkList": [
            {
              "TalkSentenceID": 403815020
            },
            {
              "TalkSentenceID": 403815021
            }
          ]
        },
        {
          "$type": "RPG.GameCore.TriggerCustomString",
          "CustomString": {
            "Value": "GiveItem"
          }
        }
      ]
    },
    {
      "TaskList": [
        {
          "$type": "RPG.GameCore.WaitCustomString",
          "CustomString": {
            "Value": "TalkSentence_403815015_GiveMiracle"
          }
        },
        {
          "$type": "RPG.GameCore.PlayAndWaitSimpleTalk",
          "SimpleTalkList": [
            {
              "TalkSentenceID": 403815014
            },
            {
              "TalkSentenceID": 403815015
            }
          ]
        },
        {
          "$type": "RPG.GameCore.TriggerCustomString",
          "CustomString": {
            "Value": "GiveMiracle"
          }
        }
      ]
    },
    {
      "TaskList": [
        {
          "$type": "RPG.GameCore.WaitCustomString",
          "CustomString": {
            "Value": "TalkSentence_403815021_GiveMiracle"
          }
        },
        {
          "$type": "RPG.GameCore.PlayAndWaitSimpleTalk",
          "SimpleTalkList": [
            {
              "TalkSentenceID": 403815020
            },
            {
              "TalkSentenceID": 403815021
            }
          ]
        },
        {
          "$type": "RPG.GameCore.TriggerCustomString",
          "CustomString": {
            "Value": "GiveMiracle"
          }
        }
      ]
    },
    {
      "TaskList": [
        {
          "$type": "RPG.GameCore.WaitCustomString",
          "CustomString": {
            "Value": "RelateToBuff"
          }
        },
        {
          "$type": "RPG.GameCore.PlayAndWaitSimpleTalk",
          "SimpleTalkList": [
            {
              "TalkSentenceID": 403815031,
              "ProtectTime": 0.3
            },
            {
              "TalkSentenceID": 403815032,
              "ProtectTime": 0.3
            },
            {
              "TalkSentenceID": 403815033,
              "ProtectTime": 0.3
            }
          ]
        },
        {
          "$type": "RPG.GameCore.EndPerformance"
        }
      ]
    },
    {
      "TaskList": [
        {
          "$type": "RPG.GameCore.WaitCustomString",
          "CustomString": {
            "Value": "GiveMiracle"
          }
        },
        {
          "$type": "RPG.GameCore.PlayAndWaitSimpleTalk",
          "SimpleTalkList": [
            {
              "TalkSentenceID": 403815028,
              "ProtectTime": 0.3
            },
            {
              "TalkSentenceID": 403815029,
              "ProtectTime": 0.3
            },
            {
              "TalkSentenceID": 403815030,
              "ProtectTime": 0.3
            }
          ]
        },
        {
          "$type": "RPG.GameCore.EndPerformance"
        }
      ]
    },
    {
      "TaskList": [
        {
          "$type": "RPG.GameCore.WaitCustomString",
          "CustomString": {
            "Value": "GiveItem"
          }
        },
        {
          "$type": "RPG.GameCore.PlayAndWaitSimpleTalk",
          "SimpleTalkList": [
            {
              "TalkSentenceID": 403815022,
              "ProtectTime": 0.3
            },
            {
              "TalkSentenceID": 403815023,
              "ProtectTime": 0.3
            },
            {
              "TalkSentenceID": 403815024,
              "ProtectTime": 0.3
            }
          ]
        },
        {
          "$type": "RPG.GameCore.EndPerformance"
        }
      ]
    },
    {
      "TaskList": [
        {
          "$type": "RPG.GameCore.WaitCustomString",
          "CustomString": {
            "Value": "GiveGugu"
          }
        },
        {
          "$type": "RPG.GameCore.PlayAndWaitSimpleTalk",
          "SimpleTalkList": [
            {
              "TalkSentenceID": 403815025,
              "ProtectTime": 0.3
            },
            {
              "TalkSentenceID": 403815026,
              "ProtectTime": 0.3
            },
            {
              "TalkSentenceID": 403815027,
              "ProtectTime": 0.3
            }
          ]
        },
        {
          "$type": "RPG.GameCore.EndPerformance"
        }
      ]
    },
    {
      "TaskList": [
        {
          "$type": "RPG.GameCore.WaitCustomString",
          "CustomString": {
            "Value": "SellMiracle"
          }
        },
        {
          "$type": "RPG.GameCore.PlayAndWaitSimpleTalk",
          "SimpleTalkList": [
            {
              "TalkSentenceID": 403815037,
              "ProtectTime": 0.3
            },
            {
              "TalkSentenceID": 403815038,
              "ProtectTime": 0.3
            },
            {
              "TalkSentenceID": 403815039,
              "ProtectTime": 0.3
            }
          ]
        },
        {
          "$type": "RPG.GameCore.EndPerformance"
        }
      ]
    },
    {
      "TaskList": [
        {
          "$type": "RPG.GameCore.WaitCustomString",
          "CustomString": {
            "Value": "TakeGugu"
          }
        },
        {
          "$type": "RPG.GameCore.PlayAndWaitSimpleTalk",
          "SimpleTalkList": [
            {
              "TalkSentenceID": 403815034,
              "ProtectTime": 0.3
            },
            {
              "TalkSentenceID": 403815035,
              "ProtectTime": 0.3
            },
            {
              "TalkSentenceID": 403815036,
              "ProtectTime": 0.3
            }
          ]
        },
        {
          "$type": "RPG.GameCore.EndPerformance"
        }
      ]
    },
    {
      "TaskList": [
        {
          "$type": "RPG.GameCore.WaitPerformanceEnd"
        },
        {
          "$type": "RPG.GameCore.FinishLevelGraph"
        }
      ]
    }
  ]
}