{
  "OnInitSequece": [
    {
      "TaskList": [
        {
          "$type": "RPG.GameCore.SelectorConfig",
          "TaskList": [
            {
              "$type": "RPG.GameCore.PropStateExecute",
              "TargetType": {
                "$type": "RPG.GameCore.TargetFetchAdvPropEx"
              },
              "State": "Open",
              "Execute": [
                {
                  "$type": "RPG.GameCore.EnableBillboard",
                  "TargetType": {
                    "$type": "RPG.GameCore.TargetFetchAdvPropEx"
                  }
                }
              ]
            },
            {
              "$type": "RPG.GameCore.PropStateExecute",
              "TargetType": {
                "$type": "RPG.GameCore.TargetFetchAdvPropEx"
              },
              "State": "Locked",
              "Execute": [
                {
                  "$type": "RPG.GameCore.EnableBillboard",
                  "TargetType": {
                    "$type": "RPG.GameCore.TargetFetchAdvPropEx"
                  }
                }
              ]
            }
          ]
        }
      ]
    },
    {
      "TaskList": [
        {
          "$type": "RPG.GameCore.SyncSubPropState",
          "TaskEnabled": true
        }
      ]
    }
  ],
  "OnStartSequece": [
    {
      "TaskList": [
        {
          "$type": "RPG.GameCore.SyncAllSubPropState",
          "TaskEnabled": true
        }
      ]
    },
    {
      "TaskList": [
        {
          "$type": "RPG.GameCore.PropSetupUITrigger",
          "ButtonCallback": [
            {
              "$type": "RPG.GameCore.SelectorConfig",
              "TaskList": [
                {
                  "$type": "RPG.GameCore.PropStateExecute",
                  "TargetType": {
                    "$type": "RPG.GameCore.TargetFetchAdvPropEx"
                  },
                  "State": "Locked",
                  "Execute": [
                    {
                      "$type": "RPG.GameCore.ToastPile",
                      "DescTextID": {
                        "Hash": 1627843584
                      }
                    }
                  ]
                },
                {
                  "$type": "RPG.GameCore.PropStateExecute",
                  "TargetType": {
                    "$type": "RPG.GameCore.TargetFetchAdvPropEx"
                  },
                  "Execute": [
                    {
                      "$type": "RPG.GameCore.StartPropInteractMode",
                      "TargetType": {
                        "$type": "RPG.GameCore.TargetFetchAdvPropEx"
                      },
                      "Mode": "UsePose02"
                    },
                    {
                      "$type": "RPG.GameCore.PropTriggerAnimState",
                      "AnimStateName": "Activing",
                      "TargetType": {
                        "$type": "RPG.GameCore.TargetFetchAdvPropEx"
                      }
                    },
                    {
                      "$type": "RPG.GameCore.WaitSecond",
                      "WaitTime": 0.5
                    },
                    {
                      "$type": "RPG.GameCore.PropReqInteract",
                      "TargetType": {
                        "$type": "RPG.GameCore.TargetFetchAdvPropEx"
                      },
                      "InteractID": {
                        "IsDynamic": false,
                        "FixedValue": {
                          "Value": 1010
                        }
                      }
                    }
                  ]
                }
              ]
            }
          ],
          "InteractAngleRange": 220,
          "TargetType": {
            "$type": "RPG.GameCore.TargetFetchAdvPropEx"
          }
        }
      ]
    },
    {
      "TaskList": [
        {
          "$type": "RPG.GameCore.PropStateChangeListenerConfig",
          "ToState": "Open",
          "OnChange": [
            {
              "$type": "RPG.GameCore.EndPropInteract"
            },
            {
              "$type": "RPG.GameCore.AnimSetParameter",
              "TargetType": {
                "$type": "RPG.GameCore.TargetFetchAdvPropEx",
                "FetchType": "SinglePropByPropKey",
                "SinglePropKey": {
                  "Custom": true,
                  "Key": "Maze_Prop_Chap01_BaseControllSimpleDoor"
                }
              },
              "ParameterName": "TriggerOpen",
              "ParameterType": "Trigger"
            }
          ],
          "TargetType": {
            "$type": "RPG.GameCore.TargetFetchAdvPropEx"
          }
        }
      ]
    },
    {
      "TaskList": [
        {
          "$type": "RPG.GameCore.PropStateChangeListenerConfig",
          "FromState": "Locked",
          "ToState": "Open",
          "OnChange": [
            {
              "$type": "RPG.GameCore.EndPropInteract"
            },
            {
              "$type": "RPG.GameCore.AnimSetParameter",
              "TargetType": {
                "$type": "RPG.GameCore.TargetFetchAdvPropEx",
                "FetchType": "SinglePropByPropKey",
                "SinglePropKey": {
                  "Custom": true,
                  "Key": "Maze_Prop_Chap01_BaseControllSimpleDoor"
                }
              },
              "ParameterName": "TriggerOpen",
              "ParameterType": "Trigger"
            }
          ],
          "TargetType": {
            "$type": "RPG.GameCore.TargetFetchAdvPropEx"
          }
        }
      ]
    }
  ],
  "ValueSource": {
    "Values": [
      {
        "$type": "RPG.GameCore.SharedString",
        "Key": "Maze_Prop_Chap01_BaseControllSimpleDoor"
      }
    ]
  }
}