{
  "OnInitSequece": [],
  "OnStartSequece": [
    {
      "TaskList": [
        {
          "$type": "RPG.GameCore.PropSetupUITrigger",
          "ButtonCallback": [
            {
              "$type": "RPG.GameCore.SelectorConfig",
              "TaskList": [
                {
                  "$type": "RPG.GameCore.PropStateExecute",
                  "TargetType": {
                    "$type": "RPG.GameCore.TargetFetchAdvPropEx"
                  },
                  "Execute": [
                    {
                      "$type": "RPG.GameCore.SelectorConfig",
                      "TaskList": [
                        {
                          "$type": "RPG.GameCore.PropStateExecute",
                          "TargetType": {
                            "$type": "RPG.GameCore.TargetFetchAdvPropEx",
                            "FetchType": "SinglePropByPropKey",
                            "SinglePropKey": {
                              "Custom": true,
                              "Key": "Maze_Chap01_Elevator_01"
                            }
                          },
                          "State": "Elevator1",
                          "Execute": [
                            {
                              "$type": "RPG.GameCore.StartPropInteractMode",
                              "TargetType": {
                                "$type": "RPG.GameCore.TargetFetchAdvPropEx"
                              },
                              "Mode": "UsePose02"
                            },
                            {
                              "$type": "RPG.GameCore.PropTriggerAnimState",
                              "AnimStateName": "Activing",
                              "TransitionDuration": 0,
                              "TargetType": {
                                "$type": "RPG.GameCore.TargetFetchAdvPropEx"
                              }
                            },
                            {
                              "$type": "RPG.GameCore.TriggerCustomString",
                              "CustomString": {
                                "Value": "Maze_Prop_Chap01_ElevatroSwitchTrigger_01"
                              }
                            },
                            {
                              "$type": "RPG.GameCore.WaitSecond",
                              "WaitTime": 0.5
                            },
                            {
                              "$type": "RPG.GameCore.EndPropInteract"
                            },
                            {
                              "$type": "RPG.GameCore.PropReqInteract",
                              "TargetType": {
                                "$type": "RPG.GameCore.TargetFetchAdvPropEx",
                                "FetchType": "SinglePropByPropKey",
                                "SinglePropKey": {
                                  "Custom": true,
                                  "Key": "Maze_Chap01_Elevator_01"
                                }
                              },
                              "InteractID": {
                                "IsDynamic": false,
                                "FixedValue": {
                                  "Value": 114150
                                }
                              }
                            }
                          ]
                        },
                        {
                          "$type": "RPG.GameCore.PropStateExecute",
                          "TargetType": {
                            "$type": "RPG.GameCore.TargetFetchAdvPropEx",
                            "FetchType": "SinglePropByPropKey",
                            "SinglePropKey": {
                              "Custom": true,
                              "Key": "Maze_Chap01_Elevator_01"
                            }
                          },
                          "State": "Elevator2",
                          "Execute": [
                            {
                              "$type": "RPG.GameCore.ToastPile",
                              "DescTextID": {
                                "Hash": -1784321383
                              }
                            }
                          ]
                        },
                        {
                          "$type": "RPG.GameCore.PropStateExecute",
                          "TargetType": {
                            "$type": "RPG.GameCore.TargetFetchAdvPropEx",
                            "FetchType": "SinglePropByPropKey",
                            "SinglePropKey": {
                              "Custom": true,
                              "Key": "Maze_Chap01_Elevator_01"
                            }
                          },
                          "State": "Locked",
                          "Execute": [
                            {
                              "$type": "RPG.GameCore.ToastPile",
                              "DescTextID": {
                                "Hash": 1427839983
                              }
                            }
                          ]
                        }
                      ]
                    }
                  ]
                },
                {
                  "$type": "RPG.GameCore.PropStateExecute",
                  "TargetType": {
                    "$type": "RPG.GameCore.TargetFetchAdvPropEx"
                  },
                  "State": "Locked",
                  "Execute": [
                    {
                      "$type": "RPG.GameCore.ToastPile",
                      "DescTextID": {
                        "Hash": 1427839983
                      }
                    },
                    {
                      "$type": "RPG.GameCore.TriggerCustomString",
                      "CustomString": {
                        "Value": "Maze_ElavatorSwicth_Locked"
                      }
                    }
                  ]
                }
              ]
            }
          ],
          "InteractAngleRange": 220,
          "TargetType": {
            "$type": "RPG.GameCore.TargetFetchAdvPropEx"
          }
        }
      ]
    },
    {
      "IsLoop": true,
      "TaskList": [
        {
          "$type": "RPG.GameCore.WaitCustomString",
          "CustomString": {
            "Value": "Maze_Prop_Chap01_ElevatroSwitchTrigger_01"
          },
          "WaitOwnerOnly": true
        },
        {
          "$type": "RPG.GameCore.WaitSecond",
          "WaitTime": 3
        },
        {
          "$type": "RPG.GameCore.PropTriggerAnimState",
          "AnimStateName": "Open",
          "TargetType": {
            "$type": "RPG.GameCore.TargetFetchAdvPropEx"
          }
        },
        {
          "$type": "RPG.GameCore.PropEnableCollider",
          "OPType": "TriggerOnly",
          "Enabled": true,
          "SpecifiedRelativePaths": [
            "TriggerMoveIn"
          ],
          "TriggerSelect": "CustomTrigger",
          "CustomTriggerName": "TriggerMoveIn",
          "TargetType": {
            "$type": "RPG.GameCore.TargetFetchAdvPropEx",
            "FetchType": "SinglePropByPropKey",
            "SinglePropKey": {
              "Custom": true,
              "Key": "Maze_Chap01_Elevator_01"
            }
          }
        },
        {
          "$type": "RPG.GameCore.EnableBillboard",
          "TargetType": {
            "$type": "RPG.GameCore.TargetFetchAdvPropEx"
          },
          "Enable": true
        }
      ]
    }
  ],
  "ValueSource": {
    "Values": [
      {
        "$type": "RPG.GameCore.SharedString",
        "Key": "Maze_Chap01_Elevator_01"
      }
    ]
  }
}