{
  "OnInitSequece": [],
  "OnStartSequece": [
    {
      "TaskList": [
        {
          "$type": "RPG.GameCore.LevelPerformanceInitialize",
          "PerformanceType": "D",
          "CreateCharacterList": [],
          "EntityVisiableList": [],
          "HideMunicipalCrowd": false,
          "HideMunicipalPedestrian": false,
          "PropVisiableList": [],
          "MarkStreamingItems": []
        },
        {
          "$type": "RPG.GameCore.PerformanceTransition",
          "SwitchInTime": 0,
          "SwitchKeepTime": 1,
          "CreateNpcList": [],
          "CaptureNpcList": [
            {
              "GroupID": {
                "IsDynamic": false,
                "FixedValue": {
                  "Value": 8
                }
              },
              "GroupNpcID": {
                "IsDynamic": false,
                "FixedValue": {
                  "Value": 400005
                }
              },
              "CharacterUniqueName": {
                "Value": "Mar_202030736"
              }
            },
            {
              "GroupID": {
                "IsDynamic": false,
                "FixedValue": {
                  "Value": 8
                }
              },
              "GroupNpcID": {
                "IsDynamic": false,
                "FixedValue": {
                  "Value": 400004
                }
              },
              "CharacterUniqueName": {
                "Value": "Yan_202030736"
              }
            },
            {
              "GroupID": {
                "IsDynamic": false,
                "FixedValue": {
                  "Value": 8
                }
              },
              "GroupNpcID": {
                "IsDynamic": false,
                "FixedValue": {
                  "Value": 400002
                }
              },
              "CharacterUniqueName": {
                "Value": "Welt_202030736"
              }
            }
          ],
          "DestroyNpcList": [],
          "CreateProp": {
            "GroupID": {
              "IsDynamic": false,
              "FixedValue": {
                "Value": 0
              }
            },
            "GroupPropID": {
              "IsDynamic": false,
              "FixedValue": {
                "Value": 0
              }
            },
            "TaskEnabled": false
          },
          "DestroyProp": {
            "TargetType": {
              "$type": "RPG.GameCore.TargetFetchAdvPropEx"
            },
            "ID": {
              "IsDynamic": false,
              "FixedValue": {
                "Value": 0
              }
            },
            "GroupID": {
              "IsDynamic": false,
              "FixedValue": {
                "Value": 0
              }
            },
            "TaskEnabled": false
          },
          "ActiveVirtualCamera": {
            "TaskEnabled": false
          },
          "ActiveTemplateVirtualCamera": {
            "TaskEnabled": false
          },
          "SwitchCharacterAnchor": {
            "TaskEnabled": false
          },
          "AdvNpcFaceToPlayer": {
            "TaskEnabled": false
          },
          "WaitStreamingFinish": true
        },
        {
          "$type": "RPG.GameCore.AdvNpcFaceToPlayer",
          "GroupID": 8,
          "GroupNpcID": 400005,
          "TryFaceToFace": false,
          "PlayerLookAtNpc": false,
          "StopLookAtOnGraphEnd": false,
          "TurnBackOnGraphEnd": false,
          "FinishImmadiate": true
        },
        {
          "$type": "RPG.GameCore.PlayAndWaitSimpleTalk",
          "SimpleTalkList": [
            {
              "TalkSentenceID": 202070820,
              "ProtectTime": 0.3
            }
          ]
        },
        {
          "$type": "RPG.GameCore.TriggerCustomString",
          "CustomString": {
            "Value": "Wait_Option_202030717_186"
          }
        }
      ]
    },
    {
      "IsLoop": true,
      "TaskList": [
        {
          "$type": "RPG.GameCore.WaitCustomString",
          "CustomString": {
            "Value": "Wait_Option_202030717_186"
          }
        },
        {
          "$type": "RPG.GameCore.PlayOptionTalk",
          "OptionList": [
            {
              "TalkSentenceID": 202070821,
              "OptionIconType": "ChatContinueIcon",
              "TriggerCustomString": "TalkSentence_202070822"
            },
            {
              "TalkSentenceID": 202070826,
              "OptionIconType": "ChatContinueIcon",
              "TriggerCustomString": "TalkSentence_202070827"
            },
            {
              "TalkSentenceID": 202070832,
              "OptionIconType": "ChatContinueIcon",
              "TriggerCustomString": "TalkSentence_202070833"
            },
            {
              "TalkSentenceID": 202070837,
              "OptionIconType": "ChatContinueIcon",
              "TriggerCustomString": "TalkSentence_202070838"
            },
            {
              "TalkSentenceID": 202070841,
              "OptionIconType": "ChatBackIcon",
              "TriggerCustomString": "TalkSentence_202070842"
            }
          ],
          "HideSelected": true
        }
      ]
    },
    {
      "IsLoop": true,
      "TaskList": [
        {
          "$type": "RPG.GameCore.WaitCustomString",
          "CustomString": {
            "Value": "TalkSentence_202070822"
          }
        },
        {
          "$type": "RPG.GameCore.CharacterTriggerFreeStyle",
          "CharacterUniqueName": "Mar_202030736",
          "StoryAvatarID": "NPC_Avatar_Maid_Mar_7th_00",
          "StoryMotionID": 310010221
        },
        {
          "$type": "RPG.GameCore.PlayAndWaitSimpleTalk",
          "SimpleTalkList": [
            {
              "TalkSentenceID": 202070822,
              "ProtectTime": 0.3
            },
            {
              "TalkSentenceID": 202070823,
              "ProtectTime": 0.3
            },
            {
              "TalkSentenceID": 202070824,
              "ProtectTime": 0.3
            },
            {
              "TalkSentenceID": 202070825,
              "ProtectTime": 0.3
            }
          ]
        },
        {
          "$type": "RPG.GameCore.CharacterTriggerFreeStyle",
          "CharacterUniqueName": "Mar_202030736",
          "StoryAvatarID": "NPC_Avatar_Maid_Mar_7th_00",
          "StoryMotionID": 310010223
        },
        {
          "$type": "RPG.GameCore.TriggerCustomString",
          "CustomString": {
            "Value": "Wait_Option_202030717_186"
          }
        }
      ]
    },
    {
      "IsLoop": true,
      "TaskList": [
        {
          "$type": "RPG.GameCore.WaitCustomString",
          "CustomString": {
            "Value": "TalkSentence_202070827"
          }
        },
        {
          "$type": "RPG.GameCore.CharacterTriggerFreeStyle",
          "CharacterUniqueName": "Mar_202030736",
          "StoryAvatarID": "NPC_Avatar_Maid_Mar_7th_00",
          "StoryMotionID": 310010221
        },
        {
          "$type": "RPG.GameCore.PlayAndWaitSimpleTalk",
          "SimpleTalkList": [
            {
              "TalkSentenceID": 202070827,
              "ProtectTime": 0.3
            },
            {
              "TalkSentenceID": 202070828,
              "ProtectTime": 0.3
            },
            {
              "TalkSentenceID": 202070829,
              "ProtectTime": 0.3
            },
            {
              "TalkSentenceID": 202070830,
              "ProtectTime": 0.3
            },
            {
              "TalkSentenceID": 202070831,
              "ProtectTime": 0.3
            }
          ]
        },
        {
          "$type": "RPG.GameCore.CharacterTriggerFreeStyle",
          "CharacterUniqueName": "Mar_202030736",
          "StoryAvatarID": "NPC_Avatar_Maid_Mar_7th_00",
          "StoryMotionID": 310010223
        },
        {
          "$type": "RPG.GameCore.TriggerCustomString",
          "CustomString": {
            "Value": "Wait_Option_202030717_186"
          }
        }
      ]
    },
    {
      "IsLoop": true,
      "TaskList": [
        {
          "$type": "RPG.GameCore.WaitCustomString",
          "CustomString": {
            "Value": "TalkSentence_202070833"
          }
        },
        {
          "$type": "RPG.GameCore.CharacterTriggerFreeStyle",
          "CharacterUniqueName": "Mar_202030736",
          "StoryAvatarID": "NPC_Avatar_Maid_Mar_7th_00",
          "StoryMotionID": 310010221
        },
        {
          "$type": "RPG.GameCore.PlayAndWaitSimpleTalk",
          "SimpleTalkList": [
            {
              "TalkSentenceID": 202070833,
              "ProtectTime": 0.3
            },
            {
              "TalkSentenceID": 202070834,
              "ProtectTime": 0.3
            },
            {
              "TalkSentenceID": 202070835,
              "ProtectTime": 0.3
            },
            {
              "TalkSentenceID": 202070836,
              "ProtectTime": 0.3
            }
          ]
        },
        {
          "$type": "RPG.GameCore.TriggerCustomString",
          "CustomString": {
            "Value": "TalkSentence_202070852"
          }
        }
      ]
    },
    {
      "IsLoop": true,
      "TaskList": [
        {
          "$type": "RPG.GameCore.WaitCustomString",
          "CustomString": {
            "Value": "TalkSentence_202070838"
          }
        },
        {
          "$type": "RPG.GameCore.CharacterTriggerFreeStyle",
          "CharacterUniqueName": "Mar_202030736",
          "StoryAvatarID": "NPC_Avatar_Maid_Mar_7th_00",
          "StoryMotionID": 310010221
        },
        {
          "$type": "RPG.GameCore.PlayAndWaitSimpleTalk",
          "SimpleTalkList": [
            {
              "TalkSentenceID": 202070838,
              "ProtectTime": 0.3
            },
            {
              "TalkSentenceID": 202070839,
              "ProtectTime": 0.3
            },
            {
              "TalkSentenceID": 202070840,
              "ProtectTime": 0.3
            }
          ]
        },
        {
          "$type": "RPG.GameCore.CharacterTriggerFreeStyle",
          "CharacterUniqueName": "Mar_202030736",
          "StoryAvatarID": "NPC_Avatar_Maid_Mar_7th_00",
          "StoryMotionID": 310010223
        },
        {
          "$type": "RPG.GameCore.TriggerCustomString",
          "CustomString": {
            "Value": "Wait_Option_202030717_186"
          }
        }
      ]
    },
    {
      "IsLoop": true,
      "TaskList": [
        {
          "$type": "RPG.GameCore.WaitCustomString",
          "CustomString": {
            "Value": "TalkSentence_202070842"
          }
        },
        {
          "$type": "RPG.GameCore.PlayAndWaitSimpleTalk",
          "SimpleTalkList": [
            {
              "TalkSentenceID": 202070842,
              "ProtectTime": 0.3
            }
          ]
        },
        {
          "$type": "RPG.GameCore.TriggerCustomString",
          "CustomString": {
            "Value": "Wait_Option_202030717_209"
          }
        }
      ]
    },
    {
      "IsLoop": true,
      "TaskList": [
        {
          "$type": "RPG.GameCore.WaitCustomString",
          "CustomString": {
            "Value": "Wait_Option_202030717_209"
          }
        },
        {
          "$type": "RPG.GameCore.PlayOptionTalk",
          "OptionList": [
            {
              "TalkSentenceID": 202070843,
              "OptionIconType": "ChatLoopIcon",
              "TriggerCustomString": "TalkSentence_202070844"
            },
            {
              "TalkSentenceID": 202070845,
              "OptionIconType": "ChatLoopIcon",
              "TriggerCustomString": "TalkSentence_202070846"
            },
            {
              "TalkSentenceID": 202070847,
              "OptionIconType": "ChatLoopIcon",
              "TriggerCustomString": "TalkSentence_202070848"
            },
            {
              "TalkSentenceID": 202070849,
              "OptionIconType": "ChatLoopIcon",
              "TriggerCustomString": "TalkSentence_202070850"
            },
            {
              "TalkSentenceID": 202070851,
              "OptionIconType": "ChatBackIcon",
              "TriggerCustomString": "Wait_Option_202030717_186"
            }
          ],
          "HideSelected": true
        }
      ]
    },
    {
      "IsLoop": true,
      "TaskList": [
        {
          "$type": "RPG.GameCore.WaitCustomString",
          "CustomString": {
            "Value": "TalkSentence_202070844"
          }
        },
        {
          "$type": "RPG.GameCore.PlayAndWaitSimpleTalk",
          "UseBackground": true,
          "Backgrounds": [
            {
              "CgID": 124
            }
          ],
          "SimpleTalkList": [
            {
              "TalkSentenceID": 202070844,
              "ProtectTime": 0.3
            }
          ]
        },
        {
          "$type": "RPG.GameCore.TriggerCustomString",
          "CustomString": {
            "Value": "Wait_Option_202030717_209"
          }
        }
      ]
    },
    {
      "IsLoop": true,
      "TaskList": [
        {
          "$type": "RPG.GameCore.WaitCustomString",
          "CustomString": {
            "Value": "TalkSentence_202070846"
          }
        },
        {
          "$type": "RPG.GameCore.PlayAndWaitSimpleTalk",
          "UseBackground": true,
          "Backgrounds": [
            {
              "CgID": 121
            }
          ],
          "SimpleTalkList": [
            {
              "TalkSentenceID": 202070846,
              "ProtectTime": 0.3
            }
          ]
        },
        {
          "$type": "RPG.GameCore.TriggerCustomString",
          "CustomString": {
            "Value": "Wait_Option_202030717_209"
          }
        }
      ]
    },
    {
      "IsLoop": true,
      "TaskList": [
        {
          "$type": "RPG.GameCore.WaitCustomString",
          "CustomString": {
            "Value": "TalkSentence_202070848"
          }
        },
        {
          "$type": "RPG.GameCore.PlayAndWaitSimpleTalk",
          "UseBackground": true,
          "Backgrounds": [
            {
              "CgID": 122
            }
          ],
          "SimpleTalkList": [
            {
              "TalkSentenceID": 202070848,
              "ProtectTime": 0.3
            }
          ]
        },
        {
          "$type": "RPG.GameCore.TriggerCustomString",
          "CustomString": {
            "Value": "Wait_Option_202030717_209"
          }
        }
      ]
    },
    {
      "IsLoop": true,
      "TaskList": [
        {
          "$type": "RPG.GameCore.WaitCustomString",
          "CustomString": {
            "Value": "TalkSentence_202070850"
          }
        },
        {
          "$type": "RPG.GameCore.PlayAndWaitSimpleTalk",
          "UseBackground": true,
          "Backgrounds": [
            {
              "CgID": 123
            }
          ],
          "SimpleTalkList": [
            {
              "TalkSentenceID": 202070850,
              "ProtectTime": 0.3
            }
          ]
        },
        {
          "$type": "RPG.GameCore.TriggerCustomString",
          "CustomString": {
            "Value": "Wait_Option_202030717_209"
          }
        }
      ]
    },
    {
      "TaskList": [
        {
          "$type": "RPG.GameCore.WaitCustomString",
          "CustomString": {
            "Value": "TalkSentence_202070852"
          }
        },
        {
          "$type": "RPG.GameCore.AdvNpcFaceToPlayer",
          "GroupID": 8,
          "GroupNpcID": 400005,
          "PlayerInGroupID": 8,
          "PlayerInGroupNpcID": 400004,
          "TryFaceToFace": false,
          "PlayerLookAtNpc": false,
          "FinishImmadiate": true
        },
        {
          "$type": "RPG.GameCore.PlayAndWaitSimpleTalk",
          "UseBackground": true,
          "Backgrounds": [
            {
              "ImagePath": "SpriteOutput/Mission/EventPic/PicLuochaSubMission04.png"
            }
          ],
          "SimpleTalkList": [
            {
              "TalkSentenceID": 202070852,
              "ProtectTime": 0.3
            }
          ]
        },
        {
          "$type": "RPG.GameCore.PlayAndWaitSimpleTalk",
          "SimpleTalkList": [
            {
              "TalkSentenceID": 202070853,
              "ProtectTime": 0.3
            },
            {
              "TalkSentenceID": 202070854,
              "ProtectTime": 0.3
            }
          ]
        },
        {
          "$type": "RPG.GameCore.CharacterTriggerFreeStyle",
          "CharacterUniqueName": "Yan_202030736",
          "StoryAvatarID": "NPC_Lady",
          "StoryMotionID": 100020221
        },
        {
          "$type": "RPG.GameCore.PlayAndWaitSimpleTalk",
          "SimpleTalkList": [
            {
              "TalkSentenceID": 202070855,
              "ProtectTime": 0.3
            },
            {
              "TalkSentenceID": 202070856,
              "ProtectTime": 0.3
            }
          ]
        },
        {
          "$type": "RPG.GameCore.CharacterTriggerFreeStyle",
          "CharacterUniqueName": "Welt_202030736",
          "StoryAvatarID": "NPC_Avatar_Male_Welt_00",
          "StoryMotionID": 310040200
        },
        {
          "$type": "RPG.GameCore.PlayAndWaitSimpleTalk",
          "SimpleTalkList": [
            {
              "TalkSentenceID": 202070857,
              "ProtectTime": 0.3
            },
            {
              "TalkSentenceID": 202070858,
              "ProtectTime": 0.3
            },
            {
              "TalkSentenceID": 202070859,
              "ProtectTime": 0.3
            }
          ]
        },
        {
          "$type": "RPG.GameCore.PlayOptionTalk",
          "OptionList": [
            {
              "TalkSentenceID": 202070860,
              "OptionIconType": "ChatContinueIcon",
              "TriggerCustomString": "TalkSentence_202070861"
            },
            {
              "TalkSentenceID": 202070863,
              "OptionIconType": "ChatContinueIcon",
              "TriggerCustomString": "TalkSentence_202070864"
            }
          ]
        }
      ]
    },
    {
      "TaskList": [
        {
          "$type": "RPG.GameCore.WaitCustomString",
          "CustomString": {
            "Value": "TalkSentence_202070861"
          }
        },
        {
          "$type": "RPG.GameCore.CharacterTriggerFreeStyle",
          "CharacterUniqueName": "Yan_202030736",
          "StoryAvatarID": "NPC_Lady",
          "StoryMotionID": 100020223
        },
        {
          "$type": "RPG.GameCore.PlayAndWaitSimpleTalk",
          "SimpleTalkList": [
            {
              "TalkSentenceID": 202070861,
              "ProtectTime": 0.3
            },
            {
              "TalkSentenceID": 202070862,
              "ProtectTime": 0.3
            }
          ]
        },
        {
          "$type": "RPG.GameCore.PerformanceTransition",
          "CreateNpcList": [],
          "CaptureNpcList": [],
          "DestroyNpcList": [
            {
              "GroupID": 8,
              "GroupNpcID": 400002,
              "DestroyList": []
            },
            {
              "GroupID": 8,
              "GroupNpcID": 400005,
              "DestroyList": []
            },
            {
              "GroupID": 8,
              "GroupNpcID": 400004,
              "DestroyList": []
            }
          ],
          "CreateProp": {
            "GroupID": {
              "IsDynamic": false,
              "FixedValue": {
                "Value": 0
              }
            },
            "GroupPropID": {
              "IsDynamic": false,
              "FixedValue": {
                "Value": 0
              }
            },
            "TaskEnabled": false
          },
          "DestroyProp": {
            "TargetType": {
              "$type": "RPG.GameCore.TargetFetchAdvPropEx"
            },
            "ID": {
              "IsDynamic": false,
              "FixedValue": {
                "Value": 0
              }
            },
            "GroupID": {
              "IsDynamic": false,
              "FixedValue": {
                "Value": 0
              }
            },
            "TaskEnabled": false
          },
          "ActiveVirtualCamera": {
            "AreaName": "LevelArea_P10202_F10202002_G7",
            "AnchorName": "Anchor5",
            "IsActive": false
          },
          "ActiveTemplateVirtualCamera": {
            "TaskEnabled": false
          },
          "SwitchCharacterAnchor": {
            "IsLocalPlayer": true,
            "CharacterUniqueName": "LocalPlayer",
            "AnchorName": {
              "Value": "Anchor1"
            },
            "TaskEnabled": false
          },
          "AdvNpcFaceToPlayer": {
            "TaskEnabled": false
          }
        },
        {
          "$type": "RPG.GameCore.EndPerformance"
        }
      ]
    },
    {
      "TaskList": [
        {
          "$type": "RPG.GameCore.WaitCustomString",
          "CustomString": {
            "Value": "TalkSentence_202070864"
          }
        },
        {
          "$type": "RPG.GameCore.CharacterTriggerFreeStyle",
          "CharacterUniqueName": "Yan_202030736",
          "StoryAvatarID": "NPC_Lady",
          "StoryMotionID": 100020223
        },
        {
          "$type": "RPG.GameCore.PlayAndWaitSimpleTalk",
          "SimpleTalkList": [
            {
              "TalkSentenceID": 202070864,
              "ProtectTime": 0.3
            },
            {
              "TalkSentenceID": 202070865,
              "ProtectTime": 0.3
            }
          ]
        },
        {
          "$type": "RPG.GameCore.PerformanceTransition",
          "CreateNpcList": [],
          "CaptureNpcList": [],
          "DestroyNpcList": [
            {
              "GroupID": 8,
              "GroupNpcID": 400002,
              "DestroyList": []
            },
            {
              "GroupID": 8,
              "GroupNpcID": 400005,
              "DestroyList": []
            },
            {
              "GroupID": 8,
              "GroupNpcID": 400004,
              "DestroyList": []
            }
          ],
          "CreateProp": {
            "GroupID": {
              "IsDynamic": false,
              "FixedValue": {
                "Value": 0
              }
            },
            "GroupPropID": {
              "IsDynamic": false,
              "FixedValue": {
                "Value": 0
              }
            },
            "TaskEnabled": false
          },
          "DestroyProp": {
            "TargetType": {
              "$type": "RPG.GameCore.TargetFetchAdvPropEx"
            },
            "ID": {
              "IsDynamic": false,
              "FixedValue": {
                "Value": 0
              }
            },
            "GroupID": {
              "IsDynamic": false,
              "FixedValue": {
                "Value": 0
              }
            },
            "TaskEnabled": false
          },
          "ActiveVirtualCamera": {
            "AreaName": "LevelArea_P10202_F10202002_G7",
            "AnchorName": "Anchor5",
            "IsActive": false
          },
          "ActiveTemplateVirtualCamera": {
            "TaskEnabled": false
          },
          "SwitchCharacterAnchor": {
            "IsLocalPlayer": true,
            "CharacterUniqueName": "LocalPlayer",
            "AnchorName": {
              "Value": "Anchor1"
            },
            "TaskEnabled": false
          },
          "AdvNpcFaceToPlayer": {
            "TaskEnabled": false
          }
        },
        {
          "$type": "RPG.GameCore.EndPerformance"
        }
      ]
    },
    {
      "TaskList": [
        {
          "$type": "RPG.GameCore.WaitCustomString",
          "CustomString": {
            "Value": "TalkSentence_End"
          }
        },
        {
          "$type": "RPG.GameCore.EndPerformance"
        }
      ]
    },
    {
      "TaskList": [
        {
          "$type": "RPG.GameCore.WaitPerformanceEnd"
        },
        {
          "$type": "RPG.GameCore.FinishLevelGraph"
        }
      ]
    }
  ]
}