{
  "OnInitSequece": [],
  "OnStartSequece": [
    {
      "TaskList": [
        {
          "$type": "RPG.GameCore.PropSetupUITrigger",
          "ButtonText": {
            "Hash": -82232668
          },
          "ButtonCallback": [
            {
              "$type": "RPG.GameCore.SwitchPhotoGraphMode",
              "PhotoGraphMode": "Identify",
              "SkipPhotoPreviewDialog": true,
              "IdentifyRadiusOverride": {
                "IsDynamic": false,
                "FixedValue": {
                  "Value": 0
                }
              },
              "IdentifyMaxExitDistance": 50,
              "IdentifyLookAt": {
                "$type": "RPG.GameCore.TargetFetchAdvProp",
                "MultiGroupFetch": [
                  {
                    "GroupID": {
                      "IsDynamic": false,
                      "FixedValue": {
                        "Value": 17
                      }
                    },
                    "ID": {
                      "IsDynamic": false,
                      "FixedValue": {
                        "Value": 300003
                      }
                    }
                  }
                ],
                "MultiGroupFetchByUniqueName": [],
                "MultiGroupFetchByPropKey": []
              },
              "InitFov": 1
            },
            {
              "$type": "RPG.GameCore.PhotoGraphAimTarget",
              "AimTargetType": {
                "$type": "RPG.GameCore.TargetFetchAdvProp",
                "MultiGroupFetch": [
                  {
                    "GroupID": {
                      "IsDynamic": false,
                      "FixedValue": {
                        "Value": 17
                      }
                    },
                    "ID": {
                      "IsDynamic": false,
                      "FixedValue": {
                        "Value": 300003
                      }
                    }
                  }
                ],
                "MultiGroupFetchByUniqueName": [],
                "MultiGroupFetchByPropKey": []
              },
              "IsAim": true,
              "AimIdentifyType": "Manual"
            },
            {
              "$type": "RPG.GameCore.PhotoGraphWaitIdentifyFinish",
              "WaitTargetType": {
                "$type": "RPG.GameCore.TargetFetchAdvProp",
                "MultiGroupFetch": [
                  {
                    "GroupID": {
                      "IsDynamic": false,
                      "FixedValue": {
                        "Value": 17
                      }
                    },
                    "ID": {
                      "IsDynamic": false,
                      "FixedValue": {
                        "Value": 300003
                      }
                    }
                  }
                ],
                "MultiGroupFetchByUniqueName": [],
                "MultiGroupFetchByPropKey": []
              },
              "OnIdentifyFinish": [],
              "OnPreviewFinish": []
            },
            {
              "$type": "RPG.GameCore.LockPhotoIdentifyHint"
            },
            {
              "$type": "RPG.GameCore.PhotoGraphAimTarget",
              "AimTargetType": {
                "$type": "RPG.GameCore.TargetFetchAdvProp",
                "MultiGroupFetch": [
                  {
                    "GroupID": {
                      "IsDynamic": false,
                      "FixedValue": {
                        "Value": 17
                      }
                    },
                    "ID": {
                      "IsDynamic": false,
                      "FixedValue": {
                        "Value": 300003
                      }
                    }
                  }
                ],
                "MultiGroupFetchByUniqueName": [],
                "MultiGroupFetchByPropKey": []
              }
            },
            {
              "$type": "RPG.GameCore.DestroyProp",
              "TargetType": {
                "$type": "RPG.GameCore.TargetFetchAdvPropEx"
              },
              "ID": {
                "IsDynamic": false,
                "FixedValue": {
                  "Value": 0
                }
              },
              "GroupID": {
                "IsDynamic": false,
                "FixedValue": {
                  "Value": 0
                }
              },
              "DestroyList": [
                {
                  "$type": "RPG.GameCore.GroupEntityInfo",
                  "GroupID": {
                    "IsDynamic": false,
                    "FixedValue": {
                      "Value": 17
                    }
                  },
                  "GroupInstanceID": {
                    "IsDynamic": false,
                    "FixedValue": {
                      "Value": 300001
                    }
                  }
                },
                {
                  "$type": "RPG.GameCore.GroupEntityInfo",
                  "GroupID": {
                    "IsDynamic": false,
                    "FixedValue": {
                      "Value": 17
                    }
                  },
                  "GroupInstanceID": {
                    "IsDynamic": false,
                    "FixedValue": {
                      "Value": 300003
                    }
                  }
                }
              ]
            },
            {
              "$type": "RPG.GameCore.WaitSecond",
              "WaitTime": 1
            },
            {
              "$type": "RPG.GameCore.SwitchPhotoGraphMode",
              "IdentifyRadiusOverride": {
                "IsDynamic": false,
                "FixedValue": {
                  "Value": 0
                }
              }
            },
            {
              "$type": "RPG.GameCore.TriggerCustomString",
              "CustomString": {
                "Value": "800020403_Door_Open"
              }
            }
          ],
          "OverrideTargetTypes": [],
          "TargetType": {
            "$type": "RPG.GameCore.TargetFetchAdvPropEx",
            "FetchType": "SinglePropByPropID",
            "SinglePropID": {
              "GroupID": {
                "IsDynamic": false,
                "FixedValue": {
                  "Value": 17
                }
              },
              "ID": {
                "IsDynamic": false,
                "FixedValue": {
                  "Value": 300003
                }
              }
            }
          }
        }
      ]
    },
    {
      "TaskList": [
        {
          "$type": "RPG.GameCore.WaitCustomString",
          "CustomString": {
            "Value": "800020403_Door_Open"
          }
        },
        {
          "$type": "RPG.GameCore.FinishPerformanceMission",
          "Key": "Mission_800020403"
        }
      ]
    }
  ]
}