{
  "OnInitSequece": [],
  "OnStartSequece": [
    {
      "TaskList": [
        {
          "$type": "RPG.GameCore.WaitCustomString",
          "CustomString": {
            "Value": "800020409_ChangeMonster"
          }
        },
        {
          "$type": "RPG.GameCore.WaitSecond",
          "WaitTime": 0.2
        },
        {
          "$type": "RPG.GameCore.TriggerEffectList",
          "TargetType": {
            "$type": "RPG.GameCore.TargetFetchAdvPropEx",
            "FetchType": "SinglePropByPropID",
            "SinglePropID": {
              "GroupID": {
                "IsDynamic": false,
                "FixedValue": {
                  "Value": 1
                }
              },
              "ID": {
                "IsDynamic": false,
                "FixedValue": {
                  "Value": 300003
                }
              }
            }
          },
          "EffectList": [
            {
              "EffectPath": "Effects/Eff_Prefab/Eff_Monster/Eff_XP_Minion04_00/Eff_Monster_XP_Minion04_00_Common_Maze_SpecialAppear.prefab",
              "AttachPoint": "Root"
            }
          ]
        },
        {
          "$type": "RPG.GameCore.FinishPerformanceMission",
          "Key": "Mission_800020422"
        }
      ]
    }
  ]
}