{
  "OnInitSequece": [],
  "OnStartSequece": [
    {
      "TaskList": [
        {
          "$type": "RPG.GameCore.SetAllRogueDoorState",
          "TaskEnabled": true
        },
        {
          "$type": "RPG.GameCore.SetRogueRoomFinish",
          "TaskEnabled": true
        }
      ]
    },
    {
      "TaskList": [
        {
          "$type": "RPG.GameCore.WaitPerformanceEnd"
        },
        {
          "$type": "RPG.GameCore.TriggerCustomString",
          "CustomString": {
            "Value": "DialogueFinished"
          }
        },
        {
          "$type": "RPG.GameCore.FinishLevelGraph"
        }
      ]
    },
    {
      "TaskList": [
        {
          "$type": "RPG.GameCore.WaitCustomString",
          "CustomString": {
            "Value": "ALL_TALK_END"
          }
        },
        {
          "$type": "RPG.GameCore.SwitchUIMenuBGM",
          "ShouldStop": true
        },
        {
          "$type": "RPG.GameCore.EndPerformance"
        }
      ]
    },
    {
      "TaskList": [
        {
          "$type": "RPG.GameCore.WaitCustomString",
          "CustomString": {
            "Value": "TalkSentence_403030314"
          }
        },
        {
          "$type": "RPG.GameCore.PlayAndWaitSimpleTalk",
          "Backgrounds": [],
          "SimpleTalkList": [
            {
              "TalkSentenceID": 403012316,
              "ProtectTime": 0.3
            }
          ]
        },
        {
          "$type": "RPG.GameCore.PlayOptionTalk",
          "OptionList": [
            {
              "TalkSentenceID": 403030315,
              "OptionIconType": "ChatContinueIcon",
              "TriggerCustomString": "ALL_TALK_END"
            }
          ]
        }
      ]
    },
    {
      "TaskList": [
        {
          "$type": "RPG.GameCore.WaitCustomString",
          "CustomString": {
            "Value": "TalkSentence_403030310"
          }
        },
        {
          "$type": "RPG.GameCore.PlayAndWaitSimpleTalk",
          "Backgrounds": [],
          "SimpleTalkList": [
            {
              "TalkSentenceID": 403012315,
              "ProtectTime": 0.3
            }
          ]
        },
        {
          "$type": "RPG.GameCore.PlayOptionTalk",
          "OptionList": [
            {
              "TalkSentenceID": 403030311,
              "OptionIconType": "ChatContinueIcon",
              "TriggerCustomString": "TalkSentence_403030314"
            },
            {
              "TalkSentenceID": 403030312,
              "OptionIconType": "ChatContinueIcon",
              "TriggerCustomString": "TalkSentence_403030314"
            },
            {
              "TalkSentenceID": 403030313,
              "OptionIconType": "ChatContinueIcon",
              "TriggerCustomString": "TalkSentence_403030314"
            }
          ]
        }
      ]
    },
    {
      "TaskList": [
        {
          "$type": "RPG.GameCore.WaitCustomString",
          "CustomString": {
            "Value": "TalkSentence_403030305"
          }
        },
        {
          "$type": "RPG.GameCore.PlayAndWaitSimpleTalk",
          "Backgrounds": [],
          "SimpleTalkList": [
            {
              "TalkSentenceID": 403012313,
              "ProtectTime": 0.3
            },
            {
              "TalkSentenceID": 403012314,
              "ProtectTime": 0.3
            }
          ]
        },
        {
          "$type": "RPG.GameCore.PlayOptionTalk",
          "OptionList": [
            {
              "OptionTextmapID": {
                "Hash": -2090935937
              },
              "OptionIconType": "ChatContinueIcon",
              "TriggerCustomString": "TalkSentence_403030310",
              "DialogueEventID": 14101
            },
            {
              "OptionTextmapID": {
                "Hash": -2090935936
              },
              "OptionIconType": "ChatContinueIcon",
              "TriggerCustomString": "TalkSentence_403030310",
              "DialogueEventID": 14102
            },
            {
              "OptionTextmapID": {
                "Hash": -2090935935
              },
              "OptionIconType": "ChatContinueIcon",
              "TriggerCustomString": "TalkSentence_403030310",
              "DialogueEventID": 14103
            }
          ]
        }
      ]
    },
    {
      "TaskList": [
        {
          "$type": "RPG.GameCore.LevelPerformanceInitialize",
          "PerformanceType": "E",
          "CreateCharacterList": [],
          "EntityVisiableList": [],
          "HideMunicipalCrowd": false,
          "HideMunicipalPedestrian": false,
          "PropVisiableList": [],
          "MarkStreamingItems": []
        },
        {
          "$type": "RPG.GameCore.ShowTalkBackground",
          "TalkBgID": 398
        },
        {
          "$type": "RPG.GameCore.PlayAndWaitSimpleTalk",
          "Backgrounds": [],
          "SimpleTalkList": [
            {
              "TalkSentenceID": 403012312,
              "ProtectTime": 0.3
            }
          ]
        },
        {
          "$type": "RPG.GameCore.PlayOptionTalk",
          "OptionList": [
            {
              "TalkSentenceID": 403030303,
              "OptionIconType": "ChatContinueIcon",
              "TriggerCustomString": "TalkSentence_403030305"
            },
            {
              "TalkSentenceID": 403030304,
              "OptionIconType": "ChatContinueIcon",
              "TriggerCustomString": "TalkSentence_403030305"
            }
          ]
        },
        {
          "$type": "RPG.GameCore.SwitchUIMenuBGM",
          "StateName": "State_Menu_Rougelite"
        }
      ]
    }
  ]
}