{
  "OnInitSequece": [],
  "OnStartSequece": [
    {
      "TaskList": [
        {
          "$type": "RPG.GameCore.LevelPerformanceInitialize",
          "PerformanceType": "E",
          "HideMunicipalCrowd": false,
          "HideMunicipalPedestrian": false
        },
        {
          "$type": "RPG.GameCore.RandomConfig",
          "OddsList": [
            {
              "IsDynamic": false,
              "FixedValue": {
                "Value": 0.25000000023283064
              }
            },
            {
              "IsDynamic": false,
              "FixedValue": {
                "Value": 0.25000000023283064
              }
            },
            {
              "IsDynamic": false,
              "FixedValue": {
                "Value": 0.25000000023283064
              }
            },
            {
              "IsDynamic": false,
              "FixedValue": {
                "Value": 0.25000000023283064
              }
            }
          ],
          "TaskList": [
            {
              "$type": "RPG.GameCore.PlaySimpleTalk",
              "SimpleTalkList": [
                {
                  "TalkSentenceID": 502550102,
                  "ProtectTime": 0.3
                }
              ]
            },
            {
              "$type": "RPG.GameCore.PlaySimpleTalk",
              "SimpleTalkList": [
                {
                  "TalkSentenceID": 502550103,
                  "ProtectTime": 0.3
                }
              ]
            },
            {
              "$type": "RPG.GameCore.PlaySimpleTalk",
              "SimpleTalkList": [
                {
                  "TalkSentenceID": 502550104,
                  "ProtectTime": 0.3
                }
              ]
            },
            {
              "$type": "RPG.GameCore.PlaySimpleTalk",
              "SimpleTalkList": [
                {
                  "TalkSentenceID": 502550105,
                  "ProtectTime": 0.3
                }
              ]
            }
          ]
        },
        {
          "$type": "RPG.GameCore.WaitSimpleTalkFinish"
        },
        {
          "$type": "RPG.GameCore.EndPerformance"
        }
      ]
    },
    {
      "TaskList": [
        {
          "$type": "RPG.GameCore.WaitPerformanceEnd"
        },
        {
          "$type": "RPG.GameCore.FinishLevelGraph"
        }
      ]
    }
  ]
}