{
  "OnInitSequece": [],
  "OnStartSequece": [
    {
      "TaskList": [
        {
          "$type": "RPG.GameCore.SetSimulationSpeedEnable"
        },
        {
          "$type": "RPG.GameCore.CreateLevelAreas",
          "AssetPath": {
            "Value": "Level/Mission/1021601/BattlePerform_LevelArea_102160101_00.prefab"
          }
        },
        {
          "$type": "RPG.GameCore.SetTeamFormation",
          "Team": "TeamLight",
          "FormationType": "LightTeamNormal",
          "CustomFormationIgnoreDying": false
        },
        {
          "$type": "RPG.GameCore.SetTeamFormation",
          "Team": "TeamDark",
          "FormationType": "DarkTeamNormal",
          "CustomFormationIgnoreDying": false
        },
        {
          "$type": "RPG.GameCore.VCameraConfigChange",
          "CameraConfig": {
            "OverrideShakeConfigV2": {},
            "ShowEntityConfig": {
              "ExportToJson": true,
              "ShowTargetType": {
                "$type": "RPG.GameCore.TargetAlias",
                "Alias": "AllLightTeamWithAllDarkTeam"
              }
            },
            "NoiseConfig": {}
          }
        },
        {
          "$type": "RPG.GameCore.ActiveVirtualCamera",
          "AreaName": "BattlePerform_LevelArea_102160101_00",
          "AnchorName": "Cam1",
          "BlendConfig": {
            "ExportToJson": true,
            "BlendType": "Cut"
          }
        },
        {
          "$type": "RPG.GameCore.WaitSecond",
          "WaitTime": 0.1
        },
        {
          "$type": "RPG.GameCore.DisableCharacterVO",
          "VOTypes": []
        },
        {
          "$type": "RPG.GameCore.ActiveVirtualCamera",
          "AreaName": "BattlePerform_LevelArea_102160101_00",
          "AnchorName": "Cam2",
          "BlendConfig": {
            "ExportToJson": true,
            "BlendType": "EaseInOut",
            "BlendTime": 11
          }
        },
        {
          "$type": "RPG.GameCore.WaitSecond",
          "WaitTime": 1.7
        },
        {
          "$type": "RPG.GameCore.BattlePlayTalk",
          "TalkList": [
            {
              "AutoSkipTime": 6.5,
              "TalkSentenceID": 102160301
            }
          ]
        },
        {
          "$type": "RPG.GameCore.WaitSecond",
          "WaitTime": 0.3
        },
        {
          "$type": "RPG.GameCore.DisableCharacterVO",
          "RestoreVO": true,
          "VOTypes": []
        },
        {
          "$type": "RPG.GameCore.ActiveVirtualCamera",
          "AreaName": "BattlePerform_LevelArea_102160101_00",
          "AnchorName": "Cam1",
          "IsActive": false
        },
        {
          "$type": "RPG.GameCore.ActiveVirtualCamera",
          "AreaName": "BattlePerform_LevelArea_102160101_00",
          "AnchorName": "Cam2",
          "IsActive": false
        },
        {
          "$type": "RPG.GameCore.RemoveLevelAreas",
          "AreaName": {
            "Value": "BattlePerform_LevelArea_102160101_00"
          }
        },
        {
          "$type": "RPG.GameCore.SetSimulationSpeedEnable",
          "Enable": true
        },
        {
          "$type": "RPG.GameCore.LockBattleOperation",
          "IsLock": false,
          "OperationWhiteList": []
        },
        {
          "$type": "RPG.GameCore.FinishLevelGraph"
        }
      ]
    }
  ]
}