{
  "OnInitSequece": [],
  "OnStartSequece": [
    {
      "TaskList": [
        {
          "$type": "RPG.GameCore.CreateProp",
          "GroupID": {
            "IsDynamic": false,
            "FixedValue": {
              "Value": 94
            }
          },
          "GroupPropID": {
            "IsDynamic": false,
            "FixedValue": {
              "Value": 300004
            }
          }
        }
      ]
    },
    {
      "TaskList": [
        {
          "$type": "RPG.GameCore.PropSetupUITrigger",
          "DisableAfterTriggered": true,
          "ButtonIcon": "SpriteOutput/TalkIcon/ChatIcon.png",
          "IconType": "ChatLoopIcon",
          "ButtonText": {
            "Hash": 937335587
          },
          "ButtonCallback": [
            {
              "$type": "RPG.GameCore.AdvEnablePropDialogMode",
              "EnablePropCamera": false,
              "LockPlayerControl": false,
              "IsImmediatelySucc": true,
              "TargetType": {
                "$type": "RPG.GameCore.TargetFetchAdvPropEx",
                "FetchType": "SinglePropByPropID",
                "SinglePropID": {
                  "GroupID": {
                    "IsDynamic": false,
                    "FixedValue": {
                      "Value": 94
                    }
                  },
                  "ID": {
                    "IsDynamic": false,
                    "FixedValue": {
                      "Value": 300004
                    }
                  }
                }
              }
            },
            {
              "$type": "RPG.GameCore.TriggerCustomString",
              "CustomString": {
                "Value": "300020105"
              }
            }
          ],
          "OverrideTargetTypes": [],
          "TargetType": {
            "$type": "RPG.GameCore.TargetFetchAdvPropEx",
            "FetchType": "SinglePropByPropID",
            "SinglePropID": {
              "GroupID": {
                "IsDynamic": false,
                "FixedValue": {
                  "Value": 94
                }
              },
              "ID": {
                "IsDynamic": false,
                "FixedValue": {
                  "Value": 300004
                }
              }
            }
          }
        }
      ]
    },
    {
      "TaskList": [
        {
          "$type": "RPG.GameCore.WaitCustomString",
          "CustomString": {
            "Value": "300020105"
          }
        },
        {
          "$type": "RPG.GameCore.TriggerPerformance",
          "ValueSource": {},
          "PerformanceType": "E",
          "PerformanceID": 300020103
        },
        {
          "$type": "RPG.GameCore.PlayScreenTransfer",
          "Mode": "SwitchOut",
          "CustomTime": 0.5
        },
        {
          "$type": "RPG.GameCore.WaitSecond",
          "WaitTime": 0.5
        },
        {
          "$type": "RPG.GameCore.DestroyProp",
          "TargetType": {
            "$type": "RPG.GameCore.TargetFetchAdvPropEx"
          },
          "ID": {
            "IsDynamic": false,
            "FixedValue": {
              "Value": 300004
            }
          },
          "GroupID": {
            "IsDynamic": false,
            "FixedValue": {
              "Value": 94
            }
          }
        },
        {
          "$type": "RPG.GameCore.WaitSecond",
          "WaitTime": 0.5
        },
        {
          "$type": "RPG.GameCore.PlayScreenTransfer",
          "CustomTime": 0.5
        },
        {
          "$type": "RPG.GameCore.FinishPerformanceMission",
          "Key": "Mission_300020305"
        }
      ]
    }
  ]
}