{
  "AIName": "WMonster_W1_Mecha03_02",
  "VariableList": [
    {
      "$type": "RPG.GameCore.AIVariableString",
      "Value": "W1_Mecha03_02_Phase01",
      "Name": "CurrentPhase"
    },
    {
      "$type": "RPG.GameCore.AIVariableBool",
      "Value": true,
      "Name": "ForbidClearSkillUseRecord"
    }
  ],
  "DecisionList": [
    {
      "$type": "RPG.GameCore.AIDecisionConfig",
      "DecisionName": "Decision01",
      "RootTask": {
        "$type": "RPG.GameCore.SequenceConfig",
        "TaskList": [
          {
            "$type": "RPG.GameCore.DefineDynamicValue",
            "TargetType": {
              "$type": "RPG.GameCore.TargetAlias",
              "Alias": "Caster"
            },
            "DynamicKey": "AIFlag",
            "ResetValue": {
              "IsDynamic": false,
              "FixedValue": {
                "Value": 2
              }
            },
            "ContextScope": "TargetEntity"
          },
          {
            "$type": "RPG.GameCore.UseSkill",
            "SkillName": "Skill01"
          }
        ]
      },
      "ScoreEvaluatorType": "DefaultDSE",
      "Weight": {
        "Value": 0.5000000004656613
      },
      "ConsiderAxisList": [
        {
          "$type": "RPG.GameCore.CheckPredicateAxis",
          "Predicate": {
            "$type": "RPG.GameCore.ByCompareDynamicValue",
            "DynamicKey": "AIFlag",
            "ContextScope": "TargetEntity",
            "CompareType": "Equal",
            "CompareValue": {
              "IsDynamic": false,
              "FixedValue": {
                "Value": 1
              }
            }
          },
          "SuccessScore": {
            "Value": 0.5000000004656613
          }
        }
      ]
    },
    {
      "$type": "RPG.GameCore.AIDecisionConfig",
      "DecisionName": "Decision01",
      "RootTask": {
        "$type": "RPG.GameCore.SequenceConfig",
        "TaskList": [
          {
            "$type": "RPG.GameCore.DefineDynamicValue",
            "TargetType": {
              "$type": "RPG.GameCore.TargetAlias",
              "Alias": "Caster"
            },
            "DynamicKey": "AIFlag",
            "ResetValue": {
              "IsDynamic": false,
              "FixedValue": {
                "Value": 3
              }
            },
            "ContextScope": "TargetEntity"
          },
          {
            "$type": "RPG.GameCore.PredicateTaskList",
            "Predicate": {
              "$type": "RPG.GameCore.ByCompareCharacterNumber",
              "TargetType": {
                "$type": "RPG.GameCore.TargetAlias",
                "Alias": "AllTeammate"
              },
              "CompareType": "LessEqual",
              "CompareNumber": {
                "IsDynamic": false,
                "FixedValue": {
                  "Value": 3
                }
              }
            },
            "SuccessTaskList": [
              {
                "$type": "RPG.GameCore.UseSkill",
                "SkillName": "Skill05"
              }
            ],
            "FailedTaskList": [
              {
                "$type": "RPG.GameCore.UseSkill",
                "SkillName": "Skill07"
              }
            ]
          }
        ]
      },
      "ScoreEvaluatorType": "DefaultDSE",
      "Weight": {
        "Value": 0.5000000004656613
      },
      "ConsiderAxisList": [
        {
          "$type": "RPG.GameCore.CheckPredicateAxis",
          "Predicate": {
            "$type": "RPG.GameCore.ByCompareDynamicValue",
            "DynamicKey": "AIFlag",
            "ContextScope": "TargetEntity",
            "CompareType": "Equal",
            "CompareValue": {
              "IsDynamic": false,
              "FixedValue": {
                "Value": 2
              }
            }
          },
          "SuccessScore": {
            "Value": 0.5000000004656613
          }
        }
      ]
    },
    {
      "$type": "RPG.GameCore.AIDecisionConfig",
      "DecisionName": "Decision01",
      "RootTask": {
        "$type": "RPG.GameCore.SequenceConfig",
        "TaskList": [
          {
            "$type": "RPG.GameCore.DefineDynamicValue",
            "TargetType": {
              "$type": "RPG.GameCore.TargetAlias",
              "Alias": "Caster"
            },
            "DynamicKey": "AIFlag",
            "ResetValue": {
              "IsDynamic": false,
              "FixedValue": {
                "Value": 4
              }
            },
            "ContextScope": "TargetEntity"
          },
          {
            "$type": "RPG.GameCore.PredicateTaskList",
            "Predicate": {
              "$type": "RPG.GameCore.ByCompareCharacterNumber",
              "TargetType": {
                "$type": "RPG.GameCore.TargetAlias",
                "Alias": "AllTeammate"
              },
              "CompareType": "LessEqual",
              "CompareNumber": {
                "IsDynamic": false,
                "FixedValue": {
                  "Value": 3
                }
              }
            },
            "SuccessTaskList": [
              {
                "$type": "RPG.GameCore.UseSkill",
                "SkillName": "Skill05"
              }
            ],
            "FailedTaskList": [
              {
                "$type": "RPG.GameCore.UseSkill",
                "SkillName": "Skill07"
              }
            ]
          }
        ]
      },
      "ScoreEvaluatorType": "DefaultDSE",
      "Weight": {
        "Value": 0.5000000004656613
      },
      "ConsiderAxisList": [
        {
          "$type": "RPG.GameCore.CheckPredicateAxis",
          "Predicate": {
            "$type": "RPG.GameCore.ByCompareDynamicValue",
            "DynamicKey": "AIFlag",
            "ContextScope": "TargetEntity",
            "CompareType": "Equal",
            "CompareValue": {
              "IsDynamic": false,
              "FixedValue": {
                "Value": 3
              }
            }
          },
          "SuccessScore": {
            "Value": 0.5000000004656613
          }
        }
      ]
    },
    {
      "$type": "RPG.GameCore.AIDecisionConfig",
      "DecisionName": "Decision01",
      "RootTask": {
        "$type": "RPG.GameCore.SequenceConfig",
        "TaskList": [
          {
            "$type": "RPG.GameCore.PredicateTaskList",
            "Predicate": {
              "$type": "RPG.GameCore.ByIsContainModifier",
              "TargetType": {
                "$type": "RPG.GameCore.TargetAlias",
                "Alias": "Caster"
              },
              "ModifierName": "OneMore"
            },
            "SuccessTaskList": [
              {
                "$type": "RPG.GameCore.DefineDynamicValue",
                "TargetType": {
                  "$type": "RPG.GameCore.TargetAlias",
                  "Alias": "Caster"
                },
                "DynamicKey": "AIFlag",
                "ResetValue": {
                  "IsDynamic": false,
                  "FixedValue": {
                    "Value": 4
                  }
                },
                "ContextScope": "TargetEntity"
              },
              {
                "$type": "RPG.GameCore.UseSkill",
                "SkillName": "Skill01"
              }
            ],
            "FailedTaskList": [
              {
                "$type": "RPG.GameCore.DefineDynamicValue",
                "TargetType": {
                  "$type": "RPG.GameCore.TargetAlias",
                  "Alias": "Caster"
                },
                "DynamicKey": "AIFlag",
                "ResetValue": {
                  "IsDynamic": false,
                  "FixedValue": {
                    "Value": 5
                  }
                },
                "ContextScope": "TargetEntity"
              },
              {
                "$type": "RPG.GameCore.UseSkill",
                "SkillName": "Skill06"
              }
            ]
          }
        ]
      },
      "ScoreEvaluatorType": "DefaultDSE",
      "Weight": {
        "Value": 0.5000000004656613
      },
      "ConsiderAxisList": [
        {
          "$type": "RPG.GameCore.CheckPredicateAxis",
          "Predicate": {
            "$type": "RPG.GameCore.ByCompareDynamicValue",
            "DynamicKey": "AIFlag",
            "ContextScope": "TargetEntity",
            "CompareType": "Equal",
            "CompareValue": {
              "IsDynamic": false,
              "FixedValue": {
                "Value": 4
              }
            }
          },
          "SuccessScore": {
            "Value": 0.5000000004656613
          }
        }
      ]
    },
    {
      "$type": "RPG.GameCore.AIDecisionConfig",
      "DecisionName": "Decision01",
      "RootTask": {
        "$type": "RPG.GameCore.SequenceConfig",
        "TaskList": [
          {
            "$type": "RPG.GameCore.DefineDynamicValue",
            "TargetType": {
              "$type": "RPG.GameCore.TargetAlias",
              "Alias": "Caster"
            },
            "DynamicKey": "AIFlag",
            "ResetValue": {
              "IsDynamic": false,
              "FixedValue": {
                "Value": 6
              }
            },
            "ContextScope": "TargetEntity"
          },
          {
            "$type": "RPG.GameCore.UseSkill",
            "SkillName": "Skill04"
          }
        ]
      },
      "ScoreEvaluatorType": "DefaultDSE",
      "Weight": {
        "Value": 0.5000000004656613
      },
      "ConsiderAxisList": [
        {
          "$type": "RPG.GameCore.CheckPredicateAxis",
          "Predicate": {
            "$type": "RPG.GameCore.ByCompareDynamicValue",
            "DynamicKey": "AIFlag",
            "ContextScope": "TargetEntity",
            "CompareType": "Equal",
            "CompareValue": {
              "IsDynamic": false,
              "FixedValue": {
                "Value": 5
              }
            }
          },
          "SuccessScore": {
            "Value": 0.5000000004656613
          }
        }
      ]
    },
    {
      "$type": "RPG.GameCore.AIDecisionConfig",
      "DecisionName": "Decision01",
      "RootTask": {
        "$type": "RPG.GameCore.SequenceConfig",
        "TaskList": [
          {
            "$type": "RPG.GameCore.PredicateTaskList",
            "Predicate": {
              "$type": "RPG.GameCore.ByIsContainModifier",
              "TargetType": {
                "$type": "RPG.GameCore.TargetAlias",
                "Alias": "Caster"
              },
              "ModifierName": "OneMore"
            },
            "SuccessTaskList": [
              {
                "$type": "RPG.GameCore.DefineDynamicValue",
                "TargetType": {
                  "$type": "RPG.GameCore.TargetAlias",
                  "Alias": "Caster"
                },
                "DynamicKey": "AIFlag",
                "ResetValue": {
                  "IsDynamic": false,
                  "FixedValue": {
                    "Value": 6
                  }
                },
                "ContextScope": "TargetEntity"
              },
              {
                "$type": "RPG.GameCore.UseSkill",
                "SkillName": "Skill01"
              }
            ],
            "FailedTaskList": [
              {
                "$type": "RPG.GameCore.DefineDynamicValue",
                "TargetType": {
                  "$type": "RPG.GameCore.TargetAlias",
                  "Alias": "Caster"
                },
                "DynamicKey": "AIFlag",
                "ResetValue": {
                  "IsDynamic": false,
                  "FixedValue": {
                    "Value": 7
                  }
                },
                "ContextScope": "TargetEntity"
              },
              {
                "$type": "RPG.GameCore.UseSkill",
                "SkillName": "Skill02"
              }
            ]
          }
        ]
      },
      "ScoreEvaluatorType": "DefaultDSE",
      "Weight": {
        "Value": 0.5000000004656613
      },
      "ConsiderAxisList": [
        {
          "$type": "RPG.GameCore.CheckPredicateAxis",
          "Predicate": {
            "$type": "RPG.GameCore.ByCompareDynamicValue",
            "DynamicKey": "AIFlag",
            "ContextScope": "TargetEntity",
            "CompareType": "Equal",
            "CompareValue": {
              "IsDynamic": false,
              "FixedValue": {
                "Value": 6
              }
            }
          },
          "SuccessScore": {
            "Value": 0.5000000004656613
          }
        }
      ]
    },
    {
      "$type": "RPG.GameCore.AIDecisionConfig",
      "DecisionName": "Decision01",
      "RootTask": {
        "$type": "RPG.GameCore.SequenceConfig",
        "TaskList": [
          {
            "$type": "RPG.GameCore.DefineDynamicValue",
            "TargetType": {
              "$type": "RPG.GameCore.TargetAlias",
              "Alias": "Caster"
            },
            "DynamicKey": "AIFlag",
            "ResetValue": {
              "IsDynamic": false,
              "FixedValue": {
                "Value": 8
              }
            },
            "ContextScope": "TargetEntity"
          },
          {
            "$type": "RPG.GameCore.UseSkill",
            "SkillName": "Skill03"
          }
        ]
      },
      "ScoreEvaluatorType": "DefaultDSE",
      "Weight": {
        "Value": 0.5000000004656613
      },
      "ConsiderAxisList": [
        {
          "$type": "RPG.GameCore.CheckPredicateAxis",
          "Predicate": {
            "$type": "RPG.GameCore.ByCompareDynamicValue",
            "DynamicKey": "AIFlag",
            "ContextScope": "TargetEntity",
            "CompareType": "Equal",
            "CompareValue": {
              "IsDynamic": false,
              "FixedValue": {
                "Value": 7
              }
            }
          },
          "SuccessScore": {
            "Value": 0.5000000004656613
          }
        }
      ]
    },
    {
      "$type": "RPG.GameCore.AIDecisionConfig",
      "DecisionName": "Decision01",
      "RootTask": {
        "$type": "RPG.GameCore.SequenceConfig",
        "TaskList": [
          {
            "$type": "RPG.GameCore.PredicateTaskList",
            "Predicate": {
              "$type": "RPG.GameCore.ByIsContainModifier",
              "TargetType": {
                "$type": "RPG.GameCore.TargetAlias",
                "Alias": "Caster"
              },
              "ModifierName": "OneMore"
            },
            "SuccessTaskList": [
              {
                "$type": "RPG.GameCore.DefineDynamicValue",
                "TargetType": {
                  "$type": "RPG.GameCore.TargetAlias",
                  "Alias": "Caster"
                },
                "DynamicKey": "AIFlag",
                "ResetValue": {
                  "IsDynamic": false,
                  "FixedValue": {
                    "Value": 8
                  }
                },
                "ContextScope": "TargetEntity"
              },
              {
                "$type": "RPG.GameCore.UseSkill",
                "SkillName": "Skill01"
              }
            ],
            "FailedTaskList": [
              {
                "$type": "RPG.GameCore.DefineDynamicValue",
                "TargetType": {
                  "$type": "RPG.GameCore.TargetAlias",
                  "Alias": "Caster"
                },
                "DynamicKey": "AIFlag",
                "ResetValue": {
                  "IsDynamic": false,
                  "FixedValue": {
                    "Value": 1
                  }
                },
                "ContextScope": "TargetEntity"
              },
              {
                "$type": "RPG.GameCore.PredicateTaskList",
                "Predicate": {
                  "$type": "RPG.GameCore.ByCompareCharacterNumber",
                  "TargetType": {
                    "$type": "RPG.GameCore.TargetAlias",
                    "Alias": "AllTeammate"
                  },
                  "CompareType": "LessEqual",
                  "CompareNumber": {
                    "IsDynamic": false,
                    "FixedValue": {
                      "Value": 3
                    }
                  }
                },
                "SuccessTaskList": [
                  {
                    "$type": "RPG.GameCore.UseSkill",
                    "SkillName": "Skill05"
                  }
                ],
                "FailedTaskList": [
                  {
                    "$type": "RPG.GameCore.UseSkill",
                    "SkillName": "Skill07"
                  }
                ]
              }
            ]
          }
        ]
      },
      "ScoreEvaluatorType": "DefaultDSE",
      "Weight": {
        "Value": 0.5000000004656613
      },
      "ConsiderAxisList": [
        {
          "$type": "RPG.GameCore.CheckPredicateAxis",
          "Predicate": {
            "$type": "RPG.GameCore.ByCompareDynamicValue",
            "DynamicKey": "AIFlag",
            "ContextScope": "TargetEntity",
            "CompareType": "Equal",
            "CompareValue": {
              "IsDynamic": false,
              "FixedValue": {
                "Value": 8
              }
            }
          },
          "SuccessScore": {
            "Value": 0.5000000004656613
          }
        }
      ]
    },
    {
      "$type": "RPG.GameCore.AIDecisionConfig",
      "DecisionName": "Decision01",
      "RootTask": {
        "$type": "RPG.GameCore.SequenceConfig",
        "TaskList": [
          {
            "$type": "RPG.GameCore.DefineDynamicValue",
            "TargetType": {
              "$type": "RPG.GameCore.TargetAlias",
              "Alias": "Caster"
            },
            "DynamicKey": "AIFlag",
            "ResetValue": {
              "IsDynamic": false,
              "FixedValue": {
                "Value": 6
              }
            },
            "ContextScope": "TargetEntity"
          },
          {
            "$type": "RPG.GameCore.PredicateTaskList",
            "Predicate": {
              "$type": "RPG.GameCore.ByCompareCharacterNumber",
              "TargetType": {
                "$type": "RPG.GameCore.TargetAlias",
                "Alias": "AllTeammate"
              },
              "CompareType": "LessEqual",
              "CompareNumber": {
                "IsDynamic": false,
                "FixedValue": {
                  "Value": 3
                }
              }
            },
            "SuccessTaskList": [
              {
                "$type": "RPG.GameCore.UseSkill",
                "SkillName": "Skill05"
              }
            ],
            "FailedTaskList": [
              {
                "$type": "RPG.GameCore.UseSkill",
                "SkillName": "Skill07"
              }
            ]
          }
        ]
      },
      "ScoreEvaluatorType": "DefaultDSE",
      "Weight": {
        "Value": 0.5000000004656613
      },
      "ConsiderAxisList": [
        {
          "$type": "RPG.GameCore.CheckPredicateAxis",
          "Predicate": {
            "$type": "RPG.GameCore.ByCompareDynamicValue",
            "DynamicKey": "AIFlag",
            "ContextScope": "TargetEntity",
            "CompareType": "Equal",
            "CompareValue": {
              "IsDynamic": false,
              "FixedValue": {
                "Value": 9
              }
            }
          },
          "SuccessScore": {
            "Value": 0.5000000004656613
          }
        }
      ]
    },
    {
      "$type": "RPG.GameCore.AIDecisionConfig",
      "DecisionName": "Decision01",
      "RootTask": {
        "$type": "RPG.GameCore.SequenceConfig",
        "TaskList": [
          {
            "$type": "RPG.GameCore.DefineDynamicValue",
            "TargetType": {
              "$type": "RPG.GameCore.TargetAlias",
              "Alias": "Caster"
            },
            "DynamicKey": "AIFlag",
            "ResetValue": {
              "IsDynamic": false,
              "FixedValue": {
                "Value": 2
              }
            },
            "ContextScope": "TargetEntity"
          },
          {
            "$type": "RPG.GameCore.UseSkill",
            "SkillName": "Skill01"
          }
        ]
      },
      "ScoreEvaluatorType": "DefaultDSE",
      "Weight": {
        "Value": 0.5000000004656613
      },
      "ConsiderAxisList": [
        {
          "$type": "RPG.GameCore.CheckPredicateAxis",
          "Predicate": {
            "$type": "RPG.GameCore.ByCompareDynamicValue",
            "DynamicKey": "AIFlag",
            "ContextScope": "TargetEntity",
            "CompareType": "Equal",
            "CompareValue": {
              "IsDynamic": false,
              "FixedValue": {
                "Value": 10
              }
            }
          },
          "SuccessScore": {
            "Value": 0.5000000004656613
          }
        }
      ]
    }
  ]
}