{
  "AIName": "Monster_W1_Gepard_00_RL",
  "VariableList": [
    {
      "$type": "RPG.GameCore.AIVariableString",
      "Value": "W1_Gepard_00_RL_Phase01",
      "Name": "CurrentPhase"
    },
    {
      "$type": "RPG.GameCore.AIVariableBool",
      "Value": true,
      "Name": "ForbidClearSkillUseRecord"
    }
  ],
  "DecisionList": [
    {
      "$type": "RPG.GameCore.AIDecisionConfig",
      "DecisionName": "Decision1-1",
      "RootTask": {
        "$type": "RPG.GameCore.SequenceConfig",
        "TaskList": [
          {
            "$type": "RPG.GameCore.PredicateTaskList",
            "Predicate": {
              "$type": "RPG.GameCore.ByCompareDynamicValue",
              "DynamicKey": "UsedEnterBattleFlag",
              "ContextScope": "TargetEntity",
              "CompareType": "Equal",
              "CompareValue": {
                "IsDynamic": false,
                "FixedValue": {
                  "Value": 1
                }
              }
            },
            "SuccessTaskList": [
              {
                "$type": "RPG.GameCore.SequenceConfig",
                "TaskList": [
                  {
                    "$type": "RPG.GameCore.DefineDynamicValue",
                    "TargetType": {
                      "$type": "RPG.GameCore.TargetAlias",
                      "Alias": "Caster"
                    },
                    "DynamicKey": "AIFlag",
                    "ResetValue": {
                      "IsDynamic": false,
                      "FixedValue": {
                        "Value": 2
                      }
                    },
                    "ContextScope": "TargetEntity"
                  },
                  {
                    "$type": "RPG.GameCore.UseSkill",
                    "SkillName": "Skill05"
                  }
                ]
              }
            ],
            "FailedTaskList": [
              {
                "$type": "RPG.GameCore.SequenceConfig",
                "TaskList": [
                  {
                    "$type": "RPG.GameCore.DefineDynamicValue",
                    "TargetType": {
                      "$type": "RPG.GameCore.TargetAlias",
                      "Alias": "Caster"
                    },
                    "DynamicKey": "AIFlag",
                    "ResetValue": {
                      "IsDynamic": false,
                      "FixedValue": {
                        "Value": 1
                      }
                    },
                    "ContextScope": "TargetEntity"
                  },
                  {
                    "$type": "RPG.GameCore.UseSkill",
                    "SkillName": "Skill14"
                  }
                ]
              }
            ]
          }
        ]
      },
      "ScoreEvaluatorType": "DefaultDSE",
      "ConsiderAxisList": [
        {
          "$type": "RPG.GameCore.CheckPredicateAxis",
          "Predicate": {
            "$type": "RPG.GameCore.ByAnd",
            "PredicateList": [
              {
                "$type": "RPG.GameCore.ByCompareMonsterPhase",
                "CompareType": "Equal",
                "CompareValue": {
                  "IsDynamic": false,
                  "FixedValue": {
                    "Value": 1
                  }
                }
              },
              {
                "$type": "RPG.GameCore.ByCompareDynamicValue",
                "DynamicKey": "AIFlag",
                "ContextScope": "TargetEntity",
                "CompareType": "Equal",
                "CompareValue": {
                  "IsDynamic": false,
                  "FixedValue": {
                    "Value": 1
                  }
                }
              }
            ]
          },
          "SuccessScore": {
            "Value": 0.5000000004656613
          }
        }
      ]
    },
    {
      "$type": "RPG.GameCore.AIDecisionConfig",
      "DecisionName": "Decision1-2",
      "RootTask": {
        "$type": "RPG.GameCore.SequenceConfig",
        "TaskList": [
          {
            "$type": "RPG.GameCore.DefineDynamicValue",
            "TargetType": {
              "$type": "RPG.GameCore.TargetAlias",
              "Alias": "Caster"
            },
            "DynamicKey": "AIFlag",
            "ResetValue": {
              "IsDynamic": false,
              "FixedValue": {
                "Value": 3
              }
            },
            "ContextScope": "TargetEntity"
          },
          {
            "$type": "RPG.GameCore.UseSkill",
            "SkillName": "Skill04"
          }
        ]
      },
      "ScoreEvaluatorType": "DefaultDSE",
      "ConsiderAxisList": [
        {
          "$type": "RPG.GameCore.CheckPredicateAxis",
          "Predicate": {
            "$type": "RPG.GameCore.ByAnd",
            "PredicateList": [
              {
                "$type": "RPG.GameCore.ByCompareMonsterPhase",
                "CompareType": "Equal",
                "CompareValue": {
                  "IsDynamic": false,
                  "FixedValue": {
                    "Value": 1
                  }
                }
              },
              {
                "$type": "RPG.GameCore.ByCompareDynamicValue",
                "DynamicKey": "AIFlag",
                "ContextScope": "TargetEntity",
                "CompareType": "Equal",
                "CompareValue": {
                  "IsDynamic": false,
                  "FixedValue": {
                    "Value": 2
                  }
                }
              }
            ]
          },
          "SuccessScore": {
            "Value": 0.5000000004656613
          }
        }
      ]
    },
    {
      "$type": "RPG.GameCore.AIDecisionConfig",
      "DecisionName": "Decision1-3",
      "RootTask": {
        "$type": "RPG.GameCore.SequenceConfig",
        "TaskList": [
          {
            "$type": "RPG.GameCore.DefineDynamicValue",
            "TargetType": {
              "$type": "RPG.GameCore.TargetAlias",
              "Alias": "Caster"
            },
            "DynamicKey": "AIFlag",
            "ResetValue": {
              "IsDynamic": false,
              "FixedValue": {
                "Value": 4
              }
            },
            "ContextScope": "TargetEntity"
          },
          {
            "$type": "RPG.GameCore.UseSkill",
            "SkillName": "Skill08"
          }
        ]
      },
      "ScoreEvaluatorType": "DefaultDSE",
      "ConsiderAxisList": [
        {
          "$type": "RPG.GameCore.CheckPredicateAxis",
          "Predicate": {
            "$type": "RPG.GameCore.ByAnd",
            "PredicateList": [
              {
                "$type": "RPG.GameCore.ByCompareMonsterPhase",
                "CompareType": "Equal",
                "CompareValue": {
                  "IsDynamic": false,
                  "FixedValue": {
                    "Value": 1
                  }
                }
              },
              {
                "$type": "RPG.GameCore.ByCompareDynamicValue",
                "DynamicKey": "AIFlag",
                "ContextScope": "TargetEntity",
                "CompareType": "Equal",
                "CompareValue": {
                  "IsDynamic": false,
                  "FixedValue": {
                    "Value": 3
                  }
                }
              }
            ]
          },
          "SuccessScore": {
            "Value": 0.5000000004656613
          }
        }
      ]
    },
    {
      "$type": "RPG.GameCore.AIDecisionConfig",
      "DecisionName": "Decision1-4",
      "RootTask": {
        "$type": "RPG.GameCore.SequenceConfig",
        "TaskList": [
          {
            "$type": "RPG.GameCore.DefineDynamicValue",
            "TargetType": {
              "$type": "RPG.GameCore.TargetAlias",
              "Alias": "Caster"
            },
            "DynamicKey": "AIFlag",
            "ResetValue": {
              "IsDynamic": false,
              "FixedValue": {
                "Value": 1
              }
            },
            "ContextScope": "TargetEntity"
          },
          {
            "$type": "RPG.GameCore.UseSkill",
            "SkillName": "Skill01"
          }
        ]
      },
      "ScoreEvaluatorType": "DefaultDSE",
      "ConsiderAxisList": [
        {
          "$type": "RPG.GameCore.CheckPredicateAxis",
          "Predicate": {
            "$type": "RPG.GameCore.ByAnd",
            "PredicateList": [
              {
                "$type": "RPG.GameCore.ByCompareMonsterPhase",
                "CompareType": "Equal",
                "CompareValue": {
                  "IsDynamic": false,
                  "FixedValue": {
                    "Value": 1
                  }
                }
              },
              {
                "$type": "RPG.GameCore.ByCompareDynamicValue",
                "DynamicKey": "AIFlag",
                "ContextScope": "TargetEntity",
                "CompareType": "Equal",
                "CompareValue": {
                  "IsDynamic": false,
                  "FixedValue": {
                    "Value": 4
                  }
                }
              }
            ]
          },
          "SuccessScore": {
            "Value": 0.5000000004656613
          }
        }
      ]
    },
    {
      "$type": "RPG.GameCore.AIDecisionConfig",
      "DecisionName": "Decision2-1",
      "RootTask": {
        "$type": "RPG.GameCore.SequenceConfig",
        "TaskList": [
          {
            "$type": "RPG.GameCore.PredicateTaskList",
            "Predicate": {
              "$type": "RPG.GameCore.ByIsContainModifier",
              "TargetType": {
                "$type": "RPG.GameCore.TargetAlias",
                "Alias": "DarkTeamEntity"
              },
              "ModifierName": "MAvatar_Gepard_00_RL_Shield"
            },
            "SuccessTaskList": [
              {
                "$type": "RPG.GameCore.DefineDynamicValue",
                "TargetType": {
                  "$type": "RPG.GameCore.TargetAlias",
                  "Alias": "Caster"
                },
                "DynamicKey": "AIFlag",
                "ResetValue": {
                  "IsDynamic": false,
                  "FixedValue": {
                    "Value": 2
                  }
                },
                "ContextScope": "TargetEntity"
              },
              {
                "$type": "RPG.GameCore.UseSkill",
                "SkillName": "Skill02"
              }
            ],
            "FailedTaskList": [
              {
                "$type": "RPG.GameCore.DefineDynamicValue",
                "TargetType": {
                  "$type": "RPG.GameCore.TargetAlias",
                  "Alias": "Caster"
                },
                "DynamicKey": "AIFlag",
                "ResetValue": {
                  "IsDynamic": false,
                  "FixedValue": {
                    "Value": 2
                  }
                },
                "ContextScope": "TargetEntity"
              },
              {
                "$type": "RPG.GameCore.UseSkill",
                "SkillName": "Skill05"
              }
            ]
          }
        ]
      },
      "ScoreEvaluatorType": "DefaultDSE",
      "ConsiderAxisList": [
        {
          "$type": "RPG.GameCore.CheckPredicateAxis",
          "Predicate": {
            "$type": "RPG.GameCore.ByAnd",
            "PredicateList": [
              {
                "$type": "RPG.GameCore.ByCompareMonsterPhase",
                "CompareType": "Equal",
                "CompareValue": {
                  "IsDynamic": false,
                  "FixedValue": {
                    "Value": 2
                  }
                }
              },
              {
                "$type": "RPG.GameCore.ByCompareDynamicValue",
                "DynamicKey": "AIFlag",
                "ContextScope": "TargetEntity",
                "CompareType": "Equal",
                "CompareValue": {
                  "IsDynamic": false,
                  "FixedValue": {
                    "Value": 1
                  }
                }
              }
            ]
          },
          "SuccessScore": {
            "Value": 0.5000000004656613
          }
        }
      ]
    },
    {
      "$type": "RPG.GameCore.AIDecisionConfig",
      "DecisionName": "Decision2-2",
      "RootTask": {
        "$type": "RPG.GameCore.PredicateTaskList",
        "Predicate": {
          "$type": "RPG.GameCore.ByIsContainModifier",
          "TargetType": {
            "$type": "RPG.GameCore.TargetAlias",
            "Alias": "DarkTeamEntity"
          },
          "ModifierName": "MAvatar_Gepard_00_RL_Shield"
        },
        "SuccessTaskList": [
          {
            "$type": "RPG.GameCore.SequenceConfig",
            "TaskList": [
              {
                "$type": "RPG.GameCore.DefineDynamicValue",
                "TargetType": {
                  "$type": "RPG.GameCore.TargetAlias",
                  "Alias": "Caster"
                },
                "DynamicKey": "AIFlag",
                "ResetValue": {
                  "IsDynamic": false,
                  "FixedValue": {
                    "Value": 3
                  }
                },
                "ContextScope": "TargetEntity"
              },
              {
                "$type": "RPG.GameCore.UseSkill",
                "SkillName": "Skill04"
              }
            ]
          }
        ],
        "FailedTaskList": [
          {
            "$type": "RPG.GameCore.SequenceConfig",
            "TaskList": [
              {
                "$type": "RPG.GameCore.DefineDynamicValue",
                "TargetType": {
                  "$type": "RPG.GameCore.TargetAlias",
                  "Alias": "Caster"
                },
                "DynamicKey": "AIFlag",
                "ResetValue": {
                  "IsDynamic": false,
                  "FixedValue": {
                    "Value": 3
                  }
                },
                "ContextScope": "TargetEntity"
              },
              {
                "$type": "RPG.GameCore.UseSkill",
                "SkillName": "Skill04"
              }
            ]
          }
        ]
      },
      "ScoreEvaluatorType": "DefaultDSE",
      "ConsiderAxisList": [
        {
          "$type": "RPG.GameCore.CheckPredicateAxis",
          "Predicate": {
            "$type": "RPG.GameCore.ByAnd",
            "PredicateList": [
              {
                "$type": "RPG.GameCore.ByCompareMonsterPhase",
                "CompareType": "Equal",
                "CompareValue": {
                  "IsDynamic": false,
                  "FixedValue": {
                    "Value": 2
                  }
                }
              },
              {
                "$type": "RPG.GameCore.ByCompareDynamicValue",
                "DynamicKey": "AIFlag",
                "ContextScope": "TargetEntity",
                "CompareType": "Equal",
                "CompareValue": {
                  "IsDynamic": false,
                  "FixedValue": {
                    "Value": 2
                  }
                }
              }
            ]
          },
          "SuccessScore": {
            "Value": 0.5000000004656613
          }
        }
      ]
    },
    {
      "$type": "RPG.GameCore.AIDecisionConfig",
      "DecisionName": "Decision2-3",
      "RootTask": {
        "$type": "RPG.GameCore.PredicateTaskList",
        "Predicate": {
          "$type": "RPG.GameCore.ByIsContainModifier",
          "TargetType": {
            "$type": "RPG.GameCore.TargetAlias",
            "Alias": "DarkTeamEntity"
          },
          "ModifierName": "MAvatar_Gepard_00_RL_Shield"
        },
        "SuccessTaskList": [
          {
            "$type": "RPG.GameCore.SequenceConfig",
            "TaskList": [
              {
                "$type": "RPG.GameCore.DefineDynamicValue",
                "TargetType": {
                  "$type": "RPG.GameCore.TargetAlias",
                  "Alias": "Caster"
                },
                "DynamicKey": "AIFlag",
                "ResetValue": {
                  "IsDynamic": false,
                  "FixedValue": {
                    "Value": 4
                  }
                },
                "ContextScope": "TargetEntity"
              },
              {
                "$type": "RPG.GameCore.UseSkill",
                "SkillName": "Skill02"
              }
            ]
          }
        ],
        "FailedTaskList": [
          {
            "$type": "RPG.GameCore.PredicateTaskList",
            "Predicate": {
              "$type": "RPG.GameCore.ByCompareDynamicValue",
              "DynamicKey": "UsedShieldFlag",
              "ContextScope": "TargetEntity",
              "CompareType": "Equal",
              "CompareValue": {
                "IsDynamic": false,
                "FixedValue": {
                  "Value": 0
                }
              }
            },
            "SuccessTaskList": [
              {
                "$type": "RPG.GameCore.SequenceConfig",
                "TaskList": [
                  {
                    "$type": "RPG.GameCore.DefineDynamicValue",
                    "TargetType": {
                      "$type": "RPG.GameCore.TargetAlias",
                      "Alias": "Caster"
                    },
                    "DynamicKey": "AIFlag",
                    "ResetValue": {
                      "IsDynamic": false,
                      "FixedValue": {
                        "Value": 4
                      }
                    },
                    "ContextScope": "TargetEntity"
                  },
                  {
                    "$type": "RPG.GameCore.UseSkill",
                    "SkillName": "Skill03"
                  }
                ]
              }
            ],
            "FailedTaskList": [
              {
                "$type": "RPG.GameCore.SequenceConfig",
                "TaskList": [
                  {
                    "$type": "RPG.GameCore.DefineDynamicValue",
                    "TargetType": {
                      "$type": "RPG.GameCore.TargetAlias",
                      "Alias": "Caster"
                    },
                    "DynamicKey": "AIFlag",
                    "ResetValue": {
                      "IsDynamic": false,
                      "FixedValue": {
                        "Value": 4
                      }
                    },
                    "ContextScope": "TargetEntity"
                  },
                  {
                    "$type": "RPG.GameCore.UseSkill",
                    "SkillName": "Skill08"
                  }
                ]
              }
            ]
          }
        ]
      },
      "ScoreEvaluatorType": "DefaultDSE",
      "ConsiderAxisList": [
        {
          "$type": "RPG.GameCore.CheckPredicateAxis",
          "Predicate": {
            "$type": "RPG.GameCore.ByAnd",
            "PredicateList": [
              {
                "$type": "RPG.GameCore.ByCompareMonsterPhase",
                "CompareType": "Equal",
                "CompareValue": {
                  "IsDynamic": false,
                  "FixedValue": {
                    "Value": 2
                  }
                }
              },
              {
                "$type": "RPG.GameCore.ByCompareDynamicValue",
                "DynamicKey": "AIFlag",
                "ContextScope": "TargetEntity",
                "CompareType": "Equal",
                "CompareValue": {
                  "IsDynamic": false,
                  "FixedValue": {
                    "Value": 3
                  }
                }
              }
            ]
          },
          "SuccessScore": {
            "Value": 0.5000000004656613
          }
        }
      ]
    },
    {
      "$type": "RPG.GameCore.AIDecisionConfig",
      "DecisionName": "Decision2-4",
      "RootTask": {
        "$type": "RPG.GameCore.PredicateTaskList",
        "Predicate": {
          "$type": "RPG.GameCore.ByIsContainModifier",
          "TargetType": {
            "$type": "RPG.GameCore.TargetAlias",
            "Alias": "DarkTeamEntity"
          },
          "ModifierName": "MAvatar_Gepard_00_RL_Shield"
        },
        "SuccessTaskList": [
          {
            "$type": "RPG.GameCore.SequenceConfig",
            "TaskList": [
              {
                "$type": "RPG.GameCore.DefineDynamicValue",
                "TargetType": {
                  "$type": "RPG.GameCore.TargetAlias",
                  "Alias": "Caster"
                },
                "DynamicKey": "AIFlag",
                "ResetValue": {
                  "IsDynamic": false,
                  "FixedValue": {
                    "Value": 5
                  }
                },
                "ContextScope": "TargetEntity"
              },
              {
                "$type": "RPG.GameCore.UseSkill",
                "SkillName": "Skill04"
              }
            ]
          }
        ],
        "FailedTaskList": [
          {
            "$type": "RPG.GameCore.SequenceConfig",
            "TaskList": [
              {
                "$type": "RPG.GameCore.DefineDynamicValue",
                "TargetType": {
                  "$type": "RPG.GameCore.TargetAlias",
                  "Alias": "Caster"
                },
                "DynamicKey": "AIFlag",
                "ResetValue": {
                  "IsDynamic": false,
                  "FixedValue": {
                    "Value": 5
                  }
                },
                "ContextScope": "TargetEntity"
              },
              {
                "$type": "RPG.GameCore.UseSkill",
                "SkillName": "Skill02"
              }
            ]
          }
        ]
      },
      "ScoreEvaluatorType": "DefaultDSE",
      "ConsiderAxisList": [
        {
          "$type": "RPG.GameCore.CheckPredicateAxis",
          "Predicate": {
            "$type": "RPG.GameCore.ByAnd",
            "PredicateList": [
              {
                "$type": "RPG.GameCore.ByCompareMonsterPhase",
                "CompareType": "Equal",
                "CompareValue": {
                  "IsDynamic": false,
                  "FixedValue": {
                    "Value": 2
                  }
                }
              },
              {
                "$type": "RPG.GameCore.ByCompareDynamicValue",
                "DynamicKey": "AIFlag",
                "ContextScope": "TargetEntity",
                "CompareType": "Equal",
                "CompareValue": {
                  "IsDynamic": false,
                  "FixedValue": {
                    "Value": 4
                  }
                }
              }
            ]
          },
          "SuccessScore": {
            "Value": 0.5000000004656613
          }
        }
      ]
    },
    {
      "$type": "RPG.GameCore.AIDecisionConfig",
      "DecisionName": "Decision2-5",
      "RootTask": {
        "$type": "RPG.GameCore.PredicateTaskList",
        "Predicate": {
          "$type": "RPG.GameCore.ByIsContainModifier",
          "TargetType": {
            "$type": "RPG.GameCore.TargetAlias",
            "Alias": "DarkTeamEntity"
          },
          "ModifierName": "MAvatar_Gepard_00_RL_Shield"
        },
        "SuccessTaskList": [
          {
            "$type": "RPG.GameCore.SequenceConfig",
            "TaskList": [
              {
                "$type": "RPG.GameCore.DefineDynamicValue",
                "TargetType": {
                  "$type": "RPG.GameCore.TargetAlias",
                  "Alias": "Caster"
                },
                "DynamicKey": "AIFlag",
                "ResetValue": {
                  "IsDynamic": false,
                  "FixedValue": {
                    "Value": 6
                  }
                },
                "ContextScope": "TargetEntity"
              },
              {
                "$type": "RPG.GameCore.UseSkill",
                "SkillName": "Skill02"
              }
            ]
          }
        ],
        "FailedTaskList": [
          {
            "$type": "RPG.GameCore.SequenceConfig",
            "TaskList": [
              {
                "$type": "RPG.GameCore.DefineDynamicValue",
                "TargetType": {
                  "$type": "RPG.GameCore.TargetAlias",
                  "Alias": "Caster"
                },
                "DynamicKey": "AIFlag",
                "ResetValue": {
                  "IsDynamic": false,
                  "FixedValue": {
                    "Value": 6
                  }
                },
                "ContextScope": "TargetEntity"
              },
              {
                "$type": "RPG.GameCore.UseSkill",
                "SkillName": "Skill01"
              }
            ]
          }
        ]
      },
      "ScoreEvaluatorType": "DefaultDSE",
      "ConsiderAxisList": [
        {
          "$type": "RPG.GameCore.CheckPredicateAxis",
          "Predicate": {
            "$type": "RPG.GameCore.ByAnd",
            "PredicateList": [
              {
                "$type": "RPG.GameCore.ByCompareMonsterPhase",
                "CompareType": "Equal",
                "CompareValue": {
                  "IsDynamic": false,
                  "FixedValue": {
                    "Value": 2
                  }
                }
              },
              {
                "$type": "RPG.GameCore.ByCompareDynamicValue",
                "DynamicKey": "AIFlag",
                "ContextScope": "TargetEntity",
                "CompareType": "Equal",
                "CompareValue": {
                  "IsDynamic": false,
                  "FixedValue": {
                    "Value": 5
                  }
                }
              }
            ]
          },
          "SuccessScore": {
            "Value": 0.5000000004656613
          }
        }
      ]
    },
    {
      "$type": "RPG.GameCore.AIDecisionConfig",
      "DecisionName": "Decision2-5",
      "RootTask": {
        "$type": "RPG.GameCore.PredicateTaskList",
        "Predicate": {
          "$type": "RPG.GameCore.ByIsContainModifier",
          "TargetType": {
            "$type": "RPG.GameCore.TargetAlias",
            "Alias": "DarkTeamEntity"
          },
          "ModifierName": "MAvatar_Gepard_00_RL_Shield"
        },
        "SuccessTaskList": [
          {
            "$type": "RPG.GameCore.SequenceConfig",
            "TaskList": [
              {
                "$type": "RPG.GameCore.DefineDynamicValue",
                "TargetType": {
                  "$type": "RPG.GameCore.TargetAlias",
                  "Alias": "Caster"
                },
                "DynamicKey": "AIFlag",
                "ResetValue": {
                  "IsDynamic": false,
                  "FixedValue": {
                    "Value": 1
                  }
                },
                "ContextScope": "TargetEntity"
              },
              {
                "$type": "RPG.GameCore.UseSkill",
                "SkillName": "Skill04"
              }
            ]
          }
        ],
        "FailedTaskList": [
          {
            "$type": "RPG.GameCore.SequenceConfig",
            "TaskList": [
              {
                "$type": "RPG.GameCore.DefineDynamicValue",
                "TargetType": {
                  "$type": "RPG.GameCore.TargetAlias",
                  "Alias": "Caster"
                },
                "DynamicKey": "AIFlag",
                "ResetValue": {
                  "IsDynamic": false,
                  "FixedValue": {
                    "Value": 1
                  }
                },
                "ContextScope": "TargetEntity"
              },
              {
                "$type": "RPG.GameCore.UseSkill",
                "SkillName": "Skill04"
              }
            ]
          }
        ]
      },
      "ScoreEvaluatorType": "DefaultDSE",
      "ConsiderAxisList": [
        {
          "$type": "RPG.GameCore.CheckPredicateAxis",
          "Predicate": {
            "$type": "RPG.GameCore.ByAnd",
            "PredicateList": [
              {
                "$type": "RPG.GameCore.ByCompareMonsterPhase",
                "CompareType": "Equal",
                "CompareValue": {
                  "IsDynamic": false,
                  "FixedValue": {
                    "Value": 2
                  }
                }
              },
              {
                "$type": "RPG.GameCore.ByCompareDynamicValue",
                "DynamicKey": "AIFlag",
                "ContextScope": "TargetEntity",
                "CompareType": "Equal",
                "CompareValue": {
                  "IsDynamic": false,
                  "FixedValue": {
                    "Value": 6
                  }
                }
              }
            ]
          },
          "SuccessScore": {
            "Value": 0.5000000004656613
          }
        }
      ]
    },
    {
      "$type": "RPG.GameCore.AIDecisionConfig",
      "DecisionName": "Decision3-1",
      "RootTask": {
        "$type": "RPG.GameCore.SequenceConfig",
        "TaskList": [
          {
            "$type": "RPG.GameCore.PredicateTaskList",
            "Predicate": {
              "$type": "RPG.GameCore.ByIsContainModifier",
              "TargetType": {
                "$type": "RPG.GameCore.TargetAlias",
                "Alias": "DarkTeamEntity"
              },
              "ModifierName": "MAvatar_Gepard_00_RL_Shield"
            },
            "SuccessTaskList": [
              {
                "$type": "RPG.GameCore.DefineDynamicValue",
                "TargetType": {
                  "$type": "RPG.GameCore.TargetAlias",
                  "Alias": "Caster"
                },
                "DynamicKey": "AIFlag",
                "ResetValue": {
                  "IsDynamic": false,
                  "FixedValue": {
                    "Value": 4
                  }
                },
                "ContextScope": "TargetEntity"
              },
              {
                "$type": "RPG.GameCore.UseSkill",
                "SkillName": "Skill02"
              }
            ],
            "FailedTaskList": [
              {
                "$type": "RPG.GameCore.DefineDynamicValue",
                "TargetType": {
                  "$type": "RPG.GameCore.TargetAlias",
                  "Alias": "Caster"
                },
                "DynamicKey": "AIFlag",
                "ResetValue": {
                  "IsDynamic": false,
                  "FixedValue": {
                    "Value": 2
                  }
                },
                "ContextScope": "TargetEntity"
              },
              {
                "$type": "RPG.GameCore.UseSkill",
                "SkillName": "Skill05"
              }
            ]
          }
        ]
      },
      "ScoreEvaluatorType": "DefaultDSE",
      "ConsiderAxisList": [
        {
          "$type": "RPG.GameCore.CheckPredicateAxis",
          "Predicate": {
            "$type": "RPG.GameCore.ByAnd",
            "PredicateList": [
              {
                "$type": "RPG.GameCore.ByCompareMonsterPhase",
                "CompareType": "Equal",
                "CompareValue": {
                  "IsDynamic": false,
                  "FixedValue": {
                    "Value": 3
                  }
                }
              },
              {
                "$type": "RPG.GameCore.ByCompareDynamicValue",
                "DynamicKey": "AIFlag",
                "ContextScope": "TargetEntity",
                "CompareType": "Equal",
                "CompareValue": {
                  "IsDynamic": false,
                  "FixedValue": {
                    "Value": 1
                  }
                }
              }
            ]
          },
          "SuccessScore": {
            "Value": 0.5000000004656613
          }
        }
      ]
    },
    {
      "$type": "RPG.GameCore.AIDecisionConfig",
      "DecisionName": "Decision3-2",
      "RootTask": {
        "$type": "RPG.GameCore.PredicateTaskList",
        "Predicate": {
          "$type": "RPG.GameCore.ByIsContainModifier",
          "TargetType": {
            "$type": "RPG.GameCore.TargetAlias",
            "Alias": "DarkTeamEntity"
          },
          "ModifierName": "MAvatar_Gepard_00_RL_Shield"
        },
        "SuccessTaskList": [
          {
            "$type": "RPG.GameCore.SequenceConfig",
            "TaskList": [
              {
                "$type": "RPG.GameCore.DefineDynamicValue",
                "TargetType": {
                  "$type": "RPG.GameCore.TargetAlias",
                  "Alias": "Caster"
                },
                "DynamicKey": "AIFlag",
                "ResetValue": {
                  "IsDynamic": false,
                  "FixedValue": {
                    "Value": 3
                  }
                },
                "ContextScope": "TargetEntity"
              },
              {
                "$type": "RPG.GameCore.UseSkill",
                "SkillName": "Skill04"
              }
            ]
          }
        ],
        "FailedTaskList": [
          {
            "$type": "RPG.GameCore.SequenceConfig",
            "TaskList": [
              {
                "$type": "RPG.GameCore.DefineDynamicValue",
                "TargetType": {
                  "$type": "RPG.GameCore.TargetAlias",
                  "Alias": "Caster"
                },
                "DynamicKey": "AIFlag",
                "ResetValue": {
                  "IsDynamic": false,
                  "FixedValue": {
                    "Value": 3
                  }
                },
                "ContextScope": "TargetEntity"
              },
              {
                "$type": "RPG.GameCore.UseSkill",
                "SkillName": "Skill02"
              }
            ]
          }
        ]
      },
      "ScoreEvaluatorType": "DefaultDSE",
      "ConsiderAxisList": [
        {
          "$type": "RPG.GameCore.CheckPredicateAxis",
          "Predicate": {
            "$type": "RPG.GameCore.ByAnd",
            "PredicateList": [
              {
                "$type": "RPG.GameCore.ByCompareMonsterPhase",
                "CompareType": "Equal",
                "CompareValue": {
                  "IsDynamic": false,
                  "FixedValue": {
                    "Value": 3
                  }
                }
              },
              {
                "$type": "RPG.GameCore.ByCompareDynamicValue",
                "DynamicKey": "AIFlag",
                "ContextScope": "TargetEntity",
                "CompareType": "Equal",
                "CompareValue": {
                  "IsDynamic": false,
                  "FixedValue": {
                    "Value": 2
                  }
                }
              }
            ]
          },
          "SuccessScore": {
            "Value": 0.5000000004656613
          }
        }
      ]
    },
    {
      "$type": "RPG.GameCore.AIDecisionConfig",
      "DecisionName": "Decision3-3",
      "RootTask": {
        "$type": "RPG.GameCore.PredicateTaskList",
        "Predicate": {
          "$type": "RPG.GameCore.ByIsContainModifier",
          "TargetType": {
            "$type": "RPG.GameCore.TargetAlias",
            "Alias": "DarkTeamEntity"
          },
          "ModifierName": "MAvatar_Gepard_00_RL_Shield"
        },
        "SuccessTaskList": [
          {
            "$type": "RPG.GameCore.SequenceConfig",
            "TaskList": [
              {
                "$type": "RPG.GameCore.DefineDynamicValue",
                "TargetType": {
                  "$type": "RPG.GameCore.TargetAlias",
                  "Alias": "Caster"
                },
                "DynamicKey": "AIFlag",
                "ResetValue": {
                  "IsDynamic": false,
                  "FixedValue": {
                    "Value": 4
                  }
                },
                "ContextScope": "TargetEntity"
              },
              {
                "$type": "RPG.GameCore.UseSkill",
                "SkillName": "Skill02"
              }
            ]
          }
        ],
        "FailedTaskList": [
          {
            "$type": "RPG.GameCore.PredicateTaskList",
            "Predicate": {
              "$type": "RPG.GameCore.ByCompareDynamicValue",
              "DynamicKey": "UsedShieldFlag",
              "ContextScope": "TargetEntity",
              "CompareType": "Equal",
              "CompareValue": {
                "IsDynamic": false,
                "FixedValue": {
                  "Value": 0
                }
              }
            },
            "SuccessTaskList": [
              {
                "$type": "RPG.GameCore.SequenceConfig",
                "TaskList": [
                  {
                    "$type": "RPG.GameCore.DefineDynamicValue",
                    "TargetType": {
                      "$type": "RPG.GameCore.TargetAlias",
                      "Alias": "Caster"
                    },
                    "DynamicKey": "AIFlag",
                    "ResetValue": {
                      "IsDynamic": false,
                      "FixedValue": {
                        "Value": 4
                      }
                    },
                    "ContextScope": "TargetEntity"
                  },
                  {
                    "$type": "RPG.GameCore.UseSkill",
                    "SkillName": "Skill03"
                  }
                ]
              }
            ],
            "FailedTaskList": [
              {
                "$type": "RPG.GameCore.SequenceConfig",
                "TaskList": [
                  {
                    "$type": "RPG.GameCore.DefineDynamicValue",
                    "TargetType": {
                      "$type": "RPG.GameCore.TargetAlias",
                      "Alias": "Caster"
                    },
                    "DynamicKey": "AIFlag",
                    "ResetValue": {
                      "IsDynamic": false,
                      "FixedValue": {
                        "Value": 4
                      }
                    },
                    "ContextScope": "TargetEntity"
                  },
                  {
                    "$type": "RPG.GameCore.UseSkill",
                    "SkillName": "Skill08"
                  }
                ]
              }
            ]
          }
        ]
      },
      "ScoreEvaluatorType": "DefaultDSE",
      "ConsiderAxisList": [
        {
          "$type": "RPG.GameCore.CheckPredicateAxis",
          "Predicate": {
            "$type": "RPG.GameCore.ByAnd",
            "PredicateList": [
              {
                "$type": "RPG.GameCore.ByCompareMonsterPhase",
                "CompareType": "Equal",
                "CompareValue": {
                  "IsDynamic": false,
                  "FixedValue": {
                    "Value": 3
                  }
                }
              },
              {
                "$type": "RPG.GameCore.ByCompareDynamicValue",
                "DynamicKey": "AIFlag",
                "ContextScope": "TargetEntity",
                "CompareType": "Equal",
                "CompareValue": {
                  "IsDynamic": false,
                  "FixedValue": {
                    "Value": 3
                  }
                }
              }
            ]
          },
          "SuccessScore": {
            "Value": 0.5000000004656613
          }
        }
      ]
    },
    {
      "$type": "RPG.GameCore.AIDecisionConfig",
      "DecisionName": "Decision3-4",
      "RootTask": {
        "$type": "RPG.GameCore.PredicateTaskList",
        "Predicate": {
          "$type": "RPG.GameCore.ByIsContainModifier",
          "TargetType": {
            "$type": "RPG.GameCore.TargetAlias",
            "Alias": "DarkTeamEntity"
          },
          "ModifierName": "MAvatar_Gepard_00_RL_Shield"
        },
        "SuccessTaskList": [
          {
            "$type": "RPG.GameCore.SequenceConfig",
            "TaskList": [
              {
                "$type": "RPG.GameCore.DefineDynamicValue",
                "TargetType": {
                  "$type": "RPG.GameCore.TargetAlias",
                  "Alias": "Caster"
                },
                "DynamicKey": "AIFlag",
                "ResetValue": {
                  "IsDynamic": false,
                  "FixedValue": {
                    "Value": 5
                  }
                },
                "ContextScope": "TargetEntity"
              },
              {
                "$type": "RPG.GameCore.UseSkill",
                "SkillName": "Skill04"
              }
            ]
          }
        ],
        "FailedTaskList": [
          {
            "$type": "RPG.GameCore.SequenceConfig",
            "TaskList": [
              {
                "$type": "RPG.GameCore.DefineDynamicValue",
                "TargetType": {
                  "$type": "RPG.GameCore.TargetAlias",
                  "Alias": "Caster"
                },
                "DynamicKey": "AIFlag",
                "ResetValue": {
                  "IsDynamic": false,
                  "FixedValue": {
                    "Value": 5
                  }
                },
                "ContextScope": "TargetEntity"
              },
              {
                "$type": "RPG.GameCore.UseSkill",
                "SkillName": "Skill02"
              }
            ]
          }
        ]
      },
      "ScoreEvaluatorType": "DefaultDSE",
      "ConsiderAxisList": [
        {
          "$type": "RPG.GameCore.CheckPredicateAxis",
          "Predicate": {
            "$type": "RPG.GameCore.ByAnd",
            "PredicateList": [
              {
                "$type": "RPG.GameCore.ByCompareMonsterPhase",
                "CompareType": "Equal",
                "CompareValue": {
                  "IsDynamic": false,
                  "FixedValue": {
                    "Value": 3
                  }
                }
              },
              {
                "$type": "RPG.GameCore.ByCompareDynamicValue",
                "DynamicKey": "AIFlag",
                "ContextScope": "TargetEntity",
                "CompareType": "Equal",
                "CompareValue": {
                  "IsDynamic": false,
                  "FixedValue": {
                    "Value": 4
                  }
                }
              }
            ]
          },
          "SuccessScore": {
            "Value": 0.5000000004656613
          }
        }
      ]
    },
    {
      "$type": "RPG.GameCore.AIDecisionConfig",
      "DecisionName": "Decision3-5",
      "RootTask": {
        "$type": "RPG.GameCore.PredicateTaskList",
        "Predicate": {
          "$type": "RPG.GameCore.ByIsContainModifier",
          "TargetType": {
            "$type": "RPG.GameCore.TargetAlias",
            "Alias": "DarkTeamEntity"
          },
          "ModifierName": "MAvatar_Gepard_00_RL_Shield"
        },
        "SuccessTaskList": [
          {
            "$type": "RPG.GameCore.SequenceConfig",
            "TaskList": [
              {
                "$type": "RPG.GameCore.DefineDynamicValue",
                "TargetType": {
                  "$type": "RPG.GameCore.TargetAlias",
                  "Alias": "Caster"
                },
                "DynamicKey": "AIFlag",
                "ResetValue": {
                  "IsDynamic": false,
                  "FixedValue": {
                    "Value": 6
                  }
                },
                "ContextScope": "TargetEntity"
              },
              {
                "$type": "RPG.GameCore.UseSkill",
                "SkillName": "Skill02"
              }
            ]
          }
        ],
        "FailedTaskList": [
          {
            "$type": "RPG.GameCore.SequenceConfig",
            "TaskList": [
              {
                "$type": "RPG.GameCore.DefineDynamicValue",
                "TargetType": {
                  "$type": "RPG.GameCore.TargetAlias",
                  "Alias": "Caster"
                },
                "DynamicKey": "AIFlag",
                "ResetValue": {
                  "IsDynamic": false,
                  "FixedValue": {
                    "Value": 6
                  }
                },
                "ContextScope": "TargetEntity"
              },
              {
                "$type": "RPG.GameCore.UseSkill",
                "SkillName": "Skill01"
              }
            ]
          }
        ]
      },
      "ScoreEvaluatorType": "DefaultDSE",
      "ConsiderAxisList": [
        {
          "$type": "RPG.GameCore.CheckPredicateAxis",
          "Predicate": {
            "$type": "RPG.GameCore.ByAnd",
            "PredicateList": [
              {
                "$type": "RPG.GameCore.ByCompareMonsterPhase",
                "CompareType": "Equal",
                "CompareValue": {
                  "IsDynamic": false,
                  "FixedValue": {
                    "Value": 3
                  }
                }
              },
              {
                "$type": "RPG.GameCore.ByCompareDynamicValue",
                "DynamicKey": "AIFlag",
                "ContextScope": "TargetEntity",
                "CompareType": "Equal",
                "CompareValue": {
                  "IsDynamic": false,
                  "FixedValue": {
                    "Value": 5
                  }
                }
              }
            ]
          },
          "SuccessScore": {
            "Value": 0.5000000004656613
          }
        }
      ]
    },
    {
      "$type": "RPG.GameCore.AIDecisionConfig",
      "DecisionName": "Decision3-6",
      "RootTask": {
        "$type": "RPG.GameCore.PredicateTaskList",
        "Predicate": {
          "$type": "RPG.GameCore.ByIsContainModifier",
          "TargetType": {
            "$type": "RPG.GameCore.TargetAlias",
            "Alias": "DarkTeamEntity"
          },
          "ModifierName": "MAvatar_Gepard_00_RL_Shield"
        },
        "SuccessTaskList": [
          {
            "$type": "RPG.GameCore.SequenceConfig",
            "TaskList": [
              {
                "$type": "RPG.GameCore.DefineDynamicValue",
                "TargetType": {
                  "$type": "RPG.GameCore.TargetAlias",
                  "Alias": "Caster"
                },
                "DynamicKey": "AIFlag",
                "ResetValue": {
                  "IsDynamic": false,
                  "FixedValue": {
                    "Value": 1
                  }
                },
                "ContextScope": "TargetEntity"
              },
              {
                "$type": "RPG.GameCore.UseSkill",
                "SkillName": "Skill04"
              }
            ]
          }
        ],
        "FailedTaskList": [
          {
            "$type": "RPG.GameCore.SequenceConfig",
            "TaskList": [
              {
                "$type": "RPG.GameCore.DefineDynamicValue",
                "TargetType": {
                  "$type": "RPG.GameCore.TargetAlias",
                  "Alias": "Caster"
                },
                "DynamicKey": "AIFlag",
                "ResetValue": {
                  "IsDynamic": false,
                  "FixedValue": {
                    "Value": 1
                  }
                },
                "ContextScope": "TargetEntity"
              },
              {
                "$type": "RPG.GameCore.UseSkill",
                "SkillName": "Skill04"
              }
            ]
          }
        ]
      },
      "ScoreEvaluatorType": "DefaultDSE",
      "ConsiderAxisList": [
        {
          "$type": "RPG.GameCore.CheckPredicateAxis",
          "Predicate": {
            "$type": "RPG.GameCore.ByAnd",
            "PredicateList": [
              {
                "$type": "RPG.GameCore.ByCompareMonsterPhase",
                "CompareType": "Equal",
                "CompareValue": {
                  "IsDynamic": false,
                  "FixedValue": {
                    "Value": 3
                  }
                }
              },
              {
                "$type": "RPG.GameCore.ByCompareDynamicValue",
                "DynamicKey": "AIFlag",
                "ContextScope": "TargetEntity",
                "CompareType": "Equal",
                "CompareValue": {
                  "IsDynamic": false,
                  "FixedValue": {
                    "Value": 6
                  }
                }
              }
            ]
          },
          "SuccessScore": {
            "Value": 0.5000000004656613
          }
        }
      ]
    }
  ]
}