{
  "AIName": "Monster_AML_Elite01_00",
  "VariableList": [
    {
      "$type": "RPG.GameCore.AIVariableString",
      "Value": "RO_015_Phase01",
      "Name": "CurrentPhase"
    },
    {
      "$type": "RPG.GameCore.AIVariableBool",
      "Value": true,
      "Name": "ForbidClearSkillUseRecord"
    }
  ],
  "DecisionList": [
    {
      "$type": "RPG.GameCore.AIDecisionConfig",
      "DecisionName": "UseSkill01",
      "RootTask": {
        "$type": "RPG.GameCore.SequenceConfig",
        "TaskList": [
          {
            "$type": "RPG.GameCore.DefineDynamicValue",
            "TargetType": {
              "$type": "RPG.GameCore.TargetAlias",
              "Alias": "Caster"
            },
            "DynamicKey": "Monster_AML_Elite01_00_AICounter_02",
            "ResetValue": {
              "IsDynamic": false,
              "FixedValue": {
                "Value": 2
              }
            },
            "ContextScope": "TargetEntity"
          },
          {
            "$type": "RPG.GameCore.UseSkill",
            "SkillName": "Skill01"
          }
        ]
      },
      "ScoreEvaluatorType": "DefaultDSE",
      "Weight": {
        "Value": 0.5000000004656613
      },
      "ConsiderAxisList": [
        {
          "$type": "RPG.GameCore.CheckPredicateAxis",
          "Predicate": {
            "$type": "RPG.GameCore.ByAnd",
            "PredicateList": [
              {
                "$type": "RPG.GameCore.ByCompareDynamicValue",
                "DynamicKey": "Monster_AML_Elite01_00_AICounter_01",
                "ContextScope": "TargetEntity",
                "CompareType": "Equal",
                "CompareValue": {
                  "IsDynamic": false,
                  "FixedValue": {
                    "Value": 0
                  }
                }
              },
              {
                "$type": "RPG.GameCore.ByCompareDynamicValue",
                "DynamicKey": "Monster_AML_Elite01_00_AICounter_02",
                "ContextScope": "TargetEntity",
                "CompareType": "Equal",
                "CompareValue": {
                  "IsDynamic": false,
                  "FixedValue": {
                    "Value": 1
                  }
                }
              }
            ]
          },
          "SuccessScore": {
            "Value": 0.5000000004656613
          }
        }
      ]
    },
    {
      "$type": "RPG.GameCore.AIDecisionConfig",
      "DecisionName": "UseSkill04",
      "RootTask": {
        "$type": "RPG.GameCore.SequenceConfig",
        "TaskList": [
          {
            "$type": "RPG.GameCore.DefineDynamicValue",
            "TargetType": {
              "$type": "RPG.GameCore.TargetAlias",
              "Alias": "Caster"
            },
            "DynamicKey": "Monster_AML_Elite01_00_AICounter_01",
            "ResetValue": {
              "IsDynamic": false,
              "FixedValue": {
                "Value": 1
              }
            },
            "ContextScope": "TargetEntity"
          },
          {
            "$type": "RPG.GameCore.DefineDynamicValue",
            "TargetType": {
              "$type": "RPG.GameCore.TargetAlias",
              "Alias": "Caster"
            },
            "DynamicKey": "Monster_AML_Elite01_00_AICounter_02",
            "ResetValue": {
              "IsDynamic": false,
              "FixedValue": {
                "Value": 1
              }
            },
            "ContextScope": "TargetEntity"
          },
          {
            "$type": "RPG.GameCore.UseSkill",
            "SkillName": "Skill04"
          }
        ]
      },
      "ScoreEvaluatorType": "DefaultDSE",
      "Weight": {
        "Value": 0.5000000004656613
      },
      "ConsiderAxisList": [
        {
          "$type": "RPG.GameCore.CheckPredicateAxis",
          "Predicate": {
            "$type": "RPG.GameCore.ByAnd",
            "PredicateList": [
              {
                "$type": "RPG.GameCore.ByCompareDynamicValue",
                "DynamicKey": "Monster_AML_Elite01_00_AICounter_01",
                "ContextScope": "TargetEntity",
                "CompareType": "Equal",
                "CompareValue": {
                  "IsDynamic": false,
                  "FixedValue": {
                    "Value": 0
                  }
                }
              },
              {
                "$type": "RPG.GameCore.ByCompareDynamicValue",
                "DynamicKey": "Monster_AML_Elite01_00_AICounter_02",
                "ContextScope": "TargetEntity",
                "CompareType": "Equal",
                "CompareValue": {
                  "IsDynamic": false,
                  "FixedValue": {
                    "Value": 2
                  }
                }
              }
            ]
          },
          "SuccessScore": {
            "Value": 0.5000000004656613
          }
        }
      ]
    },
    {
      "$type": "RPG.GameCore.AIDecisionConfig",
      "DecisionName": "UseSkill05",
      "RootTask": {
        "$type": "RPG.GameCore.SequenceConfig",
        "TaskList": [
          {
            "$type": "RPG.GameCore.SelectAISkillTarget",
            "SkillName": "Skill05",
            "Selector": {
              "$type": "RPG.GameCore.AIModifierNameSelector",
              "ModifierName": "MMonster_AetherDivide_AML_Elite01_00_Aim",
              "ModifierCaster": {
                "$type": "RPG.GameCore.TargetAlias",
                "Alias": "Caster"
              }
            }
          },
          {
            "$type": "RPG.GameCore.DefineDynamicValue",
            "TargetType": {
              "$type": "RPG.GameCore.TargetAlias",
              "Alias": "Caster"
            },
            "DynamicKey": "Monster_AML_Elite01_00_AICounter_01",
            "ResetValue": {
              "IsDynamic": false,
              "FixedValue": {
                "Value": 2
              }
            },
            "ContextScope": "TargetEntity"
          },
          {
            "$type": "RPG.GameCore.UseSkill",
            "SkillName": "Skill05"
          }
        ]
      },
      "ScoreEvaluatorType": "DefaultDSE",
      "Weight": {
        "Value": 0.5000000004656613
      },
      "ConsiderAxisList": [
        {
          "$type": "RPG.GameCore.CheckPredicateAxis",
          "Predicate": {
            "$type": "RPG.GameCore.ByAnd",
            "PredicateList": [
              {
                "$type": "RPG.GameCore.ByCompareDynamicValue",
                "DynamicKey": "Monster_AML_Elite01_00_AICounter_01",
                "ContextScope": "TargetEntity",
                "CompareType": "Equal",
                "CompareValue": {
                  "IsDynamic": false,
                  "FixedValue": {
                    "Value": 1
                  }
                }
              }
            ]
          },
          "SuccessScore": {
            "Value": 0.5000000004656613
          }
        }
      ]
    },
    {
      "$type": "RPG.GameCore.AIDecisionConfig",
      "DecisionName": "UseSkill02",
      "RootTask": {
        "$type": "RPG.GameCore.SequenceConfig",
        "TaskList": [
          {
            "$type": "RPG.GameCore.DefineDynamicValue",
            "TargetType": {
              "$type": "RPG.GameCore.TargetAlias",
              "Alias": "Caster"
            },
            "DynamicKey": "Monster_AML_Elite01_00_AICounter_01",
            "ResetValue": {
              "IsDynamic": false,
              "FixedValue": {
                "Value": 3
              }
            },
            "ContextScope": "TargetEntity"
          },
          {
            "$type": "RPG.GameCore.UseSkill",
            "SkillName": "Skill02"
          }
        ]
      },
      "ScoreEvaluatorType": "DefaultDSE",
      "Weight": {
        "Value": 0.5000000004656613
      },
      "ConsiderAxisList": [
        {
          "$type": "RPG.GameCore.CheckPredicateAxis",
          "Predicate": {
            "$type": "RPG.GameCore.ByAnd",
            "PredicateList": [
              {
                "$type": "RPG.GameCore.ByCompareDynamicValue",
                "DynamicKey": "Monster_AML_Elite01_00_AICounter_01",
                "ContextScope": "TargetEntity",
                "CompareType": "Equal",
                "CompareValue": {
                  "IsDynamic": false,
                  "FixedValue": {
                    "Value": 2
                  }
                }
              }
            ]
          },
          "SuccessScore": {
            "Value": 0.5000000004656613
          }
        }
      ]
    },
    {
      "$type": "RPG.GameCore.AIDecisionConfig",
      "DecisionName": "UseSkill03",
      "RootTask": {
        "$type": "RPG.GameCore.SequenceConfig",
        "TaskList": [
          {
            "$type": "RPG.GameCore.DefineDynamicValue",
            "TargetType": {
              "$type": "RPG.GameCore.TargetAlias",
              "Alias": "Caster"
            },
            "DynamicKey": "Monster_AML_Elite01_00_AICounter_01",
            "ContextScope": "TargetEntity"
          },
          {
            "$type": "RPG.GameCore.UseSkill",
            "SkillName": "Skill03"
          }
        ]
      },
      "ScoreEvaluatorType": "DefaultDSE",
      "Weight": {
        "Value": 0.9000000008381903
      },
      "ConsiderAxisList": [
        {
          "$type": "RPG.GameCore.CheckPredicateAxis",
          "Predicate": {
            "$type": "RPG.GameCore.ByAnd",
            "PredicateList": [
              {
                "$type": "RPG.GameCore.ByCompareDynamicValue",
                "DynamicKey": "Monster_AML_Elite01_00_AICounter_01",
                "ContextScope": "TargetEntity",
                "CompareType": "Equal",
                "CompareValue": {
                  "IsDynamic": false,
                  "FixedValue": {
                    "Value": 3
                  }
                }
              }
            ]
          },
          "SuccessScore": {
            "Value": 0.5000000004656613
          }
        }
      ]
    }
  ]
}