{
  "AIName": "Monster_W1_Mecha03_01",
  "VariableList": [
    {
      "$type": "RPG.GameCore.AIVariableString",
      "Value": "Monster_W1_Mecha03_Phase01",
      "Name": "CurrentPhase"
    },
    {
      "$type": "RPG.GameCore.AIVariableBool",
      "Value": true,
      "Name": "ForbidClearSkillUseRecord"
    }
  ],
  "DecisionList": [
    {
      "$type": "RPG.GameCore.AIDecisionConfig",
      "DecisionName": "Decision01",
      "RootTask": {
        "$type": "RPG.GameCore.SequenceConfig",
        "TaskList": [
          {
            "$type": "RPG.GameCore.PredicateTaskList",
            "Predicate": {
              "$type": "RPG.GameCore.ByAnd",
              "PredicateList": [
                {
                  "$type": "RPG.GameCore.ByCompareCharacterNumber",
                  "TargetType": {
                    "$type": "RPG.GameCore.TargetAlias",
                    "Alias": "AllTeamMember"
                  },
                  "CompareType": "LessEqual",
                  "CompareNumber": {
                    "IsDynamic": false,
                    "FixedValue": {
                      "Value": 4
                    }
                  }
                },
                {
                  "$type": "RPG.GameCore.ByCompareCharacterNumber",
                  "TargetType": {
                    "$type": "RPG.GameCore.TargetAlias",
                    "Alias": "CasterSummonedMinions"
                  },
                  "CompareType": "Equal",
                  "CompareNumber": {
                    "IsDynamic": false,
                    "FixedValue": {
                      "Value": 0
                    }
                  }
                }
              ]
            },
            "SuccessTaskList": [
              {
                "$type": "RPG.GameCore.DefineDynamicValue",
                "TargetType": {
                  "$type": "RPG.GameCore.TargetAlias",
                  "Alias": "Caster"
                },
                "DynamicKey": "Monster_W1_Mecha03_01_AICounter_01",
                "ResetValue": {
                  "IsDynamic": false,
                  "FixedValue": {
                    "Value": 2
                  }
                },
                "ContextScope": "TargetEntity"
              },
              {
                "$type": "RPG.GameCore.DefineDynamicValue",
                "TargetType": {
                  "$type": "RPG.GameCore.TargetAlias",
                  "Alias": "Caster"
                },
                "DynamicKey": "Monster_SummonFlag",
                "ResetValue": {
                  "IsDynamic": false,
                  "FixedValue": {
                    "Value": 1
                  }
                },
                "ContextScope": "TargetEntity"
              },
              {
                "$type": "RPG.GameCore.UseSkill",
                "SkillName": "Skill05"
              }
            ],
            "FailedTaskList": [
              {
                "$type": "RPG.GameCore.DefineDynamicValue",
                "TargetType": {
                  "$type": "RPG.GameCore.TargetAlias",
                  "Alias": "Caster"
                },
                "DynamicKey": "Monster_W1_Mecha03_01_AICounter_01",
                "ResetValue": {
                  "IsDynamic": false,
                  "FixedValue": {
                    "Value": 2
                  }
                },
                "ContextScope": "TargetEntity"
              },
              {
                "$type": "RPG.GameCore.UseSkill",
                "SkillName": "Skill01"
              }
            ]
          }
        ]
      },
      "ScoreEvaluatorType": "DefaultDSE",
      "Weight": {
        "Value": 0.5000000004656613
      },
      "ConsiderAxisList": [
        {
          "$type": "RPG.GameCore.CheckPredicateAxis",
          "Predicate": {
            "$type": "RPG.GameCore.ByCompareDynamicValue",
            "DynamicKey": "Monster_W1_Mecha03_01_AICounter_01",
            "ContextScope": "TargetEntity",
            "CompareType": "Equal",
            "CompareValue": {
              "IsDynamic": false,
              "FixedValue": {
                "Value": 1
              }
            }
          },
          "SuccessScore": {
            "Value": 0.5000000004656613
          }
        }
      ]
    },
    {
      "$type": "RPG.GameCore.AIDecisionConfig",
      "DecisionName": "Decision02",
      "RootTask": {
        "$type": "RPG.GameCore.SequenceConfig",
        "TaskList": [
          {
            "$type": "RPG.GameCore.DefineDynamicValue",
            "TargetType": {
              "$type": "RPG.GameCore.TargetAlias",
              "Alias": "Caster"
            },
            "DynamicKey": "Monster_W1_Mecha03_01_AICounter_01",
            "ResetValue": {
              "IsDynamic": false,
              "FixedValue": {
                "Value": 3
              }
            },
            "ContextScope": "TargetEntity"
          },
          {
            "$type": "RPG.GameCore.UseSkill",
            "SkillName": "Skill06"
          }
        ]
      },
      "ScoreEvaluatorType": "DefaultDSE",
      "Weight": {
        "Value": 0.5000000004656613
      },
      "ConsiderAxisList": [
        {
          "$type": "RPG.GameCore.CheckPredicateAxis",
          "Predicate": {
            "$type": "RPG.GameCore.ByCompareDynamicValue",
            "DynamicKey": "Monster_W1_Mecha03_01_AICounter_01",
            "ContextScope": "TargetEntity",
            "CompareType": "Equal",
            "CompareValue": {
              "IsDynamic": false,
              "FixedValue": {
                "Value": 2
              }
            }
          },
          "SuccessScore": {
            "Value": 0.5000000004656613
          }
        }
      ]
    },
    {
      "$type": "RPG.GameCore.AIDecisionConfig",
      "DecisionName": "Decision03",
      "RootTask": {
        "$type": "RPG.GameCore.SequenceConfig",
        "TaskList": [
          {
            "$type": "RPG.GameCore.PredicateTaskList",
            "Predicate": {
              "$type": "RPG.GameCore.ByCompareDynamicValue",
              "DynamicKey": "Monster_SummonFlag",
              "ContextScope": "TargetEntity",
              "CompareType": "Equal",
              "CompareValue": {
                "IsDynamic": false,
                "FixedValue": {
                  "Value": 1
                }
              }
            },
            "SuccessTaskList": [
              {
                "$type": "RPG.GameCore.DefineDynamicValue",
                "TargetType": {
                  "$type": "RPG.GameCore.TargetAlias",
                  "Alias": "Caster"
                },
                "DynamicKey": "Monster_SummonFlag",
                "ContextScope": "TargetEntity"
              },
              {
                "$type": "RPG.GameCore.DefineDynamicValue",
                "TargetType": {
                  "$type": "RPG.GameCore.TargetAlias",
                  "Alias": "Caster"
                },
                "DynamicKey": "Monster_W1_Mecha03_01_AICounter_01",
                "ResetValue": {
                  "IsDynamic": false,
                  "FixedValue": {
                    "Value": 4
                  }
                },
                "ContextScope": "TargetEntity"
              }
            ],
            "FailedTaskList": [
              {
                "$type": "RPG.GameCore.DefineDynamicValue",
                "TargetType": {
                  "$type": "RPG.GameCore.TargetAlias",
                  "Alias": "Caster"
                },
                "DynamicKey": "Monster_W1_Mecha03_01_AICounter_01",
                "ResetValue": {
                  "IsDynamic": false,
                  "FixedValue": {
                    "Value": 8
                  }
                },
                "ContextScope": "TargetEntity"
              }
            ]
          },
          {
            "$type": "RPG.GameCore.UseSkill",
            "SkillName": "Skill01"
          }
        ]
      },
      "ScoreEvaluatorType": "DefaultDSE",
      "Weight": {
        "Value": 0.5000000004656613
      },
      "ConsiderAxisList": [
        {
          "$type": "RPG.GameCore.CheckPredicateAxis",
          "Predicate": {
            "$type": "RPG.GameCore.ByCompareDynamicValue",
            "DynamicKey": "Monster_W1_Mecha03_01_AICounter_01",
            "ContextScope": "TargetEntity",
            "CompareType": "Equal",
            "CompareValue": {
              "IsDynamic": false,
              "FixedValue": {
                "Value": 3
              }
            }
          },
          "SuccessScore": {
            "Value": 0.5000000004656613
          }
        }
      ]
    },
    {
      "$type": "RPG.GameCore.AIDecisionConfig",
      "DecisionName": "Decision04",
      "RootTask": {
        "$type": "RPG.GameCore.SequenceConfig",
        "TaskList": [
          {
            "$type": "RPG.GameCore.PredicateTaskList",
            "Predicate": {
              "$type": "RPG.GameCore.ByIsContainModifier",
              "TargetType": {
                "$type": "RPG.GameCore.TargetAlias",
                "Alias": "Caster"
              },
              "ModifierName": "OneMore"
            },
            "SuccessTaskList": [
              {
                "$type": "RPG.GameCore.DefineDynamicValue",
                "TargetType": {
                  "$type": "RPG.GameCore.TargetAlias",
                  "Alias": "Caster"
                },
                "DynamicKey": "Monster_W1_Mecha03_01_AICounter_01",
                "ResetValue": {
                  "IsDynamic": false,
                  "FixedValue": {
                    "Value": 8
                  }
                },
                "ContextScope": "TargetEntity"
              },
              {
                "$type": "RPG.GameCore.UseSkill",
                "SkillName": "Skill06"
              }
            ],
            "FailedTaskList": [
              {
                "$type": "RPG.GameCore.PredicateTaskList",
                "Predicate": {
                  "$type": "RPG.GameCore.ByCompareCharacterNumber",
                  "TargetType": {
                    "$type": "RPG.GameCore.TargetAlias",
                    "Alias": "CasterSummonedMinions"
                  },
                  "CompareType": "Less",
                  "CompareNumber": {
                    "IsDynamic": false,
                    "FixedValue": {
                      "Value": 1
                    }
                  }
                },
                "SuccessTaskList": [
                  {
                    "$type": "RPG.GameCore.DefineDynamicValue",
                    "TargetType": {
                      "$type": "RPG.GameCore.TargetAlias",
                      "Alias": "Caster"
                    },
                    "DynamicKey": "Monster_W1_Mecha03_01_AICounter_01",
                    "ResetValue": {
                      "IsDynamic": false,
                      "FixedValue": {
                        "Value": 9
                      }
                    },
                    "ContextScope": "TargetEntity"
                  },
                  {
                    "$type": "RPG.GameCore.UseSkill",
                    "SkillName": "Skill08"
                  }
                ],
                "FailedTaskList": [
                  {
                    "$type": "RPG.GameCore.DefineDynamicValue",
                    "TargetType": {
                      "$type": "RPG.GameCore.TargetAlias",
                      "Alias": "Caster"
                    },
                    "DynamicKey": "Monster_W1_Mecha03_01_AICounter_01",
                    "ResetValue": {
                      "IsDynamic": false,
                      "FixedValue": {
                        "Value": 7
                      }
                    },
                    "ContextScope": "TargetEntity"
                  },
                  {
                    "$type": "RPG.GameCore.UseSkill",
                    "SkillName": "Skill07"
                  }
                ]
              }
            ]
          }
        ]
      },
      "ScoreEvaluatorType": "DefaultDSE",
      "Weight": {
        "Value": 0.5000000004656613
      },
      "ConsiderAxisList": [
        {
          "$type": "RPG.GameCore.CheckPredicateAxis",
          "Predicate": {
            "$type": "RPG.GameCore.ByCompareDynamicValue",
            "DynamicKey": "Monster_W1_Mecha03_01_AICounter_01",
            "ContextScope": "TargetEntity",
            "CompareType": "Equal",
            "CompareValue": {
              "IsDynamic": false,
              "FixedValue": {
                "Value": 4
              }
            }
          },
          "SuccessScore": {
            "Value": 0.5000000004656613
          }
        }
      ]
    },
    {
      "$type": "RPG.GameCore.AIDecisionConfig",
      "DecisionName": "UseSkill01",
      "RootTask": {
        "$type": "RPG.GameCore.SequenceConfig",
        "TaskList": [
          {
            "$type": "RPG.GameCore.DefineDynamicValue",
            "TargetType": {
              "$type": "RPG.GameCore.TargetAlias",
              "Alias": "Caster"
            },
            "DynamicKey": "Monster_W1_Mecha03_01_AICounter_01",
            "ResetValue": {
              "IsDynamic": false,
              "FixedValue": {
                "Value": 8
              }
            },
            "ContextScope": "TargetEntity"
          },
          {
            "$type": "RPG.GameCore.UseSkill",
            "SkillName": "Skill01"
          }
        ]
      },
      "ScoreEvaluatorType": "DefaultDSE",
      "Weight": {
        "Value": 0.5000000004656613
      },
      "ConsiderAxisList": [
        {
          "$type": "RPG.GameCore.CheckPredicateAxis",
          "Predicate": {
            "$type": "RPG.GameCore.ByCompareDynamicValue",
            "DynamicKey": "Monster_W1_Mecha03_01_AICounter_01",
            "ContextScope": "TargetEntity",
            "CompareType": "Equal",
            "CompareValue": {
              "IsDynamic": false,
              "FixedValue": {
                "Value": 9
              }
            }
          },
          "SuccessScore": {
            "Value": 0.5000000004656613
          }
        }
      ]
    },
    {
      "$type": "RPG.GameCore.AIDecisionConfig",
      "DecisionName": "UseSkill09",
      "RootTask": {
        "$type": "RPG.GameCore.SequenceConfig",
        "TaskList": [
          {
            "$type": "RPG.GameCore.SelectAISkillTarget",
            "SkillName": "Skill09",
            "Selector": {
              "$type": "RPG.GameCore.AIModifierNameSelector",
              "ModifierName": "Monster_W1_Mecha03_01_Sign"
            }
          },
          {
            "$type": "RPG.GameCore.DefineDynamicValue",
            "TargetType": {
              "$type": "RPG.GameCore.TargetAlias",
              "Alias": "Caster"
            },
            "DynamicKey": "Monster_W1_Mecha03_01_AICounter_01",
            "ResetValue": {
              "IsDynamic": false,
              "FixedValue": {
                "Value": 8
              }
            },
            "ContextScope": "TargetEntity"
          },
          {
            "$type": "RPG.GameCore.UseSkill",
            "SkillName": "Skill09"
          }
        ]
      },
      "ScoreEvaluatorType": "DefaultDSE",
      "Weight": {
        "Value": 0.5000000004656613
      },
      "ConsiderAxisList": [
        {
          "$type": "RPG.GameCore.CheckPredicateAxis",
          "Predicate": {
            "$type": "RPG.GameCore.ByCompareDynamicValue",
            "DynamicKey": "Monster_W1_Mecha03_01_AICounter_01",
            "ContextScope": "TargetEntity",
            "CompareType": "Equal",
            "CompareValue": {
              "IsDynamic": false,
              "FixedValue": {
                "Value": 7
              }
            }
          },
          "SuccessScore": {
            "Value": 0.5000000004656613
          }
        }
      ]
    },
    {
      "$type": "RPG.GameCore.AIDecisionConfig",
      "DecisionName": "UseSkill01",
      "RootTask": {
        "$type": "RPG.GameCore.SequenceConfig",
        "TaskList": [
          {
            "$type": "RPG.GameCore.PredicateTaskList",
            "Predicate": {
              "$type": "RPG.GameCore.ByAnd",
              "PredicateList": [
                {
                  "$type": "RPG.GameCore.ByCompareCharacterNumber",
                  "TargetType": {
                    "$type": "RPG.GameCore.TargetAlias",
                    "Alias": "AllTeamMember"
                  },
                  "CompareType": "LessEqual",
                  "CompareNumber": {
                    "IsDynamic": false,
                    "FixedValue": {
                      "Value": 4
                    }
                  }
                },
                {
                  "$type": "RPG.GameCore.ByCompareCharacterNumber",
                  "TargetType": {
                    "$type": "RPG.GameCore.TargetAlias",
                    "Alias": "CasterSummonedMinions"
                  },
                  "CompareType": "Equal",
                  "CompareNumber": {
                    "IsDynamic": false,
                    "FixedValue": {
                      "Value": 0
                    }
                  }
                }
              ]
            },
            "SuccessTaskList": [
              {
                "$type": "RPG.GameCore.DefineDynamicValue",
                "TargetType": {
                  "$type": "RPG.GameCore.TargetAlias",
                  "Alias": "Caster"
                },
                "DynamicKey": "Monster_W1_Mecha03_01_AICounter_01",
                "ResetValue": {
                  "IsDynamic": false,
                  "FixedValue": {
                    "Value": 3
                  }
                },
                "ContextScope": "TargetEntity"
              },
              {
                "$type": "RPG.GameCore.DefineDynamicValue",
                "TargetType": {
                  "$type": "RPG.GameCore.TargetAlias",
                  "Alias": "Caster"
                },
                "DynamicKey": "Monster_SummonFlag",
                "ResetValue": {
                  "IsDynamic": false,
                  "FixedValue": {
                    "Value": 1
                  }
                },
                "ContextScope": "TargetEntity"
              },
              {
                "$type": "RPG.GameCore.UseSkill",
                "SkillName": "Skill05"
              }
            ],
            "FailedTaskList": [
              {
                "$type": "RPG.GameCore.DefineDynamicValue",
                "TargetType": {
                  "$type": "RPG.GameCore.TargetAlias",
                  "Alias": "Caster"
                },
                "DynamicKey": "Monster_W1_Mecha03_01_AICounter_01",
                "ResetValue": {
                  "IsDynamic": false,
                  "FixedValue": {
                    "Value": 3
                  }
                },
                "ContextScope": "TargetEntity"
              },
              {
                "$type": "RPG.GameCore.UseSkill",
                "SkillName": "Skill06"
              }
            ]
          }
        ]
      },
      "ScoreEvaluatorType": "DefaultDSE",
      "Weight": {
        "Value": 0.5000000004656613
      },
      "ConsiderAxisList": [
        {
          "$type": "RPG.GameCore.CheckPredicateAxis",
          "Predicate": {
            "$type": "RPG.GameCore.ByCompareDynamicValue",
            "DynamicKey": "Monster_W1_Mecha03_01_AICounter_01",
            "ContextScope": "TargetEntity",
            "CompareType": "Equal",
            "CompareValue": {
              "IsDynamic": false,
              "FixedValue": {
                "Value": 8
              }
            }
          },
          "SuccessScore": {
            "Value": 0.5000000004656613
          }
        }
      ]
    }
  ]
}