{
  "AIName": "Monster_W0_Boss_01_Part1",
  "VariableList": [
    {
      "$type": "RPG.GameCore.AIVariableString",
      "Value": "RO_015_Phase01",
      "Name": "CurrentPhase"
    },
    {
      "$type": "RPG.GameCore.AIVariableBool",
      "Value": true,
      "Name": "ForbidClearSkillUseRecord"
    }
  ],
  "DecisionList": [
    {
      "$type": "RPG.GameCore.AIDecisionConfig",
      "DecisionName": "UseSkill01",
      "RootTask": {
        "$type": "RPG.GameCore.SequenceConfig",
        "TaskList": [
          {
            "$type": "RPG.GameCore.UseSkill",
            "SkillName": "Skill04"
          }
        ]
      },
      "ScoreEvaluatorType": "DefaultDSE",
      "ConsiderAxisList": [
        {
          "$type": "RPG.GameCore.CheckPredicateAxis",
          "Predicate": {
            "$type": "RPG.GameCore.ByAnd",
            "PredicateList": [
              {
                "$type": "RPG.GameCore.ByCompareMonsterPhase",
                "TargetType": {
                  "$type": "RPG.GameCore.TargetAlias",
                  "Alias": "PartEntity0"
                },
                "CompareType": "Equal",
                "CompareValue": {
                  "IsDynamic": false,
                  "FixedValue": {
                    "Value": 1
                  }
                }
              }
            ]
          },
          "SuccessScore": {
            "Value": 0.5000000004656613
          }
        }
      ]
    },
    {
      "$type": "RPG.GameCore.AIDecisionConfig",
      "DecisionName": "UseSkill02_1",
      "RootTask": {
        "$type": "RPG.GameCore.SequenceConfig",
        "TaskList": [
          {
            "$type": "RPG.GameCore.UseSkill",
            "SkillName": "Skill05"
          }
        ]
      },
      "ScoreEvaluatorType": "DefaultDSE",
      "ConsiderAxisList": [
        {
          "$type": "RPG.GameCore.CheckPredicateAxis",
          "Predicate": {
            "$type": "RPG.GameCore.ByAnd",
            "PredicateList": [
              {
                "$type": "RPG.GameCore.ByIsContainModifier",
                "TargetType": {
                  "$type": "RPG.GameCore.TargetAlias",
                  "Alias": "Caster"
                },
                "ModifierName": "MMonster_W0_Boss_00_Part2_AttackUp"
              },
              {
                "$type": "RPG.GameCore.ByCompareMonsterPhase",
                "TargetType": {
                  "$type": "RPG.GameCore.TargetAlias",
                  "Alias": "PartEntity0"
                },
                "CompareType": "Equal",
                "CompareValue": {
                  "IsDynamic": false,
                  "FixedValue": {
                    "Value": 1
                  }
                }
              }
            ]
          },
          "SuccessScore": {
            "Value": 1
          }
        }
      ]
    },
    {
      "$type": "RPG.GameCore.AIDecisionConfig",
      "DecisionName": "UseSkill02_2",
      "RootTask": {
        "$type": "RPG.GameCore.SequenceConfig",
        "TaskList": [
          {
            "$type": "RPG.GameCore.UseSkill",
            "SkillName": "Skill05"
          }
        ]
      },
      "ScoreEvaluatorType": "DefaultDSE",
      "ConsiderAxisList": [
        {
          "$type": "RPG.GameCore.CheckPredicateAxis",
          "Predicate": {
            "$type": "RPG.GameCore.ByAnd",
            "PredicateList": [
              {
                "$type": "RPG.GameCore.ByCompareMonsterPhase",
                "TargetType": {
                  "$type": "RPG.GameCore.TargetAlias",
                  "Alias": "PartEntity0"
                },
                "CompareType": "Equal",
                "CompareValue": {
                  "IsDynamic": false,
                  "FixedValue": {
                    "Value": 2
                  }
                }
              }
            ]
          },
          "SuccessScore": {
            "Value": 0.5000000004656613
          }
        }
      ]
    },
    {
      "$type": "RPG.GameCore.AIDecisionConfig",
      "DecisionName": "UseSkill03",
      "RootTask": {
        "$type": "RPG.GameCore.SequenceConfig",
        "TaskList": [
          {
            "$type": "RPG.GameCore.UseSkill",
            "SkillName": "Skill06"
          }
        ]
      },
      "ScoreEvaluatorType": "DefaultDSE",
      "ConsiderAxisList": [
        {
          "$type": "RPG.GameCore.CheckPredicateAxis",
          "Predicate": {
            "$type": "RPG.GameCore.ByAnd",
            "PredicateList": [
              {
                "$type": "RPG.GameCore.ByIsContainModifier",
                "TargetType": {
                  "$type": "RPG.GameCore.TargetAlias",
                  "Alias": "Caster"
                },
                "ModifierName": "MMonster_W0_Boss_00_Part2_AttackUp"
              },
              {
                "$type": "RPG.GameCore.ByCompareMonsterPhase",
                "TargetType": {
                  "$type": "RPG.GameCore.TargetAlias",
                  "Alias": "PartEntity0"
                },
                "CompareType": "Equal",
                "CompareValue": {
                  "IsDynamic": false,
                  "FixedValue": {
                    "Value": 2
                  }
                }
              }
            ]
          },
          "SuccessScore": {
            "Value": 1
          }
        }
      ]
    }
  ]
}