{
  "OnInitSequece": [
    {
      "TaskList": [
        {
          "$type": "RPG.GameCore.PropSetupUITrigger",
          "ButtonCallback": [
            {
              "$type": "RPG.GameCore.SelectorConfig",
              "TaskList": [
                {
                  "$type": "RPG.GameCore.PropStateExecute",
                  "TargetType": {
                    "$type": "RPG.GameCore.TargetFetchAdvPropEx"
                  },
                  "State": "ChestLocked",
                  "Execute": [
                    {
                      "$type": "RPG.GameCore.ToastPile",
                      "DescTextID": {
                        "Hash": -793379246
                      }
                    },
                    {
                      "$type": "RPG.GameCore.RemoveEffect",
                      "TargetType": {
                        "$type": "RPG.GameCore.TargetFetchAdvPropEx"
                      },
                      "EffectPath": "Effects/Eff_Prefab/Eff_Scene/Interactive Object/Eff_Common_PropBlockade_Idle_Locked.prefab"
                    },
                    {
                      "$type": "RPG.GameCore.TriggerEffectList",
                      "TargetType": {
                        "$type": "RPG.GameCore.TargetFetchAdvPropEx"
                      },
                      "EffectList": [
                        {
                          "EffectPath": "Effects/Eff_Prefab/Eff_Scene/Interactive Object/Eff_Common_PropBlockade_Trigger.prefab",
                          "AttachPoint": "Root"
                        }
                      ]
                    },
                    {
                      "$type": "RPG.GameCore.WaitSecond",
                      "WaitTime": 0.2
                    },
                    {
                      "$type": "RPG.GameCore.TriggerEffectList",
                      "TargetType": {
                        "$type": "RPG.GameCore.TargetFetchAdvPropEx"
                      },
                      "EffectList": [
                        {
                          "EffectPath": "Effects/Eff_Prefab/Eff_Scene/Interactive Object/Eff_Common_PropBlockade_Idle_Locked.prefab",
                          "AttachPoint": "Root"
                        }
                      ]
                    }
                  ]
                },
                {
                  "$type": "RPG.GameCore.PropStateExecute",
                  "TargetType": {
                    "$type": "RPG.GameCore.TargetFetchAdvPropEx"
                  },
                  "State": "ChestClosed",
                  "Execute": [
                    {
                      "$type": "RPG.GameCore.PropReqInteract",
                      "TargetType": {
                        "$type": "RPG.GameCore.TargetFetchAdvPropEx"
                      },
                      "InteractID": {
                        "IsDynamic": false,
                        "FixedValue": {
                          "Value": 112131
                        }
                      }
                    }
                  ]
                }
              ]
            }
          ],
          "OverrideTargetTypes": [],
          "TargetType": {
            "$type": "RPG.GameCore.TargetFetchAdvPropEx"
          }
        }
      ]
    }
  ],
  "OnStartSequece": [
    {
      "TaskList": [
        {
          "$type": "RPG.GameCore.PropStateChangeListenerConfig",
          "FromState": "ChestLocked",
          "ToState": "ChestClosed",
          "OnChange": [
            {
              "$type": "RPG.GameCore.ToastPage",
              "MessageOne": {
                "Hash": 1860569269
              },
              "MessageTwo": {
                "Hash": -1844055497
              }
            },
            {
              "$type": "RPG.GameCore.WaitSecond",
              "WaitTime": 1
            },
            {
              "$type": "RPG.GameCore.PropTriggerAnimState",
              "AnimStateName": "LockedToStandBy",
              "TargetType": {
                "$type": "RPG.GameCore.TargetFetchAdvPropEx"
              }
            }
          ],
          "TargetType": {
            "$type": "RPG.GameCore.TargetFetchAdvPropEx"
          }
        }
      ]
    },
    {
      "TaskList": [
        {
          "$type": "RPG.GameCore.PropStateChangeServerListenerConfig",
          "TaskEnabled": true
        }
      ]
    }
  ]
}