{
  "OnInitSequece": [],
  "OnStartSequece": [
    {
      "TaskList": [
        {
          "$type": "RPG.GameCore.WaitPerformanceEnd"
        },
        {
          "$type": "RPG.GameCore.WaitSecond",
          "WaitTime": 2,
          "TaskEnabled": false
        },
        {
          "$type": "RPG.GameCore.PlayNPCBubbleTalk",
          "BubbleTalkInfoList": [
            {
              "AutoSkipTime": 4,
              "GroupID": 15,
              "GroupNpcID": 400014,
              "TalkSentenceID": 999972505
            }
          ]
        },
        {
          "$type": "RPG.GameCore.FinishPerformanceMission",
          "Key": "Mission_901091716"
        }
      ]
    },
    {
      "TaskList": [
        {
          "$type": "RPG.GameCore.LevelPerformanceInitialize",
          "PerformanceType": "D",
          "CreateCharacterList": [],
          "EntityVisiableList": [],
          "MarkStreamingItems": []
        },
        {
          "$type": "RPG.GameCore.CaptureNPCToCharacter",
          "GroupID": {
            "IsDynamic": false,
            "FixedValue": {
              "Value": 15
            }
          },
          "GroupNpcID": {
            "IsDynamic": false,
            "FixedValue": {
              "Value": 400014
            }
          },
          "CharacterUniqueName": {
            "Value": "NPC001"
          }
        },
        {
          "$type": "RPG.GameCore.CharacterTriggerFreeStyle",
          "CharacterUniqueName": "NPC001",
          "StoryAvatarID": "NPC_Lady",
          "NormalizedTransitionDuration": 0.3,
          "StoryMotionID": 100020210
        },
        {
          "$type": "RPG.GameCore.PlaySimpleTalk",
          "SimpleTalkList": [
            {
              "TalkSentenceID": 999972506,
              "ProtectTime": 1
            }
          ]
        },
        {
          "$type": "RPG.GameCore.WaitSimpleTalkFinish"
        },
        {
          "$type": "RPG.GameCore.EndPerformance"
        }
      ]
    }
  ]
}