{
  "OnInitSequece": [],
  "OnStartSequece": [
    {
      "TaskList": [
        {
          "$type": "RPG.GameCore.CreateProp",
          "GroupID": {
            "IsDynamic": false,
            "FixedValue": {
              "Value": 101
            }
          },
          "GroupPropID": {
            "IsDynamic": false,
            "FixedValue": {
              "Value": 300005
            }
          },
          "CreateList": []
        },
        {
          "$type": "RPG.GameCore.CreateProp",
          "GroupID": {
            "IsDynamic": false,
            "FixedValue": {
              "Value": 101
            }
          },
          "GroupPropID": {
            "IsDynamic": false,
            "FixedValue": {
              "Value": 300006
            }
          },
          "CreateList": []
        }
      ]
    },
    {
      "TaskList": [
        {
          "$type": "RPG.GameCore.PhotoGraphAimTarget",
          "AimTargetType": {
            "$type": "RPG.GameCore.TargetFetchAdvProp",
            "MultiGroupFetch": [
              {
                "GroupID": {
                  "IsDynamic": false,
                  "FixedValue": {
                    "Value": 101
                  }
                },
                "ID": {
                  "IsDynamic": false,
                  "FixedValue": {
                    "Value": 300006
                  }
                }
              }
            ],
            "MultiGroupFetchByUniqueName": [],
            "MultiGroupFetchByPropKey": []
          },
          "IsAim": true,
          "AimIdentifyType": "Manual"
        },
        {
          "$type": "RPG.GameCore.PhotoGraphWaitIdentifyFinish",
          "WaitTargetType": {
            "$type": "RPG.GameCore.TargetFetchAdvProp",
            "MultiGroupFetch": [
              {
                "GroupID": {
                  "IsDynamic": false,
                  "FixedValue": {
                    "Value": 101
                  }
                },
                "ID": {
                  "IsDynamic": false,
                  "FixedValue": {
                    "Value": 300006
                  }
                }
              }
            ],
            "MultiGroupFetchByUniqueName": [],
            "MultiGroupFetchByPropKey": []
          },
          "OnIdentifyFinish": [],
          "OnPreviewFinish": []
        },
        {
          "$type": "RPG.GameCore.PhotoGraphAimTarget",
          "AimTargetType": {
            "$type": "RPG.GameCore.TargetFetchAdvProp",
            "MultiGroupFetch": [
              {
                "GroupID": {
                  "IsDynamic": false,
                  "FixedValue": {
                    "Value": 101
                  }
                },
                "ID": {
                  "IsDynamic": false,
                  "FixedValue": {
                    "Value": 300006
                  }
                }
              }
            ],
            "MultiGroupFetchByUniqueName": [],
            "MultiGroupFetchByPropKey": []
          }
        },
        {
          "$type": "RPG.GameCore.TriggerCustomString",
          "CustomString": {
            "Value": "Mission_800015901_BtnClick"
          }
        }
      ]
    },
    {
      "TaskList": [
        {
          "$type": "RPG.GameCore.WaitCustomString",
          "CustomString": {
            "Value": "Mission_800015901_BtnClick"
          }
        },
        {
          "$type": "RPG.GameCore.PhotoGraphShowIdentifyResult",
          "IsIdentifySuccess": true,
          "IsShowToast": true,
          "ToastText": {
            "Hash": -372170477
          }
        },
        {
          "$type": "RPG.GameCore.DestroyProp",
          "TargetType": {
            "$type": "RPG.GameCore.TargetFetchAdvPropEx"
          },
          "ID": {
            "IsDynamic": false,
            "FixedValue": {
              "Value": 300005
            }
          },
          "GroupID": {
            "IsDynamic": false,
            "FixedValue": {
              "Value": 101
            }
          },
          "DestroyList": []
        },
        {
          "$type": "RPG.GameCore.DestroyProp",
          "TargetType": {
            "$type": "RPG.GameCore.TargetFetchAdvPropEx"
          },
          "ID": {
            "IsDynamic": false,
            "FixedValue": {
              "Value": 300006
            }
          },
          "GroupID": {
            "IsDynamic": false,
            "FixedValue": {
              "Value": 101
            }
          },
          "DestroyList": []
        },
        {
          "$type": "RPG.GameCore.WaitSecond",
          "WaitTime": 1
        },
        {
          "$type": "RPG.GameCore.SwitchPhotoGraphMode",
          "IdentifyRadiusOverride": {
            "IsDynamic": false,
            "FixedValue": {
              "Value": 0
            }
          }
        },
        {
          "$type": "RPG.GameCore.FinishPerformanceMission",
          "Key": "Mission_800015901"
        }
      ]
    }
  ]
}