{
  "OnInitSequece": [],
  "OnStartSequece": [
    {
      "TaskList": [
        {
          "$type": "RPG.GameCore.LevelPerformanceInitialize",
          "PerformanceType": "E",
          "HideMunicipalCrowd": false,
          "HideMunicipalPedestrian": false
        },
        {
          "$type": "RPG.GameCore.PlayAndWaitSimpleTalk",
          "SimpleTalkList": [
            {
              "TalkSentenceID": 100025117,
              "ProtectTime": 0.3
            }
          ]
        },
        {
          "$type": "RPG.GameCore.RandomConfig",
          "OddsList": [
            {
              "IsDynamic": false,
              "FixedValue": {
                "Value": 0.33000001311302185
              }
            },
            {
              "IsDynamic": false,
              "FixedValue": {
                "Value": 0.33000001311302185
              }
            },
            {
              "IsDynamic": false,
              "FixedValue": {
                "Value": 0.3400000031106174
              }
            }
          ],
          "TaskList": [
            {
              "$type": "RPG.GameCore.PlayAndWaitSimpleTalk",
              "SimpleTalkList": [
                {
                  "TalkSentenceID": 100025118,
                  "ProtectTime": 0.3
                }
              ]
            },
            {
              "$type": "RPG.GameCore.PlayAndWaitSimpleTalk",
              "SimpleTalkList": [
                {
                  "TalkSentenceID": 100025119,
                  "ProtectTime": 0.3
                }
              ]
            },
            {
              "$type": "RPG.GameCore.PlayAndWaitSimpleTalk",
              "SimpleTalkList": [
                {
                  "TalkSentenceID": 100025120,
                  "ProtectTime": 0.3
                }
              ]
            }
          ]
        },
        {
          "$type": "RPG.GameCore.EndPerformance"
        }
      ]
    },
    {
      "TaskList": [
        {
          "$type": "RPG.GameCore.WaitPerformanceEnd"
        },
        {
          "$type": "RPG.GameCore.FinishLevelGraph"
        }
      ]
    }
  ]
}