{
  "OnInitSequece": [],
  "OnStartSequece": [
    {
      "TaskList": [
        {
          "$type": "RPG.GameCore.PropStateExecute",
          "TargetType": {
            "$type": "RPG.GameCore.TargetFetchAdvPropEx",
            "FetchType": "SinglePropByPropKey",
            "SinglePropKey": {
              "Custom": true,
              "Key": "LogisticsRobot_01_OpenDoor"
            },
            "SinglePropID": {}
          },
          "Execute": [
            {
              "$type": "RPG.GameCore.PropSetupTrigger",
              "TargetType": {
                "$type": "RPG.GameCore.TargetFetchAdvPropEx"
              },
              "TargetEntityType": "NPC",
              "TargetGroupID": {
                "IsDynamic": false,
                "FixedValue": {
                  "Value": 0
                }
              },
              "TargetID": {
                "IsDynamic": false,
                "FixedValue": {
                  "Value": 0
                }
              },
              "TargetTypes": [
                "NPC"
              ],
              "OnTriggerEnter": [
                {
                  "$type": "RPG.GameCore.PlayMissionTalk",
                  "SimpleTalkList": [
                    {
                      "TalkSentenceID": 407020117,
                      "ProtectTime": 2
                    }
                  ]
                },
                {
                  "$type": "RPG.GameCore.SetNpcStatus",
                  "TargetType": {
                    "$type": "RPG.GameCore.TargetFetchAdvNpcEx",
                    "FetchType": "SingleNpcByNpcKey",
                    "SingleNpcKey": {
                      "Custom": true,
                      "Key": "Bird"
                    },
                    "SingleUniqueName": {
                      "Value": "LogisticsRobot01"
                    }
                  }
                },
                {
                  "$type": "RPG.GameCore.PropEnableCollider",
                  "TargetType": {
                    "$type": "RPG.GameCore.TargetFetchAdvPropEx",
                    "SinglePropID": {
                      "GroupID": {
                        "IsDynamic": false,
                        "FixedValue": {
                          "Value": 77
                        }
                      },
                      "ID": {
                        "IsDynamic": false,
                        "FixedValue": {
                          "Value": 300001
                        }
                      }
                    }
                  }
                }
              ]
            }
          ]
        }
      ]
    },
    {
      "TaskList": [
        {
          "$type": "RPG.GameCore.PropStateChangeListenerConfig",
          "ToState": "Open",
          "FromAnyState": true,
          "OnChange": [
            {
              "$type": "RPG.GameCore.WaitSecond",
              "WaitTime": 3
            },
            {
              "$type": "RPG.GameCore.SetNpcStatus",
              "TargetType": {
                "$type": "RPG.GameCore.TargetFetchAdvNpcEx",
                "FetchType": "SingleNpcByNpcKey",
                "SingleNpcKey": {
                  "Custom": true,
                  "Key": "Bird"
                },
                "SingleUniqueName": {
                  "Value": "LogisticsRobot01"
                }
              },
              "Status": "FollowByPlayer"
            }
          ],
          "TargetType": {
            "$type": "RPG.GameCore.TargetFetchAdvPropEx",
            "FetchType": "SinglePropByPropKey",
            "SinglePropKey": {
              "Custom": true,
              "Key": "LogisticsRobot_01_OpenDoor"
            },
            "SinglePropID": {
              "GroupID": {
                "IsDynamic": false,
                "FixedValue": {
                  "Value": 35
                }
              },
              "ID": {
                "IsDynamic": false,
                "FixedValue": {
                  "Value": 300004
                }
              }
            }
          }
        }
      ]
    }
  ],
  "ValueSource": {
    "Values": [
      {
        "$type": "RPG.GameCore.SharedString",
        "Key": "LogisticsRobot_01_OpenDoor"
      },
      {
        "$type": "RPG.GameCore.SharedString",
        "Key": "Bird"
      }
    ]
  }
}