{
  "OnInitSequece": [],
  "OnStartSequece": [
    {
      "TaskList": [
        {
          "$type": "RPG.GameCore.LevelPerformanceInitialize",
          "PerformanceType": "D"
        },
        {
          "$type": "RPG.GameCore.PerformanceTransition",
          "CreateNpcList": [
            {
              "GroupID": {
                "IsDynamic": false,
                "FixedValue": {
                  "Value": 41
                }
              },
              "GroupNpcID": {
                "IsDynamic": false,
                "FixedValue": {
                  "Value": 400002
                }
              },
              "CreateList": []
            },
            {
              "GroupID": {
                "IsDynamic": false,
                "FixedValue": {
                  "Value": 41
                }
              },
              "GroupNpcID": {
                "IsDynamic": false,
                "FixedValue": {
                  "Value": 400003
                }
              },
              "CreateList": []
            },
            {
              "GroupID": {
                "IsDynamic": false,
                "FixedValue": {
                  "Value": 41
                }
              },
              "GroupNpcID": {
                "IsDynamic": false,
                "FixedValue": {
                  "Value": 400005
                }
              },
              "CreateList": []
            }
          ],
          "CaptureNpcList": [],
          "DestroyNpcList": [],
          "CreateProp": {
            "GroupID": {
              "IsDynamic": false,
              "FixedValue": {
                "Value": 0
              }
            },
            "GroupPropID": {
              "IsDynamic": false,
              "FixedValue": {
                "Value": 0
              }
            },
            "TaskEnabled": false
          },
          "DestroyProp": {
            "TargetType": {
              "$type": "RPG.GameCore.TargetFetchAdvPropEx"
            },
            "ID": {
              "IsDynamic": false,
              "FixedValue": {
                "Value": 0
              }
            },
            "GroupID": {
              "IsDynamic": false,
              "FixedValue": {
                "Value": 0
              }
            },
            "TaskEnabled": false
          },
          "AdvCreateGroupEntity": {
            "InstanceIDList": [],
            "TaskEnabled": false
          },
          "AdvDestroyGroupEntity": {
            "TaskEnabled": false
          },
          "ActiveVirtualCamera": {
            "AreaName": "LevelArea_P10202_F10202004_G41",
            "AnchorName": "Anchor1"
          },
          "ActiveTemplateVirtualCamera": {
            "TaskEnabled": false
          },
          "SwitchCharacterAnchor": {
            "IsLocalPlayer": true,
            "CharacterUniqueName": "LocalPlayer",
            "AreaName": {
              "Value": "LevelArea_P10202_F10202004_G41"
            },
            "AnchorName": {
              "Value": "Anchor2"
            }
          },
          "AdvNpcFaceToPlayer": {
            "TaskEnabled": false
          }
        },
        {
          "$type": "RPG.GameCore.AdvNpcFaceToPlayer",
          "GroupID": 41,
          "GroupNpcID": 400001,
          "TryFaceToFace": false,
          "OnlyPlayerFaceToNpc": true,
          "SteerImmediately": true,
          "FinishImmadiate": true,
          "WaitFinishMode": "WaitAnimFinish"
        },
        {
          "$type": "RPG.GameCore.CharacterTriggerFreeStyle",
          "TargetAlias": {
            "$type": "RPG.GameCore.TargetFetchAdvNpcEx",
            "FetchType": "SingleNpcByNpcID",
            "SingleNpcID": {
              "GroupID": {
                "IsDynamic": false,
                "FixedValue": {
                  "Value": 41
                }
              },
              "GroupNpcID": {
                "IsDynamic": false,
                "FixedValue": {
                  "Value": 400001
                }
              }
            }
          },
          "StoryAvatarID": "NPC_Lady",
          "StoryMotionID": 100020200
        },
        {
          "$type": "RPG.GameCore.PlayAndWaitSimpleTalk",
          "SimpleTalkList": [
            {
              "TalkSentenceID": 800320731,
              "ProtectTime": 0.3
            },
            {
              "TalkSentenceID": 800320732,
              "ProtectTime": 0.3
            }
          ]
        },
        {
          "$type": "RPG.GameCore.PlayOptionTalk",
          "OptionList": [
            {
              "TalkSentenceID": 800320733,
              "OptionIconType": "ChatContinueIcon",
              "TriggerCustomString": "TalkSentence_800320737"
            },
            {
              "TalkSentenceID": 800320734,
              "OptionIconType": "ChatContinueIcon",
              "TriggerCustomString": "TalkSentence_800320737"
            },
            {
              "TalkSentenceID": 800320735,
              "OptionIconType": "ChatContinueIcon",
              "TriggerCustomString": "TalkSentence_800320736"
            }
          ]
        }
      ]
    },
    {
      "TaskList": [
        {
          "$type": "RPG.GameCore.WaitCustomString",
          "CustomString": {
            "Value": "TalkSentence_800320736"
          }
        },
        {
          "$type": "RPG.GameCore.CharacterTriggerFreeStyle",
          "CharacterUniqueName": "LocalPlayer",
          "StoryAvatarID": "NPC_Player",
          "StoryMotionID": 201
        },
        {
          "$type": "RPG.GameCore.WaitSecond",
          "WaitTime": 0.8
        },
        {
          "$type": "RPG.GameCore.CharacterTriggerFreeStyle",
          "TargetAlias": {
            "$type": "RPG.GameCore.TargetFetchAdvNpcEx",
            "FetchType": "SingleNpcByNpcID",
            "SingleNpcID": {
              "GroupID": {
                "IsDynamic": false,
                "FixedValue": {
                  "Value": 41
                }
              },
              "GroupNpcID": {
                "IsDynamic": false,
                "FixedValue": {
                  "Value": 400003
                }
              }
            }
          },
          "StoryAvatarID": "NPC_Avatar_Kid_Bailu_00",
          "StoryMotionID": 312110201
        },
        {
          "$type": "RPG.GameCore.PlayAndWaitSimpleTalk",
          "SimpleTalkList": [
            {
              "TalkSentenceID": 800320736,
              "ProtectTime": 0.3
            }
          ]
        },
        {
          "$type": "RPG.GameCore.TriggerCustomString",
          "CustomString": {
            "Value": "TalkSentence_800320737"
          }
        }
      ]
    },
    {
      "TaskList": [
        {
          "$type": "RPG.GameCore.WaitCustomString",
          "CustomString": {
            "Value": "TalkSentence_800320737"
          }
        },
        {
          "$type": "RPG.GameCore.AdvNpcFaceToPlayer",
          "GroupID": 41,
          "GroupNpcID": 400002,
          "FinishImmadiate": true,
          "WaitFinishMode": "WaitAnimFinish"
        },
        {
          "$type": "RPG.GameCore.PlayAndWaitSimpleTalk",
          "SimpleTalkList": [
            {
              "TalkSentenceID": 800320737,
              "ProtectTime": 0.3
            }
          ]
        },
        {
          "$type": "RPG.GameCore.CharacterTriggerFreeStyle",
          "TargetAlias": {
            "$type": "RPG.GameCore.TargetFetchAdvNpcEx",
            "FetchType": "SingleNpcByNpcID",
            "SingleNpcID": {
              "GroupID": {
                "IsDynamic": false,
                "FixedValue": {
                  "Value": 41
                }
              },
              "GroupNpcID": {
                "IsDynamic": false,
                "FixedValue": {
                  "Value": 400002
                }
              }
            }
          },
          "StoryAvatarID": "NPC_Lady",
          "StoryMotionID": 100020335
        },
        {
          "$type": "RPG.GameCore.PlayAndWaitSimpleTalk",
          "SimpleTalkList": [
            {
              "TalkSentenceID": 800320738,
              "ProtectTime": 0.3
            },
            {
              "TalkSentenceID": 800320739,
              "ProtectTime": 0.3
            }
          ]
        },
        {
          "$type": "RPG.GameCore.CharacterTriggerFreeStyle",
          "TargetAlias": {
            "$type": "RPG.GameCore.TargetFetchAdvNpcEx",
            "FetchType": "SingleNpcByNpcID",
            "SingleNpcID": {
              "GroupID": {
                "IsDynamic": false,
                "FixedValue": {
                  "Value": 41
                }
              },
              "GroupNpcID": {
                "IsDynamic": false,
                "FixedValue": {
                  "Value": 400005
                }
              }
            }
          },
          "StoryAvatarID": "NPC_Avatar_Maid_Sushang_00",
          "StoryMotionID": 312060200
        },
        {
          "$type": "RPG.GameCore.PlayAndWaitSimpleTalk",
          "SimpleTalkList": [
            {
              "TalkSentenceID": 800320740,
              "ProtectTime": 0.3
            }
          ]
        },
        {
          "$type": "RPG.GameCore.TriggerCustomString",
          "CustomString": {
            "Value": "Wait_Option_800320222_564"
          }
        }
      ]
    },
    {
      "TaskList": [
        {
          "$type": "RPG.GameCore.WaitCustomString",
          "CustomString": {
            "Value": "TalkSentence_800320737"
          }
        },
        {
          "$type": "RPG.GameCore.WaitSecond",
          "WaitTime": 0.5
        },
        {
          "$type": "RPG.GameCore.AdvNpcFaceToPlayer",
          "GroupID": 41,
          "GroupNpcID": 400002,
          "PlayerInGroupID": 41,
          "PlayerInGroupNpcID": 400003,
          "TryFaceToFace": false,
          "OnlyPlayerFaceToNpc": true,
          "NpcLookAtPlayer": false,
          "FinishImmadiate": true,
          "WaitFinishMode": "WaitAnimFinish"
        }
      ]
    },
    {
      "TaskList": [
        {
          "$type": "RPG.GameCore.WaitCustomString",
          "CustomString": {
            "Value": "TalkSentence_800320737"
          }
        },
        {
          "$type": "RPG.GameCore.WaitSecond",
          "WaitTime": 0.8
        },
        {
          "$type": "RPG.GameCore.AdvNpcFaceToPlayer",
          "GroupID": 41,
          "GroupNpcID": 400002,
          "PlayerInGroupID": 41,
          "PlayerInGroupNpcID": 400005,
          "TryFaceToFace": false,
          "OnlyPlayerFaceToNpc": true,
          "NpcLookAtPlayer": false,
          "FinishImmadiate": true,
          "WaitFinishMode": "WaitAnimFinish"
        }
      ]
    },
    {
      "IsLoop": true,
      "TaskList": [
        {
          "$type": "RPG.GameCore.WaitCustomString",
          "CustomString": {
            "Value": "Wait_Option_800320222_564"
          }
        },
        {
          "$type": "RPG.GameCore.PlayOptionTalk",
          "OptionList": [
            {
              "TalkSentenceID": 800320741,
              "OptionIconType": "ChatLoopIcon",
              "TriggerCustomString": "TalkSentence_800320742"
            },
            {
              "TalkSentenceID": 800320746,
              "OptionIconType": "ChatContinueIcon",
              "TriggerCustomString": "TalkSentence_800320747"
            }
          ],
          "HideSelected": true
        }
      ]
    },
    {
      "IsLoop": true,
      "TaskList": [
        {
          "$type": "RPG.GameCore.WaitCustomString",
          "CustomString": {
            "Value": "TalkSentence_800320742"
          }
        },
        {
          "$type": "RPG.GameCore.PlayAndWaitSimpleTalk",
          "SimpleTalkList": [
            {
              "TalkSentenceID": 800320742,
              "ProtectTime": 0.3
            },
            {
              "TalkSentenceID": 800320743,
              "ProtectTime": 0.3
            },
            {
              "TalkSentenceID": 800320738,
              "ProtectTime": 0.3
            },
            {
              "TalkSentenceID": 800320745,
              "ProtectTime": 0.3
            }
          ]
        },
        {
          "$type": "RPG.GameCore.TriggerCustomString",
          "CustomString": {
            "Value": "Wait_Option_800320222_564"
          }
        }
      ]
    },
    {
      "IsLoop": true,
      "TaskList": [
        {
          "$type": "RPG.GameCore.WaitCustomString",
          "CustomString": {
            "Value": "TalkSentence_800320747"
          }
        },
        {
          "$type": "RPG.GameCore.CharacterTriggerFreeStyle",
          "CharacterUniqueName": "LocalPlayer",
          "StoryAvatarID": "NPC_Player",
          "StoryMotionID": 200
        },
        {
          "$type": "RPG.GameCore.WaitSecond",
          "WaitTime": 0.8
        },
        {
          "$type": "RPG.GameCore.PlayAndWaitSimpleTalk",
          "SimpleTalkList": [
            {
              "TalkSentenceID": 800320747,
              "ProtectTime": 0.3
            }
          ]
        },
        {
          "$type": "RPG.GameCore.CharacterTriggerFreeStyle",
          "TargetAlias": {
            "$type": "RPG.GameCore.TargetFetchAdvNpcEx",
            "FetchType": "SingleNpcByNpcID",
            "SingleNpcID": {
              "GroupID": {
                "IsDynamic": false,
                "FixedValue": {
                  "Value": 41
                }
              },
              "GroupNpcID": {
                "IsDynamic": false,
                "FixedValue": {
                  "Value": 400002
                }
              }
            }
          },
          "StoryAvatarID": "NPC_Lady",
          "StoryMotionID": 100020337
        },
        {
          "$type": "RPG.GameCore.PlayAndWaitSimpleTalk",
          "SimpleTalkList": [
            {
              "TalkSentenceID": 800320748,
              "ProtectTime": 0.3
            },
            {
              "TalkSentenceID": 800320749,
              "ProtectTime": 0.3
            }
          ]
        },
        {
          "$type": "RPG.GameCore.PerformanceTransition",
          "CreateNpcList": [
            {
              "CreateList": [],
              "TaskEnabled": false
            }
          ],
          "CaptureNpcList": [],
          "DestroyNpcList": [
            {
              "GroupID": 41,
              "GroupNpcID": 400002,
              "DestroyList": []
            },
            {
              "GroupID": 41,
              "GroupNpcID": 400003,
              "DestroyList": []
            },
            {
              "GroupID": 41,
              "GroupNpcID": 400005,
              "DestroyList": []
            }
          ],
          "CreateProp": {
            "GroupID": {
              "IsDynamic": false,
              "FixedValue": {
                "Value": 0
              }
            },
            "GroupPropID": {
              "IsDynamic": false,
              "FixedValue": {
                "Value": 0
              }
            },
            "TaskEnabled": false
          },
          "DestroyProp": {
            "TargetType": {
              "$type": "RPG.GameCore.TargetFetchAdvPropEx"
            },
            "ID": {
              "IsDynamic": false,
              "FixedValue": {
                "Value": 0
              }
            },
            "GroupID": {
              "IsDynamic": false,
              "FixedValue": {
                "Value": 0
              }
            },
            "TaskEnabled": false
          },
          "AdvCreateGroupEntity": {
            "InstanceIDList": [],
            "TaskEnabled": false
          },
          "AdvDestroyGroupEntity": {
            "TaskEnabled": false
          },
          "ActiveVirtualCamera": {
            "AreaName": "LevelArea_P10202_F10202004_G41",
            "AnchorName": "Anchor1",
            "IsActive": false
          },
          "ActiveTemplateVirtualCamera": {
            "TaskEnabled": false
          },
          "SwitchCharacterAnchor": {
            "CharacterUniqueName": "LocalPlayer",
            "TaskEnabled": false
          },
          "AdvNpcFaceToPlayer": {
            "TaskEnabled": false
          }
        },
        {
          "$type": "RPG.GameCore.EndPerformance"
        }
      ]
    },
    {
      "TaskList": [
        {
          "$type": "RPG.GameCore.WaitPerformanceEnd"
        },
        {
          "$type": "RPG.GameCore.FinishLevelGraph"
        }
      ]
    }
  ]
}