{
  "S": {
    "ID": "S",
    "Text": {
      "Hash": 564125680
    },
    "CommonRankIconPath": "SpriteOutput/RankIcon/CommonRankBg_S.png"
  },
  "A": {
    "ID": "A",
    "Text": {
      "Hash": 564125662
    },
    "CommonRankIconPath": "SpriteOutput/RankIcon/CommonRankBg_A.png"
  },
  "B": {
    "ID": "B",
    "Text": {
      "Hash": 564125665
    },
    "CommonRankIconPath": "SpriteOutput/RankIcon/CommonRankBg_B.png"
  },
  "C": {
    "ID": "C",
    "Text": {
      "Hash": 564125664
    },
    "CommonRankIconPath": "SpriteOutput/RankIcon/CommonRankBg_C.png"
  }
}