{
  "10012": {
    "PanelID": 10012,
    "Type": 4,
    "ActivityModuleID": 1001201,
    "UIPrefab": "UI/Quest/ChallengePanel/QuestChallengePanel.prefab",
    "TypeParam": [],
    "UnlockConditions": [
      {
        "Type": "PlayerLevel",
        "Param": "20"
      },
      {
        "Type": "FinishMainMission",
        "Param": "1000510"
      }
    ],
    "SortWeight": 1,
    "TabName": {
      "Hash": -1251713575
    },
    "TitleName": {
      "Hash": -1661041986
    },
    "PanelDesc": {
      "Hash": 371857150
    },
    "TabIcon": "SpriteOutput/UI/Quest/TabIcon/ButtonChallengeQuest.png",
    "TagDesc": {
      "Hash": 371857150
    },
    "IntroDesc": {
      "Hash": -916758148
    },
    "DisplayItemList": [],
    "ActionNameList": [],
    "ActionNameListOnTab": [],
    "ResidentPanelFinishConditions": []
  },
  "10014": {
    "PanelID": 10014,
    "Type": 2,
    "ActivityModuleID": 1001401,
    "UIPrefab": "UI/Quest/Widget/SevenDayRewardPanel.prefab",
    "TypeParam": [
      1002
    ],
    "UnlockConditions": [
      {
        "Type": "FinishMainMission",
        "Param": "1000510"
      }
    ],
    "SortWeight": 3010,
    "TabName": {
      "Hash": -1251713569
    },
    "TitleName": {
      "Hash": -1661041984
    },
    "PanelDesc": {
      "Hash": 371857150
    },
    "TabIcon": "SpriteOutput/UI/Quest/TabIcon/BtnSevenDayReward2.png",
    "TagDesc": {
      "Hash": 1452015932
    },
    "IntroDesc": {
      "Hash": -916758154
    },
    "DisplayItemList": [],
    "ActionNameList": [
      "ItemDetail",
      "ActionGroup_Return"
    ],
    "ActionNameListOnTab": [
      "Menu_Confirm",
      "ActionGroup_Return"
    ],
    "ResidentPanelFinishConditions": []
  },
  "10015": {
    "PanelID": 10015,
    "Type": 8,
    "ActivityModuleID": 1001501,
    "UIPrefab": "UI/Quest/Widget/QuestExploitMissionPanel.prefab",
    "TypeParam": [
      3000001,
      3000002,
      3000003,
      3000004
    ],
    "UnlockConditions": [
      {
        "Type": "FinishMainMission",
        "Param": "1000510"
      }
    ],
    "SortWeight": 3001,
    "TabName": {
      "Hash": -1251713570
    },
    "TitleName": {
      "Hash": -1661041983
    },
    "PanelDesc": {
      "Hash": 371857150
    },
    "TabIcon": "SpriteOutput/UI/Quest/TabIcon/BtnQuestExploitMission.png",
    "TagDesc": {
      "Hash": 1452015933
    },
    "IntroDesc": {
      "Hash": -916758155
    },
    "DisplayItemList": [],
    "ActionNameList": [
      "ItemDetail",
      "Menu_Confirm",
      "ActionGroup_Return"
    ],
    "ActionNameListOnTab": [
      "Menu_Confirm",
      "ActionGroup_Return"
    ],
    "ResidentPanelFinishConditions": []
  },
  "10016": {
    "PanelID": 10016,
    "Type": 5,
    "ActivityModuleID": 1001601,
    "UIPrefab": "UI/Quest/Widget/QuestNewbieMissionPanel.prefab",
    "TypeParam": [],
    "UnlockConditions": [
      {
        "Type": "FinishMainMission",
        "Param": "1000510"
      }
    ],
    "SortWeight": 3000,
    "TabName": {
      "Hash": -1251713571
    },
    "TitleName": {
      "Hash": -1661041982
    },
    "PanelDesc": {
      "Hash": 371857150
    },
    "TabIcon": "SpriteOutput/UI/Quest/TabIcon/BtnQuestNewbieMission.png",
    "TagDesc": {
      "Hash": 1452015934
    },
    "IntroDesc": {
      "Hash": -916758152
    },
    "DisplayItemList": [],
    "ActionNameList": [
      "Menu_Confirm",
      "ActionGroup_Return"
    ],
    "ActionNameListOnTab": [
      "Menu_Confirm",
      "ActionGroup_Return"
    ],
    "ResidentPanelFinishConditions": []
  },
  "10017": {
    "PanelID": 10017,
    "Type": 3,
    "ActivityModuleID": 1001701,
    "UIPrefab": "UI/Quest/Widget/SingleTaskActivityPanel.prefab",
    "TypeParam": [
      10017
    ],
    "UnlockConditions": [
      {
        "Type": "FinishMainMission",
        "Param": "1000510"
      }
    ],
    "SortWeight": 2000,
    "TabName": {
      "Hash": -1251713572
    },
    "TitleName": {
      "Hash": -1661041981
    },
    "PanelDesc": {
      "Hash": 371857150
    },
    "TabIcon": "SpriteOutput/UI/Quest/TabIcon/BtnImgSingleTask.png",
    "TagDesc": {
      "Hash": 1452015935
    },
    "IntroDesc": {
      "Hash": -916758153
    },
    "DisplayItemList": [],
    "ActionNameList": [],
    "ActionNameListOnTab": [],
    "ResidentPanelFinishConditions": []
  },
  "10018": {
    "PanelID": 10018,
    "Type": 15,
    "ActivityModuleID": 1001801,
    "UIPrefab": "UI/Quest/Widget/SevenDayRewardPanelVersion.prefab",
    "TypeParam": [
      1003
    ],
    "UnlockConditions": [
      {
        "Type": "FinishMainMission",
        "Param": "1000510"
      }
    ],
    "SortWeight": 3011,
    "TabName": {
      "Hash": -1251713565
    },
    "TitleName": {
      "Hash": -1661041980
    },
    "PanelDesc": {
      "Hash": 371857150
    },
    "TabIcon": "SpriteOutput/UI/Quest/TabIcon/BtnSevenDayVervionDH.png",
    "TagDesc": {
      "Hash": 1452015944
    },
    "IntroDesc": {
      "Hash": -916758142
    },
    "DisplayItemList": [],
    "ActionNameList": [
      "ItemDetail",
      "ActionGroup_Return"
    ],
    "ActionNameListOnTab": [
      "Menu_Confirm",
      "ActionGroup_Return"
    ],
    "ResidentPanelFinishConditions": []
  },
  "10019": {
    "PanelID": 10019,
    "Type": 19,
    "ActivityModuleID": 1001901,
    "UIPrefab": "UI/Quest/Widget/PlayerReturnPanel.prefab",
    "TypeParam": [],
    "UnlockConditions": [
      {
        "Type": "PlayerLevel",
        "Param": "10"
      },
      {
        "Type": "FinishMainMission",
        "Param": "1010403"
      }
    ],
    "SortWeight": 8000,
    "TabName": {
      "Hash": -1251713566
    },
    "TitleName": {
      "Hash": -1661041979
    },
    "PanelDesc": {
      "Hash": 371857150
    },
    "TabIcon": "SpriteOutput/UI/Quest/TabIcon/BtnQuesPlayerReturn.png",
    "TagDesc": {
      "Hash": 1452015945
    },
    "IntroDesc": {
      "Hash": -916758143
    },
    "DisplayItemList": [],
    "ActionNameList": [
      "ActionGroup_Return"
    ],
    "ActionNameListOnTab": [
      "Menu_Confirm",
      "ActionGroup_Return"
    ],
    "ResidentPanelFinishConditions": []
  },
  "10020": {
    "PanelID": 10020,
    "Type": 18,
    "ActivityModuleID": 1002001,
    "UIPrefab": "UI/Quest/Widget/QuestDoubleFarmCocoonPanel.prefab",
    "TypeParam": [
      10001
    ],
    "UnlockConditions": [
      {
        "Type": "FinishMainMission",
        "Param": "4010121"
      }
    ],
    "SortWeight": 6001,
    "TabName": {
      "Hash": -848429046
    },
    "TitleName": {
      "Hash": -1257757461
    },
    "PanelDesc": {
      "Hash": 1427255767
    },
    "TabIcon": "SpriteOutput/UI/Quest/TabIcon/BtnDoubleCocoon.png",
    "TagDesc": {
      "Hash": 1855300463
    },
    "IntroDesc": {
      "Hash": 649325791
    },
    "DisplayItemList": [],
    "ActionNameList": [
      "Menu_Confirm",
      "ActionGroup_Return"
    ],
    "ActionNameListOnTab": [
      "Menu_Confirm",
      "ActionGroup_Return"
    ],
    "ResidentPanelFinishConditions": []
  },
  "10021": {
    "PanelID": 10021,
    "Type": 18,
    "ActivityModuleID": 1002101,
    "UIPrefab": "UI/Quest/Widget/QuestFarmMultipleDropPanel.prefab",
    "TypeParam": [
      30001
    ],
    "UnlockConditions": [
      {
        "Type": "PlayerLevel",
        "Param": "21"
      }
    ],
    "SortWeight": 6001,
    "TabName": {
      "Hash": -848429047
    },
    "TitleName": {
      "Hash": -1257757460
    },
    "PanelDesc": {
      "Hash": 1427255766
    },
    "TabIcon": "SpriteOutput/UI/Quest/TabIcon/BtnFarmMultipleDrop.png",
    "TagDesc": {
      "Hash": 1855300464
    },
    "IntroDesc": {
      "Hash": 649325790
    },
    "DisplayItemList": [],
    "ActionNameList": [
      "Menu_Confirm",
      "ActionGroup_Return"
    ],
    "ActionNameListOnTab": [
      "Menu_Confirm",
      "ActionGroup_Return"
    ],
    "ResidentPanelFinishConditions": []
  },
  "10022": {
    "PanelID": 10022,
    "Type": 26,
    "UIPrefab": "UI/Quest/Widget/AbyssAlternationPanel.prefab",
    "TypeParam": [],
    "UnlockConditions": [
      {
        "Type": "FinishMainMission",
        "Param": "4010106"
      }
    ],
    "SortWeight": 2001,
    "TabName": {
      "Hash": -848429048
    },
    "TitleName": {
      "Hash": -1257757459
    },
    "PanelDesc": {
      "Hash": 371857150
    },
    "TabIcon": "SpriteOutput/UI/Quest/TabIcon/BtnAbyssAlternation.png",
    "TagDesc": {
      "Hash": 1855300465
    },
    "IntroDesc": {
      "Hash": 649325793
    },
    "DisplayItemList": [
      {
        "ItemID": 1,
        "ItemNum": 600
      },
      {
        "ItemID": 213,
        "ItemNum": 20
      },
      {
        "ItemID": 223,
        "ItemNum": 10
      },
      {
        "ItemID": 233,
        "ItemNum": 20
      },
      {
        "ItemID": 261,
        "ItemNum": 80
      },
      {
        "ItemID": 2,
        "ItemNum": 300000
      }
    ],
    "ActionNameList": [],
    "ActionNameListOnTab": [],
    "ResidentPanelFinishConditions": []
  },
  "10023": {
    "PanelID": 10023,
    "Type": 2,
    "ActivityModuleID": 1002301,
    "UIPrefab": "UI/Quest/SevenDay/SevenDayRewardPanelVersion0120.prefab",
    "TypeParam": [
      10023
    ],
    "UnlockConditions": [
      {
        "Type": "FinishMainMission",
        "Param": "1000510"
      }
    ],
    "SortWeight": 3012,
    "TabName": {
      "Hash": -848429049
    },
    "TitleName": {
      "Hash": -1257757458
    },
    "PanelDesc": {
      "Hash": 371857150
    },
    "TabIcon": "SpriteOutput/UI/Quest/TabIcon/BtnSevenDayRewardPanelVersion0120.png",
    "TagDesc": {
      "Hash": 1855300466
    },
    "IntroDesc": {
      "Hash": 649325792
    },
    "DisplayItemList": [],
    "ActionNameList": [
      "ItemDetail",
      "ActionGroup_Return"
    ],
    "ActionNameListOnTab": [
      "Menu_Confirm",
      "ActionGroup_Return"
    ],
    "ResidentPanelFinishConditions": []
  },
  "10024": {
    "PanelID": 10024,
    "Type": 18,
    "ActivityModuleID": 1002401,
    "UIPrefab": "UI/Quest/Widget/QuestFarmMultipleDrop2SetPanel.prefab",
    "TypeParam": [
      30002
    ],
    "UnlockConditions": [
      {
        "Type": "FinishMainMission",
        "Param": "1011502"
      }
    ],
    "SortWeight": 6001,
    "TabName": {
      "Hash": -848429042
    },
    "TitleName": {
      "Hash": -1257757457
    },
    "PanelDesc": {
      "Hash": 1427255763
    },
    "TabIcon": "SpriteOutput/UI/Quest/TabIcon/BtnFarmMultipleDrop2Set.png",
    "TagDesc": {
      "Hash": 1855300459
    },
    "IntroDesc": {
      "Hash": 649325787
    },
    "DisplayItemList": [],
    "ActionNameList": [
      "Menu_Confirm",
      "ActionGroup_Return"
    ],
    "ActionNameListOnTab": [
      "Menu_Confirm",
      "ActionGroup_Return"
    ],
    "ResidentPanelFinishConditions": []
  },
  "10025": {
    "PanelID": 10025,
    "Type": 29,
    "ActivityModuleID": 1002501,
    "UIPrefab": "UI/Quest/Widget/QuestAbyssPanel.prefab",
    "TypeParam": [
      10025
    ],
    "UnlockConditions": [
      {
        "Type": "QuestClose",
        "Param": "3000018"
      }
    ],
    "SortWeight": 2000,
    "TabName": {
      "Hash": -848429043
    },
    "TitleName": {
      "Hash": -1257757456
    },
    "PanelDesc": {
      "Hash": 1427255762
    },
    "TabIcon": "SpriteOutput/UI/Quest/TabIcon/BtnAbyssReward_1207.png",
    "TagDesc": {
      "Hash": 1855300460
    },
    "IntroDesc": {
      "Hash": 649325786
    },
    "DisplayItemList": [],
    "ActionNameList": [],
    "ActionNameListOnTab": [],
    "ResidentPanelFinishConditions": []
  },
  "10026": {
    "PanelID": 10026,
    "Type": 18,
    "ActivityModuleID": 1002601,
    "UIPrefab": "UI/Quest/Widget/QuestFarmMultipleDrop2SetPanel.prefab",
    "TypeParam": [
      30003
    ],
    "UnlockConditions": [
      {
        "Type": "FinishMainMission",
        "Param": "1011502"
      }
    ],
    "SortWeight": 6001,
    "TabName": {
      "Hash": -848429044
    },
    "TitleName": {
      "Hash": -1257757455
    },
    "PanelDesc": {
      "Hash": 1427255765
    },
    "TabIcon": "SpriteOutput/UI/Quest/TabIcon/BtnFarmMultipleDrop2Set.png",
    "TagDesc": {
      "Hash": 1855300461
    },
    "IntroDesc": {
      "Hash": 649325789
    },
    "DisplayItemList": [],
    "ActionNameList": [
      "Menu_Confirm",
      "ActionGroup_Return"
    ],
    "ActionNameListOnTab": [
      "Menu_Confirm",
      "ActionGroup_Return"
    ],
    "ResidentPanelFinishConditions": []
  },
  "10028": {
    "PanelID": 10028,
    "Type": 2,
    "ActivityModuleID": 1002801,
    "UIPrefab": "UI/Quest/SevenDay/SevenDayRewardPanelVersion0130.prefab",
    "TypeParam": [
      10028
    ],
    "UnlockConditions": [
      {
        "Type": "FinishMainMission",
        "Param": "1000510"
      }
    ],
    "SortWeight": 3013,
    "TabName": {
      "Hash": -848429038
    },
    "TitleName": {
      "Hash": -1257757453
    },
    "PanelDesc": {
      "Hash": 371857150
    },
    "TabIcon": "SpriteOutput/UI/Quest/TabIcon/BtnSevenDayVersion0130.png",
    "TagDesc": {
      "Hash": 1855300471
    },
    "IntroDesc": {
      "Hash": 649325799
    },
    "DisplayItemList": [],
    "ActionNameList": [
      "ItemDetail",
      "ActionGroup_Return"
    ],
    "ActionNameListOnTab": [
      "Menu_Confirm",
      "ActionGroup_Return"
    ],
    "ResidentPanelFinishConditions": []
  },
  "10032": {
    "PanelID": 10032,
    "Type": 2,
    "ActivityModuleID": 1003201,
    "UIPrefab": "UI/Quest/SevenDay/SevenDayRewardPanelVersion0140.prefab",
    "TypeParam": [
      10032
    ],
    "UnlockConditions": [
      {
        "Type": "FinishMainMission",
        "Param": "1000510"
      }
    ],
    "SortWeight": 3014,
    "TabName": {
      "Hash": 1880454307
    },
    "TitleName": {
      "Hash": 1471125896
    },
    "PanelDesc": {
      "Hash": 371857150
    },
    "TabIcon": "SpriteOutput/UI/Quest/TabIcon/BtnSevenDayVersion0140.png",
    "TagDesc": {
      "Hash": 289216524
    },
    "IntroDesc": {
      "Hash": -2079557562
    },
    "DisplayItemList": [],
    "ActionNameList": [
      "ItemDetail",
      "ActionGroup_Return"
    ],
    "ActionNameListOnTab": [
      "Menu_Confirm",
      "ActionGroup_Return"
    ],
    "ResidentPanelFinishConditions": []
  },
  "10035": {
    "PanelID": 10035,
    "Type": 2,
    "ActivityModuleID": 1003501,
    "UIPrefab": "UI/Quest/SevenDay/SevenDayRewardPanelVersion0150.prefab",
    "TypeParam": [
      10035
    ],
    "UnlockConditions": [
      {
        "Type": "FinishMainMission",
        "Param": "1000510"
      }
    ],
    "SortWeight": 3015,
    "TabName": {
      "Hash": 1880454312
    },
    "TitleName": {
      "Hash": 1471125899
    },
    "PanelDesc": {
      "Hash": 371857150
    },
    "TabIcon": "SpriteOutput/UI/Quest/TabIcon/BtnSevenDayVersion0150.png",
    "TagDesc": {
      "Hash": 289216519
    },
    "IntroDesc": {
      "Hash": -2079557569
    },
    "DisplayItemList": [],
    "ActionNameList": [
      "ItemDetail",
      "ActionGroup_Return"
    ],
    "ActionNameListOnTab": [
      "Menu_Confirm",
      "ActionGroup_Return"
    ],
    "ResidentPanelFinishConditions": []
  },
  "10039": {
    "PanelID": 10039,
    "Type": 2,
    "ActivityModuleID": 1003901,
    "UIPrefab": "UI/Quest/SevenDay/SevenDayRewardPanelVersion0131.prefab",
    "TypeParam": [
      10039
    ],
    "UnlockConditions": [
      {
        "Type": "FinishMainMission",
        "Param": "1000510"
      }
    ],
    "SortWeight": 3016,
    "TabName": {
      "Hash": 1880454316
    },
    "TitleName": {
      "Hash": 1471125903
    },
    "PanelDesc": {
      "Hash": 371857150
    },
    "TabIcon": "SpriteOutput/UI/Quest/TabIcon/BtnSevenDayVersion0131.png",
    "TagDesc": {
      "Hash": 289216531
    },
    "IntroDesc": {
      "Hash": -2079557557
    },
    "DisplayItemList": [],
    "ActionNameList": [
      "ItemDetail",
      "ActionGroup_Return"
    ],
    "ActionNameListOnTab": [
      "Menu_Confirm",
      "ActionGroup_Return"
    ],
    "ResidentPanelFinishConditions": []
  },
  "20001": {
    "PanelID": 20001,
    "Type": 6,
    "ActivityModuleID": 2000101,
    "UIPrefab": "UI/Quest/Widget/RoleTrialPanel.prefab",
    "TypeParam": [
      311020,
      311060,
      311090,
      311050
    ],
    "UnlockConditions": [
      {
        "Type": "FinishMainMission",
        "Param": "1000510"
      }
    ],
    "SortWeight": 5000,
    "TabName": {
      "Hash": 314364990
    },
    "TitleName": {
      "Hash": -94952669
    },
    "PanelDesc": {
      "Hash": 371857150
    },
    "TabIcon": "SpriteOutput/UI/Quest/TabIcon/BtnQuestRoleTrial.png",
    "TagDesc": {
      "Hash": -1276866265
    },
    "IntroDesc": {
      "Hash": 1812128407
    },
    "DisplayItemList": [],
    "ActionNameList": [
      "Menu_Cancel"
    ],
    "ActionNameListOnTab": [],
    "ResidentPanelFinishConditions": []
  },
  "20002": {
    "PanelID": 20002,
    "Type": 6,
    "ActivityModuleID": 2000202,
    "UIPrefab": "UI/Quest/Widget/RoleTrialPanel.prefab",
    "TypeParam": [
      312040,
      312060,
      311030,
      310010
    ],
    "UnlockConditions": [
      {
        "Type": "FinishMainMission",
        "Param": "1000510"
      }
    ],
    "SortWeight": 5001,
    "TabName": {
      "Hash": 314364991
    },
    "TitleName": {
      "Hash": -94952670
    },
    "PanelDesc": {
      "Hash": 371857150
    },
    "TabIcon": "SpriteOutput/UI/Quest/TabIcon/BtnQuestRoleTrial2.png",
    "TagDesc": {
      "Hash": 371857150
    },
    "IntroDesc": {
      "Hash": 1812128404
    },
    "DisplayItemList": [],
    "ActionNameList": [
      "Menu_Cancel"
    ],
    "ActionNameListOnTab": [],
    "ResidentPanelFinishConditions": []
  },
  "30002": {
    "PanelID": 30002,
    "Type": 7,
    "ActivityModuleID": 3000201,
    "UIPrefab": "UI/Quest/Widget/QuestAntiVirusPanel.prefab",
    "TypeParam": [],
    "UnlockConditions": [
      {
        "Type": "PlayerLevel",
        "Param": "22"
      }
    ],
    "SortWeight": 6001,
    "TabName": {
      "Hash": 314368192
    },
    "TitleName": {
      "Hash": -94955871
    },
    "PanelDesc": {
      "Hash": -1704909939
    },
    "TabIcon": "SpriteOutput/UI/Quest/TabIcon/BtnAntiVirus.png",
    "TagDesc": {
      "Hash": -1276865243
    },
    "IntroDesc": {
      "Hash": 1812127381
    },
    "DisplayItemList": [
      {
        "ItemID": 1
      },
      {
        "ItemID": 241
      },
      {
        "ItemID": 213
      },
      {
        "ItemID": 223
      },
      {
        "ItemID": 233
      },
      {
        "ItemID": 2
      }
    ],
    "ActionNameList": [
      "ActionGroup_Cancel"
    ],
    "ActionNameListOnTab": [],
    "ResidentPanelFinishConditions": []
  },
  "40001": {
    "PanelID": 40001,
    "Type": 9,
    "ActivityModuleID": 4000101,
    "UIPrefab": "UI/Quest/Widget/QuestBoxingClubPanel.prefab",
    "TypeParam": [
      241,
      1,
      213,
      223,
      232,
      2,
      110112,
      110122,
      110132,
      110142,
      110172,
      110162
    ],
    "UnlockConditions": [
      {
        "Type": "PlayerLevel",
        "Param": "21"
      }
    ],
    "SortWeight": 6001,
    "TabName": {
      "Hash": 314371524
    },
    "TitleName": {
      "Hash": -94950491
    },
    "PanelDesc": {
      "Hash": 371857150
    },
    "TabIcon": "SpriteOutput/UI/Quest/TabIcon/BtnQuestStarBattle.png",
    "TagDesc": {
      "Hash": -1276872799
    },
    "IntroDesc": {
      "Hash": 1812121873
    },
    "DisplayItemList": [
      {
        "ItemID": 1
      },
      {
        "ItemID": 241
      },
      {
        "ItemID": 213
      },
      {
        "ItemID": 235
      },
      {
        "ItemID": 232
      },
      {
        "ItemID": 110112
      },
      {
        "ItemID": 2
      }
    ],
    "ActionNameList": [],
    "ActionNameListOnTab": [],
    "ResidentPanelFinishConditions": []
  },
  "50000": {
    "PanelID": 50000,
    "Type": 12,
    "ActivityModuleID": 5000001,
    "UIPrefab": "UI/Quest/Widget/QuestFistClubPaperPanel.prefab",
    "TypeParam": [],
    "UnlockConditions": [
      {
        "Type": "PlayerLevel",
        "Param": "21"
      },
      {
        "Type": "FinishMainMission",
        "Param": "1011001"
      }
    ],
    "SortWeight": 6001,
    "TabName": {
      "Hash": 314374724
    },
    "TitleName": {
      "Hash": -94953691
    },
    "PanelDesc": {
      "Hash": 371857150
    },
    "TabIcon": "SpriteOutput/UI/Quest/TabIcon/BtnFistClubQuestMission.png",
    "TagDesc": {
      "Hash": -1276871775
    },
    "IntroDesc": {
      "Hash": 1812120849
    },
    "DisplayItemList": [
      {
        "ItemID": 1
      },
      {
        "ItemID": 241
      },
      {
        "ItemID": 213
      },
      {
        "ItemID": 223
      },
      {
        "ItemID": 232
      },
      {
        "ItemID": 2
      }
    ],
    "ActionNameList": [
      "Menu_Confirm",
      "ActionGroup_Return"
    ],
    "ActionNameListOnTab": [
      "Menu_Confirm",
      "ActionGroup_Return"
    ],
    "IsActivityHaveResidentPart": true,
    "ResidentPanelFinishConditions": []
  },
  "50001": {
    "PanelID": 50001,
    "Type": 10,
    "ActivityModuleID": 5000101,
    "UIPrefab": "UI/Quest/Widget/QuestGraffitiPixelPanel.prefab",
    "TypeParam": [],
    "UnlockConditions": [
      {
        "Type": "PlayerLevel",
        "Param": "21"
      }
    ],
    "SortWeight": 6000,
    "TabName": {
      "Hash": 314374723
    },
    "TitleName": {
      "Hash": -94953690
    },
    "PanelDesc": {
      "Hash": 371857150
    },
    "TabIcon": "SpriteOutput/UI/Quest/TabIcon/BtnQuestGraffiti.png",
    "TagDesc": {
      "Hash": -1276871774
    },
    "IntroDesc": {
      "Hash": 371857150
    },
    "DisplayItemList": [
      {
        "ItemID": 241
      },
      {
        "ItemID": 1
      },
      {
        "ItemID": 22000
      },
      {
        "ItemID": 213
      },
      {
        "ItemID": 110406
      },
      {
        "ItemID": 110112
      },
      {
        "ItemID": 2
      }
    ],
    "DisplayItemManualSort": true,
    "ActionNameList": [
      "Menu_Confirm",
      "ActionGroup_Return"
    ],
    "ActionNameListOnTab": [
      "Menu_Confirm",
      "ActionGroup_Return"
    ],
    "ResidentPanelFinishConditions": []
  },
  "50002": {
    "PanelID": 50002,
    "Type": 16,
    "ActivityModuleID": 5000210,
    "UIPrefab": "UI/Quest/Widget/QuestMuseumPanel.prefab",
    "TypeParam": [],
    "UnlockConditions": [
      {
        "Type": "PlayerLevel",
        "Param": "21"
      }
    ],
    "SortWeight": 6001,
    "TabName": {
      "Hash": 314374722
    },
    "TitleName": {
      "Hash": -94953689
    },
    "PanelDesc": {
      "Hash": 371857150
    },
    "TabIcon": "SpriteOutput/UI/Quest/TabIcon/BtnQuestMuseum.png",
    "TagDesc": {
      "Hash": -1276871773
    },
    "IntroDesc": {
      "Hash": 1812120851
    },
    "DisplayItemList": [
      {
        "ItemID": 1
      },
      {
        "ItemID": 236
      },
      {
        "ItemID": 241
      },
      {
        "ItemID": 213
      },
      {
        "ItemID": 223
      },
      {
        "ItemID": 233
      },
      {
        "ItemID": 2
      }
    ],
    "ActionNameList": [
      "Menu_Confirm",
      "ActionGroup_Return"
    ],
    "ActionNameListOnTab": [
      "Menu_Confirm",
      "ActionGroup_Return"
    ],
    "IsActivityHaveResidentPart": true,
    "ResidentPanelFinishConditions": []
  },
  "20003": {
    "PanelID": 20003,
    "Type": 6,
    "ActivityModuleID": 2000401,
    "UIPrefab": "UI/Quest/Widget/RoleTrialPanel.prefab",
    "TypeParam": [
      312040,
      312060,
      312020,
      310010
    ],
    "UnlockConditions": [
      {
        "Type": "FinishMainMission",
        "Param": "1000510"
      }
    ],
    "SortWeight": 5002,
    "TabName": {
      "Hash": 314364992
    },
    "TitleName": {
      "Hash": -94952671
    },
    "PanelDesc": {
      "Hash": 371857150
    },
    "TabIcon": "SpriteOutput/UI/Quest/TabIcon/BtnQuestRoleTrial2.png",
    "TagDesc": {
      "Hash": -1276866267
    },
    "IntroDesc": {
      "Hash": 1812128405
    },
    "DisplayItemList": [],
    "ActionNameList": [
      "Menu_Cancel"
    ],
    "ActionNameListOnTab": [],
    "ResidentPanelFinishConditions": []
  },
  "30004": {
    "PanelID": 30004,
    "Type": 13,
    "ActivityModuleID": 3000401,
    "UIPrefab": "UI/Quest/Widget/QuestTreasureTrotterPanel.prefab",
    "TypeParam": [
      1013
    ],
    "UnlockConditions": [
      {
        "Type": "PlayerLevel",
        "Param": "21"
      },
      {
        "Type": "FinishMainMission",
        "Param": "1010701"
      }
    ],
    "SortWeight": 6001,
    "TabName": {
      "Hash": 314368194
    },
    "TitleName": {
      "Hash": -94955865
    },
    "PanelDesc": {
      "Hash": -1704909941
    },
    "TabIcon": "SpriteOutput/UI/Quest/TabIcon/BtnQuestTreasureTrotter.png",
    "TagDesc": {
      "Hash": -1276865245
    },
    "IntroDesc": {
      "Hash": 1812127379
    },
    "DisplayItemList": [
      {
        "ItemID": 1
      },
      {
        "ItemID": 2
      },
      {
        "ItemID": 213
      },
      {
        "ItemID": 223
      },
      {
        "ItemID": 233
      },
      {
        "ItemID": 241
      },
      {
        "ItemID": 110112
      }
    ],
    "ActionNameList": [],
    "ActionNameListOnTab": [],
    "ResidentPanelFinishConditions": []
  },
  "30005": {
    "PanelID": 30005,
    "Type": 14,
    "ActivityModuleID": 3000501,
    "UIPrefab": "UI/Quest/Widget/QuestPocketMonsterPanel.prefab",
    "TypeParam": [
      1,
      2,
      3,
      4,
      5,
      6,
      7
    ],
    "UnlockConditions": [
      {
        "Type": "PlayerLevel",
        "Param": "21"
      },
      {
        "Type": "FinishMainMission",
        "Param": "1010701"
      }
    ],
    "SortWeight": 6001,
    "TabName": {
      "Hash": 314368193
    },
    "TitleName": {
      "Hash": -94955864
    },
    "PanelDesc": {
      "Hash": -1704909942
    },
    "TabIcon": "SpriteOutput/UI/Quest/TabIcon/BtnPocketMonster.png",
    "TagDesc": {
      "Hash": -1276865244
    },
    "IntroDesc": {
      "Hash": 1812127378
    },
    "DisplayItemList": [
      {
        "ItemID": 1
      },
      {
        "ItemID": 406017
      },
      {
        "ItemID": 110112
      },
      {
        "ItemID": 402017
      },
      {
        "ItemID": 2
      }
    ],
    "DisplayItemManualSort": true,
    "ActionNameList": [],
    "ActionNameListOnTab": [],
    "ResidentPanelFinishConditions": []
  },
  "20005": {
    "PanelID": 20005,
    "Type": 6,
    "ActivityModuleID": 2000505,
    "UIPrefab": "UI/Quest/Widget/RoleTrialPanel.prefab",
    "TypeParam": [
      310060,
      310020,
      310091,
      311031
    ],
    "UnlockConditions": [
      {
        "Type": "FinishMainMission",
        "Param": "1000510"
      }
    ],
    "SortWeight": 5003,
    "TabName": {
      "Hash": 314364994
    },
    "TitleName": {
      "Hash": -94952665
    },
    "PanelDesc": {
      "Hash": 371857150
    },
    "TabIcon": "SpriteOutput/UI/Quest/TabIcon/BtnQuestRoleTrial3.png",
    "TagDesc": {
      "Hash": -1276866269
    },
    "IntroDesc": {
      "Hash": 1812128403
    },
    "DisplayItemList": [],
    "ActionNameList": [
      "Menu_Cancel"
    ],
    "ActionNameListOnTab": [],
    "ResidentPanelFinishConditions": []
  },
  "20006": {
    "PanelID": 20006,
    "Type": 6,
    "ActivityModuleID": 2000605,
    "UIPrefab": "UI/Quest/Widget/RoleTrialPanel.prefab",
    "TypeParam": [
      312030,
      312070,
      311061,
      312010
    ],
    "UnlockConditions": [
      {
        "Type": "FinishMainMission",
        "Param": "1000510"
      }
    ],
    "SortWeight": 5004,
    "TabName": {
      "Hash": 314364995
    },
    "TitleName": {
      "Hash": -94952666
    },
    "PanelDesc": {
      "Hash": 371857150
    },
    "TabIcon": "SpriteOutput/UI/Quest/TabIcon/BtnQuestRoleTrial4.png",
    "TagDesc": {
      "Hash": -1276866270
    },
    "IntroDesc": {
      "Hash": 1812128400
    },
    "DisplayItemList": [],
    "ActionNameList": [
      "Menu_Cancel"
    ],
    "ActionNameListOnTab": [],
    "ResidentPanelFinishConditions": []
  },
  "20007": {
    "PanelID": 20007,
    "Type": 6,
    "ActivityModuleID": 2000701,
    "UIPrefab": "UI/Quest/Widget/RoleTrialPanel.prefab",
    "TypeParam": [
      310060,
      312030,
      312070
    ],
    "UnlockConditions": [
      {
        "Type": "FinishMainMission",
        "Param": "1000510"
      }
    ],
    "SortWeight": 5005,
    "TabName": {
      "Hash": 314364996
    },
    "TitleName": {
      "Hash": -94952667
    },
    "PanelDesc": {
      "Hash": 371857150
    },
    "TabIcon": "SpriteOutput/UI/Quest/TabIcon/BtnQuestRoleTrial3.png",
    "TagDesc": {
      "Hash": -1276866271
    },
    "IntroDesc": {
      "Hash": 1812128401
    },
    "DisplayItemList": [],
    "ActionNameList": [
      "Menu_Cancel"
    ],
    "ActionNameListOnTab": [],
    "ResidentPanelFinishConditions": []
  },
  "20008": {
    "PanelID": 20008,
    "Type": 6,
    "ActivityModuleID": 2000805,
    "UIPrefab": "UI/Quest/Widget/RoleTrialPanel.prefab",
    "TypeParam": [
      312050,
      310080,
      311052,
      312061
    ],
    "UnlockConditions": [
      {
        "Type": "FinishMainMission",
        "Param": "1000510"
      }
    ],
    "SortWeight": 5006,
    "TabName": {
      "Hash": 314364997
    },
    "TitleName": {
      "Hash": -94952660
    },
    "PanelDesc": {
      "Hash": 371857150
    },
    "TabIcon": "SpriteOutput/UI/Quest/TabIcon/BtnQuestRoleTrial5.png",
    "TagDesc": {
      "Hash": -1276866256
    },
    "IntroDesc": {
      "Hash": 1812128414
    },
    "DisplayItemList": [],
    "ActionNameList": [
      "Menu_Cancel"
    ],
    "ActionNameListOnTab": [],
    "ResidentPanelFinishConditions": []
  },
  "20009": {
    "PanelID": 20009,
    "Type": 6,
    "ActivityModuleID": 2000905,
    "UIPrefab": "UI/Quest/Widget/RoleTrialPanel.prefab",
    "TypeParam": [
      310050,
      311110,
      311080,
      311031
    ],
    "UnlockConditions": [
      {
        "Type": "FinishMainMission",
        "Param": "1000510"
      }
    ],
    "SortWeight": 5007,
    "TabName": {
      "Hash": 314364998
    },
    "TitleName": {
      "Hash": -94952661
    },
    "PanelDesc": {
      "Hash": 371857150
    },
    "TabIcon": "SpriteOutput/UI/Quest/TabIcon/BtnQuestRoleTrial6.png",
    "TagDesc": {
      "Hash": -1276866257
    },
    "IntroDesc": {
      "Hash": 1812128415
    },
    "DisplayItemList": [],
    "ActionNameList": [
      "Menu_Cancel"
    ],
    "ActionNameListOnTab": [],
    "ResidentPanelFinishConditions": []
  },
  "20010": {
    "PanelID": 20010,
    "Type": 6,
    "ActivityModuleID": 2001001,
    "UIPrefab": "UI/Quest/Widget/RoleTrialPanel.prefab",
    "TypeParam": [
      310050,
      312050,
      311110
    ],
    "UnlockConditions": [
      {
        "Type": "FinishMainMission",
        "Param": "1000510"
      }
    ],
    "SortWeight": 5008,
    "TabName": {
      "Hash": -1251718952
    },
    "TitleName": {
      "Hash": -1661036609
    },
    "PanelDesc": {
      "Hash": 371857150
    },
    "TabIcon": "SpriteOutput/UI/Quest/TabIcon/BtnQuestRoleTrial6.png",
    "TagDesc": {
      "Hash": 1452017091
    },
    "IntroDesc": {
      "Hash": -916754949
    },
    "DisplayItemList": [],
    "ActionNameList": [
      "Menu_Cancel"
    ],
    "ActionNameListOnTab": [],
    "ResidentPanelFinishConditions": []
  },
  "20011": {
    "PanelID": 20011,
    "Type": 6,
    "ActivityModuleID": 2001203,
    "UIPrefab": "UI/Quest/Widget/RoleTrialPanel.prefab",
    "TypeParam": [
      312130,
      312070,
      310091,
      310011
    ],
    "UnlockConditions": [
      {
        "Type": "FinishMainMission",
        "Param": "1000510"
      }
    ],
    "SortWeight": 5007,
    "TabName": {
      "Hash": -1251718951
    },
    "TitleName": {
      "Hash": -1661036610
    },
    "PanelDesc": {
      "Hash": 371857150
    },
    "TabIcon": "SpriteOutput/UI/Quest/TabIcon/BtnQuestRoleTrial7.png",
    "TagDesc": {
      "Hash": 1452017090
    },
    "IntroDesc": {
      "Hash": -916754948
    },
    "DisplayItemList": [],
    "ActionNameList": [
      "Menu_Cancel"
    ],
    "ActionNameListOnTab": [],
    "ResidentPanelFinishConditions": []
  },
  "20012": {
    "PanelID": 20012,
    "Type": 6,
    "ActivityModuleID": 2001304,
    "UIPrefab": "UI/Quest/Widget/RoleTrialPanel.prefab",
    "TypeParam": [
      312080,
      311100,
      311091,
      311061
    ],
    "UnlockConditions": [
      {
        "Type": "FinishMainMission",
        "Param": "1000510"
      }
    ],
    "SortWeight": 5007,
    "TabName": {
      "Hash": -1251718950
    },
    "TitleName": {
      "Hash": -1661036611
    },
    "PanelDesc": {
      "Hash": 371857150
    },
    "TabIcon": "SpriteOutput/UI/Quest/TabIcon/BtnQuestRoleTrial8.png",
    "TagDesc": {
      "Hash": 1452017089
    },
    "IntroDesc": {
      "Hash": -916754951
    },
    "DisplayItemList": [],
    "ActionNameList": [
      "Menu_Cancel"
    ],
    "ActionNameListOnTab": [],
    "ResidentPanelFinishConditions": []
  },
  "20013": {
    "PanelID": 20013,
    "Type": 6,
    "ActivityModuleID": 2001401,
    "UIPrefab": "UI/Quest/Widget/RoleTrialPanel.prefab",
    "TypeParam": [
      312130,
      312080,
      311100
    ],
    "UnlockConditions": [
      {
        "Type": "FinishMainMission",
        "Param": "1000510"
      }
    ],
    "SortWeight": 5008,
    "TabName": {
      "Hash": -1251718949
    },
    "TitleName": {
      "Hash": -1661036612
    },
    "PanelDesc": {
      "Hash": 371857150
    },
    "TabIcon": "SpriteOutput/UI/Quest/TabIcon/BtnQuestRoleTrial7.png",
    "TagDesc": {
      "Hash": 1452017088
    },
    "IntroDesc": {
      "Hash": -916754950
    },
    "DisplayItemList": [],
    "ActionNameList": [
      "Menu_Cancel"
    ],
    "ActionNameListOnTab": [],
    "ResidentPanelFinishConditions": []
  },
  "20015": {
    "PanelID": 20015,
    "Type": 6,
    "ActivityModuleID": 2001501,
    "UIPrefab": "UI/Quest/Widget/RoleTrialPanel.prefab",
    "TypeParam": [
      312130,
      312080,
      312070,
      310091,
      310011
    ],
    "UnlockConditions": [
      {
        "Type": "FinishMainMission",
        "Param": "1000510"
      }
    ],
    "SortWeight": 5008,
    "TabName": {
      "Hash": 371857150
    },
    "TitleName": {
      "Hash": 371857150
    },
    "PanelDesc": {
      "Hash": 371857150
    },
    "TabIcon": "SpriteOutput/UI/Quest/TabIcon/BtnQuestRoleTrial7.png",
    "TagDesc": {
      "Hash": 1452017086
    },
    "IntroDesc": {
      "Hash": 371857150
    },
    "DisplayItemList": [],
    "ActionNameList": [
      "Menu_Cancel"
    ],
    "ActionNameListOnTab": [],
    "ResidentPanelFinishConditions": []
  },
  "20016": {
    "PanelID": 20016,
    "Type": 6,
    "ActivityModuleID": 2001603,
    "UIPrefab": "UI/Quest/Widget/RoleTrialPanel.prefab",
    "TypeParam": [
      312120,
      312020,
      312010,
      311080
    ],
    "UnlockConditions": [
      {
        "Type": "FinishMainMission",
        "Param": "1000510"
      }
    ],
    "SortWeight": 5008,
    "TabName": {
      "Hash": -1251718946
    },
    "TitleName": {
      "Hash": -1661036607
    },
    "PanelDesc": {
      "Hash": 371857150
    },
    "TabIcon": "SpriteOutput/UI/Quest/TabIcon/BtnQuestRoleTrial9.png",
    "TagDesc": {
      "Hash": 1452017085
    },
    "IntroDesc": {
      "Hash": -916754955
    },
    "DisplayItemList": [],
    "ActionNameList": [
      "Menu_Cancel"
    ],
    "ActionNameListOnTab": [],
    "ResidentPanelFinishConditions": []
  },
  "20017": {
    "PanelID": 20017,
    "Type": 6,
    "ActivityModuleID": 2001704,
    "UIPrefab": "UI/Quest/Widget/RoleTrialPanel.prefab",
    "TypeParam": [
      311120,
      311024,
      312100,
      311110,
      312061
    ],
    "UnlockConditions": [
      {
        "Type": "FinishMainMission",
        "Param": "1000510"
      }
    ],
    "SortWeight": 5008,
    "TabName": {
      "Hash": -1251718945
    },
    "TitleName": {
      "Hash": -1661036608
    },
    "PanelDesc": {
      "Hash": 371857150
    },
    "TabIcon": "SpriteOutput/UI/Quest/TabIcon/BtnQuestRoleTrial10.png",
    "TagDesc": {
      "Hash": 1452017084
    },
    "IntroDesc": {
      "Hash": -916754954
    },
    "DisplayItemList": [],
    "ActionNameList": [
      "Menu_Cancel"
    ],
    "ActionNameListOnTab": [],
    "ResidentPanelFinishConditions": []
  },
  "20018": {
    "PanelID": 20018,
    "Type": 6,
    "ActivityModuleID": 2001801,
    "UIPrefab": "UI/Quest/Widget/RoleTrialPanel.prefab",
    "TypeParam": [
      311120,
      312120,
      312100
    ],
    "UnlockConditions": [
      {
        "Type": "FinishMainMission",
        "Param": "1000510"
      }
    ],
    "SortWeight": 5008,
    "TabName": {
      "Hash": -1251718944
    },
    "TitleName": {
      "Hash": -1661036601
    },
    "PanelDesc": {
      "Hash": 371857150
    },
    "TabIcon": "SpriteOutput/UI/Quest/TabIcon/BtnQuestRoleTrial10.png",
    "TagDesc": {
      "Hash": 1452017099
    },
    "IntroDesc": {
      "Hash": -916754941
    },
    "DisplayItemList": [],
    "ActionNameList": [
      "Menu_Cancel"
    ],
    "ActionNameListOnTab": [],
    "ResidentPanelFinishConditions": []
  },
  "20019": {
    "PanelID": 20019,
    "Type": 6,
    "ActivityModuleID": 2001901,
    "UIPrefab": "UI/Quest/Widget/RoleTrialPanel.prefab",
    "TypeParam": [
      312170,
      310020,
      310080,
      311031
    ],
    "UnlockConditions": [
      {
        "Type": "FinishMainMission",
        "Param": "1000510"
      }
    ],
    "SortWeight": 5008,
    "TabName": {
      "Hash": -1251718943
    },
    "TitleName": {
      "Hash": -1661036602
    },
    "PanelDesc": {
      "Hash": 371857150
    },
    "TabIcon": "SpriteOutput/UI/Quest/TabIcon/BtnQuestRoleTrial11.png",
    "TagDesc": {
      "Hash": 1452017098
    },
    "IntroDesc": {
      "Hash": -916754940
    },
    "DisplayItemList": [],
    "ActionNameList": [
      "Menu_Cancel"
    ],
    "ActionNameListOnTab": [],
    "ResidentPanelFinishConditions": []
  },
  "20020": {
    "PanelID": 20020,
    "Type": 6,
    "ActivityModuleID": 2002001,
    "UIPrefab": "UI/Quest/Widget/RoleTrialPanel.prefab",
    "TypeParam": [
      313020,
      310060,
      312150,
      311100,
      310091
    ],
    "UnlockConditions": [
      {
        "Type": "FinishMainMission",
        "Param": "1000510"
      }
    ],
    "SortWeight": 5008,
    "TabName": {
      "Hash": -848434425
    },
    "TitleName": {
      "Hash": -1257752082
    },
    "PanelDesc": {
      "Hash": 371857150
    },
    "TabIcon": "SpriteOutput/UI/Quest/TabIcon/BtnQuestRoleTrial12.png",
    "TagDesc": {
      "Hash": 1855301618
    },
    "IntroDesc": {
      "Hash": 649328992
    },
    "DisplayItemList": [],
    "ActionNameList": [
      "Menu_Cancel"
    ],
    "ActionNameListOnTab": [],
    "ResidentPanelFinishConditions": []
  },
  "20021": {
    "PanelID": 20021,
    "Type": 6,
    "ActivityModuleID": 2002101,
    "UIPrefab": "UI/Quest/Widget/RoleTrialPanel.prefab",
    "TypeParam": [
      312170,
      313020,
      312150
    ],
    "UnlockConditions": [
      {
        "Type": "FinishMainMission",
        "Param": "1000510"
      }
    ],
    "SortWeight": 5008,
    "TabName": {
      "Hash": -848434424
    },
    "TitleName": {
      "Hash": -1257752083
    },
    "PanelDesc": {
      "Hash": 371857150
    },
    "TabIcon": "SpriteOutput/UI/Quest/TabIcon/BtnQuestRoleTrial11.png",
    "TagDesc": {
      "Hash": 1855301617
    },
    "IntroDesc": {
      "Hash": 649328993
    },
    "DisplayItemList": [],
    "ActionNameList": [
      "Menu_Cancel"
    ],
    "ActionNameListOnTab": [],
    "ResidentPanelFinishConditions": []
  },
  "30006": {
    "PanelID": 30006,
    "Type": 17,
    "ActivityModuleID": 3000601,
    "UIPrefab": "UI/Quest/Widget/QuestGuessTheSilhouettePanel.prefab",
    "TypeParam": [],
    "UnlockConditions": [
      {
        "Type": "PlayerLevel",
        "Param": "21"
      },
      {
        "Type": "FinishMainMission",
        "Param": "1010701"
      }
    ],
    "SortWeight": 6001,
    "TabName": {
      "Hash": 314368196
    },
    "TitleName": {
      "Hash": -94955867
    },
    "PanelDesc": {
      "Hash": -1704909943
    },
    "TabIcon": "SpriteOutput/UI/Quest/TabIcon/BtnQuestGuessTheSilhouetteTask.png",
    "TagDesc": {
      "Hash": -1276865247
    },
    "IntroDesc": {
      "Hash": 1812127377
    },
    "DisplayItemList": [
      {
        "ItemID": 1
      },
      {
        "ItemID": 241
      },
      {
        "ItemID": 2
      },
      {
        "ItemID": 213
      },
      {
        "ItemID": 223
      },
      {
        "ItemID": 110112
      }
    ],
    "ActionNameList": [],
    "ActionNameListOnTab": [],
    "ResidentPanelFinishConditions": []
  },
  "30007": {
    "PanelID": 30007,
    "Type": 20,
    "ActivityModuleID": 3000701,
    "UIPrefab": "UI/Quest/Widget/QuestMedicineAssignmentPanel.prefab",
    "TypeParam": [],
    "UnlockConditions": [
      {
        "Type": "PlayerLevel",
        "Param": "21"
      },
      {
        "Type": "FinishMainMission",
        "Param": "1010206"
      }
    ],
    "SortWeight": 6001,
    "TabName": {
      "Hash": 314368195
    },
    "TitleName": {
      "Hash": -94955866
    },
    "PanelDesc": {
      "Hash": -1704909944
    },
    "TabIcon": "SpriteOutput/UI/Quest/TabIcon/BtnQuestMedicineAssignment.png",
    "TagDesc": {
      "Hash": -1276865246
    },
    "IntroDesc": {
      "Hash": 1812127376
    },
    "DisplayItemList": [
      {
        "ItemID": 1
      },
      {
        "ItemID": 213
      },
      {
        "ItemID": 233
      },
      {
        "ItemID": 2
      }
    ],
    "ActionNameList": [],
    "ActionNameListOnTab": [],
    "ResidentPanelFinishConditions": []
  },
  "60002": {
    "PanelID": 60002,
    "Type": 21,
    "ActivityModuleID": 6000200,
    "UIPrefab": "UI/Quest/Widget/RogueChallengePanel.prefab",
    "TypeParam": [],
    "UnlockConditions": [
      {
        "Type": "PlayerLevel",
        "Param": "21"
      }
    ],
    "SortWeight": 6001,
    "TabName": {
      "Hash": 314369347
    },
    "TitleName": {
      "Hash": -94948314
    },
    "PanelDesc": {
      "Hash": 371857150
    },
    "TabIcon": "SpriteOutput/UI/Quest/TabIcon/BtnRougeChallengeBg.png",
    "TagDesc": {
      "Hash": -1276870622
    },
    "IntroDesc": {
      "Hash": 371857150
    },
    "DisplayItemList": [
      {
        "ItemID": 1
      },
      {
        "ItemID": 241
      },
      {
        "ItemID": 213
      },
      {
        "ItemID": 223
      },
      {
        "ItemID": 233
      },
      {
        "ItemID": 2
      }
    ],
    "ActionNameList": [],
    "ActionNameListOnTab": [],
    "ResidentPanelFinishConditions": []
  },
  "50003": {
    "PanelID": 50003,
    "Type": 22,
    "ActivityModuleID": 5000300,
    "UIPrefab": "UI/Quest/Widget/QuestAlleyPanel.prefab",
    "TypeParam": [
      1021702
    ],
    "UnlockConditions": [
      {
        "Type": "PlayerLevel",
        "Param": "21"
      }
    ],
    "SortWeight": 6001,
    "TabName": {
      "Hash": 314374721
    },
    "TitleName": {
      "Hash": -94953688
    },
    "PanelDesc": {
      "Hash": -1704916470
    },
    "TabIcon": "SpriteOutput/UI/Quest/TabIcon/BtnQuesAlley.png",
    "TagDesc": {
      "Hash": -1276871772
    },
    "IntroDesc": {
      "Hash": 1812120850
    },
    "DisplayItemList": [
      {
        "ItemID": 236
      },
      {
        "ItemID": 241
      },
      {
        "ItemID": 1
      },
      {
        "ItemID": 1206
      },
      {
        "ItemID": 221001
      },
      {
        "ItemID": 213
      },
      {
        "ItemID": 233
      },
      {
        "ItemID": 110112
      },
      {
        "ItemID": 2
      }
    ],
    "DisplayItemManualSort": true,
    "ActionNameList": [],
    "ActionNameListOnTab": [],
    "IsActivityHaveResidentPart": true,
    "ResidentPanelFinishConditions": []
  },
  "150003": {
    "PanelID": 150003,
    "Type": 22,
    "ActivityModuleID": 5000300,
    "UIPrefab": "UI/Quest/Widget/QuestAlleyPanel.prefab",
    "TypeParam": [
      1021702
    ],
    "UnlockConditions": [
      {
        "Type": "PlayerLevel",
        "Param": "21"
      }
    ],
    "SortWeight": 6012,
    "TabName": {
      "Hash": 145370958
    },
    "TitleName": {
      "Hash": -939523705
    },
    "PanelDesc": {
      "Hash": -1609731301
    },
    "TabIcon": "SpriteOutput/UI/Quest/TabIcon/BtnQuesAlley.png",
    "TagDesc": {
      "Hash": -322712917
    },
    "IntroDesc": {
      "Hash": -1613392317
    },
    "DisplayItemList": [
      {
        "ItemID": 22
      },
      {
        "ItemID": 241
      },
      {
        "ItemID": 101
      },
      {
        "ItemID": 1
      },
      {
        "ItemID": 221001
      },
      {
        "ItemID": 213
      },
      {
        "ItemID": 233
      },
      {
        "ItemID": 300041
      },
      {
        "ItemID": 2
      }
    ],
    "DisplayItemManualSort": true,
    "ActionNameList": [],
    "ActionNameListOnTab": [],
    "IsResidentPanel": true,
    "ResidentPanelUnlockModuleID": 5000301,
    "ResidentPanelFinishConditions": [
      {
        "Type": "FinishQuest",
        "Param": "6013172"
      }
    ]
  },
  "22001": {
    "PanelID": 22001,
    "Type": 23,
    "ActivityModuleID": 2200101,
    "UIPrefab": "UI/Quest/Widget/QuestColleaguePanel.prefab",
    "TypeParam": [],
    "UnlockConditions": [
      {
        "Type": "PlayerLevel",
        "Param": "21"
      }
    ],
    "SortWeight": 4000,
    "TabName": {
      "Hash": 596689992
    },
    "TitleName": {
      "Hash": 371857150
    },
    "PanelDesc": {
      "Hash": 371857150
    },
    "TabIcon": "SpriteOutput/UI/Quest/TabIcon/BtnQuestColleague.png",
    "TagDesc": {
      "Hash": 371857150
    },
    "IntroDesc": {
      "Hash": 371857150
    },
    "DisplayItemList": [],
    "ActionNameList": [],
    "ActionNameListOnTab": [],
    "ResidentPanelFinishConditions": []
  },
  "22002": {
    "PanelID": 22002,
    "Type": 23,
    "ActivityModuleID": 2200201,
    "UIPrefab": "UI/Quest/Widget/QuestColleaguePanel.prefab",
    "TypeParam": [],
    "UnlockConditions": [
      {
        "Type": "PlayerLevel",
        "Param": "21"
      }
    ],
    "SortWeight": 4000,
    "TabName": {
      "Hash": 596689993
    },
    "TitleName": {
      "Hash": 371857150
    },
    "PanelDesc": {
      "Hash": 371857150
    },
    "TabIcon": "SpriteOutput/UI/Quest/TabIcon/BtnQuestColleague.png",
    "TagDesc": {
      "Hash": 371857150
    },
    "IntroDesc": {
      "Hash": 371857150
    },
    "DisplayItemList": [],
    "ActionNameList": [],
    "ActionNameListOnTab": [],
    "ResidentPanelFinishConditions": []
  },
  "22003": {
    "PanelID": 22003,
    "Type": 23,
    "ActivityModuleID": 2200301,
    "UIPrefab": "UI/Quest/Widget/QuestColleaguePanel.prefab",
    "TypeParam": [],
    "UnlockConditions": [
      {
        "Type": "PlayerLevel",
        "Param": "21"
      }
    ],
    "SortWeight": 4000,
    "TabName": {
      "Hash": 596689994
    },
    "TitleName": {
      "Hash": 371857150
    },
    "PanelDesc": {
      "Hash": 371857150
    },
    "TabIcon": "SpriteOutput/UI/Quest/TabIcon/BtnQuestColleague.png",
    "TagDesc": {
      "Hash": 371857150
    },
    "IntroDesc": {
      "Hash": 371857150
    },
    "DisplayItemList": [],
    "ActionNameList": [],
    "ActionNameListOnTab": [],
    "ResidentPanelFinishConditions": []
  },
  "50004": {
    "PanelID": 50004,
    "Type": 24,
    "ActivityModuleID": 5000401,
    "UIPrefab": "UI/Quest/TreasureDungeon/Widget/QuestTreasureDungeonPanel.prefab",
    "TypeParam": [],
    "UnlockConditions": [
      {
        "Type": "PlayerLevel",
        "Param": "21"
      }
    ],
    "SortWeight": 6001,
    "TabName": {
      "Hash": 314374720
    },
    "TitleName": {
      "Hash": -94953695
    },
    "PanelDesc": {
      "Hash": 371857150
    },
    "TabIcon": "SpriteOutput/UI/Quest/TabIcon/BtnTresureDungeon.png",
    "TagDesc": {
      "Hash": -1276871771
    },
    "IntroDesc": {
      "Hash": 1812120853
    },
    "DisplayItemList": [
      {
        "ItemID": 236
      },
      {
        "ItemID": 241
      },
      {
        "ItemID": 1
      },
      {
        "ItemID": 235
      },
      {
        "ItemID": 220001
      },
      {
        "ItemID": 213
      },
      {
        "ItemID": 110153
      },
      {
        "ItemID": 110152
      },
      {
        "ItemID": 2
      }
    ],
    "DisplayItemManualSort": true,
    "ActionNameList": [
      "Menu_Cancel"
    ],
    "ActionNameListOnTab": [],
    "ResidentPanelFinishConditions": []
  },
  "80001": {
    "PanelID": 80001,
    "Type": 25,
    "ActivityModuleID": 8000101,
    "UIPrefab": "UI/Quest/Widget/QuestPrincipalLineBannerPanel.prefab",
    "TypeParam": [
      2020104,
      1021501
    ],
    "UnlockConditions": [
      {
        "Type": "FinishMainMission",
        "Param": "1000510"
      }
    ],
    "SortWeight": 6001,
    "TabName": {
      "Hash": 314375880
    },
    "TitleName": {
      "Hash": -94946135
    },
    "PanelDesc": {
      "Hash": -1704902379
    },
    "TabIcon": "SpriteOutput/UI/Quest/TabIcon/BtnQuestPrincipalLineBanner.png",
    "TagDesc": {
      "Hash": -1276859731
    },
    "IntroDesc": {
      "Hash": 1812134941
    },
    "DisplayItemList": [],
    "ActionNameList": [
      "ActionGroup_Scroll",
      "ActionGroup_Return"
    ],
    "ActionNameListOnTab": [
      "ActionGroup_Scroll",
      "ActionGroup_Return"
    ],
    "ResidentPanelFinishConditions": []
  },
  "80002": {
    "PanelID": 80002,
    "Type": 25,
    "ActivityModuleID": 8000201,
    "UIPrefab": "UI/Quest/Widget/QuestMainStory130Panel.prefab",
    "TypeParam": [
      1021501,
      1021702
    ],
    "UnlockConditions": [
      {
        "Type": "FinishMainMission",
        "Param": "1000510"
      }
    ],
    "SortWeight": 6001,
    "TabName": {
      "Hash": 314375877
    },
    "TitleName": {
      "Hash": -94946132
    },
    "PanelDesc": {
      "Hash": -1704902378
    },
    "TabIcon": "SpriteOutput/UI/Quest/TabIcon/BtnMainStory130.png",
    "TagDesc": {
      "Hash": -1276859728
    },
    "IntroDesc": {
      "Hash": 1812134942
    },
    "DisplayItemList": [],
    "ActionNameList": [
      "ActionGroup_Scroll",
      "ActionGroup_Return"
    ],
    "ActionNameListOnTab": [
      "ActionGroup_Scroll",
      "ActionGroup_Return"
    ],
    "ResidentPanelFinishConditions": []
  },
  "80003": {
    "PanelID": 80003,
    "Type": 25,
    "ActivityModuleID": 8000301,
    "UIPrefab": "UI/Quest/Widget/QuestMainStory140Panel.prefab",
    "TypeParam": [
      1021702,
      2010203
    ],
    "UnlockConditions": [
      {
        "Type": "FinishMainMission",
        "Param": "1000510"
      }
    ],
    "SortWeight": 6000,
    "TabName": {
      "Hash": 314375878
    },
    "TitleName": {
      "Hash": -94946133
    },
    "PanelDesc": {
      "Hash": -1704902377
    },
    "TabIcon": "SpriteOutput/UI/Quest/TabIcon/BtnMainStory140.png",
    "TagDesc": {
      "Hash": -1276859729
    },
    "IntroDesc": {
      "Hash": 1812134943
    },
    "DisplayItemList": [],
    "ActionNameList": [
      "ActionGroup_Scroll",
      "ActionGroup_Return"
    ],
    "ActionNameListOnTab": [
      "ActionGroup_Scroll",
      "ActionGroup_Return"
    ],
    "ResidentPanelFinishConditions": []
  },
  "80004": {
    "PanelID": 80004,
    "Type": 40,
    "ActivityModuleID": 8000401,
    "UIPrefab": "UI/Quest/Widget/QuestSubStory140Panel.prefab",
    "TypeParam": [
      2021001,
      2021001
    ],
    "UnlockConditions": [
      {
        "Type": "FinishMainMission",
        "Param": "1000510"
      }
    ],
    "SortWeight": 6001,
    "TabName": {
      "Hash": 314375883
    },
    "TitleName": {
      "Hash": -94946130
    },
    "PanelDesc": {
      "Hash": -1704902384
    },
    "TabIcon": "SpriteOutput/UI/Quest/TabIcon/BtnSubStory140.png",
    "TagDesc": {
      "Hash": -1276859734
    },
    "IntroDesc": {
      "Hash": 1812134936
    },
    "DisplayItemList": [
      {
        "ItemID": 1
      },
      {
        "ItemID": 22
      },
      {
        "ItemID": 213
      },
      {
        "ItemID": 223
      },
      {
        "ItemID": 233
      },
      {
        "ItemID": 110112
      },
      {
        "ItemID": 2
      }
    ],
    "ActionNameList": [
      "ActionGroup_Scroll",
      "ActionGroup_Return"
    ],
    "ActionNameListOnTab": [
      "ActionGroup_Scroll",
      "ActionGroup_Return"
    ],
    "ResidentPanelFinishConditions": []
  },
  "150000": {
    "PanelID": 150000,
    "Type": 12,
    "ActivityModuleID": 5000001,
    "UIPrefab": "UI/Quest/Widget/QuestFistClubPaperPanel.prefab",
    "TypeParam": [
      140007
    ],
    "UnlockConditions": [
      {
        "Type": "PlayerLevel",
        "Param": "21"
      },
      {
        "Type": "FinishMainMission",
        "Param": "1011001"
      }
    ],
    "SortWeight": 6010,
    "TabName": {
      "Hash": -257913569
    },
    "TitleName": {
      "Hash": -1342808232
    },
    "PanelDesc": {
      "Hash": 371857150
    },
    "TabIcon": "SpriteOutput/UI/Quest/TabIcon/BtnFistClubQuestMission.png",
    "TagDesc": {
      "Hash": -725997444
    },
    "IntroDesc": {
      "Hash": 1115491038
    },
    "DisplayItemList": [
      {
        "ItemID": 1
      },
      {
        "ItemID": 213
      },
      {
        "ItemID": 222
      },
      {
        "ItemID": 2
      }
    ],
    "ActionNameList": [
      "Menu_Confirm",
      "ActionGroup_Return"
    ],
    "ActionNameListOnTab": [
      "Menu_Confirm",
      "ActionGroup_Return"
    ],
    "IsResidentPanel": true,
    "ResidentPanelUnlockModuleID": 5000002,
    "ResidentPanelFinishConditions": [
      {
        "Type": "FinishMainMission",
        "Param": "2010735"
      }
    ]
  },
  "150001": {
    "PanelID": 150001,
    "Type": 16,
    "ActivityModuleID": 5000210,
    "UIPrefab": "UI/Quest/Widget/QuestMuseumPanel.prefab",
    "TypeParam": [],
    "UnlockConditions": [
      {
        "Type": "PlayerLevel",
        "Param": "21"
      },
      {
        "Type": "FinishMainMission",
        "Param": "1011503"
      }
    ],
    "SortWeight": 6011,
    "TabName": {
      "Hash": 1308170372
    },
    "TitleName": {
      "Hash": 223275709
    },
    "PanelDesc": {
      "Hash": 371857150
    },
    "TabIcon": "SpriteOutput/UI/Quest/TabIcon/BtnQuestMuseum.png",
    "TagDesc": {
      "Hash": 840086497
    },
    "IntroDesc": {
      "Hash": -450592903
    },
    "DisplayItemList": [
      {
        "ItemID": 1
      },
      {
        "ItemID": 241
      },
      {
        "ItemID": 213
      },
      {
        "ItemID": 232
      },
      {
        "ItemID": 2
      }
    ],
    "ActionNameList": [
      "Menu_Confirm",
      "ActionGroup_Return"
    ],
    "ActionNameListOnTab": [
      "Menu_Confirm",
      "ActionGroup_Return"
    ],
    "IsResidentPanel": true,
    "ResidentPanelUnlockModuleID": 5000201,
    "ResidentPanelFinishConditions": [
      {
        "Type": "FinishMainMission",
        "Param": "8001263"
      }
    ]
  },
  "50005": {
    "PanelID": 50005,
    "Type": 27,
    "ActivityModuleID": 5000500,
    "UIPrefab": "UI/Quest/Widget/QuestAetherDividePanel.prefab",
    "TypeParam": [],
    "UnlockConditions": [
      {
        "Type": "PlayerLevel",
        "Param": "21"
      }
    ],
    "SortWeight": 6001,
    "TabName": {
      "Hash": 314374719
    },
    "TitleName": {
      "Hash": -94953694
    },
    "PanelDesc": {
      "Hash": -1704916468
    },
    "TabIcon": "SpriteOutput/UI/Quest/TabIcon/BtnQuestAetherDivide.png",
    "TagDesc": {
      "Hash": -1276871770
    },
    "IntroDesc": {
      "Hash": 1812120852
    },
    "DisplayItemList": [
      {
        "ItemID": 236
      },
      {
        "ItemID": 241
      },
      {
        "ItemID": 1
      },
      {
        "ItemID": 235
      },
      {
        "ItemID": 309001
      },
      {
        "ItemID": 220002
      },
      {
        "ItemID": 213
      },
      {
        "ItemID": 223
      },
      {
        "ItemID": 233
      },
      {
        "ItemID": 110113
      },
      {
        "ItemID": 110112
      },
      {
        "ItemID": 2
      }
    ],
    "DisplayItemManualSort": true,
    "ActionNameList": [
      "Menu_Confirm",
      "ActionGroup_Return"
    ],
    "ActionNameListOnTab": [
      "Menu_Confirm",
      "ActionGroup_Return"
    ],
    "IsActivityHaveResidentPart": true,
    "ResidentPanelFinishConditions": []
  },
  "150005": {
    "PanelID": 150005,
    "Type": 27,
    "ActivityModuleID": 5000500,
    "UIPrefab": "UI/Quest/Widget/QuestAetherDividePanel.prefab",
    "TypeParam": [],
    "UnlockConditions": [
      {
        "Type": "PlayerLevel",
        "Param": "21"
      }
    ],
    "SortWeight": 6013,
    "TabName": {
      "Hash": -661198096
    },
    "TitleName": {
      "Hash": -2102323119
    },
    "PanelDesc": {
      "Hash": 1878666941
    },
    "TabIcon": "SpriteOutput/UI/Quest/TabIcon/BtnQuestAetherDivide.png",
    "TagDesc": {
      "Hash": -1485512331
    },
    "IntroDesc": {
      "Hash": 1875005925
    },
    "DisplayItemList": [
      {
        "ItemID": 22
      },
      {
        "ItemID": 241
      },
      {
        "ItemID": 1
      },
      {
        "ItemID": 235
      },
      {
        "ItemID": 220002
      },
      {
        "ItemID": 213
      },
      {
        "ItemID": 223
      },
      {
        "ItemID": 233
      },
      {
        "ItemID": 2
      }
    ],
    "DisplayItemManualSort": true,
    "ActionNameList": [
      "Menu_Confirm",
      "ActionGroup_Return"
    ],
    "ActionNameListOnTab": [
      "Menu_Confirm",
      "ActionGroup_Return"
    ],
    "IsResidentPanel": true,
    "ResidentPanelUnlockModuleID": 5000501,
    "ResidentPanelFinishConditions": [
      {
        "Type": "FinishQuest",
        "Param": "6023104"
      }
    ]
  },
  "40002": {
    "PanelID": 40002,
    "Type": 28,
    "ActivityModuleID": 4000201,
    "UIPrefab": "UI/Quest/Widget/FantasticStoryPanel.prefab",
    "TypeParam": [],
    "UnlockConditions": [
      {
        "Type": "PlayerLevel",
        "Param": "21"
      }
    ],
    "SortWeight": 6001,
    "TabName": {
      "Hash": 314371521
    },
    "TitleName": {
      "Hash": -94950488
    },
    "PanelDesc": {
      "Hash": -1704915446
    },
    "TabIcon": "SpriteOutput/UI/Quest/TabIcon/BtnFantasticStory.png",
    "TagDesc": {
      "Hash": -1276872796
    },
    "IntroDesc": {
      "Hash": 1812121874
    },
    "DisplayItemList": [
      {
        "ItemID": 241
      },
      {
        "ItemID": 1
      },
      {
        "ItemID": 235
      },
      {
        "ItemID": 140310
      },
      {
        "ItemID": 213
      },
      {
        "ItemID": 233
      },
      {
        "ItemID": 110112
      },
      {
        "ItemID": 2
      }
    ],
    "DisplayItemManualSort": true,
    "ActionNameList": [
      "ActionGroup_Return"
    ],
    "ActionNameListOnTab": [
      "Menu_Confirm",
      "ActionGroup_Return"
    ],
    "ResidentPanelFinishConditions": []
  },
  "60001": {
    "PanelID": 60001,
    "Type": 11,
    "ActivityModuleID": 6000101,
    "UIPrefab": "UI/Quest/Widget/QuestRogueRewardPanel.prefab",
    "TypeParam": [
      1013
    ],
    "UnlockConditions": [
      {
        "Type": "FinishMainMission",
        "Param": "4030010"
      }
    ],
    "HideQuest": 3000017,
    "SortWeight": 1000,
    "TabName": {
      "Hash": 314369346
    },
    "TitleName": {
      "Hash": -94948313
    },
    "PanelDesc": {
      "Hash": -1704913269
    },
    "TabIcon": "SpriteOutput/UI/Quest/TabIcon/BtnRogueReward.png",
    "TagDesc": {
      "Hash": -1276870621
    },
    "IntroDesc": {
      "Hash": 1812124051
    },
    "DisplayItemList": [
      {
        "ItemID": 101
      },
      {
        "ItemID": 24000
      },
      {
        "ItemID": 24001
      },
      {
        "ItemID": 24002
      },
      {
        "ItemID": 24003
      },
      {
        "ItemID": 271
      }
    ],
    "DisplayItemManualSort": true,
    "ActionNameList": [],
    "ActionNameListOnTab": [],
    "ResidentPanelFinishConditions": []
  },
  "60004": {
    "PanelID": 60004,
    "Type": 11,
    "ActivityModuleID": 6000401,
    "UIPrefab": "UI/Quest/Widget/QuestRoguePlanet7Panel.prefab",
    "TypeParam": [
      1013,
      170
    ],
    "UnlockConditions": [
      {
        "Type": "FinishMainMission",
        "Param": "1021101"
      }
    ],
    "SortWeight": 1000,
    "TabName": {
      "Hash": 314369341
    },
    "TitleName": {
      "Hash": -94948316
    },
    "PanelDesc": {
      "Hash": -1704913266
    },
    "TabIcon": "SpriteOutput/UI/Quest/TabIcon/BtnRogueReward.png",
    "TagDesc": {
      "Hash": -1276870616
    },
    "IntroDesc": {
      "Hash": 1812124054
    },
    "DisplayItemList": [
      {
        "ItemID": 1
      },
      {
        "ItemID": 503
      },
      {
        "ItemID": 83094
      },
      {
        "ItemID": 83104
      },
      {
        "ItemID": 1013
      }
    ],
    "ActionNameList": [],
    "ActionNameListOnTab": [],
    "ResidentPanelFinishConditions": []
  },
  "60003": {
    "PanelID": 60003,
    "Type": 31,
    "ActivityModuleID": 6000701,
    "UIPrefab": "UI/Quest/Widget/QuestRogueDlcPanel.prefab",
    "TypeParam": [],
    "UnlockConditions": [
      {
        "Type": "FinishMainMission",
        "Param": "8013103"
      }
    ],
    "SortWeight": 1000,
    "TabName": {
      "Hash": 314369348
    },
    "TitleName": {
      "Hash": -94948315
    },
    "PanelDesc": {
      "Hash": 371857150
    },
    "TabIcon": "SpriteOutput/UI/Quest/TabIcon/BtnRogueDlcQuestBannerSmall1.png",
    "TagDesc": {
      "Hash": -1276870623
    },
    "IntroDesc": {
      "Hash": 1812124049
    },
    "DisplayItemList": [
      {
        "ItemID": 1
      },
      {
        "ItemID": 236
      },
      {
        "ItemID": 241
      },
      {
        "ItemID": 101
      },
      {
        "ItemID": 235
      },
      {
        "ItemID": 213
      },
      {
        "ItemID": 233
      },
      {
        "ItemID": 300041
      },
      {
        "ItemID": 2
      }
    ],
    "ActionNameList": [],
    "ActionNameListOnTab": [],
    "ResidentPanelFinishConditions": []
  },
  "60005": {
    "PanelID": 60005,
    "Type": 11,
    "ActivityModuleID": 6000501,
    "UIPrefab": "UI/Quest/Widget/QuestRoguePlanet8Panel.prefab",
    "TypeParam": [
      1013,
      180
    ],
    "UnlockConditions": [
      {
        "Type": "FinishMainMission",
        "Param": "1021201"
      }
    ],
    "SortWeight": 1000,
    "TabName": {
      "Hash": 314369342
    },
    "TitleName": {
      "Hash": -94948317
    },
    "PanelDesc": {
      "Hash": -1704913265
    },
    "TabIcon": "SpriteOutput/UI/Quest/TabIcon/BtnRogueReward.png",
    "TagDesc": {
      "Hash": -1276870617
    },
    "IntroDesc": {
      "Hash": 1812124055
    },
    "DisplayItemList": [
      {
        "ItemID": 1
      },
      {
        "ItemID": 101
      },
      {
        "ItemID": 503
      },
      {
        "ItemID": 83114
      },
      {
        "ItemID": 83124
      }
    ],
    "ActionNameList": [],
    "ActionNameListOnTab": [],
    "ResidentPanelFinishConditions": []
  },
  "60006": {
    "PanelID": 60006,
    "Type": 32,
    "ActivityModuleID": 6000601,
    "UIPrefab": "UI/Quest/Widget/QuestRogueEndlessPanel.prefab",
    "TypeParam": [
      1013,
      170
    ],
    "UnlockConditions": [
      {
        "Type": "PlayerLevel",
        "Param": "21"
      }
    ],
    "SortWeight": 6001,
    "TabName": {
      "Hash": 314369343
    },
    "TitleName": {
      "Hash": -94948318
    },
    "PanelDesc": {
      "Hash": -1704913268
    },
    "TabIcon": "SpriteOutput/UI/Quest/TabIcon/BtnRogueReward.png",
    "TagDesc": {
      "Hash": -1276870618
    },
    "IntroDesc": {
      "Hash": 1812124052
    },
    "DisplayItemList": [
      {
        "ItemID": 1
      },
      {
        "ItemID": 241
      },
      {
        "ItemID": 235
      },
      {
        "ItemID": 213
      },
      {
        "ItemID": 223
      },
      {
        "ItemID": 110123
      },
      {
        "ItemID": 110122
      },
      {
        "ItemID": 2
      }
    ],
    "ActionNameList": [],
    "ActionNameListOnTab": [],
    "ResidentPanelFinishConditions": []
  },
  "50006": {
    "PanelID": 50006,
    "Type": 30,
    "ActivityModuleID": 5000606,
    "UIPrefab": "UI/Quest/Widget/QuestHeliobusPanel.prefab",
    "TypeParam": [
      2021701,
      2021703,
      2021705
    ],
    "UnlockConditions": [
      {
        "Type": "PlayerLevel",
        "Param": "21"
      }
    ],
    "SortWeight": 6001,
    "TabName": {
      "Hash": 314374718
    },
    "TitleName": {
      "Hash": -94953693
    },
    "PanelDesc": {
      "Hash": -1704916465
    },
    "TabIcon": "SpriteOutput/UI/Quest/TabIcon/BtnQuesHeliobus.png",
    "TagDesc": {
      "Hash": -1276871769
    },
    "IntroDesc": {
      "Hash": 1812120855
    },
    "DisplayItemList": [
      {
        "ItemID": 236
      },
      {
        "ItemID": 241
      },
      {
        "ItemID": 1
      },
      {
        "ItemID": 235
      },
      {
        "ItemID": 22001
      },
      {
        "ItemID": 221003
      },
      {
        "ItemID": 213
      },
      {
        "ItemID": 223
      },
      {
        "ItemID": 233
      },
      {
        "ItemID": 110173
      },
      {
        "ItemID": 110172
      },
      {
        "ItemID": 2
      }
    ],
    "DisplayItemManualSort": true,
    "ActionNameList": [],
    "ActionNameListOnTab": [],
    "IsActivityHaveResidentPart": true,
    "ResidentPanelFinishConditions": []
  },
  "150006": {
    "PanelID": 150006,
    "Type": 30,
    "ActivityModuleID": 5000606,
    "UIPrefab": "UI/Quest/Widget/QuestHeliobusPanel.prefab",
    "TypeParam": [
      2021701,
      2021703,
      2021705
    ],
    "UnlockConditions": [
      {
        "Type": "PlayerLevel",
        "Param": "21"
      }
    ],
    "SortWeight": 6014,
    "TabName": {
      "Hash": 904885845
    },
    "TitleName": {
      "Hash": -536239178
    },
    "PanelDesc": {
      "Hash": -2013015828
    },
    "TabIcon": "SpriteOutput/UI/Quest/TabIcon/BtnQuesHeliobus.png",
    "TagDesc": {
      "Hash": 80571610
    },
    "IntroDesc": {
      "Hash": -2016676844
    },
    "DisplayItemList": [
      {
        "ItemID": 22
      },
      {
        "ItemID": 241
      },
      {
        "ItemID": 101
      },
      {
        "ItemID": 1
      },
      {
        "ItemID": 235
      },
      {
        "ItemID": 221003
      },
      {
        "ItemID": 213
      },
      {
        "ItemID": 233
      },
      {
        "ItemID": 110172
      },
      {
        "ItemID": 2
      }
    ],
    "DisplayItemManualSort": true,
    "ActionNameList": [],
    "ActionNameListOnTab": [],
    "IsResidentPanel": true,
    "ResidentPanelUnlockModuleID": 5000601,
    "ResidentPanelFinishConditions": [
      {
        "Type": "FinishQuest",
        "Param": "6032502"
      }
    ]
  },
  "40003": {
    "PanelID": 40003,
    "Type": 41,
    "ActivityModuleID": 4000308,
    "UIPrefab": "UI/Quest/Widget/QuestBoxingClubResonancePanel.prefab",
    "TypeParam": [],
    "UnlockConditions": [
      {
        "Type": "PlayerLevel",
        "Param": "21"
      },
      {
        "Type": "FinishMainMission",
        "Param": "1011001"
      }
    ],
    "SortWeight": 6001,
    "TabName": {
      "Hash": 314371522
    },
    "TitleName": {
      "Hash": -94950489
    },
    "PanelDesc": {
      "Hash": -1704915445
    },
    "TabIcon": "SpriteOutput/UI/Quest/TabIcon/BtnBoxingClubResonance.png",
    "TagDesc": {
      "Hash": -1276872797
    },
    "IntroDesc": {
      "Hash": 1812121875
    },
    "DisplayItemList": [
      {
        "ItemID": 241
      },
      {
        "ItemID": 1
      },
      {
        "ItemID": 235
      },
      {
        "ItemID": 213
      },
      {
        "ItemID": 223
      },
      {
        "ItemID": 233
      },
      {
        "ItemID": 140363
      },
      {
        "ItemID": 110112
      },
      {
        "ItemID": 2
      }
    ],
    "DisplayItemManualSort": true,
    "ActionNameList": [],
    "ActionNameListOnTab": [],
    "IsActivityHaveResidentPart": true,
    "ResidentPanelFinishConditions": []
  },
  "140007": {
    "PanelID": 140007,
    "Type": 41,
    "ActivityModuleID": 4000308,
    "UIPrefab": "UI/Quest/Widget/QuestBoxingClubResonancePanel_Resident.prefab",
    "TypeParam": [
      150000,
      140007
    ],
    "UnlockConditions": [
      {
        "Type": "PlayerLevel",
        "Param": "21"
      },
      {
        "Type": "FinishMainMission",
        "Param": "1011001"
      }
    ],
    "SortWeight": 6015,
    "TabName": {
      "Hash": -742268331
    },
    "TitleName": {
      "Hash": 2111573942
    },
    "PanelDesc": {
      "Hash": 371857150
    },
    "TabIcon": "SpriteOutput/UI/Quest/TabIcon/BtnBoxingClubResonance.png",
    "TagDesc": {
      "Hash": -1566582566
    },
    "IntroDesc": {
      "Hash": -1258453612
    },
    "DisplayItemList": [
      {
        "ItemID": 1
      },
      {
        "ItemID": 213
      },
      {
        "ItemID": 140363
      },
      {
        "ItemID": 222
      },
      {
        "ItemID": 2
      }
    ],
    "DisplayItemManualSort": true,
    "ActionNameList": [],
    "ActionNameListOnTab": [],
    "IsResidentPanel": true,
    "ResidentPanelUnlockModuleID": 4000301,
    "ResidentPanelFinishConditions": [
      {
        "Type": "FinishQuest",
        "Param": "6000398"
      },
      {
        "Type": "FinishQuest",
        "Param": "6000412"
      },
      {
        "Type": "FinishQuest",
        "Param": "6000413"
      },
      {
        "Type": "FinishQuest",
        "Param": "6000414"
      },
      {
        "Type": "FinishMainMission",
        "Param": "2010735"
      }
    ]
  }
}