{
  "6001": {
    "1": {
      "AvatarID": 6001,
      "Promotion": 1,
      "AttackBase": {
        "Value": 304.7500000006985
      },
      "HPBase": {
        "Value": 3040
      },
      "SpeedBase": {
        "Value": 95
      },
      "BaseAggro": {
        "Value": 100
      },
      "Exp": 1,
      "SpecialSkillList": []
    },
    "2": {
      "AvatarID": 6001,
      "Promotion": 2,
      "AttackBase": {
        "Value": 362.25000000023283
      },
      "HPBase": {
        "Value": 3680
      },
      "SpeedBase": {
        "Value": 95
      },
      "BaseAggro": {
        "Value": 100
      },
      "Exp": 10,
      "SpecialSkillList": [],
      "Slot": 1
    },
    "3": {
      "AvatarID": 6001,
      "Promotion": 3,
      "AttackBase": {
        "Value": 385.25000000023283
      },
      "HPBase": {
        "Value": 4032
      },
      "SpeedBase": {
        "Value": 95
      },
      "BaseAggro": {
        "Value": 100
      },
      "Exp": 20,
      "SpecialSkillList": []
    },
    "4": {
      "AvatarID": 6001,
      "Promotion": 4,
      "AttackBase": {
        "Value": 437
      },
      "HPBase": {
        "Value": 4608
      },
      "SpeedBase": {
        "Value": 95
      },
      "BaseAggro": {
        "Value": 100
      },
      "Exp": 40,
      "SpecialSkillList": [],
      "Slot": 2
    },
    "5": {
      "AvatarID": 6001,
      "Promotion": 5,
      "AttackBase": {
        "Value": 494.50000000046566
      },
      "HPBase": {
        "Value": 5184
      },
      "SpeedBase": {
        "Value": 95
      },
      "BaseAggro": {
        "Value": 100
      },
      "Exp": 80,
      "SpecialSkillList": []
    },
    "6": {
      "AvatarID": 6001,
      "Promotion": 6,
      "AttackBase": {
        "Value": 552
      },
      "HPBase": {
        "Value": 5760
      },
      "SpeedBase": {
        "Value": 95
      },
      "BaseAggro": {
        "Value": 100
      },
      "Exp": 80,
      "SpecialSkillList": []
    }
  },
  "6003": {
    "1": {
      "AvatarID": 6003,
      "Promotion": 1,
      "AttackBase": {
        "Value": 219.95000000088476
      },
      "HPBase": {
        "Value": 4560
      },
      "SpeedBase": {
        "Value": 90
      },
      "BaseAggro": {
        "Value": 100
      },
      "Exp": 1,
      "SpecialSkillList": []
    },
    "2": {
      "AvatarID": 6003,
      "Promotion": 2,
      "AttackBase": {
        "Value": 261.4500000004191
      },
      "HPBase": {
        "Value": 5520
      },
      "SpeedBase": {
        "Value": 90
      },
      "BaseAggro": {
        "Value": 100
      },
      "Exp": 10,
      "SpecialSkillList": [],
      "Slot": 1
    },
    "3": {
      "AvatarID": 6003,
      "Promotion": 3,
      "AttackBase": {
        "Value": 278.05000000004657
      },
      "HPBase": {
        "Value": 6048
      },
      "SpeedBase": {
        "Value": 90
      },
      "BaseAggro": {
        "Value": 100
      },
      "Exp": 20,
      "SpecialSkillList": []
    },
    "4": {
      "AvatarID": 6003,
      "Promotion": 4,
      "AttackBase": {
        "Value": 315.40000000037253
      },
      "HPBase": {
        "Value": 6912
      },
      "SpeedBase": {
        "Value": 90
      },
      "BaseAggro": {
        "Value": 100
      },
      "Exp": 40,
      "SpecialSkillList": [],
      "Slot": 2
    },
    "5": {
      "AvatarID": 6003,
      "Promotion": 5,
      "AttackBase": {
        "Value": 356.9000000008382
      },
      "HPBase": {
        "Value": 7776
      },
      "SpeedBase": {
        "Value": 90
      },
      "BaseAggro": {
        "Value": 100
      },
      "Exp": 80,
      "SpecialSkillList": []
    },
    "6": {
      "AvatarID": 6003,
      "Promotion": 6,
      "AttackBase": {
        "Value": 398.40000000037253
      },
      "HPBase": {
        "Value": 8640
      },
      "SpeedBase": {
        "Value": 90
      },
      "BaseAggro": {
        "Value": 100
      },
      "Exp": 80,
      "SpecialSkillList": []
    }
  },
  "6005": {
    "1": {
      "AvatarID": 6005,
      "Promotion": 1,
      "AttackBase": {
        "Value": 344.50000000046566
      },
      "HPBase": {
        "Value": 4180
      },
      "SpeedBase": {
        "Value": 90
      },
      "BaseAggro": {
        "Value": 100
      },
      "Exp": 1,
      "SpecialSkillList": [],
      "Slot": 1
    },
    "2": {
      "AvatarID": 6005,
      "Promotion": 2,
      "AttackBase": {
        "Value": 409.50000000046566
      },
      "HPBase": {
        "Value": 5060
      },
      "SpeedBase": {
        "Value": 90
      },
      "BaseAggro": {
        "Value": 100
      },
      "Exp": 20,
      "SpecialSkillList": []
    },
    "3": {
      "AvatarID": 6005,
      "Promotion": 3,
      "AttackBase": {
        "Value": 435.50000000046566
      },
      "HPBase": {
        "Value": 5544
      },
      "SpeedBase": {
        "Value": 90
      },
      "BaseAggro": {
        "Value": 100
      },
      "Exp": 40,
      "SpecialSkillList": [],
      "Slot": 2
    },
    "4": {
      "AvatarID": 6005,
      "Promotion": 4,
      "AttackBase": {
        "Value": 494
      },
      "HPBase": {
        "Value": 6336
      },
      "SpeedBase": {
        "Value": 90
      },
      "BaseAggro": {
        "Value": 100
      },
      "Exp": 80,
      "SpecialSkillList": []
    },
    "5": {
      "AvatarID": 6005,
      "Promotion": 5,
      "AttackBase": {
        "Value": 559
      },
      "HPBase": {
        "Value": 7128
      },
      "SpeedBase": {
        "Value": 90
      },
      "BaseAggro": {
        "Value": 100
      },
      "Exp": 160,
      "SpecialSkillList": [],
      "Slot": 3
    },
    "6": {
      "AvatarID": 6005,
      "Promotion": 6,
      "AttackBase": {
        "Value": 624
      },
      "HPBase": {
        "Value": 7920
      },
      "SpeedBase": {
        "Value": 90
      },
      "BaseAggro": {
        "Value": 100
      },
      "Exp": 160,
      "SpecialSkillList": []
    }
  },
  "6006": {
    "1": {
      "AvatarID": 6006,
      "Promotion": 1,
      "AttackBase": {
        "Value": 318
      },
      "HPBase": {
        "Value": 3800
      },
      "SpeedBase": {
        "Value": 110
      },
      "BaseAggro": {
        "Value": 100
      },
      "Exp": 1,
      "SpecialSkillList": [],
      "Slot": 1
    },
    "2": {
      "AvatarID": 6006,
      "Promotion": 2,
      "AttackBase": {
        "Value": 378
      },
      "HPBase": {
        "Value": 4600
      },
      "SpeedBase": {
        "Value": 110
      },
      "BaseAggro": {
        "Value": 100
      },
      "Exp": 20,
      "SpecialSkillList": []
    },
    "3": {
      "AvatarID": 6006,
      "Promotion": 3,
      "AttackBase": {
        "Value": 402
      },
      "HPBase": {
        "Value": 5040
      },
      "SpeedBase": {
        "Value": 110
      },
      "BaseAggro": {
        "Value": 100
      },
      "Exp": 40,
      "SpecialSkillList": [],
      "Slot": 2
    },
    "4": {
      "AvatarID": 6006,
      "Promotion": 4,
      "AttackBase": {
        "Value": 456
      },
      "HPBase": {
        "Value": 5760
      },
      "SpeedBase": {
        "Value": 110
      },
      "BaseAggro": {
        "Value": 100
      },
      "Exp": 80,
      "SpecialSkillList": []
    },
    "5": {
      "AvatarID": 6006,
      "Promotion": 5,
      "AttackBase": {
        "Value": 516
      },
      "HPBase": {
        "Value": 6480
      },
      "SpeedBase": {
        "Value": 110
      },
      "BaseAggro": {
        "Value": 100
      },
      "Exp": 160,
      "SpecialSkillList": [],
      "Slot": 3
    },
    "6": {
      "AvatarID": 6006,
      "Promotion": 6,
      "AttackBase": {
        "Value": 576
      },
      "HPBase": {
        "Value": 7200
      },
      "SpeedBase": {
        "Value": 110
      },
      "BaseAggro": {
        "Value": 100
      },
      "Exp": 160,
      "SpecialSkillList": []
    }
  },
  "6007": {
    "1": {
      "AvatarID": 6007,
      "Promotion": 1,
      "AttackBase": {
        "Value": 318
      },
      "HPBase": {
        "Value": 4560
      },
      "SpeedBase": {
        "Value": 90
      },
      "BaseAggro": {
        "Value": 100
      },
      "Exp": 1,
      "SpecialSkillList": []
    },
    "2": {
      "AvatarID": 6007,
      "Promotion": 2,
      "AttackBase": {
        "Value": 378
      },
      "HPBase": {
        "Value": 5520
      },
      "SpeedBase": {
        "Value": 90
      },
      "BaseAggro": {
        "Value": 100
      },
      "Exp": 10,
      "SpecialSkillList": [],
      "Slot": 1
    },
    "3": {
      "AvatarID": 6007,
      "Promotion": 3,
      "AttackBase": {
        "Value": 402
      },
      "HPBase": {
        "Value": 6048
      },
      "SpeedBase": {
        "Value": 90
      },
      "BaseAggro": {
        "Value": 100
      },
      "Exp": 20,
      "SpecialSkillList": []
    },
    "4": {
      "AvatarID": 6007,
      "Promotion": 4,
      "AttackBase": {
        "Value": 456
      },
      "HPBase": {
        "Value": 6912
      },
      "SpeedBase": {
        "Value": 90
      },
      "BaseAggro": {
        "Value": 100
      },
      "Exp": 40,
      "SpecialSkillList": [],
      "Slot": 2
    },
    "5": {
      "AvatarID": 6007,
      "Promotion": 5,
      "AttackBase": {
        "Value": 516
      },
      "HPBase": {
        "Value": 7776
      },
      "SpeedBase": {
        "Value": 90
      },
      "BaseAggro": {
        "Value": 100
      },
      "Exp": 80,
      "SpecialSkillList": []
    },
    "6": {
      "AvatarID": 6007,
      "Promotion": 6,
      "AttackBase": {
        "Value": 576
      },
      "HPBase": {
        "Value": 8640
      },
      "SpeedBase": {
        "Value": 90
      },
      "BaseAggro": {
        "Value": 100
      },
      "Exp": 80,
      "SpecialSkillList": []
    }
  },
  "6008": {
    "1": {
      "AvatarID": 6008,
      "Promotion": 1,
      "AttackBase": {
        "Value": 251.7500000006985
      },
      "HPBase": {
        "Value": 4180
      },
      "SpeedBase": {
        "Value": 105
      },
      "BaseAggro": {
        "Value": 100
      },
      "Exp": 1,
      "SpecialSkillList": []
    },
    "2": {
      "AvatarID": 6008,
      "Promotion": 2,
      "AttackBase": {
        "Value": 299.25000000023283
      },
      "HPBase": {
        "Value": 5060
      },
      "SpeedBase": {
        "Value": 105
      },
      "BaseAggro": {
        "Value": 100
      },
      "Exp": 10,
      "SpecialSkillList": [],
      "Slot": 1
    },
    "3": {
      "AvatarID": 6008,
      "Promotion": 3,
      "AttackBase": {
        "Value": 318.25000000023283
      },
      "HPBase": {
        "Value": 5544
      },
      "SpeedBase": {
        "Value": 105
      },
      "BaseAggro": {
        "Value": 100
      },
      "Exp": 20,
      "SpecialSkillList": []
    },
    "4": {
      "AvatarID": 6008,
      "Promotion": 4,
      "AttackBase": {
        "Value": 361
      },
      "HPBase": {
        "Value": 6336
      },
      "SpeedBase": {
        "Value": 105
      },
      "BaseAggro": {
        "Value": 100
      },
      "Exp": 40,
      "SpecialSkillList": [],
      "Slot": 2
    },
    "5": {
      "AvatarID": 6008,
      "Promotion": 5,
      "AttackBase": {
        "Value": 408.50000000046566
      },
      "HPBase": {
        "Value": 7128
      },
      "SpeedBase": {
        "Value": 105
      },
      "BaseAggro": {
        "Value": 100
      },
      "Exp": 80,
      "SpecialSkillList": []
    },
    "6": {
      "AvatarID": 6008,
      "Promotion": 6,
      "AttackBase": {
        "Value": 456
      },
      "HPBase": {
        "Value": 7920
      },
      "SpeedBase": {
        "Value": 105
      },
      "BaseAggro": {
        "Value": 100
      },
      "Exp": 80,
      "SpecialSkillList": []
    }
  },
  "6009": {
    "1": {
      "AvatarID": 6009,
      "Promotion": 1,
      "AttackBase": {
        "Value": 212
      },
      "HPBase": {
        "Value": 4940
      },
      "SpeedBase": {
        "Value": 100
      },
      "BaseAggro": {
        "Value": 100
      },
      "Exp": 1,
      "SpecialSkillList": []
    },
    "2": {
      "AvatarID": 6009,
      "Promotion": 2,
      "AttackBase": {
        "Value": 252
      },
      "HPBase": {
        "Value": 5980
      },
      "SpeedBase": {
        "Value": 100
      },
      "BaseAggro": {
        "Value": 100
      },
      "Exp": 10,
      "SpecialSkillList": [],
      "Slot": 1
    },
    "3": {
      "AvatarID": 6009,
      "Promotion": 3,
      "AttackBase": {
        "Value": 268
      },
      "HPBase": {
        "Value": 6552
      },
      "SpeedBase": {
        "Value": 100
      },
      "BaseAggro": {
        "Value": 100
      },
      "Exp": 20,
      "SpecialSkillList": []
    },
    "4": {
      "AvatarID": 6009,
      "Promotion": 4,
      "AttackBase": {
        "Value": 304
      },
      "HPBase": {
        "Value": 7488
      },
      "SpeedBase": {
        "Value": 100
      },
      "BaseAggro": {
        "Value": 100
      },
      "Exp": 40,
      "SpecialSkillList": [],
      "Slot": 2
    },
    "5": {
      "AvatarID": 6009,
      "Promotion": 5,
      "AttackBase": {
        "Value": 344
      },
      "HPBase": {
        "Value": 8424
      },
      "SpeedBase": {
        "Value": 100
      },
      "BaseAggro": {
        "Value": 100
      },
      "Exp": 80,
      "SpecialSkillList": []
    },
    "6": {
      "AvatarID": 6009,
      "Promotion": 6,
      "AttackBase": {
        "Value": 384
      },
      "HPBase": {
        "Value": 9360
      },
      "SpeedBase": {
        "Value": 100
      },
      "BaseAggro": {
        "Value": 100
      },
      "Exp": 80,
      "SpecialSkillList": []
    }
  },
  "6010": {
    "1": {
      "AvatarID": 6010,
      "Promotion": 1,
      "AttackBase": {
        "Value": 265
      },
      "HPBase": {
        "Value": 3800
      },
      "SpeedBase": {
        "Value": 115
      },
      "BaseAggro": {
        "Value": 100
      },
      "Exp": 1,
      "SpecialSkillList": [],
      "Slot": 1
    },
    "2": {
      "AvatarID": 6010,
      "Promotion": 2,
      "AttackBase": {
        "Value": 315
      },
      "HPBase": {
        "Value": 4600
      },
      "SpeedBase": {
        "Value": 115
      },
      "BaseAggro": {
        "Value": 100
      },
      "Exp": 10,
      "SpecialSkillList": [],
      "Slot": 2
    },
    "3": {
      "AvatarID": 6010,
      "Promotion": 3,
      "AttackBase": {
        "Value": 335
      },
      "HPBase": {
        "Value": 5040
      },
      "SpeedBase": {
        "Value": 115
      },
      "BaseAggro": {
        "Value": 100
      },
      "Exp": 20,
      "SpecialSkillList": []
    },
    "4": {
      "AvatarID": 6010,
      "Promotion": 4,
      "AttackBase": {
        "Value": 380
      },
      "HPBase": {
        "Value": 5760
      },
      "SpeedBase": {
        "Value": 115
      },
      "BaseAggro": {
        "Value": 100
      },
      "Exp": 40,
      "SpecialSkillList": [],
      "Slot": 3
    },
    "5": {
      "AvatarID": 6010,
      "Promotion": 5,
      "AttackBase": {
        "Value": 430
      },
      "HPBase": {
        "Value": 6480
      },
      "SpeedBase": {
        "Value": 115
      },
      "BaseAggro": {
        "Value": 100
      },
      "Exp": 80,
      "SpecialSkillList": [],
      "Slot": 4
    },
    "6": {
      "AvatarID": 6010,
      "Promotion": 6,
      "AttackBase": {
        "Value": 480
      },
      "HPBase": {
        "Value": 7200
      },
      "SpeedBase": {
        "Value": 115
      },
      "BaseAggro": {
        "Value": 100
      },
      "Exp": 80,
      "SpecialSkillList": []
    }
  },
  "6011": {
    "1": {
      "AvatarID": 6011,
      "Promotion": 1,
      "AttackBase": {
        "Value": 291.50000000046566
      },
      "HPBase": {
        "Value": 4560
      },
      "SpeedBase": {
        "Value": 90
      },
      "BaseAggro": {
        "Value": 100
      },
      "Exp": 1,
      "SpecialSkillList": [],
      "Slot": 1
    },
    "2": {
      "AvatarID": 6011,
      "Promotion": 2,
      "AttackBase": {
        "Value": 346.50000000046566
      },
      "HPBase": {
        "Value": 5520
      },
      "SpeedBase": {
        "Value": 90
      },
      "BaseAggro": {
        "Value": 100
      },
      "Exp": 20,
      "SpecialSkillList": []
    },
    "3": {
      "AvatarID": 6011,
      "Promotion": 3,
      "AttackBase": {
        "Value": 368.50000000046566
      },
      "HPBase": {
        "Value": 6048
      },
      "SpeedBase": {
        "Value": 90
      },
      "BaseAggro": {
        "Value": 100
      },
      "Exp": 40,
      "SpecialSkillList": [],
      "Slot": 2
    },
    "4": {
      "AvatarID": 6011,
      "Promotion": 4,
      "AttackBase": {
        "Value": 418
      },
      "HPBase": {
        "Value": 6912
      },
      "SpeedBase": {
        "Value": 90
      },
      "BaseAggro": {
        "Value": 100
      },
      "Exp": 80,
      "SpecialSkillList": []
    },
    "5": {
      "AvatarID": 6011,
      "Promotion": 5,
      "AttackBase": {
        "Value": 473
      },
      "HPBase": {
        "Value": 7776
      },
      "SpeedBase": {
        "Value": 90
      },
      "BaseAggro": {
        "Value": 100
      },
      "Exp": 160,
      "SpecialSkillList": [],
      "Slot": 3
    },
    "6": {
      "AvatarID": 6011,
      "Promotion": 6,
      "AttackBase": {
        "Value": 528
      },
      "HPBase": {
        "Value": 8640
      },
      "SpeedBase": {
        "Value": 90
      },
      "BaseAggro": {
        "Value": 100
      },
      "Exp": 160,
      "SpecialSkillList": []
    }
  },
  "6012": {
    "1": {
      "AvatarID": 6012,
      "Promotion": 1,
      "AttackBase": {
        "Value": 291.50000000046566
      },
      "HPBase": {
        "Value": 2660
      },
      "SpeedBase": {
        "Value": 133
      },
      "BaseAggro": {
        "Value": 100
      },
      "Exp": 1,
      "SpecialSkillList": []
    },
    "2": {
      "AvatarID": 6012,
      "Promotion": 2,
      "AttackBase": {
        "Value": 346.50000000046566
      },
      "HPBase": {
        "Value": 3220
      },
      "SpeedBase": {
        "Value": 133
      },
      "BaseAggro": {
        "Value": 100
      },
      "Exp": 10,
      "SpecialSkillList": [],
      "Slot": 1
    },
    "3": {
      "AvatarID": 6012,
      "Promotion": 3,
      "AttackBase": {
        "Value": 368.50000000046566
      },
      "HPBase": {
        "Value": 3528
      },
      "SpeedBase": {
        "Value": 133
      },
      "BaseAggro": {
        "Value": 100
      },
      "Exp": 20,
      "SpecialSkillList": []
    },
    "4": {
      "AvatarID": 6012,
      "Promotion": 4,
      "AttackBase": {
        "Value": 418
      },
      "HPBase": {
        "Value": 4032
      },
      "SpeedBase": {
        "Value": 133
      },
      "BaseAggro": {
        "Value": 100
      },
      "Exp": 40,
      "SpecialSkillList": [],
      "Slot": 2
    },
    "5": {
      "AvatarID": 6012,
      "Promotion": 5,
      "AttackBase": {
        "Value": 473
      },
      "HPBase": {
        "Value": 4536
      },
      "SpeedBase": {
        "Value": 133
      },
      "BaseAggro": {
        "Value": 100
      },
      "Exp": 80,
      "SpecialSkillList": []
    },
    "6": {
      "AvatarID": 6012,
      "Promotion": 6,
      "AttackBase": {
        "Value": 528
      },
      "HPBase": {
        "Value": 5040
      },
      "SpeedBase": {
        "Value": 133
      },
      "BaseAggro": {
        "Value": 100
      },
      "Exp": 80,
      "SpecialSkillList": []
    }
  },
  "6013": {
    "1": {
      "AvatarID": 6013,
      "Promotion": 1,
      "AttackBase": {
        "Value": 265
      },
      "HPBase": {
        "Value": 5130
      },
      "SpeedBase": {
        "Value": 83
      },
      "BaseAggro": {
        "Value": 100
      },
      "Exp": 1,
      "SpecialSkillList": []
    },
    "2": {
      "AvatarID": 6013,
      "Promotion": 2,
      "AttackBase": {
        "Value": 315
      },
      "HPBase": {
        "Value": 6210
      },
      "SpeedBase": {
        "Value": 83
      },
      "BaseAggro": {
        "Value": 100
      },
      "Exp": 10,
      "SpecialSkillList": [],
      "Slot": 1
    },
    "3": {
      "AvatarID": 6013,
      "Promotion": 3,
      "AttackBase": {
        "Value": 335
      },
      "HPBase": {
        "Value": 6804
      },
      "SpeedBase": {
        "Value": 83
      },
      "BaseAggro": {
        "Value": 100
      },
      "Exp": 20,
      "SpecialSkillList": []
    },
    "4": {
      "AvatarID": 6013,
      "Promotion": 4,
      "AttackBase": {
        "Value": 380
      },
      "HPBase": {
        "Value": 7776
      },
      "SpeedBase": {
        "Value": 83
      },
      "BaseAggro": {
        "Value": 100
      },
      "Exp": 40,
      "SpecialSkillList": [],
      "Slot": 2
    },
    "5": {
      "AvatarID": 6013,
      "Promotion": 5,
      "AttackBase": {
        "Value": 430
      },
      "HPBase": {
        "Value": 8748
      },
      "SpeedBase": {
        "Value": 83
      },
      "BaseAggro": {
        "Value": 100
      },
      "Exp": 80,
      "SpecialSkillList": []
    },
    "6": {
      "AvatarID": 6013,
      "Promotion": 6,
      "AttackBase": {
        "Value": 480
      },
      "HPBase": {
        "Value": 9720
      },
      "SpeedBase": {
        "Value": 83
      },
      "BaseAggro": {
        "Value": 100
      },
      "Exp": 80,
      "SpecialSkillList": []
    }
  },
  "6014": {
    "1": {
      "AvatarID": 6014,
      "Promotion": 1,
      "AttackBase": {
        "Value": 318
      },
      "HPBase": {
        "Value": 4180
      },
      "SpeedBase": {
        "Value": 105
      },
      "BaseAggro": {
        "Value": 100
      },
      "Exp": 1,
      "SpecialSkillList": [],
      "Slot": 1
    },
    "2": {
      "AvatarID": 6014,
      "Promotion": 2,
      "AttackBase": {
        "Value": 378
      },
      "HPBase": {
        "Value": 5060
      },
      "SpeedBase": {
        "Value": 105
      },
      "BaseAggro": {
        "Value": 100
      },
      "Exp": 20,
      "SpecialSkillList": []
    },
    "3": {
      "AvatarID": 6014,
      "Promotion": 3,
      "AttackBase": {
        "Value": 402
      },
      "HPBase": {
        "Value": 5544
      },
      "SpeedBase": {
        "Value": 105
      },
      "BaseAggro": {
        "Value": 100
      },
      "Exp": 40,
      "SpecialSkillList": [],
      "Slot": 2
    },
    "4": {
      "AvatarID": 6014,
      "Promotion": 4,
      "AttackBase": {
        "Value": 456
      },
      "HPBase": {
        "Value": 6336
      },
      "SpeedBase": {
        "Value": 105
      },
      "BaseAggro": {
        "Value": 100
      },
      "Exp": 80,
      "SpecialSkillList": []
    },
    "5": {
      "AvatarID": 6014,
      "Promotion": 5,
      "AttackBase": {
        "Value": 516
      },
      "HPBase": {
        "Value": 7128
      },
      "SpeedBase": {
        "Value": 105
      },
      "BaseAggro": {
        "Value": 100
      },
      "Exp": 160,
      "SpecialSkillList": [],
      "Slot": 3
    },
    "6": {
      "AvatarID": 6014,
      "Promotion": 6,
      "AttackBase": {
        "Value": 576
      },
      "HPBase": {
        "Value": 7920
      },
      "SpeedBase": {
        "Value": 105
      },
      "BaseAggro": {
        "Value": 100
      },
      "Exp": 160,
      "SpecialSkillList": []
    }
  },
  "6015": {
    "1": {
      "AvatarID": 6015,
      "Promotion": 1,
      "AttackBase": {
        "Value": 371
      },
      "HPBase": {
        "Value": 3800
      },
      "SpeedBase": {
        "Value": 110
      },
      "BaseAggro": {
        "Value": 100
      },
      "Exp": 1,
      "SpecialSkillList": [],
      "Slot": 1
    },
    "2": {
      "AvatarID": 6015,
      "Promotion": 2,
      "AttackBase": {
        "Value": 441
      },
      "HPBase": {
        "Value": 4600
      },
      "SpeedBase": {
        "Value": 110
      },
      "BaseAggro": {
        "Value": 100
      },
      "Exp": 20,
      "SpecialSkillList": []
    },
    "3": {
      "AvatarID": 6015,
      "Promotion": 3,
      "AttackBase": {
        "Value": 469
      },
      "HPBase": {
        "Value": 5040
      },
      "SpeedBase": {
        "Value": 110
      },
      "BaseAggro": {
        "Value": 100
      },
      "Exp": 40,
      "SpecialSkillList": [],
      "Slot": 2
    },
    "4": {
      "AvatarID": 6015,
      "Promotion": 4,
      "AttackBase": {
        "Value": 532
      },
      "HPBase": {
        "Value": 5760
      },
      "SpeedBase": {
        "Value": 110
      },
      "BaseAggro": {
        "Value": 100
      },
      "Exp": 80,
      "SpecialSkillList": []
    },
    "5": {
      "AvatarID": 6015,
      "Promotion": 5,
      "AttackBase": {
        "Value": 602
      },
      "HPBase": {
        "Value": 6480
      },
      "SpeedBase": {
        "Value": 110
      },
      "BaseAggro": {
        "Value": 100
      },
      "Exp": 160,
      "SpecialSkillList": [],
      "Slot": 3
    },
    "6": {
      "AvatarID": 6015,
      "Promotion": 6,
      "AttackBase": {
        "Value": 672
      },
      "HPBase": {
        "Value": 7200
      },
      "SpeedBase": {
        "Value": 110
      },
      "BaseAggro": {
        "Value": 100
      },
      "Exp": 160,
      "SpecialSkillList": []
    }
  },
  "6016": {
    "1": {
      "AvatarID": 6016,
      "Promotion": 1,
      "AttackBase": {
        "Value": 265
      },
      "HPBase": {
        "Value": 2280
      },
      "SpeedBase": {
        "Value": 100
      },
      "BaseAggro": {
        "Value": 100
      },
      "Exp": 1,
      "SpecialSkillList": []
    },
    "2": {
      "AvatarID": 6016,
      "Promotion": 2,
      "AttackBase": {
        "Value": 315
      },
      "HPBase": {
        "Value": 2760
      },
      "SpeedBase": {
        "Value": 100
      },
      "BaseAggro": {
        "Value": 100
      },
      "Exp": 10,
      "SpecialSkillList": [],
      "Slot": 1
    },
    "3": {
      "AvatarID": 6016,
      "Promotion": 3,
      "AttackBase": {
        "Value": 335
      },
      "HPBase": {
        "Value": 3024
      },
      "SpeedBase": {
        "Value": 100
      },
      "BaseAggro": {
        "Value": 100
      },
      "Exp": 20,
      "SpecialSkillList": []
    },
    "4": {
      "AvatarID": 6016,
      "Promotion": 4,
      "AttackBase": {
        "Value": 380
      },
      "HPBase": {
        "Value": 3456
      },
      "SpeedBase": {
        "Value": 100
      },
      "BaseAggro": {
        "Value": 100
      },
      "Exp": 40,
      "SpecialSkillList": [],
      "Slot": 2
    },
    "5": {
      "AvatarID": 6016,
      "Promotion": 5,
      "AttackBase": {
        "Value": 430
      },
      "HPBase": {
        "Value": 3888
      },
      "SpeedBase": {
        "Value": 100
      },
      "BaseAggro": {
        "Value": 100
      },
      "Exp": 80,
      "SpecialSkillList": []
    },
    "6": {
      "AvatarID": 6016,
      "Promotion": 6,
      "AttackBase": {
        "Value": 480
      },
      "HPBase": {
        "Value": 4320
      },
      "SpeedBase": {
        "Value": 100
      },
      "BaseAggro": {
        "Value": 100
      },
      "Exp": 80,
      "SpecialSkillList": []
    }
  },
  "6017": {
    "1": {
      "AvatarID": 6017,
      "Promotion": 1,
      "AttackBase": {
        "Value": 318
      },
      "HPBase": {
        "Value": 3800
      },
      "SpeedBase": {
        "Value": 120
      },
      "BaseAggro": {
        "Value": 100
      },
      "Exp": 1,
      "SpecialSkillList": []
    },
    "2": {
      "AvatarID": 6017,
      "Promotion": 2,
      "AttackBase": {
        "Value": 378
      },
      "HPBase": {
        "Value": 4600
      },
      "SpeedBase": {
        "Value": 120
      },
      "BaseAggro": {
        "Value": 100
      },
      "Exp": 10,
      "SpecialSkillList": [],
      "Slot": 1
    },
    "3": {
      "AvatarID": 6017,
      "Promotion": 3,
      "AttackBase": {
        "Value": 402
      },
      "HPBase": {
        "Value": 5040
      },
      "SpeedBase": {
        "Value": 120
      },
      "BaseAggro": {
        "Value": 100
      },
      "Exp": 20,
      "SpecialSkillList": []
    },
    "4": {
      "AvatarID": 6017,
      "Promotion": 4,
      "AttackBase": {
        "Value": 456
      },
      "HPBase": {
        "Value": 5760
      },
      "SpeedBase": {
        "Value": 120
      },
      "BaseAggro": {
        "Value": 100
      },
      "Exp": 40,
      "SpecialSkillList": [],
      "Slot": 2
    },
    "5": {
      "AvatarID": 6017,
      "Promotion": 5,
      "AttackBase": {
        "Value": 516
      },
      "HPBase": {
        "Value": 6480
      },
      "SpeedBase": {
        "Value": 120
      },
      "BaseAggro": {
        "Value": 100
      },
      "Exp": 80,
      "SpecialSkillList": []
    },
    "6": {
      "AvatarID": 6017,
      "Promotion": 6,
      "AttackBase": {
        "Value": 576
      },
      "HPBase": {
        "Value": 7200
      },
      "SpeedBase": {
        "Value": 120
      },
      "BaseAggro": {
        "Value": 100
      },
      "Exp": 80,
      "SpecialSkillList": []
    }
  },
  "6018": {
    "1": {
      "AvatarID": 6018,
      "Promotion": 1,
      "AttackBase": {
        "Value": 318
      },
      "HPBase": {
        "Value": 3420
      },
      "SpeedBase": {
        "Value": 130
      },
      "BaseAggro": {
        "Value": 100
      },
      "Exp": 1,
      "SpecialSkillList": []
    },
    "2": {
      "AvatarID": 6018,
      "Promotion": 2,
      "AttackBase": {
        "Value": 378
      },
      "HPBase": {
        "Value": 4140
      },
      "SpeedBase": {
        "Value": 130
      },
      "BaseAggro": {
        "Value": 100
      },
      "Exp": 10,
      "SpecialSkillList": [],
      "Slot": 1
    },
    "3": {
      "AvatarID": 6018,
      "Promotion": 3,
      "AttackBase": {
        "Value": 402
      },
      "HPBase": {
        "Value": 4536
      },
      "SpeedBase": {
        "Value": 130
      },
      "BaseAggro": {
        "Value": 100
      },
      "Exp": 20,
      "SpecialSkillList": []
    },
    "4": {
      "AvatarID": 6018,
      "Promotion": 4,
      "AttackBase": {
        "Value": 456
      },
      "HPBase": {
        "Value": 5184
      },
      "SpeedBase": {
        "Value": 130
      },
      "BaseAggro": {
        "Value": 100
      },
      "Exp": 40,
      "SpecialSkillList": [],
      "Slot": 2
    },
    "5": {
      "AvatarID": 6018,
      "Promotion": 5,
      "AttackBase": {
        "Value": 516
      },
      "HPBase": {
        "Value": 5832
      },
      "SpeedBase": {
        "Value": 130
      },
      "BaseAggro": {
        "Value": 100
      },
      "Exp": 80,
      "SpecialSkillList": []
    },
    "6": {
      "AvatarID": 6018,
      "Promotion": 6,
      "AttackBase": {
        "Value": 576
      },
      "HPBase": {
        "Value": 6480
      },
      "SpeedBase": {
        "Value": 130
      },
      "BaseAggro": {
        "Value": 100
      },
      "Exp": 80,
      "SpecialSkillList": []
    }
  },
  "6019": {
    "1": {
      "AvatarID": 6019,
      "Promotion": 1,
      "AttackBase": {
        "Value": 278.25000000023283
      },
      "HPBase": {
        "Value": 3610
      },
      "SpeedBase": {
        "Value": 90
      },
      "BaseAggro": {
        "Value": 100
      },
      "Exp": 1,
      "SpecialSkillList": []
    },
    "2": {
      "AvatarID": 6019,
      "Promotion": 2,
      "AttackBase": {
        "Value": 330.7500000006985
      },
      "HPBase": {
        "Value": 4370
      },
      "SpeedBase": {
        "Value": 90
      },
      "BaseAggro": {
        "Value": 100
      },
      "Exp": 10,
      "SpecialSkillList": [],
      "Slot": 1
    },
    "3": {
      "AvatarID": 6019,
      "Promotion": 3,
      "AttackBase": {
        "Value": 351.7500000006985
      },
      "HPBase": {
        "Value": 4788
      },
      "SpeedBase": {
        "Value": 90
      },
      "BaseAggro": {
        "Value": 100
      },
      "Exp": 20,
      "SpecialSkillList": []
    },
    "4": {
      "AvatarID": 6019,
      "Promotion": 4,
      "AttackBase": {
        "Value": 399
      },
      "HPBase": {
        "Value": 5472
      },
      "SpeedBase": {
        "Value": 90
      },
      "BaseAggro": {
        "Value": 100
      },
      "Exp": 40,
      "SpecialSkillList": [],
      "Slot": 2
    },
    "5": {
      "AvatarID": 6019,
      "Promotion": 5,
      "AttackBase": {
        "Value": 451.50000000046566
      },
      "HPBase": {
        "Value": 6156
      },
      "SpeedBase": {
        "Value": 90
      },
      "BaseAggro": {
        "Value": 100
      },
      "Exp": 80,
      "SpecialSkillList": []
    },
    "6": {
      "AvatarID": 6019,
      "Promotion": 6,
      "AttackBase": {
        "Value": 504
      },
      "HPBase": {
        "Value": 6840
      },
      "SpeedBase": {
        "Value": 90
      },
      "BaseAggro": {
        "Value": 100
      },
      "Exp": 80,
      "SpecialSkillList": []
    }
  },
  "6020": {
    "1": {
      "AvatarID": 6020,
      "Promotion": 1,
      "AttackBase": {
        "Value": 318
      },
      "HPBase": {
        "Value": 3040
      },
      "SpeedBase": {
        "Value": 100
      },
      "BaseAggro": {
        "Value": 100
      },
      "Exp": 1,
      "SpecialSkillList": []
    },
    "2": {
      "AvatarID": 6020,
      "Promotion": 2,
      "AttackBase": {
        "Value": 378
      },
      "HPBase": {
        "Value": 3680
      },
      "SpeedBase": {
        "Value": 100
      },
      "BaseAggro": {
        "Value": 100
      },
      "Exp": 10,
      "SpecialSkillList": [],
      "Slot": 1
    },
    "3": {
      "AvatarID": 6020,
      "Promotion": 3,
      "AttackBase": {
        "Value": 402
      },
      "HPBase": {
        "Value": 4032
      },
      "SpeedBase": {
        "Value": 100
      },
      "BaseAggro": {
        "Value": 100
      },
      "Exp": 20,
      "SpecialSkillList": []
    },
    "4": {
      "AvatarID": 6020,
      "Promotion": 4,
      "AttackBase": {
        "Value": 456
      },
      "HPBase": {
        "Value": 4608
      },
      "SpeedBase": {
        "Value": 100
      },
      "BaseAggro": {
        "Value": 100
      },
      "Exp": 40,
      "SpecialSkillList": [],
      "Slot": 2
    },
    "5": {
      "AvatarID": 6020,
      "Promotion": 5,
      "AttackBase": {
        "Value": 516
      },
      "HPBase": {
        "Value": 5184
      },
      "SpeedBase": {
        "Value": 100
      },
      "BaseAggro": {
        "Value": 100
      },
      "Exp": 80,
      "SpecialSkillList": []
    },
    "6": {
      "AvatarID": 6020,
      "Promotion": 6,
      "AttackBase": {
        "Value": 576
      },
      "HPBase": {
        "Value": 5760
      },
      "SpeedBase": {
        "Value": 100
      },
      "BaseAggro": {
        "Value": 100
      },
      "Exp": 80,
      "SpecialSkillList": []
    }
  },
  "6021": {
    "1": {
      "AvatarID": 6021,
      "Promotion": 1,
      "AttackBase": {
        "Value": 185.50000000046566
      },
      "HPBase": {
        "Value": 5320
      },
      "SpeedBase": {
        "Value": 100
      },
      "BaseAggro": {
        "Value": 100
      },
      "Exp": 1,
      "SpecialSkillList": []
    },
    "2": {
      "AvatarID": 6021,
      "Promotion": 2,
      "AttackBase": {
        "Value": 220.50000000046566
      },
      "HPBase": {
        "Value": 6440
      },
      "SpeedBase": {
        "Value": 100
      },
      "BaseAggro": {
        "Value": 100
      },
      "Exp": 10,
      "SpecialSkillList": [],
      "Slot": 1
    },
    "3": {
      "AvatarID": 6021,
      "Promotion": 3,
      "AttackBase": {
        "Value": 234.50000000046566
      },
      "HPBase": {
        "Value": 7056
      },
      "SpeedBase": {
        "Value": 100
      },
      "BaseAggro": {
        "Value": 100
      },
      "Exp": 20,
      "SpecialSkillList": []
    },
    "4": {
      "AvatarID": 6021,
      "Promotion": 4,
      "AttackBase": {
        "Value": 266
      },
      "HPBase": {
        "Value": 8064
      },
      "SpeedBase": {
        "Value": 100
      },
      "BaseAggro": {
        "Value": 100
      },
      "Exp": 40,
      "SpecialSkillList": [],
      "Slot": 2
    },
    "5": {
      "AvatarID": 6021,
      "Promotion": 5,
      "AttackBase": {
        "Value": 301
      },
      "HPBase": {
        "Value": 9072
      },
      "SpeedBase": {
        "Value": 100
      },
      "BaseAggro": {
        "Value": 100
      },
      "Exp": 80,
      "SpecialSkillList": []
    },
    "6": {
      "AvatarID": 6021,
      "Promotion": 6,
      "AttackBase": {
        "Value": 336
      },
      "HPBase": {
        "Value": 10080
      },
      "SpeedBase": {
        "Value": 100
      },
      "BaseAggro": {
        "Value": 100
      },
      "Exp": 80,
      "SpecialSkillList": []
    }
  }
}