{
  "250200": {
    "ItemID": 250200,
    "PassiveSkillName": "AetherDividePassiveSkill_PassiveSkillName_250200",
    "ItemDescription": "AetherDividePassiveSkill_ItemDescription_250200",
    "PassiveSkillDescription": "AetherDividePassiveSkill_PassiveSkillDescription_250200",
    "SimpleExtraEffectIDList": [],
    "ExtraEffectIDList": [],
    "AbilityName": "Avatar_AetherDivide_Add_Perk_0000",
    "PassiveSkillType": "Trick",
    "Rarity": 1,
    "SimpleParamList": [
      {
        "Value": 0.40000000037252903
      }
    ],
    "ParamList": [
      {
        "Value": 0.40000000037252903
      }
    ]
  },
  "250201": {
    "ItemID": 250201,
    "PassiveSkillName": "AetherDividePassiveSkill_PassiveSkillName_250201",
    "ItemDescription": "AetherDividePassiveSkill_ItemDescription_250201",
    "PassiveSkillDescription": "AetherDividePassiveSkill_PassiveSkillDescription_250201",
    "SimpleExtraEffectIDList": [],
    "ExtraEffectIDList": [],
    "AbilityName": "Avatar_AetherDivide_Add_Perk_0001",
    "PassiveSkillType": "Storm",
    "Rarity": 1,
    "SimpleParamList": [
      {
        "Value": 0.5000000004656613
      }
    ],
    "ParamList": [
      {
        "Value": 0.5000000004656613
      }
    ]
  },
  "250202": {
    "ItemID": 250202,
    "PassiveSkillName": "AetherDividePassiveSkill_PassiveSkillName_250202",
    "ItemDescription": "AetherDividePassiveSkill_ItemDescription_250202",
    "PassiveSkillDescription": "AetherDividePassiveSkill_PassiveSkillDescription_250202",
    "SimpleExtraEffectIDList": [],
    "ExtraEffectIDList": [],
    "AbilityName": "Avatar_AetherDivide_Add_Perk_0002",
    "PassiveSkillType": "Trick",
    "Rarity": 2,
    "SimpleParamList": [
      {
        "Value": 0.40000000037252903
      }
    ],
    "ParamList": [
      {
        "Value": 0.40000000037252903
      }
    ]
  },
  "250203": {
    "ItemID": 250203,
    "PassiveSkillName": "AetherDividePassiveSkill_PassiveSkillName_250203",
    "ItemDescription": "AetherDividePassiveSkill_ItemDescription_250203",
    "PassiveSkillDescription": "AetherDividePassiveSkill_PassiveSkillDescription_250203",
    "SimpleExtraEffectIDList": [],
    "ExtraEffectIDList": [],
    "AbilityName": "Avatar_AetherDivide_Add_Perk_0003",
    "Rarity": 2,
    "SimpleParamList": [
      {
        "Value": 0.3000000002793968
      }
    ],
    "ParamList": [
      {
        "Value": 0.3000000002793968
      }
    ]
  },
  "250204": {
    "ItemID": 250204,
    "PassiveSkillName": "AetherDividePassiveSkill_PassiveSkillName_250204",
    "ItemDescription": "AetherDividePassiveSkill_ItemDescription_250204",
    "PassiveSkillDescription": "AetherDividePassiveSkill_PassiveSkillDescription_250204",
    "SimpleExtraEffectIDList": [],
    "ExtraEffectIDList": [],
    "AbilityName": "Avatar_AetherDivide_Add_Perk_0004",
    "PassiveSkillType": "Trick",
    "Rarity": 2,
    "SimpleParamList": [
      {
        "Value": 0.3500000003259629
      },
      {
        "Value": 0.3500000003259629
      }
    ],
    "ParamList": [
      {
        "Value": 0.3500000003259629
      },
      {
        "Value": 0.3500000003259629
      }
    ]
  },
  "250205": {
    "ItemID": 250205,
    "PassiveSkillName": "AetherDividePassiveSkill_PassiveSkillName_250205",
    "ItemDescription": "AetherDividePassiveSkill_ItemDescription_250205",
    "PassiveSkillDescription": "AetherDividePassiveSkill_PassiveSkillDescription_250205",
    "SimpleExtraEffectIDList": [],
    "ExtraEffectIDList": [],
    "AbilityName": "Avatar_AetherDivide_Add_Perk_0005",
    "PassiveSkillType": "Assist",
    "Rarity": 2,
    "SimpleParamList": [
      {
        "Value": 0.003999999724328518
      },
      {
        "Value": 0.003999999724328518
      },
      {
        "Value": 0.003999999724328518
      },
      {
        "Value": 60
      }
    ],
    "ParamList": [
      {
        "Value": 0.003999999724328518
      },
      {
        "Value": 0.003999999724328518
      },
      {
        "Value": 0.003999999724328518
      },
      {
        "Value": 60
      }
    ]
  },
  "250206": {
    "ItemID": 250206,
    "PassiveSkillName": "AetherDividePassiveSkill_PassiveSkillName_250206",
    "ItemDescription": "AetherDividePassiveSkill_ItemDescription_250206",
    "PassiveSkillDescription": "AetherDividePassiveSkill_PassiveSkillDescription_250206",
    "SimpleExtraEffectIDList": [],
    "ExtraEffectIDList": [],
    "AbilityName": "Avatar_AetherDivide_Add_Perk_0006",
    "Rarity": 2,
    "SimpleParamList": [
      {
        "Value": 0.1500000001396984
      },
      {
        "Value": 0.1500000001396984
      }
    ],
    "ParamList": [
      {
        "Value": 0.1500000001396984
      },
      {
        "Value": 0.1500000001396984
      }
    ]
  },
  "250207": {
    "ItemID": 250207,
    "PassiveSkillName": "AetherDividePassiveSkill_PassiveSkillName_250207",
    "ItemDescription": "AetherDividePassiveSkill_ItemDescription_250207",
    "PassiveSkillDescription": "AetherDividePassiveSkill_PassiveSkillDescription_250207",
    "SimpleExtraEffectIDList": [],
    "ExtraEffectIDList": [],
    "AbilityName": "Avatar_AetherDivide_Add_Perk_0007",
    "PassiveSkillType": "Assist",
    "Rarity": 1,
    "SimpleParamList": [
      {
        "Value": 1
      },
      {
        "Value": 1
      }
    ],
    "ParamList": [
      {
        "Value": 1
      },
      {
        "Value": 1
      }
    ]
  },
  "250208": {
    "ItemID": 250208,
    "PassiveSkillName": "AetherDividePassiveSkill_PassiveSkillName_250208",
    "ItemDescription": "AetherDividePassiveSkill_ItemDescription_250208",
    "PassiveSkillDescription": "AetherDividePassiveSkill_PassiveSkillDescription_250208",
    "SimpleExtraEffectIDList": [],
    "ExtraEffectIDList": [],
    "AbilityName": "Avatar_AetherDivide_Add_Perk_0008",
    "PassiveSkillType": "Trick",
    "Rarity": 2,
    "SimpleParamList": [
      {
        "Value": 1
      },
      {
        "Value": 2
      }
    ],
    "ParamList": [
      {
        "Value": 1
      },
      {
        "Value": 2
      }
    ]
  },
  "250209": {
    "ItemID": 250209,
    "PassiveSkillName": "AetherDividePassiveSkill_PassiveSkillName_250209",
    "ItemDescription": "AetherDividePassiveSkill_ItemDescription_250209",
    "PassiveSkillDescription": "AetherDividePassiveSkill_PassiveSkillDescription_250209",
    "SimpleExtraEffectIDList": [],
    "ExtraEffectIDList": [],
    "AbilityName": "Avatar_AetherDivide_Add_Perk_0009",
    "PassiveSkillType": "Storm",
    "Rarity": 1,
    "SimpleParamList": [
      {
        "Value": 0.9000000008381903
      },
      {
        "Value": 0.3000000002793968
      }
    ],
    "ParamList": [
      {
        "Value": 0.9000000008381903
      },
      {
        "Value": 0.3000000002793968
      }
    ]
  },
  "250210": {
    "ItemID": 250210,
    "PassiveSkillName": "AetherDividePassiveSkill_PassiveSkillName_250210",
    "ItemDescription": "AetherDividePassiveSkill_ItemDescription_250210",
    "PassiveSkillDescription": "AetherDividePassiveSkill_PassiveSkillDescription_250210",
    "SimpleExtraEffectIDList": [],
    "ExtraEffectIDList": [],
    "AbilityName": "Avatar_AetherDivide_Add_Perk_0010",
    "Rarity": 1,
    "SimpleParamList": [
      {
        "Value": 0.9000000008381903
      },
      {
        "Value": 2
      }
    ],
    "ParamList": [
      {
        "Value": 0.9000000008381903
      },
      {
        "Value": 2
      }
    ]
  },
  "250211": {
    "ItemID": 250211,
    "PassiveSkillName": "AetherDividePassiveSkill_PassiveSkillName_250211",
    "ItemDescription": "AetherDividePassiveSkill_ItemDescription_250211",
    "PassiveSkillDescription": "AetherDividePassiveSkill_PassiveSkillDescription_250211",
    "SimpleExtraEffectIDList": [],
    "ExtraEffectIDList": [],
    "AbilityName": "Avatar_AetherDivide_Add_Perk_0011",
    "Rarity": 1,
    "SimpleParamList": [
      {
        "Value": 0.6000000005587935
      },
      {
        "Value": 0.7500000006984919
      }
    ],
    "ParamList": [
      {
        "Value": 0.6000000005587935
      },
      {
        "Value": 0.7500000006984919
      }
    ]
  },
  "250212": {
    "ItemID": 250212,
    "PassiveSkillName": "AetherDividePassiveSkill_PassiveSkillName_250212",
    "ItemDescription": "AetherDividePassiveSkill_ItemDescription_250212",
    "PassiveSkillDescription": "AetherDividePassiveSkill_PassiveSkillDescription_250212",
    "SimpleExtraEffectIDList": [],
    "ExtraEffectIDList": [],
    "AbilityName": "Avatar_AetherDivide_Add_Perk_0012",
    "PassiveSkillType": "Storm",
    "Rarity": 1,
    "SimpleParamList": [
      {
        "Value": 0.7000000006519258
      },
      {
        "Value": 0.8000000007450581
      }
    ],
    "ParamList": [
      {
        "Value": 0.7000000006519258
      },
      {
        "Value": 0.8000000007450581
      }
    ]
  },
  "250213": {
    "ItemID": 250213,
    "PassiveSkillName": "AetherDividePassiveSkill_PassiveSkillName_250213",
    "ItemDescription": "AetherDividePassiveSkill_ItemDescription_250213",
    "PassiveSkillDescription": "AetherDividePassiveSkill_PassiveSkillDescription_250213",
    "SimpleExtraEffectIDList": [],
    "ExtraEffectIDList": [],
    "AbilityName": "Avatar_AetherDivide_Add_Perk_0013",
    "PassiveSkillType": "Assist",
    "Rarity": 2,
    "SimpleParamList": [
      {
        "Value": 1
      },
      {
        "Value": 1
      },
      {
        "Value": 1
      }
    ],
    "ParamList": [
      {
        "Value": 1
      },
      {
        "Value": 1
      },
      {
        "Value": 1
      }
    ]
  },
  "250214": {
    "ItemID": 250214,
    "PassiveSkillName": "AetherDividePassiveSkill_PassiveSkillName_250214",
    "ItemDescription": "AetherDividePassiveSkill_ItemDescription_250214",
    "PassiveSkillDescription": "AetherDividePassiveSkill_PassiveSkillDescription_250214",
    "SimpleExtraEffectIDList": [],
    "ExtraEffectIDList": [],
    "AbilityName": "Avatar_AetherDivide_Add_Perk_0014",
    "Rarity": 2,
    "SimpleParamList": [
      {
        "Value": 0.25000000023283064
      },
      {
        "Value": 500
      },
      {
        "Value": 6
      }
    ],
    "ParamList": [
      {
        "Value": 0.25000000023283064
      },
      {
        "Value": 500
      },
      {
        "Value": 6
      }
    ]
  },
  "250215": {
    "ItemID": 250215,
    "PassiveSkillName": "AetherDividePassiveSkill_PassiveSkillName_250215",
    "ItemDescription": "AetherDividePassiveSkill_ItemDescription_250215",
    "PassiveSkillDescription": "AetherDividePassiveSkill_PassiveSkillDescription_250215",
    "SimpleExtraEffectIDList": [],
    "ExtraEffectIDList": [],
    "AbilityName": "Avatar_AetherDivide_Add_Perk_0015",
    "PassiveSkillType": "Assist",
    "Rarity": 1,
    "SimpleParamList": [
      {
        "Value": 0.5000000004656613
      }
    ],
    "ParamList": [
      {
        "Value": 0.5000000004656613
      }
    ]
  },
  "250216": {
    "ItemID": 250216,
    "PassiveSkillName": "AetherDividePassiveSkill_PassiveSkillName_250216",
    "ItemDescription": "AetherDividePassiveSkill_ItemDescription_250216",
    "PassiveSkillDescription": "AetherDividePassiveSkill_PassiveSkillDescription_250216",
    "SimpleExtraEffectIDList": [],
    "ExtraEffectIDList": [],
    "AbilityName": "Avatar_AetherDivide_Add_Perk_0016",
    "PassiveSkillType": "Storm",
    "Rarity": 2,
    "SimpleParamList": [],
    "ParamList": []
  },
  "250217": {
    "ItemID": 250217,
    "PassiveSkillName": "AetherDividePassiveSkill_PassiveSkillName_250217",
    "ItemDescription": "AetherDividePassiveSkill_ItemDescription_250217",
    "PassiveSkillDescription": "AetherDividePassiveSkill_PassiveSkillDescription_250217",
    "SimpleExtraEffectIDList": [],
    "ExtraEffectIDList": [],
    "AbilityName": "Avatar_AetherDivide_Add_Perk_0017",
    "PassiveSkillType": "Trick",
    "Rarity": 1,
    "SimpleParamList": [
      {
        "Value": 0.6000000005587935
      },
      {
        "Value": 2
      },
      {
        "Value": 0.20000000018626451
      },
      {
        "Value": 5
      }
    ],
    "ParamList": [
      {
        "Value": 0.6000000005587935
      },
      {
        "Value": 2
      },
      {
        "Value": 0.20000000018626451
      },
      {
        "Value": 5
      }
    ]
  },
  "250218": {
    "ItemID": 250218,
    "PassiveSkillName": "AetherDividePassiveSkill_PassiveSkillName_250218",
    "ItemDescription": "AetherDividePassiveSkill_ItemDescription_250218",
    "PassiveSkillDescription": "AetherDividePassiveSkill_PassiveSkillDescription_250218",
    "SimpleExtraEffectIDList": [],
    "ExtraEffectIDList": [],
    "AbilityName": "Avatar_AetherDivide_Add_Perk_0018",
    "PassiveSkillType": "Trick",
    "Rarity": 1,
    "SimpleParamList": [
      {
        "Value": 0.3500000003259629
      }
    ],
    "ParamList": [
      {
        "Value": 0.3500000003259629
      }
    ]
  },
  "250219": {
    "ItemID": 250219,
    "PassiveSkillName": "AetherDividePassiveSkill_PassiveSkillName_250219",
    "ItemDescription": "AetherDividePassiveSkill_ItemDescription_250219",
    "PassiveSkillDescription": "AetherDividePassiveSkill_PassiveSkillDescription_250219",
    "SimpleExtraEffectIDList": [],
    "ExtraEffectIDList": [],
    "AbilityName": "Avatar_AetherDivide_Add_Perk_0019",
    "Rarity": 2,
    "SimpleParamList": [],
    "ParamList": []
  },
  "250220": {
    "ItemID": 250220,
    "PassiveSkillName": "AetherDividePassiveSkill_PassiveSkillName_250220",
    "ItemDescription": "AetherDividePassiveSkill_ItemDescription_250220",
    "PassiveSkillDescription": "AetherDividePassiveSkill_PassiveSkillDescription_250220",
    "SimpleExtraEffectIDList": [],
    "ExtraEffectIDList": [],
    "AbilityName": "Avatar_AetherDivide_Add_Perk_0020",
    "Rarity": 1,
    "SimpleParamList": [
      {
        "Value": 0.20000000018626451
      },
      {
        "Value": 8
      },
      {
        "Value": 8
      }
    ],
    "ParamList": [
      {
        "Value": 0.02000000001862645
      },
      {
        "Value": 8
      },
      {
        "Value": 8
      }
    ]
  },
  "250221": {
    "ItemID": 250221,
    "PassiveSkillName": "AetherDividePassiveSkill_PassiveSkillName_250221",
    "ItemDescription": "AetherDividePassiveSkill_ItemDescription_250221",
    "PassiveSkillDescription": "AetherDividePassiveSkill_PassiveSkillDescription_250221",
    "SimpleExtraEffectIDList": [],
    "ExtraEffectIDList": [],
    "AbilityName": "Avatar_AetherDivide_Add_Perk_0021",
    "Rarity": 2,
    "SimpleParamList": [
      {
        "Value": 0.8000000007450581
      }
    ],
    "ParamList": [
      {
        "Value": 0.8000000007450581
      }
    ]
  },
  "250222": {
    "ItemID": 250222,
    "PassiveSkillName": "AetherDividePassiveSkill_PassiveSkillName_250222",
    "ItemDescription": "AetherDividePassiveSkill_ItemDescription_250222",
    "PassiveSkillDescription": "AetherDividePassiveSkill_PassiveSkillDescription_250222",
    "SimpleExtraEffectIDList": [],
    "ExtraEffectIDList": [],
    "AbilityName": "Avatar_AetherDivide_Add_Perk_0022",
    "PassiveSkillType": "Storm",
    "Rarity": 2,
    "SimpleParamList": [
      {
        "Value": 0.25000000023283064
      },
      {
        "Value": 1
      }
    ],
    "ParamList": [
      {
        "Value": 0.25000000023283064
      },
      {
        "Value": 1
      }
    ]
  },
  "250223": {
    "ItemID": 250223,
    "PassiveSkillName": "AetherDividePassiveSkill_PassiveSkillName_250223",
    "ItemDescription": "AetherDividePassiveSkill_ItemDescription_250223",
    "PassiveSkillDescription": "AetherDividePassiveSkill_PassiveSkillDescription_250223",
    "SimpleExtraEffectIDList": [],
    "ExtraEffectIDList": [],
    "AbilityName": "Avatar_AetherDivide_Add_Perk_0023",
    "PassiveSkillType": "Trick",
    "Rarity": 1,
    "SimpleParamList": [
      {
        "Value": 3
      }
    ],
    "ParamList": [
      {
        "Value": 3
      }
    ]
  },
  "250224": {
    "ItemID": 250224,
    "PassiveSkillName": "AetherDividePassiveSkill_PassiveSkillName_250224",
    "ItemDescription": "AetherDividePassiveSkill_ItemDescription_250224",
    "PassiveSkillDescription": "AetherDividePassiveSkill_PassiveSkillDescription_250224",
    "SimpleExtraEffectIDList": [],
    "ExtraEffectIDList": [],
    "AbilityName": "Avatar_AetherDivide_Add_Perk_0024",
    "PassiveSkillType": "Storm",
    "Rarity": 2,
    "SimpleParamList": [],
    "ParamList": []
  },
  "250225": {
    "ItemID": 250225,
    "PassiveSkillName": "AetherDividePassiveSkill_PassiveSkillName_250225",
    "ItemDescription": "AetherDividePassiveSkill_ItemDescription_250225",
    "PassiveSkillDescription": "AetherDividePassiveSkill_PassiveSkillDescription_250225",
    "SimpleExtraEffectIDList": [],
    "ExtraEffectIDList": [],
    "AbilityName": "Avatar_AetherDivide_Add_Perk_0025",
    "PassiveSkillType": "Storm",
    "Rarity": 1,
    "SimpleParamList": [
      {
        "Value": 0.7500000006984919
      }
    ],
    "ParamList": [
      {
        "Value": 0.7500000006984919
      }
    ]
  },
  "250226": {
    "ItemID": 250226,
    "PassiveSkillName": "AetherDividePassiveSkill_PassiveSkillName_250226",
    "ItemDescription": "AetherDividePassiveSkill_ItemDescription_250226",
    "PassiveSkillDescription": "AetherDividePassiveSkill_PassiveSkillDescription_250226",
    "SimpleExtraEffectIDList": [],
    "ExtraEffectIDList": [],
    "AbilityName": "Avatar_AetherDivide_Add_Perk_0026",
    "PassiveSkillType": "Storm",
    "Rarity": 1,
    "SimpleParamList": [
      {
        "Value": 0.25000000023283064
      },
      {
        "Value": 0.40000000037252903
      }
    ],
    "ParamList": [
      {
        "Value": 0.25000000023283064
      },
      {
        "Value": 0.40000000037252903
      }
    ]
  },
  "250227": {
    "ItemID": 250227,
    "PassiveSkillName": "AetherDividePassiveSkill_PassiveSkillName_250227",
    "ItemDescription": "AetherDividePassiveSkill_ItemDescription_250227",
    "PassiveSkillDescription": "AetherDividePassiveSkill_PassiveSkillDescription_250227",
    "SimpleExtraEffectIDList": [],
    "ExtraEffectIDList": [],
    "AbilityName": "Avatar_AetherDivide_Add_Perk_0027",
    "PassiveSkillType": "Trick",
    "Rarity": 2,
    "SimpleParamList": [
      {
        "Value": 5
      }
    ],
    "ParamList": [
      {
        "Value": 5
      }
    ]
  },
  "250228": {
    "ItemID": 250228,
    "PassiveSkillName": "AetherDividePassiveSkill_PassiveSkillName_250228",
    "ItemDescription": "AetherDividePassiveSkill_ItemDescription_250228",
    "PassiveSkillDescription": "AetherDividePassiveSkill_PassiveSkillDescription_250228",
    "SimpleExtraEffectIDList": [],
    "ExtraEffectIDList": [],
    "AbilityName": "Avatar_AetherDivide_Add_Perk_0028",
    "PassiveSkillType": "Storm",
    "Rarity": 2,
    "SimpleParamList": [
      {
        "Value": 0.7500000006984919
      }
    ],
    "ParamList": [
      {
        "Value": 0.7500000006984919
      }
    ]
  },
  "250229": {
    "ItemID": 250229,
    "PassiveSkillName": "AetherDividePassiveSkill_PassiveSkillName_250229",
    "ItemDescription": "AetherDividePassiveSkill_ItemDescription_250229",
    "PassiveSkillDescription": "AetherDividePassiveSkill_PassiveSkillDescription_250229",
    "SimpleExtraEffectIDList": [],
    "ExtraEffectIDList": [],
    "AbilityName": "Avatar_AetherDivide_Add_Perk_0029",
    "PassiveSkillType": "Trick",
    "Rarity": 1,
    "SimpleParamList": [
      {
        "Value": 0.7500000006984919
      }
    ],
    "ParamList": [
      {
        "Value": 0.7500000006984919
      }
    ]
  },
  "250230": {
    "ItemID": 250230,
    "PassiveSkillName": "AetherDividePassiveSkill_PassiveSkillName_250230",
    "ItemDescription": "AetherDividePassiveSkill_ItemDescription_250230",
    "PassiveSkillDescription": "AetherDividePassiveSkill_PassiveSkillDescription_250230",
    "SimpleExtraEffectIDList": [],
    "ExtraEffectIDList": [],
    "AbilityName": "Avatar_AetherDivide_Add_Perk_0030",
    "Rarity": 1,
    "SimpleParamList": [
      {
        "Value": 6
      },
      {
        "Value": 0.40000000037252903
      }
    ],
    "ParamList": [
      {
        "Value": 6
      },
      {
        "Value": 0.40000000037252903
      }
    ]
  },
  "250231": {
    "ItemID": 250231,
    "PassiveSkillName": "AetherDividePassiveSkill_PassiveSkillName_250231",
    "ItemDescription": "AetherDividePassiveSkill_ItemDescription_250231",
    "PassiveSkillDescription": "AetherDividePassiveSkill_PassiveSkillDescription_250231",
    "SimpleExtraEffectIDList": [],
    "ExtraEffectIDList": [],
    "AbilityName": "Avatar_AetherDivide_Add_Perk_0031",
    "PassiveSkillType": "Storm",
    "Rarity": 1,
    "SimpleParamList": [
      {
        "Value": 0.25000000023283064
      },
      {
        "Value": 4
      }
    ],
    "ParamList": [
      {
        "Value": 0.25000000023283064
      },
      {
        "Value": 4
      }
    ]
  },
  "250232": {
    "ItemID": 250232,
    "PassiveSkillName": "AetherDividePassiveSkill_PassiveSkillName_250232",
    "ItemDescription": "AetherDividePassiveSkill_ItemDescription_250232",
    "PassiveSkillDescription": "AetherDividePassiveSkill_PassiveSkillDescription_250232",
    "SimpleExtraEffectIDList": [],
    "ExtraEffectIDList": [],
    "AbilityName": "Avatar_AetherDivide_Add_Perk_0032",
    "PassiveSkillType": "Assist",
    "Rarity": 1,
    "SimpleParamList": [],
    "ParamList": []
  },
  "250233": {
    "ItemID": 250233,
    "PassiveSkillName": "AetherDividePassiveSkill_PassiveSkillName_250233",
    "ItemDescription": "AetherDividePassiveSkill_ItemDescription_250233",
    "PassiveSkillDescription": "AetherDividePassiveSkill_PassiveSkillDescription_250233",
    "SimpleExtraEffectIDList": [],
    "ExtraEffectIDList": [],
    "AbilityName": "Avatar_AetherDivide_Add_Perk_0033",
    "PassiveSkillType": "Assist",
    "Rarity": 1,
    "SimpleParamList": [
      {
        "Value": 0.20000000018626451
      },
      {
        "Value": 0.20000000018626451
      }
    ],
    "ParamList": [
      {
        "Value": 0.20000000018626451
      },
      {
        "Value": 0.20000000018626451
      }
    ]
  }
}