{
  "1000001": {
    "ID": 1000001,
    "Name": {
      "Hash": 1267322278
    },
    "MenuSortID": 1,
    "MenuIconID": 1
  },
  "1010101": {
    "ID": 1010101,
    "Name": {
      "Hash": -844500346
    },
    "MenuSortID": 10,
    "MenuIconID": 2
  },
  "1010201": {
    "ID": 1010201,
    "Name": {
      "Hash": -421012843
    },
    "MenuSortID": 20,
    "MenuIconID": 2
  },
  "1000101": {
    "ID": 1000101,
    "Name": {
      "Hash": -1481764053
    },
    "MenuSortID": 10,
    "MenuIconID": 2
  },
  "2000101": {
    "ID": 2000101,
    "Name": {
      "Hash": -1266832976
    },
    "MenuSortID": 11
  },
  "2000201": {
    "ID": 2000201,
    "Name": {
      "Hash": -3277013
    },
    "MenuSortID": 12
  },
  "2000301": {
    "ID": 2000301,
    "Name": {
      "Hash": -1549157978
    },
    "MenuSortID": 13
  },
  "2010101": {
    "ID": 2010101,
    "Name": {
      "Hash": 1501939669
    },
    "MenuSortID": 11
  },
  "2011101": {
    "ID": 2011101,
    "Name": {
      "Hash": 1501939766
    },
    "MenuSortID": 12
  },
  "2012101": {
    "ID": 2012101,
    "Name": {
      "Hash": 1501939603
    },
    "MenuSortID": 21
  },
  "2012201": {
    "ID": 2012201,
    "Name": {
      "Hash": 1078452100
    },
    "MenuSortID": 22
  },
  "2012301": {
    "ID": 2012301,
    "Name": {
      "Hash": 1219614601
    },
    "MenuSortID": 23
  },
  "2013101": {
    "ID": 2013101,
    "Name": {
      "Hash": 1501939700
    },
    "MenuSortID": 13
  },
  "2013201": {
    "ID": 2013201,
    "Name": {
      "Hash": 1078452197
    },
    "MenuSortID": 14
  },
  "2013401": {
    "ID": 2013401,
    "Name": {
      "Hash": 1925427203
    },
    "MenuSortID": 15
  },
  "2013501": {
    "ID": 2013501,
    "Name": {
      "Hash": 2066589704
    },
    "MenuSortID": 15
  },
  "2013601": {
    "ID": 2013601,
    "Name": {
      "Hash": 1643102201
    },
    "MenuSortID": 15
  },
  "1020101": {
    "ID": 1020101,
    "Name": {
      "Hash": -754973579
    },
    "MenuSortID": 30,
    "MenuIconID": 2
  },
  "1020201": {
    "ID": 1020201,
    "Name": {
      "Hash": 1711787750
    },
    "MenuSortID": 40,
    "MenuIconID": 2
  },
  "1020204": {
    "ID": 1020204,
    "Name": {
      "Hash": 952272863
    },
    "MenuSortID": 41,
    "MenuIconID": 2,
    "FromAreaMapID": 1020201,
    "FromMappingInfoID": 2262,
    "IsUnlockAfterEnter": true
  },
  "2021101": {
    "ID": 2021101,
    "Name": {
      "Hash": -1993623353
    },
    "MenuSortID": 31
  },
  "2021201": {
    "ID": 2021201,
    "Name": {
      "Hash": -165417386
    },
    "MenuSortID": 32
  },
  "2022101": {
    "ID": 2022101,
    "Name": {
      "Hash": -1993623516
    },
    "MenuSortID": 42
  },
  "2022201": {
    "ID": 2022201,
    "Name": {
      "Hash": -165417549
    },
    "MenuSortID": 43
  },
  "2022301": {
    "ID": 2022301,
    "Name": {
      "Hash": -1711298514
    },
    "MenuSortID": 44,
    "FromAreaMapID": 1020201,
    "FromMappingInfoID": 2307,
    "IsUnlockAfterEnter": true
  },
  "2023101": {
    "ID": 2023101,
    "Name": {
      "Hash": -1993623419
    },
    "MenuSortID": 45
  },
  "2023201": {
    "ID": 2023201,
    "Name": {
      "Hash": -165417452
    },
    "MenuSortID": 46
  }
}