{
  "Equipment_Exp_Recyle_Ratio": {
    "ConstValueName": "Equipment_Exp_Recyle_Ratio",
    "Value": {
      "Type": "INT",
      "IntValue": 80
    }
  },
  "Equipment_Material_Select_Limit": {
    "ConstValueName": "Equipment_Material_Select_Limit",
    "Value": {
      "Type": "INT",
      "IntValue": 4
    }
  },
  "Exp_SoftCoin_Cost": {
    "ConstValueName": "Exp_SoftCoin_Cost",
    "Value": {
      "Type": "INT",
      "IntValue": 10
    }
  },
  "SimpleTalk_Text_IntervalTime": {
    "ConstValueName": "SimpleTalk_Text_IntervalTime",
    "Value": {
      "Type": "FLOAT",
      "FloatValue": 1.5
    }
  },
  "SimpleTalk_Voice_IntervalTime": {
    "ConstValueName": "SimpleTalk_Voice_IntervalTime",
    "Value": {
      "Type": "FLOAT",
      "FloatValue": 1
    }
  },
  "SimpleTalk_ProtectTime": {
    "ConstValueName": "SimpleTalk_ProtectTime",
    "Value": {
      "Type": "FLOAT",
      "FloatValue": 15
    }
  },
  "Dialogue_Button_CD": {
    "ConstValueName": "Dialogue_Button_CD",
    "Value": {
      "Type": "FLOAT",
      "FloatValue": 1.5
    }
  },
  "Prop_Button_CD": {
    "ConstValueName": "Prop_Button_CD",
    "Value": {
      "Type": "FLOAT",
      "FloatValue": 1
    }
  },
  "FrameItemRarityPath": {
    "ConstValueName": "FrameItemRarityPath",
    "Value": {
      "Type": "STRING",
      "StringValue": "SpriteOutput/ItemIcon/Rarity/FrameItemRarity0#1.png"
    }
  },
  "Equipment_Maximum_Num": {
    "ConstValueName": "Equipment_Maximum_Num",
    "Value": {
      "Type": "INT",
      "IntValue": 1500
    }
  },
  "Equipment_Maximum_Num_Hard": {
    "ConstValueName": "Equipment_Maximum_Num_Hard",
    "Value": {
      "Type": "INT",
      "IntValue": 2000
    }
  },
  "PlayerName_Max": {
    "ConstValueName": "PlayerName_Max",
    "Value": {
      "Type": "INT",
      "IntValue": 14
    }
  },
  "Stamina_Auto_Recover_Interval": {
    "ConstValueName": "Stamina_Auto_Recover_Interval",
    "Value": {
      "Type": "INT",
      "IntValue": 360
    }
  },
  "Stamina_Maximum_Num": {
    "ConstValueName": "Stamina_Maximum_Num",
    "Value": {
      "Type": "INT",
      "IntValue": 240
    }
  },
  "OfflineStamina_Auto_Recover_Interval": {
    "ConstValueName": "OfflineStamina_Auto_Recover_Interval",
    "Value": {
      "Type": "INT",
      "IntValue": 5
    }
  },
  "OfflineStamina_Maximum_Num": {
    "ConstValueName": "OfflineStamina_Maximum_Num",
    "Value": {
      "Type": "INT",
      "IntValue": 150
    }
  },
  "ReserveStamina_Auto_Recover_Interval": {
    "ConstValueName": "ReserveStamina_Auto_Recover_Interval",
    "Value": {
      "Type": "INT",
      "IntValue": 1080
    }
  },
  "ReserveStamina_Maximum_Num": {
    "ConstValueName": "ReserveStamina_Maximum_Num",
    "Value": {
      "Type": "INT",
      "IntValue": 2400
    }
  },
  "Maze_MP_Max": {
    "ConstValueName": "Maze_MP_Max",
    "Value": {
      "Type": "INT",
      "IntValue": 5
    }
  },
  "Maze_MP_Max_Init": {
    "ConstValueName": "Maze_MP_Max_Init",
    "Value": {
      "Type": "INT",
      "IntValue": 3
    }
  },
  "Maze_MP_Init": {
    "ConstValueName": "Maze_MP_Init",
    "Value": {
      "Type": "INT",
      "IntValue": 5
    }
  },
  "Maze_Refresh_CD": {
    "ConstValueName": "Maze_Refresh_CD",
    "Value": {
      "Type": "INT",
      "IntValue": 4
    }
  },
  "Maze_Recover_Refresh_CD": {
    "ConstValueName": "Maze_Recover_Refresh_CD",
    "Value": {
      "Type": "INT",
      "IntValue": 600
    }
  },
  "Maze_Recover_Refresh_Times": {
    "ConstValueName": "Maze_Recover_Refresh_Times",
    "Value": {
      "Type": "INT",
      "IntValue": 5
    }
  },
  "Maze_Recover_Refresh_InitialTimes": {
    "ConstValueName": "Maze_Recover_Refresh_InitialTimes",
    "Value": {
      "Type": "INT",
      "IntValue": 5
    }
  },
  "Maze_FastRunRatio": {
    "ConstValueName": "Maze_FastRunRatio",
    "Value": {
      "Type": "FLOAT",
      "FloatValue": 1.3
    }
  },
  "FrameAvatarDamageTypePath": {
    "ConstValueName": "FrameAvatarDamageTypePath",
    "Value": {
      "Type": "STRING",
      "StringValue": "SpriteOutput/ItemIcon/ItemType/FrameItem0%s.png"
    }
  },
  "FrameAvatarRarityPath": {
    "ConstValueName": "FrameAvatarRarityPath",
    "Value": {
      "Type": "STRING",
      "StringValue": "SpriteOutput/ItemIcon/Rarity/FrameIconRarity0%s.png"
    }
  },
  "Food_SatietyValue_Limit": {
    "ConstValueName": "Food_SatietyValue_Limit",
    "Value": {
      "Type": "INT",
      "IntValue": 5
    }
  },
  "Food_SatietyValue_Reduce_PerBattle": {
    "ConstValueName": "Food_SatietyValue_Reduce_PerBattle",
    "Value": {
      "Type": "INT",
      "IntValue": 1
    }
  },
  "Food_SatietyValue_Reduce_Interval": {
    "ConstValueName": "Food_SatietyValue_Reduce_Interval",
    "Value": {
      "Type": "INT",
      "IntValue": 300
    }
  },
  "Maze_MonsterAlert_DisplayRange": {
    "ConstValueName": "Maze_MonsterAlert_DisplayRange",
    "Value": {
      "Type": "FLOAT",
      "FloatValue": 40
    }
  },
  "UI_SortMomory_Open": {
    "ConstValueName": "UI_SortMomory_Open",
    "Value": {
      "Type": "BOOL",
      "BoolValue": true
    }
  },
  "TeamName_Max": {
    "ConstValueName": "TeamName_Max",
    "Value": {
      "Type": "INT",
      "IntValue": 14
    }
  },
  "TextID_TeamDefaltName": {
    "ConstValueName": "TextID_TeamDefaltName",
    "Value": {
      "Type": "STRING",
      "StringValue": "Team_Default_Name_0%d"
    }
  },
  "Maze_FPS_Upload_Time_Interval": {
    "ConstValueName": "Maze_FPS_Upload_Time_Interval",
    "Value": {
      "Type": "INT",
      "IntValue": 20
    }
  },
  "Battle_FPS_Upload_Time_Interval": {
    "ConstValueName": "Battle_FPS_Upload_Time_Interval",
    "Value": {
      "Type": "INT",
      "IntValue": 5
    }
  },
  "Maze_FPS_Upload_Time_Interval_Android": {
    "ConstValueName": "Maze_FPS_Upload_Time_Interval_Android",
    "Value": {
      "Type": "INT",
      "IntValue": 40
    }
  },
  "Battle_FPS_Upload_Time_Interval_Android": {
    "ConstValueName": "Battle_FPS_Upload_Time_Interval_Android",
    "Value": {
      "Type": "INT",
      "IntValue": 20
    }
  },
  "Maze_FPS_Upload_Time_Interval_IOS": {
    "ConstValueName": "Maze_FPS_Upload_Time_Interval_IOS",
    "Value": {
      "Type": "INT",
      "IntValue": 40
    }
  },
  "Battle_FPS_Upload_Time_Interval_IOS": {
    "ConstValueName": "Battle_FPS_Upload_Time_Interval_IOS",
    "Value": {
      "Type": "INT",
      "IntValue": 20
    }
  },
  "Maze_FPS_Upload_Time_Interval_PC": {
    "ConstValueName": "Maze_FPS_Upload_Time_Interval_PC",
    "Value": {
      "Type": "INT",
      "IntValue": 40
    }
  },
  "Battle_FPS_Upload_Time_Interval_PC": {
    "ConstValueName": "Battle_FPS_Upload_Time_Interval_PC",
    "Value": {
      "Type": "INT",
      "IntValue": 20
    }
  },
  "Battle_FPS_Upload_Max_Count": {
    "ConstValueName": "Battle_FPS_Upload_Max_Count",
    "Value": {
      "Type": "INT",
      "IntValue": 5
    }
  },
  "Story_Skip_Close": {
    "ConstValueName": "Story_Skip_Close",
    "Value": {
      "Type": "BOOL",
      "BoolValue": false
    }
  },
  "Text_Format_Symbol": {
    "ConstValueName": "Text_Format_Symbol",
    "Value": {
      "Type": "STRING",
      "StringValue": "，。；：？！’” ＞》）」』】〕}%…@#$&^*-+•"
    }
  },
  "HangUpConstTime": {
    "ConstValueName": "HangUpConstTime",
    "Value": {
      "Type": "INT",
      "IntValue": 180
    }
  },
  "Combat_Power_Avatar_Base": {
    "ConstValueName": "Combat_Power_Avatar_Base",
    "Value": {
      "Type": "FLOAT",
      "FloatValue": 142.5
    }
  },
  "Combat_Power_Avatar_PerLevel": {
    "ConstValueName": "Combat_Power_Avatar_PerLevel",
    "Value": {
      "Type": "FLOAT",
      "FloatValue": 7.5
    }
  },
  "Combat_Power_Avatar_PerPromotion": {
    "ConstValueName": "Combat_Power_Avatar_PerPromotion",
    "Value": {
      "Type": "FLOAT",
      "FloatValue": 60
    }
  },
  "Combat_Power_Avatar_Rarity4": {
    "ConstValueName": "Combat_Power_Avatar_Rarity4",
    "Value": {
      "Type": "FLOAT",
      "FloatValue": 1
    }
  },
  "Combat_Power_Avatar_Rarity5": {
    "ConstValueName": "Combat_Power_Avatar_Rarity5",
    "Value": {
      "Type": "FLOAT",
      "FloatValue": 1.1
    }
  },
  "Combat_Power_Avatar_Rank": {
    "ConstValueName": "Combat_Power_Avatar_Rank",
    "Value": {
      "Type": "FLOAT",
      "FloatValue": 43.5
    }
  },
  "Combat_Power_PerSkillTree_Level": {
    "ConstValueName": "Combat_Power_PerSkillTree_Level",
    "Value": {
      "Type": "FLOAT",
      "FloatValue": 15
    }
  },
  "Combat_Power_LightCone_Base": {
    "ConstValueName": "Combat_Power_LightCone_Base",
    "Value": {
      "Type": "FLOAT",
      "FloatValue": 42.5
    }
  },
  "Combat_Power_LightCone_PerLevel": {
    "ConstValueName": "Combat_Power_LightCone_PerLevel",
    "Value": {
      "Type": "FLOAT",
      "FloatValue": 7.5
    }
  },
  "Combat_Power_LightCone_PerPromotion": {
    "ConstValueName": "Combat_Power_LightCone_PerPromotion",
    "Value": {
      "Type": "FLOAT",
      "FloatValue": 76.666664
    }
  },
  "Combat_Power_LightCone_Rarity3": {
    "ConstValueName": "Combat_Power_LightCone_Rarity3",
    "Value": {
      "Type": "FLOAT",
      "FloatValue": 0.642857
    }
  },
  "Combat_Power_LightCone_Rarity4": {
    "ConstValueName": "Combat_Power_LightCone_Rarity4",
    "Value": {
      "Type": "FLOAT",
      "FloatValue": 0.821429
    }
  },
  "Combat_Power_LightCone_Rarity5": {
    "ConstValueName": "Combat_Power_LightCone_Rarity5",
    "Value": {
      "Type": "FLOAT",
      "FloatValue": 1
    }
  },
  "Combat_Power_LightCone_SkillPerRank": {
    "ConstValueName": "Combat_Power_LightCone_SkillPerRank",
    "Value": {
      "Type": "FLOAT",
      "FloatValue": 0.25
    }
  },
  "Combat_Power_LightCone_SkillRarity3": {
    "ConstValueName": "Combat_Power_LightCone_SkillRarity3",
    "Value": {
      "Type": "FLOAT",
      "FloatValue": 58
    }
  },
  "Combat_Power_LightCone_SkillRarity4": {
    "ConstValueName": "Combat_Power_LightCone_SkillRarity4",
    "Value": {
      "Type": "FLOAT",
      "FloatValue": 101.5
    }
  },
  "Combat_Power_LightCone_SkillRarity5": {
    "ConstValueName": "Combat_Power_LightCone_SkillRarity5",
    "Value": {
      "Type": "FLOAT",
      "FloatValue": 145
    }
  },
  "Combat_Power_Relic_Base": {
    "ConstValueName": "Combat_Power_Relic_Base",
    "Value": {
      "Type": "FLOAT",
      "FloatValue": 78.06984
    }
  },
  "Combat_Power_Relic_PerLevel": {
    "ConstValueName": "Combat_Power_Relic_PerLevel",
    "Value": {
      "Type": "FLOAT",
      "FloatValue": 13.01164
    }
  },
  "Combat_Power_Relic_Rarity1": {
    "ConstValueName": "Combat_Power_Relic_Rarity1",
    "Value": {
      "Type": "FLOAT",
      "FloatValue": 0.01
    }
  },
  "Combat_Power_Relic_Rarity2": {
    "ConstValueName": "Combat_Power_Relic_Rarity2",
    "Value": {
      "Type": "FLOAT",
      "FloatValue": 0.15
    }
  },
  "Combat_Power_Relic_Rarity3": {
    "ConstValueName": "Combat_Power_Relic_Rarity3",
    "Value": {
      "Type": "FLOAT",
      "FloatValue": 0.35
    }
  },
  "Combat_Power_Relic_Rarity4": {
    "ConstValueName": "Combat_Power_Relic_Rarity4",
    "Value": {
      "Type": "FLOAT",
      "FloatValue": 0.8
    }
  },
  "Combat_Power_Relic_Rarity5": {
    "ConstValueName": "Combat_Power_Relic_Rarity5",
    "Value": {
      "Type": "FLOAT",
      "FloatValue": 1
    }
  },
  "Combat_Power_Relic_SkillSet2": {
    "ConstValueName": "Combat_Power_Relic_SkillSet2",
    "Value": {
      "Type": "FLOAT",
      "FloatValue": 72.5
    }
  },
  "Combat_Power_Relic_SkillSet4": {
    "ConstValueName": "Combat_Power_Relic_SkillSet4",
    "Value": {
      "Type": "FLOAT",
      "FloatValue": 101.5
    }
  },
  "Combat_Power_Relic_SkillSet5": {
    "ConstValueName": "Combat_Power_Relic_SkillSet5",
    "Value": {
      "Type": "FLOAT",
      "FloatValue": 0.01
    }
  },
  "Combat_Power_Warn_Percent_Monster": {
    "ConstValueName": "Combat_Power_Warn_Percent_Monster",
    "Value": {
      "Type": "ARRAY",
      "ArrayValue": [
        {
          "Type": "INT",
          "IntValue": 80
        },
        {
          "Type": "INT",
          "IntValue": 80
        },
        {
          "Type": "INT",
          "IntValue": 90
        },
        {
          "Type": "INT",
          "IntValue": 100
        },
        {
          "Type": "INT",
          "IntValue": 100
        }
      ]
    }
  },
  "Relic_Bonus_Level": {
    "ConstValueName": "Relic_Bonus_Level",
    "Value": {
      "Type": "ARRAY",
      "ArrayValue": [
        {
          "Type": "INT",
          "IntValue": 3
        },
        {
          "Type": "INT",
          "IntValue": 6
        },
        {
          "Type": "INT",
          "IntValue": 9
        },
        {
          "Type": "INT",
          "IntValue": 12
        },
        {
          "Type": "INT",
          "IntValue": 15
        }
      ]
    }
  },
  "Relic_Max_SubAffix": {
    "ConstValueName": "Relic_Max_SubAffix",
    "Value": {
      "Type": "INT",
      "IntValue": 4
    }
  },
  "Relic_Max_Count": {
    "ConstValueName": "Relic_Max_Count",
    "Value": {
      "Type": "INT",
      "IntValue": 1500
    }
  },
  "Relic_Max_Count_Hard": {
    "ConstValueName": "Relic_Max_Count_Hard",
    "Value": {
      "Type": "INT",
      "IntValue": 2000
    }
  },
  "Relic_Exp_ConversionRate": {
    "ConstValueName": "Relic_Exp_ConversionRate",
    "Value": {
      "Type": "INT",
      "IntValue": 80
    }
  },
  "Relic_ReturnItemID": {
    "ConstValueName": "Relic_ReturnItemID",
    "Value": {
      "Type": "ARRAY",
      "ArrayValue": [
        {
          "Type": "INT",
          "IntValue": 232
        },
        {
          "Type": "INT",
          "IntValue": 231
        }
      ]
    }
  },
  "MissonTalk_ProtectTime": {
    "ConstValueName": "MissonTalk_ProtectTime",
    "Value": {
      "Type": "FLOAT",
      "FloatValue": 2
    }
  },
  "Item_Sell_Max_Count": {
    "ConstValueName": "Item_Sell_Max_Count",
    "Value": {
      "Type": "INT",
      "IntValue": 500
    }
  },
  "LuaDataTickSpan": {
    "ConstValueName": "LuaDataTickSpan",
    "Value": {
      "Type": "INT",
      "IntValue": 300
    }
  },
  "Cocoon_Weekly_Limit_Times": {
    "ConstValueName": "Cocoon_Weekly_Limit_Times",
    "Value": {
      "Type": "INT",
      "IntValue": 3
    }
  },
  "Newbie_Gacha_Num": {
    "ConstValueName": "Newbie_Gacha_Num",
    "Value": {
      "Type": "INT",
      "IntValue": 50
    }
  },
  "Newbie_Gacha_Discount_Num": {
    "ConstValueName": "Newbie_Gacha_Discount_Num",
    "Value": {
      "Type": "INT",
      "IntValue": 8
    }
  },
  "Activity_Day_Time_Offset": {
    "ConstValueName": "Activity_Day_Time_Offset",
    "Value": {
      "Type": "INT",
      "IntValue": 14400
    }
  },
  "Player_Max_Level": {
    "ConstValueName": "Player_Max_Level",
    "Value": {
      "Type": "INT",
      "IntValue": 70
    }
  },
  "PlayerComment_Max": {
    "ConstValueName": "PlayerComment_Max",
    "Value": {
      "Type": "INT",
      "IntValue": 50
    }
  },
  "PlayerIcon_DefaultID": {
    "ConstValueName": "PlayerIcon_DefaultID",
    "Value": {
      "Type": "INT",
      "IntValue": 200001
    }
  },
  "PlayerShowAvatar_Max": {
    "ConstValueName": "PlayerShowAvatar_Max",
    "Value": {
      "Type": "INT",
      "IntValue": 3
    }
  },
  "Login_Ready_Delay": {
    "ConstValueName": "Login_Ready_Delay",
    "Value": {
      "Type": "FLOAT",
      "FloatValue": 3
    }
  },
  "Login_Start_Delay": {
    "ConstValueName": "Login_Start_Delay",
    "Value": {
      "Type": "FLOAT",
      "FloatValue": 0.7
    }
  },
  "Friend_Relation_Limit": {
    "ConstValueName": "Friend_Relation_Limit",
    "Value": {
      "Type": "INT",
      "IntValue": 100
    }
  },
  "Friend_Daily_Apply_Limit": {
    "ConstValueName": "Friend_Daily_Apply_Limit",
    "Value": {
      "Type": "INT",
      "IntValue": 200
    }
  },
  "Friend_In_Handle_Limit": {
    "ConstValueName": "Friend_In_Handle_Limit",
    "Value": {
      "Type": "INT",
      "IntValue": 50
    }
  },
  "Friend_Blacklist_Limit": {
    "ConstValueName": "Friend_Blacklist_Limit",
    "Value": {
      "Type": "INT",
      "IntValue": 10
    }
  },
  "Friend_Daily_Apply_Soft_Cap": {
    "ConstValueName": "Friend_Daily_Apply_Soft_Cap",
    "Value": {
      "Type": "INT",
      "IntValue": 60
    }
  },
  "Friend_Daily_Apply_Soft_Cap_Interval": {
    "ConstValueName": "Friend_Daily_Apply_Soft_Cap_Interval",
    "Value": {
      "Type": "INT",
      "IntValue": 60
    }
  },
  "Report_Season_Text_Max_Length": {
    "ConstValueName": "Report_Season_Text_Max_Length",
    "Value": {
      "Type": "INT",
      "IntValue": 100
    }
  },
  "RemarkName_Max": {
    "ConstValueName": "RemarkName_Max",
    "Value": {
      "Type": "INT",
      "IntValue": 14
    }
  },
  "Rename_Limit_CD": {
    "ConstValueName": "Rename_Limit_CD",
    "Value": {
      "Type": "INT",
      "IntValue": 3
    }
  },
  "Default_Music": {
    "ConstValueName": "Default_Music",
    "Value": {
      "Type": "INT",
      "IntValue": 210000
    }
  },
  "Assist_Reward_Max": {
    "ConstValueName": "Assist_Reward_Max",
    "Value": {
      "Type": "INT",
      "IntValue": 60
    }
  },
  "Assist_Reward_Daily": {
    "ConstValueName": "Assist_Reward_Daily",
    "Value": {
      "Type": "INT",
      "IntValue": 10
    }
  },
  "Assist_Reward_Coin_Num": {
    "ConstValueName": "Assist_Reward_Coin_Num",
    "Value": {
      "Type": "INT",
      "IntValue": 2000
    }
  },
  "Assist_List_Friend_Num": {
    "ConstValueName": "Assist_List_Friend_Num",
    "Value": {
      "Type": "INT",
      "IntValue": 15
    }
  },
  "Assist_List_Max_Num": {
    "ConstValueName": "Assist_List_Max_Num",
    "Value": {
      "Type": "INT",
      "IntValue": 50
    }
  },
  "Assist_Refresh_CD": {
    "ConstValueName": "Assist_Refresh_CD",
    "Value": {
      "Type": "INT",
      "IntValue": 5
    }
  },
  "Assist_Limit_Time_Max_Daily": {
    "ConstValueName": "Assist_Limit_Time_Max_Daily",
    "Value": {
      "Type": "INT",
      "IntValue": 5
    }
  },
  "Assist_History_Max_Num": {
    "ConstValueName": "Assist_History_Max_Num",
    "Value": {
      "Type": "INT",
      "IntValue": 100
    }
  },
  "Sub_Pack_MainMission_ID": {
    "ConstValueName": "Sub_Pack_MainMission_ID",
    "Value": {
      "Type": "INT",
      "IntValue": 0
    }
  },
  "Monthlycard_Limit_Max_Time": {
    "ConstValueName": "Monthlycard_Limit_Max_Time",
    "Value": {
      "Type": "INT",
      "IntValue": 180
    }
  },
  "Gameplay_Savedata_Max_Length": {
    "ConstValueName": "Gameplay_Savedata_Max_Length",
    "Value": {
      "Type": "INT",
      "IntValue": 1024
    }
  },
  "Gameplay_Savedata_Update_Interval": {
    "ConstValueName": "Gameplay_Savedata_Update_Interval",
    "Value": {
      "Type": "INT",
      "IntValue": 1
    }
  },
  "Relic_Two_Set_Unlock": {
    "ConstValueName": "Relic_Two_Set_Unlock",
    "Value": {
      "Type": "INT",
      "IntValue": 25
    }
  },
  "DailyActive_MaxPoint": {
    "ConstValueName": "DailyActive_MaxPoint",
    "Value": {
      "Type": "INT",
      "IntValue": 500
    }
  },
  "SimpleTalk_AutoEnd": {
    "ConstValueName": "SimpleTalk_AutoEnd",
    "Value": {
      "Type": "INT",
      "IntValue": 1
    }
  },
  "Sub_Pack_SubMission_ID": {
    "ConstValueName": "Sub_Pack_SubMission_ID",
    "Value": {
      "Type": "INT",
      "IntValue": 100020116
    }
  },
  "Text_Join_Text_Max": {
    "ConstValueName": "Text_Join_Text_Max",
    "Value": {
      "Type": "INT",
      "IntValue": 14
    }
  },
  "Chat_FirstLoad_NumLimit": {
    "ConstValueName": "Chat_FirstLoad_NumLimit",
    "Value": {
      "Type": "INT",
      "IntValue": 15
    }
  },
  "Chat_MaxWord_NumLimit": {
    "ConstValueName": "Chat_MaxWord_NumLimit",
    "Value": {
      "Type": "INT",
      "IntValue": 100
    }
  },
  "Chat_Friend_Record_NumLimit": {
    "ConstValueName": "Chat_Friend_Record_NumLimit",
    "Value": {
      "Type": "INT",
      "IntValue": 200
    }
  },
  "Chat_Friend_Record_TimeLimit": {
    "ConstValueName": "Chat_Friend_Record_TimeLimit",
    "Value": {
      "Type": "INT",
      "IntValue": 30
    }
  },
  "Chat_Record_Apply_Once": {
    "ConstValueName": "Chat_Record_Apply_Once",
    "Value": {
      "Type": "INT",
      "IntValue": 50
    }
  },
  "Chat_Function_Ban": {
    "ConstValueName": "Chat_Function_Ban",
    "Value": {
      "Type": "INT",
      "IntValue": 0
    }
  },
  "Shop_Max_Single_Num": {
    "ConstValueName": "Shop_Max_Single_Num",
    "Value": {
      "Type": "INT",
      "IntValue": 999
    }
  },
  "Activity_Museum_Fund_Proportion": {
    "ConstValueName": "Activity_Museum_Fund_Proportion",
    "Value": {
      "Type": "INT",
      "IntValue": 200
    }
  },
  "Activity_Museum_RenewPoint_Reduce1": {
    "ConstValueName": "Activity_Museum_RenewPoint_Reduce1",
    "Value": {
      "Type": "INT",
      "IntValue": 80
    }
  },
  "Activity_Museum_RenewPoint_Reduce2": {
    "ConstValueName": "Activity_Museum_RenewPoint_Reduce2",
    "Value": {
      "Type": "INT",
      "IntValue": 75
    }
  },
  "Activity_Museum_RenewPoint_Reduce3": {
    "ConstValueName": "Activity_Museum_RenewPoint_Reduce3",
    "Value": {
      "Type": "INT",
      "IntValue": 70
    }
  },
  "Activity_Museum_Target_CheckTurn": {
    "ConstValueName": "Activity_Museum_Target_CheckTurn",
    "Value": {
      "Type": "INT",
      "IntValue": 4
    }
  },
  "Activity_Museum_RenewPoint_S": {
    "ConstValueName": "Activity_Museum_RenewPoint_S",
    "Value": {
      "Type": "INT",
      "IntValue": 150
    }
  },
  "Activity_Museum_RenewPoint_A": {
    "ConstValueName": "Activity_Museum_RenewPoint_A",
    "Value": {
      "Type": "INT",
      "IntValue": 120
    }
  },
  "Activity_Museum_RenewPoint_B": {
    "ConstValueName": "Activity_Museum_RenewPoint_B",
    "Value": {
      "Type": "INT",
      "IntValue": 110
    }
  },
  "Activity_Museum_RenewPoint_C": {
    "ConstValueName": "Activity_Museum_RenewPoint_C",
    "Value": {
      "Type": "INT",
      "IntValue": 100
    }
  },
  "MuseumActivity_TargetUnlockMission": {
    "ConstValueName": "MuseumActivity_TargetUnlockMission",
    "Value": {
      "Type": "INT",
      "IntValue": 8001264
    }
  },
  "Activity_Museum_argetUnlockMission": {
    "ConstValueName": "Activity_Museum_argetUnlockMission",
    "Value": {
      "Type": "INT",
      "IntValue": 8001264
    }
  },
  "Activity_Museum_MaxMission": {
    "ConstValueName": "Activity_Museum_MaxMission",
    "Value": {
      "Type": "INT",
      "IntValue": 5
    }
  },
  "Activity_Museum_AtlasUnlockMission": {
    "ConstValueName": "Activity_Museum_AtlasUnlockMission",
    "Value": {
      "Type": "INT",
      "IntValue": 8001261
    }
  },
  "Activity_Museum_MarketUnlockMission": {
    "ConstValueName": "Activity_Museum_MarketUnlockMission",
    "Value": {
      "Type": "INT",
      "IntValue": 8001261
    }
  },
  "Activity_Museum_UpgradeUnlockMission": {
    "ConstValueName": "Activity_Museum_UpgradeUnlockMission",
    "Value": {
      "Type": "INT",
      "IntValue": 8001261
    }
  },
  "Default_Nickname_CHS": {
    "ConstValueName": "Default_Nickname_CHS",
    "Value": {
      "Type": "STRING",
      "StringValue": "无名客"
    }
  },
  "Default_Nickname_CHT": {
    "ConstValueName": "Default_Nickname_CHT",
    "Value": {
      "Type": "STRING",
      "StringValue": "無名客"
    }
  },
  "Default_Nickname_EN": {
    "ConstValueName": "Default_Nickname_EN",
    "Value": {
      "Type": "STRING",
      "StringValue": "A Nameless"
    }
  },
  "Default_Nickname_KR": {
    "ConstValueName": "Default_Nickname_KR",
    "Value": {
      "Type": "STRING",
      "StringValue": "무명객"
    }
  },
  "Default_Nickname_JP": {
    "ConstValueName": "Default_Nickname_JP",
    "Value": {
      "Type": "STRING",
      "StringValue": "ナナシビト"
    }
  },
  "Default_Nickname_TH": {
    "ConstValueName": "Default_Nickname_TH",
    "Value": {
      "Type": "STRING",
      "StringValue": "ผู้มาเยือนนิรนาม"
    }
  },
  "Default_Nickname_VN": {
    "ConstValueName": "Default_Nickname_VN",
    "Value": {
      "Type": "STRING",
      "StringValue": "Khách Vô Danh"
    }
  },
  "Default_Nickname_ES": {
    "ConstValueName": "Default_Nickname_ES",
    "Value": {
      "Type": "STRING",
      "StringValue": "Anónimo"
    }
  },
  "Default_Nickname_RU": {
    "ConstValueName": "Default_Nickname_RU",
    "Value": {
      "Type": "STRING",
      "StringValue": "Безымянный"
    }
  },
  "Default_Nickname_ID": {
    "ConstValueName": "Default_Nickname_ID",
    "Value": {
      "Type": "STRING",
      "StringValue": "Nameless"
    }
  },
  "Default_Nickname_FR": {
    "ConstValueName": "Default_Nickname_FR",
    "Value": {
      "Type": "STRING",
      "StringValue": "Sans Nom"
    }
  },
  "Default_Nickname_DE": {
    "ConstValueName": "Default_Nickname_DE",
    "Value": {
      "Type": "STRING",
      "StringValue": "Namenlos"
    }
  },
  "Default_Nickname_PT": {
    "ConstValueName": "Default_Nickname_PT",
    "Value": {
      "Type": "STRING",
      "StringValue": "Sem Nome"
    }
  },
  "RogueChallengeActivity_Max_Save_Count": {
    "ConstValueName": "RogueChallengeActivity_Max_Save_Count",
    "Value": {
      "Type": "INT",
      "IntValue": 5
    }
  },
  "RogueChallengeActivity_Support_Refresh_CoolDown": {
    "ConstValueName": "RogueChallengeActivity_Support_Refresh_CoolDown",
    "Value": {
      "Type": "INT",
      "IntValue": 5
    }
  },
  "RogueChallengeActivity_Support_Daily_Limit": {
    "ConstValueName": "RogueChallengeActivity_Support_Daily_Limit",
    "Value": {
      "Type": "INT",
      "IntValue": 3
    }
  },
  "RogueChallengeActivity_GuideMissionID": {
    "ConstValueName": "RogueChallengeActivity_GuideMissionID",
    "Value": {
      "Type": "INT",
      "IntValue": 8012201
    }
  },
  "Activity_Alley_Lego_TutorialSpecialOrder": {
    "ConstValueName": "Activity_Alley_Lego_TutorialSpecialOrder",
    "Value": {
      "Type": "INT",
      "IntValue": 100
    }
  },
  "Activity_Alley_Lego_SpecialOrderEvent": {
    "ConstValueName": "Activity_Alley_Lego_SpecialOrderEvent",
    "Value": {
      "Type": "INT",
      "IntValue": 311
    }
  },
  "Activity_Alley_Lego_GoodsLimit": {
    "ConstValueName": "Activity_Alley_Lego_GoodsLimit",
    "Value": {
      "Type": "INT",
      "IntValue": 999
    }
  },
  "Activity_Alley_Lego_OrderProfitConst": {
    "ConstValueName": "Activity_Alley_Lego_OrderProfitConst",
    "Value": {
      "Type": "INT",
      "IntValue": 3
    }
  },
  "Activity_Alley_SpecialLego_MapEntranceID": {
    "ConstValueName": "Activity_Alley_SpecialLego_MapEntranceID",
    "Value": {
      "Type": "INT",
      "IntValue": 1020204
    }
  },
  "Activity_Alley_SpecialLego_MappingInfoID": {
    "ConstValueName": "Activity_Alley_SpecialLego_MappingInfoID",
    "Value": {
      "Type": "INT",
      "IntValue": 2290
    }
  },
  "Activity_Alley_System_FirstTalk": {
    "ConstValueName": "Activity_Alley_System_FirstTalk",
    "Value": {
      "Type": "INT",
      "IntValue": 800329800
    }
  },
  "Activity_Alley_System_Airlinelocked": {
    "ConstValueName": "Activity_Alley_System_Airlinelocked",
    "Value": {
      "Type": "ARRAY",
      "ArrayValue": [
        {
          "Type": "INT",
          "IntValue": 8003247
        },
        {
          "Type": "INT",
          "IntValue": 8003245
        },
        {
          "Type": "INT",
          "IntValue": 8003243
        },
        {
          "Type": "INT",
          "IntValue": 8003251
        },
        {
          "Type": "INT",
          "IntValue": 8003249
        },
        {
          "Type": "INT",
          "IntValue": 8003206
        },
        {
          "Type": "INT",
          "IntValue": 8003209
        }
      ]
    }
  },
  "Activity_Alley_Reward_RequireItemID": {
    "ConstValueName": "Activity_Alley_Reward_RequireItemID",
    "Value": {
      "Type": "INT",
      "IntValue": 270001
    }
  },
  "Activity_Alley_Lego_ClickUnlock": {
    "ConstValueName": "Activity_Alley_Lego_ClickUnlock",
    "Value": {
      "Type": "INT",
      "IntValue": 8003201
    }
  },
  "Activity_Alley_Lego_LegoUnlock": {
    "ConstValueName": "Activity_Alley_Lego_LegoUnlock",
    "Value": {
      "Type": "INT",
      "IntValue": 8003201
    }
  },
  "Activity_Alley_System_EventUnlock": {
    "ConstValueName": "Activity_Alley_System_EventUnlock",
    "Value": {
      "Type": "INT",
      "IntValue": 8003201
    }
  },
  "Activity_Alley_Reward_RewardUnlock": {
    "ConstValueName": "Activity_Alley_Reward_RewardUnlock",
    "Value": {
      "Type": "INT",
      "IntValue": 8003214
    }
  },
  "Activity_Alley_Airline_WharfUnlock": {
    "ConstValueName": "Activity_Alley_Airline_WharfUnlock",
    "Value": {
      "Type": "INT",
      "IntValue": 8003208
    }
  },
  "Activity_Alley_Airline_RepeatUnlock": {
    "ConstValueName": "Activity_Alley_Airline_RepeatUnlock",
    "Value": {
      "Type": "INT",
      "IntValue": 8003241
    }
  },
  "PS_Sub_Pack_SubMission_ID": {
    "ConstValueName": "PS_Sub_Pack_SubMission_ID",
    "Value": {
      "Type": "INT",
      "IntValue": 1000301
    }
  },
  "Default_ChatBubble": {
    "ConstValueName": "Default_ChatBubble",
    "Value": {
      "Type": "INT",
      "IntValue": 220000
    }
  },
  "PlayerExp_Scoin_ConvertRate": {
    "ConstValueName": "PlayerExp_Scoin_ConvertRate",
    "Value": {
      "Type": "INT",
      "IntValue": 10
    }
  },
  "Default_PhoneTheme": {
    "ConstValueName": "Default_PhoneTheme",
    "Value": {
      "Type": "INT",
      "IntValue": 221000
    }
  },
  "SkinShopID": {
    "ConstValueName": "SkinShopID",
    "Value": {
      "Type": "INT",
      "IntValue": 103
    }
  },
  "Chat_Emoji_Collection_MaxValue": {
    "ConstValueName": "Chat_Emoji_Collection_MaxValue",
    "Value": {
      "Type": "INT",
      "IntValue": 20
    }
  },
  "Consumable_Bookmark_MaxValue": {
    "ConstValueName": "Consumable_Bookmark_MaxValue",
    "Value": {
      "Type": "INT",
      "IntValue": 9
    }
  },
  "Activity_Heliobus_Income_ItemID": {
    "ConstValueName": "Activity_Heliobus_Income_ItemID",
    "Value": {
      "Type": "INT",
      "IntValue": 270002
    }
  },
  "Activity_Special_Display_ItemID": {
    "ConstValueName": "Activity_Special_Display_ItemID",
    "Value": {
      "Type": "INT",
      "IntValue": 241
    }
  }
}