{
  "ChatMissionIcon": {
    "Type": "ChatMissionIcon",
    "IconPath": "SpriteOutput/TalkIcon/ChatMissionIcon.png"
  },
  "ChatLoopIcon": {
    "Type": "ChatLoopIcon",
    "IconPath": "SpriteOutput/TalkIcon/ChatIcon.png"
  },
  "ChatContinueIcon": {
    "Type": "ChatContinueIcon",
    "IconPath": "SpriteOutput/TalkIcon/ChatContinueIcon.png"
  },
  "ChatBackIcon": {
    "Type": "ChatBackIcon",
    "IconPath": "SpriteOutput/TalkIcon/ChatBackIcon.png"
  },
  "ChatOutIcon": {
    "Type": "ChatOutIcon",
    "IconPath": "SpriteOutput/TalkIcon/ChatOutIcon.png"
  },
  "ShopIcon": {
    "Type": "ShopIcon",
    "IconPath": "SpriteOutput/TalkIcon/ShopIcon.png"
  },
  "BoxIcon": {
    "Type": "BoxIcon",
    "IconPath": "SpriteOutput/TalkIcon/BoxIcon.png"
  },
  "CheckIcon": {
    "Type": "CheckIcon",
    "IconPath": "SpriteOutput/TalkIcon/CheckIcon.png"
  },
  "HealHPIcon": {
    "Type": "HealHPIcon",
    "IconPath": "SpriteOutput/TalkIcon/HealHPIcon.png"
  },
  "LevelIcon": {
    "Type": "LevelIcon",
    "IconPath": "SpriteOutput/TalkIcon/LevelIcon.png"
  },
  "ChatIcon": {
    "Type": "ChatIcon",
    "IconPath": "SpriteOutput/TalkIcon/ChatIcon.png"
  },
  "SpecialChatIcon": {
    "Type": "SpecialChatIcon",
    "IconPath": "SpriteOutput/TalkIcon/SpecialChatIcon.png"
  },
  "Synthesis": {
    "Type": "Synthesis",
    "IconPath": "SpriteOutput/TalkIcon/Synthesis.png"
  },
  "TriggerProp": {
    "Type": "TriggerProp",
    "IconPath": "SpriteOutput/TalkIcon/TriggerProp.png"
  },
  "CommonSign": {
    "Type": "CommonSign",
    "IconPath": "SpriteOutput/TalkIcon/CommonSignIcon.png"
  },
  "FightActivity": {
    "Type": "FightActivity",
    "IconPath": "SpriteOutput/TalkIcon/BoxingClubIcon.png"
  },
  "RogueHeita": {
    "Type": "RogueHeita",
    "IconPath": "SpriteOutput/Rogue/Talk/CapsuleShopTalkIcon.png"
  },
  "SecretMissionIcon": {
    "Type": "SecretMissionIcon",
    "IconPath": "SpriteOutput/TalkIcon/SecretMissionIcon.png"
  },
  "MonsterReasearchIcon": {
    "Type": "MonsterReasearchIcon",
    "IconPath": "SpriteOutput/TalkIcon/PocketMonsterTalkIcon.png"
  },
  "GeneralActivityIcon": {
    "Type": "GeneralActivityIcon",
    "IconPath": "SpriteOutput/TalkIcon/ActivityIcon.png"
  },
  "Default": {
    "Type": "Default",
    "IconPath": ""
  },
  "StandupIcon": {
    "Type": "StandupIcon",
    "IconPath": "SpriteOutput/TalkIcon/StandUpTakIcon.png"
  },
  "HideIcon": {
    "Type": "HideIcon",
    "IconPath": "SpriteOutput/TalkIcon/SquatDownTalkIcon.png"
  }
}