{
  "200": {
    "UnlockID": 200,
    "Conditions": [
      {
        "Type": "PlayerLevel",
        "Param": "1"
      }
    ],
    "ShowCondition": []
  },
  "201": {
    "UnlockID": 201,
    "Conditions": [
      {
        "Type": "FinishMainMission",
        "Param": "1000402"
      }
    ],
    "ShowCondition": []
  },
  "202": {
    "UnlockID": 202,
    "Conditions": [
      {
        "Type": "FinishMainMission",
        "Param": "1000402"
      }
    ],
    "ShowCondition": []
  },
  "203": {
    "UnlockID": 203,
    "Conditions": [
      {
        "Type": "FinishMainMission",
        "Param": "1000501"
      }
    ],
    "ShowCondition": []
  },
  "300": {
    "UnlockID": 300,
    "Conditions": [
      {
        "Type": "FinishMainMission",
        "Param": "1000201"
      }
    ],
    "ShowCondition": []
  },
  "400": {
    "UnlockID": 400,
    "Conditions": [
      {
        "Type": "FinishMainMission",
        "Param": "1000101"
      }
    ],
    "ShowCondition": []
  },
  "401": {
    "UnlockID": 401,
    "Conditions": [
      {
        "Type": "FinishMainMission",
        "Param": "1000202"
      }
    ],
    "ShowCondition": []
  },
  "402": {
    "UnlockID": 402,
    "Conditions": [
      {
        "Type": "FinishMainMission",
        "Param": "1000111"
      }
    ],
    "ShowCondition": []
  },
  "403": {
    "UnlockID": 403,
    "Conditions": [
      {
        "Type": "FinishMainMission",
        "Param": "1010503"
      }
    ],
    "ShowCondition": []
  },
  "404": {
    "UnlockID": 404,
    "Conditions": [
      {
        "Type": "FinishMainMission",
        "Param": "1011502"
      }
    ],
    "ShowCondition": []
  },
  "500": {
    "UnlockID": 500,
    "Conditions": [
      {
        "Type": "FinishMainMission",
        "Param": "1000101"
      }
    ],
    "ShowCondition": []
  },
  "508": {
    "UnlockID": 508,
    "Conditions": [
      {
        "Type": "FinishMainMission",
        "Param": "1000101"
      },
      {
        "Type": "CanUseFoodInRogue",
        "Param": "0"
      }
    ],
    "ShowCondition": []
  },
  "600": {
    "UnlockID": 600,
    "Conditions": [
      {
        "Type": "FinishMainMission",
        "Param": "1000301"
      }
    ],
    "ShowCondition": []
  },
  "608": {
    "UnlockID": 608,
    "Conditions": [
      {
        "Type": "FinishMainMission",
        "Param": "1000301"
      },
      {
        "Type": "PlayerLevel",
        "Param": "15"
      }
    ],
    "ShowCondition": []
  },
  "610": {
    "UnlockID": 610,
    "Conditions": [
      {
        "Type": "FinishMainMission",
        "Param": "1000301"
      },
      {
        "Type": "PlayerLevel",
        "Param": "40"
      }
    ],
    "ShowCondition": []
  },
  "612": {
    "UnlockID": 612,
    "Conditions": [
      {
        "Type": "FinishMainMission",
        "Param": "1000301"
      },
      {
        "Type": "PlayerLevel",
        "Param": "30"
      }
    ],
    "ShowCondition": []
  },
  "700": {
    "UnlockID": 700,
    "Conditions": [
      {
        "Type": "PlayerLevel",
        "Param": "1"
      }
    ],
    "ShowCondition": []
  },
  "800": {
    "UnlockID": 800,
    "Conditions": [
      {
        "Type": "FinishMainMission",
        "Param": "1000510"
      }
    ],
    "ShowCondition": [
      "HasActivity"
    ]
  },
  "900": {
    "UnlockID": 900,
    "Conditions": [
      {
        "Type": "FinishMainMission",
        "Param": "1000301"
      }
    ],
    "ShowCondition": []
  },
  "1400": {
    "UnlockID": 1400,
    "Conditions": [
      {
        "Type": "PlayerLevel",
        "Param": "1"
      }
    ],
    "ShowCondition": []
  },
  "1500": {
    "UnlockID": 1500,
    "Conditions": [
      {
        "Type": "FinishMainMission",
        "Param": "1000113"
      }
    ],
    "ShowCondition": []
  },
  "1800": {
    "UnlockID": 1800,
    "Conditions": [
      {
        "Type": "FinishMainMission",
        "Param": "1000402"
      }
    ],
    "ShowCondition": []
  },
  "1900": {
    "UnlockID": 1900,
    "Conditions": [
      {
        "Type": "PlayerLevel",
        "Param": "1"
      }
    ],
    "ShowCondition": []
  },
  "2000": {
    "UnlockID": 2000,
    "Conditions": [
      {
        "Type": "PlayerLevel",
        "Param": "1"
      }
    ],
    "ShowCondition": []
  },
  "2100": {
    "UnlockID": 2100,
    "Conditions": [
      {
        "Type": "FinishMainMission",
        "Param": "1000501"
      },
      {
        "Type": "PlayerLevel",
        "Param": "99"
      }
    ],
    "ShowCondition": []
  },
  "2300": {
    "UnlockID": 2300,
    "Conditions": [
      {
        "Type": "FinishMainMission",
        "Param": "1000301"
      }
    ],
    "ShowCondition": []
  },
  "2500": {
    "UnlockID": 2500,
    "Conditions": [
      {
        "Type": "FinishMainMission",
        "Param": "1000112"
      }
    ],
    "ShowCondition": []
  },
  "2800": {
    "UnlockID": 2800,
    "Conditions": [
      {
        "Type": "FinishMainMission",
        "Param": "1000201"
      }
    ],
    "ShowCondition": []
  },
  "2900": {
    "UnlockID": 2900,
    "Conditions": [
      {
        "Type": "FinishMainMission",
        "Param": "1000400"
      }
    ],
    "ShowCondition": []
  },
  "3100": {
    "UnlockID": 3100,
    "Conditions": [
      {
        "Type": "FinishMainMission",
        "Param": "1010403"
      },
      {
        "Type": "PlayerLevel",
        "Param": "12"
      }
    ],
    "ShowCondition": []
  },
  "3101": {
    "UnlockID": 3101,
    "Conditions": [
      {
        "Type": "FinishMainMission",
        "Param": "1010403"
      },
      {
        "Type": "PlayerLevel",
        "Param": "12"
      }
    ],
    "ShowCondition": []
  },
  "3102": {
    "UnlockID": 3102,
    "Conditions": [
      {
        "Type": "FinishMainMission",
        "Param": "1010403"
      },
      {
        "Type": "PlayerLevel",
        "Param": "12"
      }
    ],
    "ShowCondition": []
  },
  "3103": {
    "UnlockID": 3103,
    "Conditions": [
      {
        "Type": "FinishMainMission",
        "Param": "1010501"
      }
    ],
    "ShowCondition": []
  },
  "3104": {
    "UnlockID": 3104,
    "Conditions": [
      {
        "Type": "FinishMainMission",
        "Param": "1010501"
      }
    ],
    "ShowCondition": []
  },
  "3105": {
    "UnlockID": 3105,
    "Conditions": [
      {
        "Type": "FinishMainMission",
        "Param": "1020301"
      }
    ],
    "ShowCondition": []
  },
  "3106": {
    "UnlockID": 3106,
    "Conditions": [
      {
        "Type": "FinishMainMission",
        "Param": "1020301"
      }
    ],
    "ShowCondition": []
  },
  "3107": {
    "UnlockID": 3107,
    "Conditions": [
      {
        "Type": "FinishMainMission",
        "Param": "1010403"
      },
      {
        "Type": "PlayerLevel",
        "Param": "12"
      }
    ],
    "ShowCondition": []
  },
  "3108": {
    "UnlockID": 3108,
    "Conditions": [
      {
        "Type": "FinishMainMission",
        "Param": "1010403"
      },
      {
        "Type": "PlayerLevel",
        "Param": "12"
      }
    ],
    "ShowCondition": []
  },
  "3109": {
    "UnlockID": 3109,
    "Conditions": [
      {
        "Type": "FinishMainMission",
        "Param": "1010403"
      },
      {
        "Type": "PlayerLevel",
        "Param": "12"
      }
    ],
    "ShowCondition": []
  },
  "3110": {
    "UnlockID": 3110,
    "Conditions": [
      {
        "Type": "FinishMainMission",
        "Param": "1020701"
      }
    ],
    "ShowCondition": []
  },
  "3111": {
    "UnlockID": 3111,
    "Conditions": [
      {
        "Type": "FinishMainMission",
        "Param": "1021201"
      }
    ],
    "ShowCondition": []
  },
  "3200": {
    "UnlockID": 3200,
    "Conditions": [
      {
        "Type": "PlayerLevel",
        "Param": "1"
      }
    ],
    "ShowCondition": []
  },
  "3300": {
    "UnlockID": 3300,
    "Conditions": [
      {
        "Type": "FinishMainMission",
        "Param": "4010136"
      }
    ],
    "ShowCondition": []
  },
  "3400": {
    "UnlockID": 3400,
    "Conditions": [
      {
        "Type": "FinishMainMission",
        "Param": "1000101"
      }
    ],
    "ShowCondition": []
  },
  "3600": {
    "UnlockID": 3600,
    "Conditions": [
      {
        "Type": "FinishMainMission",
        "Param": "8000102"
      }
    ],
    "ShowCondition": []
  },
  "3601": {
    "UnlockID": 3601,
    "Conditions": [
      {
        "Type": "PlayerLevel",
        "Param": "21"
      }
    ],
    "ShowCondition": []
  },
  "3602": {
    "UnlockID": 3602,
    "Conditions": [
      {
        "Type": "PlayerLevel",
        "Param": "21"
      }
    ],
    "ShowCondition": []
  },
  "3603": {
    "UnlockID": 3603,
    "Conditions": [
      {
        "Type": "PlayerLevel",
        "Param": "21"
      }
    ],
    "ShowCondition": []
  },
  "3604": {
    "UnlockID": 3604,
    "Conditions": [
      {
        "Type": "PlayerLevel",
        "Param": "21"
      },
      {
        "Type": "FinishMainMission",
        "Param": "1010701"
      }
    ],
    "ShowCondition": []
  },
  "3605": {
    "UnlockID": 3605,
    "Conditions": [
      {
        "Type": "PlayerLevel",
        "Param": "21"
      },
      {
        "Type": "FinishMainMission",
        "Param": "1010701"
      }
    ],
    "ShowCondition": []
  },
  "3606": {
    "UnlockID": 3606,
    "Conditions": [
      {
        "Type": "PlayerLevel",
        "Param": "21"
      }
    ],
    "ShowCondition": []
  },
  "3607": {
    "UnlockID": 3607,
    "Conditions": [
      {
        "Type": "PlayerLevel",
        "Param": "20"
      }
    ],
    "ShowCondition": []
  },
  "3608": {
    "UnlockID": 3608,
    "Conditions": [
      {
        "Type": "PlayerLevel",
        "Param": "21"
      }
    ],
    "ShowCondition": []
  },
  "3609": {
    "UnlockID": 3609,
    "Conditions": [
      {
        "Type": "PlayerLevel",
        "Param": "21"
      },
      {
        "Type": "FinishMainMission",
        "Param": "1010206"
      }
    ],
    "ShowCondition": []
  },
  "3610": {
    "UnlockID": 3610,
    "Conditions": [
      {
        "Type": "PlayerLevel",
        "Param": "21"
      },
      {
        "Type": "FinishMainMission",
        "Param": "1021702"
      }
    ],
    "ShowCondition": []
  },
  "3611": {
    "UnlockID": 3611,
    "Conditions": [
      {
        "Type": "PlayerLevel",
        "Param": "21"
      },
      {
        "Type": "FinishMainMission",
        "Param": "1021702"
      }
    ],
    "ShowCondition": []
  },
  "3612": {
    "UnlockID": 3612,
    "Conditions": [
      {
        "Type": "PlayerLevel",
        "Param": "21"
      },
      {
        "Type": "FinishMainMission",
        "Param": "2010203"
      }
    ],
    "ShowCondition": []
  },
  "3613": {
    "UnlockID": 3613,
    "Conditions": [
      {
        "Type": "PlayerLevel",
        "Param": "21"
      },
      {
        "Type": "FinishMainMission",
        "Param": "2010203"
      }
    ],
    "ShowCondition": []
  },
  "3614": {
    "UnlockID": 3614,
    "Conditions": [
      {
        "Type": "PlayerLevel",
        "Param": "21"
      }
    ],
    "ShowCondition": []
  },
  "3615": {
    "UnlockID": 3615,
    "Conditions": [
      {
        "Type": "PlayerLevel",
        "Param": "21"
      },
      {
        "Type": "FinishMainMission",
        "Param": "1010701"
      }
    ],
    "ShowCondition": []
  },
  "3616": {
    "UnlockID": 3616,
    "Conditions": [
      {
        "Type": "PlayerLevel",
        "Param": "21"
      },
      {
        "Type": "FinishMainMission",
        "Param": "1021702"
      }
    ],
    "ShowCondition": []
  },
  "3617": {
    "UnlockID": 3617,
    "Conditions": [
      {
        "Type": "PlayerLevel",
        "Param": "21"
      },
      {
        "Type": "FinishMainMission",
        "Param": "1021702"
      }
    ],
    "ShowCondition": []
  },
  "3618": {
    "UnlockID": 3618,
    "Conditions": [
      {
        "Type": "PlayerLevel",
        "Param": "21"
      },
      {
        "Type": "FinishMainMission",
        "Param": "1011001"
      }
    ],
    "ShowCondition": []
  },
  "3700": {
    "UnlockID": 3700,
    "Conditions": [
      {
        "Type": "PlayerLevel",
        "Param": "21"
      }
    ],
    "ShowCondition": []
  },
  "3900": {
    "UnlockID": 3900,
    "Conditions": [
      {
        "Type": "PlayerLevel",
        "Param": "1"
      }
    ],
    "ShowCondition": []
  },
  "4100": {
    "UnlockID": 4100,
    "Conditions": [
      {
        "Type": "FinishMainMission",
        "Param": "1010403"
      },
      {
        "Type": "PlayerLevel",
        "Param": "14"
      }
    ],
    "ShowCondition": []
  },
  "4300": {
    "UnlockID": 4300,
    "Conditions": [
      {
        "Type": "FinishMainMission",
        "Param": "1000505"
      }
    ],
    "ShowCondition": []
  },
  "4700": {
    "UnlockID": 4700,
    "Conditions": [
      {
        "Type": "FinishMainMission",
        "Param": "1000301"
      }
    ],
    "ShowCondition": []
  },
  "222": {
    "UnlockID": 222,
    "Conditions": [
      {
        "Type": "FinishMainMission",
        "Param": "1000401"
      }
    ],
    "ShowCondition": []
  },
  "223": {
    "UnlockID": 223,
    "Conditions": [
      {
        "Type": "FinishMainMission",
        "Param": "1010101"
      }
    ],
    "ShowCondition": []
  },
  "224": {
    "UnlockID": 224,
    "Conditions": [
      {
        "Type": "FinishMainMission",
        "Param": "1020501"
      }
    ],
    "ShowCondition": []
  },
  "225": {
    "UnlockID": 225,
    "Conditions": [
      {
        "Type": "FinishMainMission",
        "Param": "2000704"
      }
    ],
    "ShowCondition": []
  },
  "227": {
    "UnlockID": 227,
    "Conditions": [
      {
        "Type": "FinishMainMission",
        "Param": "2010720"
      }
    ],
    "ShowCondition": []
  },
  "228": {
    "UnlockID": 228,
    "Conditions": [
      {
        "Type": "FinishMainMission",
        "Param": "2011901"
      }
    ],
    "ShowCondition": []
  },
  "1202": {
    "UnlockID": 1202,
    "Conditions": [
      {
        "Type": "FinishMainMission",
        "Param": "1000501"
      },
      {
        "Type": "PlayerLevel",
        "Param": "11"
      }
    ],
    "ShowCondition": []
  },
  "1203": {
    "UnlockID": 1203,
    "Conditions": [
      {
        "Type": "FinishMainMission",
        "Param": "1000501"
      },
      {
        "Type": "PlayerLevel",
        "Param": "11"
      }
    ],
    "ShowCondition": []
  },
  "9901": {
    "UnlockID": 9901,
    "Conditions": [
      {
        "Type": "FinishMainMission",
        "Param": "1010403"
      }
    ],
    "ShowCondition": []
  },
  "9902": {
    "UnlockID": 9902,
    "Conditions": [
      {
        "Type": "PlayerLevel",
        "Param": "1"
      }
    ],
    "ShowCondition": []
  },
  "9903": {
    "UnlockID": 9903,
    "Conditions": [
      {
        "Type": "FinishMainMission",
        "Param": "4010121"
      }
    ],
    "ShowCondition": []
  },
  "9904": {
    "UnlockID": 9904,
    "Conditions": [
      {
        "Type": "FinishMainMission",
        "Param": "1000204"
      }
    ],
    "ShowCondition": []
  },
  "9905": {
    "UnlockID": 9905,
    "Conditions": [
      {
        "Type": "PlayerLevel",
        "Param": "1"
      }
    ],
    "ShowCondition": []
  },
  "9906": {
    "UnlockID": 9906,
    "Conditions": [
      {
        "Type": "FinishMainMission",
        "Param": "1000111"
      }
    ],
    "ShowCondition": []
  },
  "9907": {
    "UnlockID": 9907,
    "Conditions": [
      {
        "Type": "FinishMainMission",
        "Param": "1000501"
      }
    ],
    "ShowCondition": []
  },
  "9908": {
    "UnlockID": 9908,
    "Conditions": [
      {
        "Type": "PlayerLevel",
        "Param": "1"
      }
    ],
    "ShowCondition": []
  },
  "9909": {
    "UnlockID": 9909,
    "Conditions": [
      {
        "Type": "FinishMainMission",
        "Param": "1010001"
      }
    ],
    "ShowCondition": []
  },
  "9910": {
    "UnlockID": 9910,
    "Conditions": [
      {
        "Type": "FinishMainMission",
        "Param": "1000401"
      }
    ],
    "ShowCondition": []
  },
  "9911": {
    "UnlockID": 9911,
    "Conditions": [
      {
        "Type": "FinishMainMission",
        "Param": "4010105"
      }
    ],
    "ShowCondition": []
  },
  "9912": {
    "UnlockID": 9912,
    "Conditions": [
      {
        "Type": "FinishMainMission",
        "Param": "1000101"
      }
    ],
    "ShowCondition": []
  },
  "9913": {
    "UnlockID": 9913,
    "Conditions": [
      {
        "Type": "FinishMainMission",
        "Param": "4010121"
      }
    ],
    "ShowCondition": []
  },
  "9914": {
    "UnlockID": 9914,
    "Conditions": [
      {
        "Type": "FinishMainMission",
        "Param": "4010123"
      }
    ],
    "ShowCondition": []
  },
  "9915": {
    "UnlockID": 9915,
    "Conditions": [
      {
        "Type": "FinishMainMission",
        "Param": "4010127"
      }
    ],
    "ShowCondition": []
  },
  "9916": {
    "UnlockID": 9916,
    "Conditions": [
      {
        "Type": "FinishMainMission",
        "Param": "4010125"
      }
    ],
    "ShowCondition": []
  },
  "9917": {
    "UnlockID": 9917,
    "Conditions": [
      {
        "Type": "FinishMainMission",
        "Param": "4010115"
      }
    ],
    "ShowCondition": []
  },
  "9924": {
    "UnlockID": 9924,
    "Conditions": [
      {
        "Type": "FinishMainMission",
        "Param": "4010121"
      }
    ],
    "ShowCondition": []
  },
  "9925": {
    "UnlockID": 9925,
    "Conditions": [
      {
        "Type": "FinishMainMission",
        "Param": "4010123"
      }
    ],
    "ShowCondition": []
  },
  "9926": {
    "UnlockID": 9926,
    "Conditions": [
      {
        "Type": "FinishMainMission",
        "Param": "4010127"
      }
    ],
    "ShowCondition": []
  },
  "9927": {
    "UnlockID": 9927,
    "Conditions": [
      {
        "Type": "FinishMainMission",
        "Param": "4010125"
      }
    ],
    "ShowCondition": []
  },
  "9928": {
    "UnlockID": 9928,
    "Conditions": [
      {
        "Type": "FinishMainMission",
        "Param": "4010115"
      }
    ],
    "ShowCondition": []
  },
  "9929": {
    "UnlockID": 9929,
    "Conditions": [
      {
        "Type": "FinishMainMission",
        "Param": "1010403"
      },
      {
        "Type": "FinishMainMission",
        "Param": "4030002"
      }
    ],
    "ShowCondition": []
  },
  "9930": {
    "UnlockID": 9930,
    "Conditions": [
      {
        "Type": "FinishMainMission",
        "Param": "4010105"
      }
    ],
    "ShowCondition": []
  },
  "9931": {
    "UnlockID": 9931,
    "Conditions": [
      {
        "Type": "FinishMainMission",
        "Param": "1000401"
      }
    ],
    "ShowCondition": []
  },
  "9932": {
    "UnlockID": 9932,
    "Conditions": [
      {
        "Type": "FinishMainMission",
        "Param": "1010401"
      }
    ],
    "ShowCondition": []
  },
  "9933": {
    "UnlockID": 9933,
    "Conditions": [
      {
        "Type": "FinishMainMission",
        "Param": "1020501"
      }
    ],
    "ShowCondition": []
  },
  "9934": {
    "UnlockID": 9934,
    "Conditions": [
      {
        "Type": "FinishMainMission",
        "Param": "4030002"
      },
      {
        "Type": "FinishMainMission",
        "Param": "4010116"
      }
    ],
    "ShowCondition": []
  },
  "9935": {
    "UnlockID": 9935,
    "Conditions": [
      {
        "Type": "FinishMainMission",
        "Param": "4020101"
      }
    ],
    "ShowCondition": []
  },
  "10000": {
    "UnlockID": 10000,
    "Conditions": [
      {
        "Type": "FinishMainMission",
        "Param": "1010301"
      }
    ],
    "ShowCondition": []
  },
  "10001": {
    "UnlockID": 10001,
    "Conditions": [
      {
        "Type": "FinishMainMission",
        "Param": "1010403"
      },
      {
        "Type": "PlayerLevel",
        "Param": "13"
      }
    ],
    "ShowCondition": [
      "InBPSchedule"
    ]
  },
  "10002": {
    "UnlockID": 10002,
    "Conditions": [
      {
        "Type": "PlayerLevel",
        "Param": "1"
      }
    ],
    "ShowCondition": []
  },
  "10003": {
    "UnlockID": 10003,
    "Conditions": [
      {
        "Type": "FinishMainMission",
        "Param": "1000503"
      }
    ],
    "ShowCondition": []
  },
  "19001": {
    "UnlockID": 19001,
    "Conditions": [
      {
        "Type": "FinishMainMission",
        "Param": "1000401"
      }
    ],
    "ShowCondition": []
  },
  "19002": {
    "UnlockID": 19002,
    "Conditions": [
      {
        "Type": "FinishMainMission",
        "Param": "1000401"
      }
    ],
    "ShowCondition": []
  },
  "21001": {
    "UnlockID": 21001,
    "Conditions": [
      {
        "Type": "FinishMainMission",
        "Param": "1010501"
      }
    ],
    "ShowCondition": []
  },
  "21002": {
    "UnlockID": 21002,
    "Conditions": [
      {
        "Type": "FinishMainMission",
        "Param": "1010501"
      }
    ],
    "ShowCondition": []
  },
  "21003": {
    "UnlockID": 21003,
    "Conditions": [
      {
        "Type": "FinishMainMission",
        "Param": "1010501"
      }
    ],
    "ShowCondition": []
  },
  "21004": {
    "UnlockID": 21004,
    "Conditions": [
      {
        "Type": "FinishMainMission",
        "Param": "1010501"
      }
    ],
    "ShowCondition": []
  },
  "22001": {
    "UnlockID": 22001,
    "Conditions": [
      {
        "Type": "FinishMainMission",
        "Param": "1010501"
      }
    ],
    "ShowCondition": []
  },
  "22002": {
    "UnlockID": 22002,
    "Conditions": [
      {
        "Type": "FinishMainMission",
        "Param": "1010501"
      }
    ],
    "ShowCondition": []
  },
  "22003": {
    "UnlockID": 22003,
    "Conditions": [
      {
        "Type": "FinishMainMission",
        "Param": "1010501"
      }
    ],
    "ShowCondition": []
  },
  "22004": {
    "UnlockID": 22004,
    "Conditions": [
      {
        "Type": "FinishMainMission",
        "Param": "1010501"
      }
    ],
    "ShowCondition": []
  },
  "22005": {
    "UnlockID": 22005,
    "Conditions": [
      {
        "Type": "FinishMainMission",
        "Param": "1010501"
      }
    ],
    "ShowCondition": []
  },
  "22006": {
    "UnlockID": 22006,
    "Conditions": [
      {
        "Type": "FinishMainMission",
        "Param": "1010501"
      }
    ],
    "ShowCondition": []
  },
  "22007": {
    "UnlockID": 22007,
    "Conditions": [
      {
        "Type": "FinishMainMission",
        "Param": "1010501"
      }
    ],
    "ShowCondition": []
  },
  "23001": {
    "UnlockID": 23001,
    "Conditions": [
      {
        "Type": "FinishMainMission",
        "Param": "4010127"
      }
    ],
    "ShowCondition": []
  },
  "23002": {
    "UnlockID": 23002,
    "Conditions": [
      {
        "Type": "FinishMainMission",
        "Param": "4010127"
      }
    ],
    "ShowCondition": []
  },
  "23003": {
    "UnlockID": 23003,
    "Conditions": [
      {
        "Type": "FinishMainMission",
        "Param": "4010127"
      }
    ],
    "ShowCondition": []
  },
  "23004": {
    "UnlockID": 23004,
    "Conditions": [
      {
        "Type": "FinishMainMission",
        "Param": "4010127"
      }
    ],
    "ShowCondition": []
  },
  "23005": {
    "UnlockID": 23005,
    "Conditions": [
      {
        "Type": "FinishMainMission",
        "Param": "4010127"
      }
    ],
    "ShowCondition": []
  },
  "23006": {
    "UnlockID": 23006,
    "Conditions": [
      {
        "Type": "FinishMainMission",
        "Param": "4010127"
      }
    ],
    "ShowCondition": []
  },
  "23007": {
    "UnlockID": 23007,
    "Conditions": [
      {
        "Type": "FinishMainMission",
        "Param": "4010127"
      }
    ],
    "ShowCondition": []
  },
  "23008": {
    "UnlockID": 23008,
    "Conditions": [
      {
        "Type": "FinishMainMission",
        "Param": "4010121"
      }
    ],
    "ShowCondition": []
  },
  "23009": {
    "UnlockID": 23009,
    "Conditions": [
      {
        "Type": "FinishMainMission",
        "Param": "4010121"
      }
    ],
    "ShowCondition": []
  },
  "23010": {
    "UnlockID": 23010,
    "Conditions": [
      {
        "Type": "FinishMainMission",
        "Param": "4010121"
      }
    ],
    "ShowCondition": []
  },
  "23011": {
    "UnlockID": 23011,
    "Conditions": [
      {
        "Type": "FinishMainMission",
        "Param": "4010127"
      }
    ],
    "ShowCondition": []
  },
  "23012": {
    "UnlockID": 23012,
    "Conditions": [
      {
        "Type": "FinishMainMission",
        "Param": "4010127"
      }
    ],
    "ShowCondition": []
  },
  "23013": {
    "UnlockID": 23013,
    "Conditions": [
      {
        "Type": "FinishMainMission",
        "Param": "4010127"
      }
    ],
    "ShowCondition": []
  },
  "23014": {
    "UnlockID": 23014,
    "Conditions": [
      {
        "Type": "FinishMainMission",
        "Param": "4010127"
      },
      {
        "Type": "FinishMainMission",
        "Param": "1021501"
      }
    ],
    "ShowCondition": []
  },
  "23015": {
    "UnlockID": 23015,
    "Conditions": [
      {
        "Type": "FinishMainMission",
        "Param": "4010127"
      }
    ],
    "ShowCondition": []
  },
  "23016": {
    "UnlockID": 23016,
    "Conditions": [
      {
        "Type": "FinishMainMission",
        "Param": "4010127"
      },
      {
        "Type": "FinishMainMission",
        "Param": "1021201"
      }
    ],
    "ShowCondition": []
  },
  "23017": {
    "UnlockID": 23017,
    "Conditions": [
      {
        "Type": "FinishMainMission",
        "Param": "4010127"
      }
    ],
    "ShowCondition": []
  },
  "23101": {
    "UnlockID": 23101,
    "Conditions": [
      {
        "Type": "FinishMainMission",
        "Param": "4010123"
      }
    ],
    "ShowCondition": []
  },
  "23102": {
    "UnlockID": 23102,
    "Conditions": [
      {
        "Type": "FinishMainMission",
        "Param": "4010123"
      }
    ],
    "ShowCondition": []
  },
  "23103": {
    "UnlockID": 23103,
    "Conditions": [
      {
        "Type": "FinishMainMission",
        "Param": "4010123"
      }
    ],
    "ShowCondition": []
  },
  "23104": {
    "UnlockID": 23104,
    "Conditions": [
      {
        "Type": "FinishMainMission",
        "Param": "4010123"
      }
    ],
    "ShowCondition": []
  },
  "23105": {
    "UnlockID": 23105,
    "Conditions": [
      {
        "Type": "FinishMainMission",
        "Param": "4010123"
      }
    ],
    "ShowCondition": []
  },
  "23106": {
    "UnlockID": 23106,
    "Conditions": [
      {
        "Type": "FinishMainMission",
        "Param": "4010123"
      }
    ],
    "ShowCondition": []
  },
  "23107": {
    "UnlockID": 23107,
    "Conditions": [
      {
        "Type": "FinishMainMission",
        "Param": "4010123"
      }
    ],
    "ShowCondition": []
  },
  "23108": {
    "UnlockID": 23108,
    "Conditions": [
      {
        "Type": "FinishMainMission",
        "Param": "4010125"
      }
    ],
    "ShowCondition": []
  },
  "23109": {
    "UnlockID": 23109,
    "Conditions": [
      {
        "Type": "FinishMainMission",
        "Param": "4010125"
      }
    ],
    "ShowCondition": []
  },
  "23110": {
    "UnlockID": 23110,
    "Conditions": [
      {
        "Type": "FinishMainMission",
        "Param": "4010125"
      }
    ],
    "ShowCondition": []
  },
  "23111": {
    "UnlockID": 23111,
    "Conditions": [
      {
        "Type": "FinishMainMission",
        "Param": "4010125"
      }
    ],
    "ShowCondition": []
  },
  "23112": {
    "UnlockID": 23112,
    "Conditions": [
      {
        "Type": "FinishMainMission",
        "Param": "4010125"
      }
    ],
    "ShowCondition": []
  },
  "23113": {
    "UnlockID": 23113,
    "Conditions": [
      {
        "Type": "FinishMainMission",
        "Param": "4010125"
      }
    ],
    "ShowCondition": []
  },
  "23201": {
    "UnlockID": 23201,
    "Conditions": [
      {
        "Type": "FinishMainMission",
        "Param": "4010125"
      }
    ],
    "ShowCondition": []
  },
  "23299": {
    "UnlockID": 23299,
    "Conditions": [
      {
        "Type": "FinishMainMission",
        "Param": "4030004"
      },
      {
        "Type": "FinishMainMission",
        "Param": "1011502"
      }
    ],
    "ShowCondition": []
  },
  "23301": {
    "UnlockID": 23301,
    "Conditions": [
      {
        "Type": "FinishMainMission",
        "Param": "4010125"
      },
      {
        "Type": "WorldLevel",
        "Param": "3"
      }
    ],
    "ShowCondition": []
  },
  "23399": {
    "UnlockID": 23399,
    "Conditions": [
      {
        "Type": "FinishMainMission",
        "Param": "4030004"
      },
      {
        "Type": "FinishMainMission",
        "Param": "1011502"
      },
      {
        "Type": "WorldLevel",
        "Param": "3"
      }
    ],
    "ShowCondition": []
  },
  "24001": {
    "UnlockID": 24001,
    "Conditions": [
      {
        "Type": "FinishMainMission",
        "Param": "4010115"
      }
    ],
    "ShowCondition": []
  },
  "24002": {
    "UnlockID": 24002,
    "Conditions": [
      {
        "Type": "FinishMainMission",
        "Param": "4010115"
      }
    ],
    "ShowCondition": []
  },
  "24003": {
    "UnlockID": 24003,
    "Conditions": [
      {
        "Type": "FinishMainMission",
        "Param": "4010115"
      },
      {
        "Type": "FinishMainMission",
        "Param": "1021501"
      }
    ],
    "ShowCondition": []
  },
  "50000": {
    "UnlockID": 50000,
    "Conditions": [
      {
        "Type": "FinishMainMission",
        "Param": "4030003"
      }
    ],
    "ShowCondition": []
  },
  "50001": {
    "UnlockID": 50001,
    "Conditions": [
      {
        "Type": "FinishMainMission",
        "Param": "4030002"
      }
    ],
    "ShowCondition": []
  },
  "50002": {
    "UnlockID": 50002,
    "Conditions": [
      {
        "Type": "FinishMainMission",
        "Param": "4030003"
      }
    ],
    "ShowCondition": []
  },
  "50003": {
    "UnlockID": 50003,
    "Conditions": [
      {
        "Type": "FinishMainMission",
        "Param": "4030002"
      }
    ],
    "ShowCondition": []
  },
  "50004": {
    "UnlockID": 50004,
    "Conditions": [
      {
        "Type": "PlayerLevel",
        "Param": "31"
      }
    ],
    "ShowCondition": []
  },
  "50005": {
    "UnlockID": 50005,
    "Conditions": [
      {
        "Type": "FinishMainMission",
        "Param": "4030007"
      }
    ],
    "ShowCondition": []
  },
  "50006": {
    "UnlockID": 50006,
    "Conditions": [
      {
        "Type": "FinishMainMission",
        "Param": "4030002"
      }
    ],
    "ShowCondition": []
  },
  "50007": {
    "UnlockID": 50007,
    "Conditions": [
      {
        "Type": "FinishMainMission",
        "Param": "4030002"
      }
    ],
    "ShowCondition": []
  },
  "50008": {
    "UnlockID": 50008,
    "Conditions": [
      {
        "Type": "FinishMainMission",
        "Param": "4030002"
      }
    ],
    "ShowCondition": []
  },
  "50009": {
    "UnlockID": 50009,
    "Conditions": [
      {
        "Type": "FinishMainMission",
        "Param": "4030002"
      }
    ],
    "ShowCondition": []
  },
  "50010": {
    "UnlockID": 50010,
    "Conditions": [
      {
        "Type": "PlayerLevel",
        "Param": "1"
      }
    ],
    "ShowCondition": []
  },
  "50011": {
    "UnlockID": 50011,
    "Conditions": [
      {
        "Type": "FinishMainMission",
        "Param": "4030004"
      },
      {
        "Type": "FinishMainMission",
        "Param": "1011403"
      }
    ],
    "ShowCondition": []
  },
  "50012": {
    "UnlockID": 50012,
    "Conditions": [
      {
        "Type": "FinishMainMission",
        "Param": "4030003"
      }
    ],
    "ShowCondition": []
  },
  "50013": {
    "UnlockID": 50013,
    "Conditions": [
      {
        "Type": "FinishMainMission",
        "Param": "8013102"
      }
    ],
    "ShowCondition": []
  },
  "50014": {
    "UnlockID": 50014,
    "Conditions": [
      {
        "Type": "FinishMainMission",
        "Param": "8013102"
      }
    ],
    "ShowCondition": []
  },
  "10004": {
    "UnlockID": 10004,
    "Conditions": [
      {
        "Type": "WorldLevel",
        "Param": "2"
      },
      {
        "Type": "FinishMainMission",
        "Param": "1010403"
      }
    ],
    "ShowCondition": []
  },
  "10005": {
    "UnlockID": 10005,
    "Conditions": [
      {
        "Type": "WorldLevel",
        "Param": "3"
      },
      {
        "Type": "FinishMainMission",
        "Param": "1010403"
      }
    ],
    "ShowCondition": []
  },
  "10006": {
    "UnlockID": 10006,
    "Conditions": [
      {
        "Type": "PlayerLevel",
        "Param": "14"
      },
      {
        "Type": "FinishMainMission",
        "Param": "1010403"
      }
    ],
    "ShowCondition": []
  },
  "10007": {
    "UnlockID": 10007,
    "Conditions": [
      {
        "Type": "FinishMainMission",
        "Param": "4010140"
      }
    ],
    "ShowCondition": []
  },
  "100001": {
    "UnlockID": 100001,
    "Conditions": [
      {
        "Type": "FinishMainMission",
        "Param": "8014101"
      }
    ],
    "ShowCondition": []
  },
  "100002": {
    "UnlockID": 100002,
    "Conditions": [
      {
        "Type": "FinishMainMission",
        "Param": "8014102"
      }
    ],
    "ShowCondition": []
  },
  "100003": {
    "UnlockID": 100003,
    "Conditions": [
      {
        "Type": "FinishMainMission",
        "Param": "8014103"
      }
    ],
    "ShowCondition": []
  },
  "100004": {
    "UnlockID": 100004,
    "Conditions": [
      {
        "Type": "FinishMainMission",
        "Param": "8014104"
      }
    ],
    "ShowCondition": []
  },
  "100005": {
    "UnlockID": 100005,
    "Conditions": [
      {
        "Type": "FinishMainMission",
        "Param": "8014102"
      }
    ],
    "ShowCondition": []
  },
  "100006": {
    "UnlockID": 100006,
    "Conditions": [
      {
        "Type": "FinishSubMission",
        "Param": "801410229"
      }
    ],
    "ShowCondition": []
  },
  "100007": {
    "UnlockID": 100007,
    "Conditions": [
      {
        "Type": "FinishSubMission",
        "Param": "801410317"
      }
    ],
    "ShowCondition": []
  },
  "100008": {
    "UnlockID": 100008,
    "Conditions": [
      {
        "Type": "FinishSubMission",
        "Param": "801410419"
      }
    ],
    "ShowCondition": []
  },
  "100009": {
    "UnlockID": 100009,
    "Conditions": [
      {
        "Type": "FinishSubMission",
        "Param": "801410520"
      }
    ],
    "ShowCondition": []
  },
  "100010": {
    "UnlockID": 100010,
    "Conditions": [
      {
        "Type": "FinishMainMission",
        "Param": "8014102"
      },
      {
        "Type": "FinishMainMission",
        "Param": "8014121"
      },
      {
        "Type": "FinishMainMission",
        "Param": "8014122"
      },
      {
        "Type": "FinishMainMission",
        "Param": "8014123"
      },
      {
        "Type": "FinishMainMission",
        "Param": "8014124"
      }
    ],
    "ShowCondition": []
  },
  "100011": {
    "UnlockID": 100011,
    "Conditions": [
      {
        "Type": "FinishMainMission",
        "Param": "8014102"
      },
      {
        "Type": "FinishMainMission",
        "Param": "8014125"
      },
      {
        "Type": "FinishMainMission",
        "Param": "8014126"
      },
      {
        "Type": "FinishMainMission",
        "Param": "8014127"
      },
      {
        "Type": "FinishMainMission",
        "Param": "8014128"
      }
    ],
    "ShowCondition": []
  },
  "100012": {
    "UnlockID": 100012,
    "Conditions": [
      {
        "Type": "FinishMainMission",
        "Param": "8014102"
      },
      {
        "Type": "FinishMainMission",
        "Param": "8014129"
      },
      {
        "Type": "FinishMainMission",
        "Param": "8014130"
      },
      {
        "Type": "FinishMainMission",
        "Param": "8014131"
      },
      {
        "Type": "FinishMainMission",
        "Param": "8014132"
      }
    ],
    "ShowCondition": []
  },
  "100013": {
    "UnlockID": 100013,
    "Conditions": [
      {
        "Type": "FinishMainMission",
        "Param": "8014106"
      },
      {
        "Type": "FinishMainMission",
        "Param": "8014133"
      },
      {
        "Type": "FinishMainMission",
        "Param": "8014134"
      },
      {
        "Type": "FinishMainMission",
        "Param": "8014135"
      },
      {
        "Type": "FinishMainMission",
        "Param": "8014136"
      }
    ],
    "ShowCondition": []
  },
  "100014": {
    "UnlockID": 100014,
    "Conditions": [
      {
        "Type": "FinishMainMission",
        "Param": "8014106"
      },
      {
        "Type": "FinishMainMission",
        "Param": "8014137"
      },
      {
        "Type": "FinishMainMission",
        "Param": "8014138"
      },
      {
        "Type": "FinishMainMission",
        "Param": "8014139"
      },
      {
        "Type": "FinishMainMission",
        "Param": "8014140"
      }
    ],
    "ShowCondition": []
  },
  "100015": {
    "UnlockID": 100015,
    "Conditions": [
      {
        "Type": "FinishMainMission",
        "Param": "8014106"
      }
    ],
    "ShowCondition": []
  },
  "100016": {
    "UnlockID": 100016,
    "Conditions": [
      {
        "Type": "FinishSubMission",
        "Param": "801410213"
      }
    ],
    "ShowCondition": []
  },
  "100017": {
    "UnlockID": 100017,
    "Conditions": [
      {
        "Type": "FinishSubMission",
        "Param": "801410314"
      }
    ],
    "ShowCondition": []
  },
  "100018": {
    "UnlockID": 100018,
    "Conditions": [
      {
        "Type": "FinishSubMission",
        "Param": "801410416"
      }
    ],
    "ShowCondition": []
  },
  "100019": {
    "UnlockID": 100019,
    "Conditions": [
      {
        "Type": "FinishSubMission",
        "Param": "801410519"
      }
    ],
    "ShowCondition": []
  },
  "101001": {
    "UnlockID": 101001,
    "Conditions": [
      {
        "Type": "FinishMainMission",
        "Param": "8003213"
      }
    ],
    "ShowCondition": []
  },
  "101002": {
    "UnlockID": 101002,
    "Conditions": [
      {
        "Type": "FinishMainMission",
        "Param": "8003280"
      }
    ],
    "ShowCondition": []
  },
  "101003": {
    "UnlockID": 101003,
    "Conditions": [
      {
        "Type": "FinishMainMission",
        "Param": "8003220"
      }
    ],
    "ShowCondition": []
  },
  "101201": {
    "UnlockID": 101201,
    "Conditions": [
      {
        "Type": "FinishMainMission",
        "Param": "8012101"
      }
    ],
    "ShowCondition": []
  },
  "101202": {
    "UnlockID": 101202,
    "Conditions": [
      {
        "Type": "FinishMainMission",
        "Param": "8012102"
      }
    ],
    "ShowCondition": []
  },
  "101203": {
    "UnlockID": 101203,
    "Conditions": [
      {
        "Type": "FinishMainMission",
        "Param": "8012103"
      }
    ],
    "ShowCondition": []
  },
  "101204": {
    "UnlockID": 101204,
    "Conditions": [
      {
        "Type": "FinishMainMission",
        "Param": "8012104"
      }
    ],
    "ShowCondition": []
  },
  "101205": {
    "UnlockID": 101205,
    "Conditions": [
      {
        "Type": "FinishMainMission",
        "Param": "8012105"
      }
    ],
    "ShowCondition": []
  },
  "101206": {
    "UnlockID": 101206,
    "Conditions": [
      {
        "Type": "FinishMainMission",
        "Param": "1011502"
      },
      {
        "Type": "FinishMainMission",
        "Param": "4010115"
      }
    ],
    "ShowCondition": []
  },
  "101207": {
    "UnlockID": 101207,
    "Conditions": [
      {
        "Type": "FinishMainMission",
        "Param": "8015101"
      }
    ],
    "ShowCondition": []
  },
  "103001": {
    "UnlockID": 103001,
    "Conditions": [
      {
        "Type": "FinishMainMission",
        "Param": "8014161"
      }
    ],
    "ShowCondition": []
  },
  "103002": {
    "UnlockID": 103002,
    "Conditions": [
      {
        "Type": "FinishMainMission",
        "Param": "8013103"
      }
    ],
    "ShowCondition": []
  }
}