{
  "11001": {
    "ID": 11001,
    "ItemMainType": "Material",
    "ItemSubType": "Eidolon",
    "InventoryDisplayTag": 1,
    "Rarity": "VeryRare",
    "ItemName": {
      "Hash": 1856383932
    },
    "ItemDesc": {
      "Hash": -1595175182
    },
    "ItemBGDesc": {
      "Hash": 371857150
    },
    "ItemIconPath": "SpriteOutput/ItemIcon/11001.png",
    "ItemFigureIconPath": "SpriteOutput/ItemIcon/11001.png",
    "ItemCurrencyIconPath": "SpriteOutput/ItemIcon/11001.png",
    "ItemAvatarIconPath": "",
    "PileLimit": 999,
    "CustomDataList": [],
    "ReturnItemIDList": []
  },
  "11002": {
    "ID": 11002,
    "ItemMainType": "Material",
    "ItemSubType": "Eidolon",
    "InventoryDisplayTag": 1,
    "Rarity": "VeryRare",
    "ItemName": {
      "Hash": -2035298837
    },
    "ItemDesc": {
      "Hash": 1133708173
    },
    "ItemBGDesc": {
      "Hash": 371857150
    },
    "ItemIconPath": "SpriteOutput/ItemIcon/11001.png",
    "ItemFigureIconPath": "SpriteOutput/ItemIcon/11001.png",
    "ItemCurrencyIconPath": "SpriteOutput/ItemIcon/11001.png",
    "ItemAvatarIconPath": "",
    "PileLimit": 999,
    "CustomDataList": [],
    "ReturnItemIDList": []
  },
  "11003": {
    "ID": 11003,
    "ItemMainType": "Material",
    "ItemSubType": "Eidolon",
    "InventoryDisplayTag": 1,
    "Rarity": "SuperRare",
    "ItemName": {
      "Hash": 693584518
    },
    "ItemDesc": {
      "Hash": -432375768
    },
    "ItemBGDesc": {
      "Hash": 371857150
    },
    "ItemIconPath": "SpriteOutput/ItemIcon/11003.png",
    "ItemFigureIconPath": "SpriteOutput/ItemIcon/11003.png",
    "ItemCurrencyIconPath": "SpriteOutput/ItemIcon/11003.png",
    "ItemAvatarIconPath": "",
    "PileLimit": 999,
    "CustomDataList": [],
    "ReturnItemIDList": []
  },
  "11004": {
    "ID": 11004,
    "ItemMainType": "Material",
    "ItemSubType": "Eidolon",
    "InventoryDisplayTag": 1,
    "Rarity": "SuperRare",
    "ItemName": {
      "Hash": 1096869045
    },
    "ItemDesc": {
      "Hash": 1940277227
    },
    "ItemBGDesc": {
      "Hash": 371857150
    },
    "ItemIconPath": "SpriteOutput/ItemIcon/11003.png",
    "ItemFigureIconPath": "SpriteOutput/ItemIcon/11003.png",
    "ItemCurrencyIconPath": "SpriteOutput/ItemIcon/11003.png",
    "ItemAvatarIconPath": "",
    "PileLimit": 999,
    "CustomDataList": [],
    "ReturnItemIDList": []
  },
  "11005": {
    "ID": 11005,
    "ItemMainType": "Material",
    "ItemSubType": "Eidolon",
    "InventoryDisplayTag": 1,
    "Rarity": "SuperRare",
    "ItemName": {
      "Hash": -469214896
    },
    "ItemDesc": {
      "Hash": 374193286
    },
    "ItemBGDesc": {
      "Hash": 371857150
    },
    "ItemIconPath": "SpriteOutput/ItemIcon/11003.png",
    "ItemFigureIconPath": "SpriteOutput/ItemIcon/11003.png",
    "ItemCurrencyIconPath": "SpriteOutput/ItemIcon/11003.png",
    "ItemAvatarIconPath": "",
    "PileLimit": 999,
    "CustomDataList": [],
    "ReturnItemIDList": []
  },
  "11006": {
    "ID": 11006,
    "ItemMainType": "Material",
    "ItemSubType": "Eidolon",
    "InventoryDisplayTag": 1,
    "Rarity": "SuperRare",
    "ItemName": {
      "Hash": -65930369
    },
    "ItemDesc": {
      "Hash": -1191890655
    },
    "ItemBGDesc": {
      "Hash": 371857150
    },
    "ItemIconPath": "SpriteOutput/ItemIcon/11003.png",
    "ItemFigureIconPath": "SpriteOutput/ItemIcon/11003.png",
    "ItemCurrencyIconPath": "SpriteOutput/ItemIcon/11003.png",
    "ItemAvatarIconPath": "",
    "PileLimit": 999,
    "CustomDataList": [],
    "ReturnItemIDList": []
  },
  "11008": {
    "ID": 11008,
    "ItemMainType": "Material",
    "ItemSubType": "Eidolon",
    "InventoryDisplayTag": 1,
    "Rarity": "VeryRare",
    "ItemName": {
      "Hash": -516269063
    },
    "ItemDesc": {
      "Hash": 327139119
    },
    "ItemBGDesc": {
      "Hash": 371857150
    },
    "ItemIconPath": "SpriteOutput/ItemIcon/11001.png",
    "ItemFigureIconPath": "SpriteOutput/ItemIcon/11001.png",
    "ItemCurrencyIconPath": "SpriteOutput/ItemIcon/11001.png",
    "ItemAvatarIconPath": "",
    "PileLimit": 999,
    "CustomDataList": [],
    "ReturnItemIDList": []
  },
  "11009": {
    "ID": 11009,
    "ItemMainType": "Material",
    "ItemSubType": "Eidolon",
    "InventoryDisplayTag": 1,
    "Rarity": "VeryRare",
    "ItemName": {
      "Hash": -2082353004
    },
    "ItemDesc": {
      "Hash": -1238944822
    },
    "ItemBGDesc": {
      "Hash": 371857150
    },
    "ItemIconPath": "SpriteOutput/ItemIcon/11001.png",
    "ItemFigureIconPath": "SpriteOutput/ItemIcon/11001.png",
    "ItemCurrencyIconPath": "SpriteOutput/ItemIcon/11001.png",
    "ItemAvatarIconPath": "",
    "PileLimit": 999,
    "CustomDataList": [],
    "ReturnItemIDList": []
  },
  "11013": {
    "ID": 11013,
    "ItemMainType": "Material",
    "ItemSubType": "Eidolon",
    "InventoryDisplayTag": 1,
    "Rarity": "VeryRare",
    "ItemName": {
      "Hash": 693584519
    },
    "ItemDesc": {
      "Hash": -432375767
    },
    "ItemBGDesc": {
      "Hash": 371857150
    },
    "ItemIconPath": "SpriteOutput/ItemIcon/11001.png",
    "ItemFigureIconPath": "SpriteOutput/ItemIcon/11001.png",
    "ItemCurrencyIconPath": "SpriteOutput/ItemIcon/11001.png",
    "ItemAvatarIconPath": "",
    "PileLimit": 999,
    "CustomDataList": [],
    "ReturnItemIDList": []
  },
  "11101": {
    "ID": 11101,
    "ItemMainType": "Material",
    "ItemSubType": "Eidolon",
    "InventoryDisplayTag": 1,
    "Rarity": "SuperRare",
    "ItemName": {
      "Hash": 1997546433
    },
    "ItemDesc": {
      "Hash": -1454012681
    },
    "ItemBGDesc": {
      "Hash": 371857150
    },
    "ItemIconPath": "SpriteOutput/ItemIcon/11003.png",
    "ItemFigureIconPath": "SpriteOutput/ItemIcon/11003.png",
    "ItemCurrencyIconPath": "SpriteOutput/ItemIcon/11003.png",
    "ItemAvatarIconPath": "",
    "PileLimit": 999,
    "CustomDataList": [],
    "ReturnItemIDList": []
  },
  "11102": {
    "ID": 11102,
    "ItemMainType": "Material",
    "ItemSubType": "Eidolon",
    "InventoryDisplayTag": 1,
    "Rarity": "SuperRare",
    "ItemName": {
      "Hash": -731336922
    },
    "ItemDesc": {
      "Hash": -1857297208
    },
    "ItemBGDesc": {
      "Hash": 371857150
    },
    "ItemIconPath": "SpriteOutput/ItemIcon/11003.png",
    "ItemFigureIconPath": "SpriteOutput/ItemIcon/11003.png",
    "ItemCurrencyIconPath": "SpriteOutput/ItemIcon/11003.png",
    "ItemAvatarIconPath": "",
    "PileLimit": 999,
    "CustomDataList": [],
    "ReturnItemIDList": []
  },
  "11103": {
    "ID": 11103,
    "ItemMainType": "Material",
    "ItemSubType": "Eidolon",
    "InventoryDisplayTag": 1,
    "Rarity": "VeryRare",
    "ItemName": {
      "Hash": 834747019
    },
    "ItemDesc": {
      "Hash": -291213267
    },
    "ItemBGDesc": {
      "Hash": 371857150
    },
    "ItemIconPath": "SpriteOutput/ItemIcon/11001.png",
    "ItemFigureIconPath": "SpriteOutput/ItemIcon/11001.png",
    "ItemCurrencyIconPath": "SpriteOutput/ItemIcon/11001.png",
    "ItemAvatarIconPath": "",
    "PileLimit": 999,
    "CustomDataList": [],
    "ReturnItemIDList": []
  },
  "11104": {
    "ID": 11104,
    "ItemMainType": "Material",
    "ItemSubType": "Eidolon",
    "InventoryDisplayTag": 1,
    "Rarity": "SuperRare",
    "ItemName": {
      "Hash": -1894136336
    },
    "ItemDesc": {
      "Hash": -1050728154
    },
    "ItemBGDesc": {
      "Hash": 371857150
    },
    "ItemIconPath": "SpriteOutput/ItemIcon/11003.png",
    "ItemFigureIconPath": "SpriteOutput/ItemIcon/11003.png",
    "ItemCurrencyIconPath": "SpriteOutput/ItemIcon/11003.png",
    "ItemAvatarIconPath": "",
    "PileLimit": 999,
    "CustomDataList": [],
    "ReturnItemIDList": []
  },
  "11105": {
    "ID": 11105,
    "ItemMainType": "Material",
    "ItemSubType": "Eidolon",
    "InventoryDisplayTag": 1,
    "Rarity": "VeryRare",
    "ItemName": {
      "Hash": -328052395
    },
    "ItemDesc": {
      "Hash": 515355787
    },
    "ItemBGDesc": {
      "Hash": 371857150
    },
    "ItemIconPath": "SpriteOutput/ItemIcon/11001.png",
    "ItemFigureIconPath": "SpriteOutput/ItemIcon/11001.png",
    "ItemCurrencyIconPath": "SpriteOutput/ItemIcon/11001.png",
    "ItemAvatarIconPath": "",
    "PileLimit": 999,
    "CustomDataList": [],
    "ReturnItemIDList": []
  },
  "11106": {
    "ID": 11106,
    "ItemMainType": "Material",
    "ItemSubType": "Eidolon",
    "InventoryDisplayTag": 1,
    "Rarity": "VeryRare",
    "ItemName": {
      "Hash": 1238031546
    },
    "ItemDesc": {
      "Hash": 112071260
    },
    "ItemBGDesc": {
      "Hash": 371857150
    },
    "ItemIconPath": "SpriteOutput/ItemIcon/11001.png",
    "ItemFigureIconPath": "SpriteOutput/ItemIcon/11001.png",
    "ItemCurrencyIconPath": "SpriteOutput/ItemIcon/11001.png",
    "ItemAvatarIconPath": "",
    "PileLimit": 999,
    "CustomDataList": [],
    "ReturnItemIDList": []
  },
  "11107": {
    "ID": 11107,
    "ItemMainType": "Material",
    "ItemSubType": "Eidolon",
    "InventoryDisplayTag": 1,
    "Rarity": "SuperRare",
    "ItemName": {
      "Hash": -1490851809
    },
    "ItemDesc": {
      "Hash": 1678155201
    },
    "ItemBGDesc": {
      "Hash": 371857150
    },
    "ItemIconPath": "SpriteOutput/ItemIcon/11003.png",
    "ItemFigureIconPath": "SpriteOutput/ItemIcon/11003.png",
    "ItemCurrencyIconPath": "SpriteOutput/ItemIcon/11003.png",
    "ItemAvatarIconPath": "",
    "PileLimit": 999,
    "CustomDataList": [],
    "ReturnItemIDList": []
  },
  "11108": {
    "ID": 11108,
    "ItemMainType": "Material",
    "ItemSubType": "Eidolon",
    "InventoryDisplayTag": 1,
    "Rarity": "VeryRare",
    "ItemName": {
      "Hash": 787692852
    },
    "ItemDesc": {
      "Hash": 1631101034
    },
    "ItemBGDesc": {
      "Hash": 371857150
    },
    "ItemIconPath": "SpriteOutput/ItemIcon/11001.png",
    "ItemFigureIconPath": "SpriteOutput/ItemIcon/11001.png",
    "ItemCurrencyIconPath": "SpriteOutput/ItemIcon/11001.png",
    "ItemAvatarIconPath": "",
    "PileLimit": 999,
    "CustomDataList": [],
    "ReturnItemIDList": []
  },
  "11109": {
    "ID": 11109,
    "ItemMainType": "Material",
    "ItemSubType": "Eidolon",
    "InventoryDisplayTag": 1,
    "Rarity": "VeryRare",
    "ItemName": {
      "Hash": -1941190503
    },
    "ItemDesc": {
      "Hash": -1097782321
    },
    "ItemBGDesc": {
      "Hash": 371857150
    },
    "ItemIconPath": "SpriteOutput/ItemIcon/11001.png",
    "ItemFigureIconPath": "SpriteOutput/ItemIcon/11001.png",
    "ItemCurrencyIconPath": "SpriteOutput/ItemIcon/11001.png",
    "ItemAvatarIconPath": "",
    "PileLimit": 999,
    "CustomDataList": [],
    "ReturnItemIDList": []
  },
  "11110": {
    "ID": 11110,
    "ItemMainType": "Material",
    "ItemSubType": "Eidolon",
    "InventoryDisplayTag": 1,
    "Rarity": "VeryRare",
    "ItemName": {
      "Hash": 431462493
    },
    "ItemDesc": {
      "Hash": 1274870675
    },
    "ItemBGDesc": {
      "Hash": 371857150
    },
    "ItemIconPath": "SpriteOutput/ItemIcon/11001.png",
    "ItemFigureIconPath": "SpriteOutput/ItemIcon/11001.png",
    "ItemCurrencyIconPath": "SpriteOutput/ItemIcon/11001.png",
    "ItemAvatarIconPath": "",
    "PileLimit": 999,
    "CustomDataList": [],
    "ReturnItemIDList": []
  },
  "11111": {
    "ID": 11111,
    "ItemMainType": "Material",
    "ItemSubType": "Eidolon",
    "InventoryDisplayTag": 1,
    "Rarity": "VeryRare",
    "ItemName": {
      "Hash": 1997546434
    },
    "ItemDesc": {
      "Hash": -1454012680
    },
    "ItemBGDesc": {
      "Hash": 371857150
    },
    "ItemIconPath": "SpriteOutput/ItemIcon/11001.png",
    "ItemFigureIconPath": "SpriteOutput/ItemIcon/11001.png",
    "ItemCurrencyIconPath": "SpriteOutput/ItemIcon/11001.png",
    "ItemAvatarIconPath": "",
    "PileLimit": 999,
    "CustomDataList": [],
    "ReturnItemIDList": []
  },
  "11201": {
    "ID": 11201,
    "ItemMainType": "Material",
    "ItemSubType": "Eidolon",
    "InventoryDisplayTag": 1,
    "Rarity": "VeryRare",
    "ItemName": {
      "Hash": 2138708934
    },
    "ItemDesc": {
      "Hash": -1877500184
    },
    "ItemBGDesc": {
      "Hash": 371857150
    },
    "ItemIconPath": "SpriteOutput/ItemIcon/11001.png",
    "ItemFigureIconPath": "SpriteOutput/ItemIcon/11001.png",
    "ItemCurrencyIconPath": "SpriteOutput/ItemIcon/11001.png",
    "ItemAvatarIconPath": "",
    "PileLimit": 999,
    "CustomDataList": [],
    "ReturnItemIDList": []
  },
  "11202": {
    "ID": 11202,
    "ItemMainType": "Material",
    "ItemSubType": "Eidolon",
    "InventoryDisplayTag": 1,
    "Rarity": "VeryRare",
    "ItemName": {
      "Hash": 572624993
    },
    "ItemDesc": {
      "Hash": -1474215657
    },
    "ItemBGDesc": {
      "Hash": 371857150
    },
    "ItemIconPath": "SpriteOutput/ItemIcon/11001.png",
    "ItemFigureIconPath": "SpriteOutput/ItemIcon/11001.png",
    "ItemCurrencyIconPath": "SpriteOutput/ItemIcon/11001.png",
    "ItemAvatarIconPath": "",
    "PileLimit": 999,
    "CustomDataList": [],
    "ReturnItemIDList": []
  },
  "11203": {
    "ID": 11203,
    "ItemMainType": "Material",
    "ItemSubType": "Eidolon",
    "InventoryDisplayTag": 1,
    "Rarity": "SuperRare",
    "ItemName": {
      "Hash": -993458948
    },
    "ItemDesc": {
      "Hash": 1254667698
    },
    "ItemBGDesc": {
      "Hash": 371857150
    },
    "ItemIconPath": "SpriteOutput/ItemIcon/11003.png",
    "ItemFigureIconPath": "SpriteOutput/ItemIcon/11003.png",
    "ItemCurrencyIconPath": "SpriteOutput/ItemIcon/11003.png",
    "ItemAvatarIconPath": "",
    "PileLimit": 999,
    "CustomDataList": [],
    "ReturnItemIDList": []
  },
  "11204": {
    "ID": 11204,
    "ItemMainType": "Material",
    "ItemSubType": "Eidolon",
    "InventoryDisplayTag": 1,
    "Rarity": "SuperRare",
    "ItemName": {
      "Hash": 1379194047
    },
    "ItemDesc": {
      "Hash": 1657952225
    },
    "ItemBGDesc": {
      "Hash": 371857150
    },
    "ItemIconPath": "SpriteOutput/ItemIcon/11003.png",
    "ItemFigureIconPath": "SpriteOutput/ItemIcon/11003.png",
    "ItemCurrencyIconPath": "SpriteOutput/ItemIcon/11003.png",
    "ItemAvatarIconPath": "",
    "PileLimit": 999,
    "CustomDataList": [],
    "ReturnItemIDList": []
  },
  "11205": {
    "ID": 11205,
    "ItemMainType": "Material",
    "ItemSubType": "Eidolon",
    "InventoryDisplayTag": 1,
    "Rarity": "SuperRare",
    "ItemName": {
      "Hash": -186889894
    },
    "ItemDesc": {
      "Hash": 91868284
    },
    "ItemBGDesc": {
      "Hash": 371857150
    },
    "ItemIconPath": "SpriteOutput/ItemIcon/11003.png",
    "ItemFigureIconPath": "SpriteOutput/ItemIcon/11003.png",
    "ItemCurrencyIconPath": "SpriteOutput/ItemIcon/11003.png",
    "ItemAvatarIconPath": "",
    "PileLimit": 999,
    "CustomDataList": [],
    "ReturnItemIDList": []
  },
  "11206": {
    "ID": 11206,
    "ItemMainType": "Material",
    "ItemSubType": "Eidolon",
    "InventoryDisplayTag": 1,
    "Rarity": "VeryRare",
    "ItemName": {
      "Hash": -1752973835
    },
    "ItemDesc": {
      "Hash": 495152811
    },
    "ItemBGDesc": {
      "Hash": 371857150
    },
    "ItemIconPath": "SpriteOutput/ItemIcon/11001.png",
    "ItemFigureIconPath": "SpriteOutput/ItemIcon/11001.png",
    "ItemCurrencyIconPath": "SpriteOutput/ItemIcon/11001.png",
    "ItemAvatarIconPath": "",
    "PileLimit": 999,
    "CustomDataList": [],
    "ReturnItemIDList": []
  },
  "11207": {
    "ID": 11207,
    "ItemMainType": "Material",
    "ItemSubType": "Eidolon",
    "InventoryDisplayTag": 1,
    "Rarity": "VeryRare",
    "ItemName": {
      "Hash": 975909520
    },
    "ItemDesc": {
      "Hash": -1070931130
    },
    "ItemBGDesc": {
      "Hash": 371857150
    },
    "ItemIconPath": "SpriteOutput/ItemIcon/11001.png",
    "ItemFigureIconPath": "SpriteOutput/ItemIcon/11001.png",
    "ItemCurrencyIconPath": "SpriteOutput/ItemIcon/11001.png",
    "ItemAvatarIconPath": "",
    "PileLimit": 999,
    "CustomDataList": [],
    "ReturnItemIDList": []
  },
  "11208": {
    "ID": 11208,
    "ItemMainType": "Material",
    "ItemSubType": "Eidolon",
    "InventoryDisplayTag": 1,
    "Rarity": "SuperRare",
    "ItemName": {
      "Hash": -233944061
    },
    "ItemDesc": {
      "Hash": 44814117
    },
    "ItemBGDesc": {
      "Hash": 371857150
    },
    "ItemIconPath": "SpriteOutput/ItemIcon/11003.png",
    "ItemFigureIconPath": "SpriteOutput/ItemIcon/11003.png",
    "ItemCurrencyIconPath": "SpriteOutput/ItemIcon/11003.png",
    "ItemAvatarIconPath": "",
    "PileLimit": 999,
    "CustomDataList": [],
    "ReturnItemIDList": []
  },
  "11209": {
    "ID": 11209,
    "ItemMainType": "Material",
    "ItemSubType": "Eidolon",
    "InventoryDisplayTag": 1,
    "Rarity": "SuperRare",
    "ItemName": {
      "Hash": -1800028002
    },
    "ItemDesc": {
      "Hash": -1521269824
    },
    "ItemBGDesc": {
      "Hash": 371857150
    },
    "ItemIconPath": "SpriteOutput/ItemIcon/11003.png",
    "ItemFigureIconPath": "SpriteOutput/ItemIcon/11003.png",
    "ItemCurrencyIconPath": "SpriteOutput/ItemIcon/11003.png",
    "ItemAvatarIconPath": "",
    "PileLimit": 999,
    "CustomDataList": [],
    "ReturnItemIDList": []
  },
  "11210": {
    "ID": 11210,
    "ItemMainType": "Material",
    "ItemSubType": "Eidolon",
    "InventoryDisplayTag": 1,
    "Rarity": "VeryRare",
    "ItemName": {
      "Hash": -590174420
    },
    "ItemDesc": {
      "Hash": -311416242
    },
    "ItemBGDesc": {
      "Hash": 371857150
    },
    "ItemIconPath": "SpriteOutput/ItemIcon/11001.png",
    "ItemFigureIconPath": "SpriteOutput/ItemIcon/11001.png",
    "ItemCurrencyIconPath": "SpriteOutput/ItemIcon/11001.png",
    "ItemAvatarIconPath": "",
    "PileLimit": 999,
    "CustomDataList": [],
    "ReturnItemIDList": []
  },
  "11211": {
    "ID": 11211,
    "ItemMainType": "Material",
    "ItemSubType": "Eidolon",
    "InventoryDisplayTag": 1,
    "Rarity": "SuperRare",
    "ItemName": {
      "Hash": 2138708935
    },
    "ItemDesc": {
      "Hash": -1877500183
    },
    "ItemBGDesc": {
      "Hash": 371857150
    },
    "ItemIconPath": "SpriteOutput/ItemIcon/11003.png",
    "ItemFigureIconPath": "SpriteOutput/ItemIcon/11003.png",
    "ItemCurrencyIconPath": "SpriteOutput/ItemIcon/11003.png",
    "ItemAvatarIconPath": "",
    "PileLimit": 999,
    "CustomDataList": [],
    "ReturnItemIDList": []
  },
  "11212": {
    "ID": 11212,
    "ItemMainType": "Material",
    "ItemSubType": "Eidolon",
    "InventoryDisplayTag": 1,
    "Rarity": "SuperRare",
    "ItemName": {
      "Hash": 572624994
    },
    "ItemDesc": {
      "Hash": -1474215656
    },
    "ItemBGDesc": {
      "Hash": 371857150
    },
    "ItemIconPath": "SpriteOutput/ItemIcon/11003.png",
    "ItemFigureIconPath": "SpriteOutput/ItemIcon/11003.png",
    "ItemCurrencyIconPath": "SpriteOutput/ItemIcon/11003.png",
    "ItemAvatarIconPath": "",
    "PileLimit": 999,
    "CustomDataList": [],
    "ReturnItemIDList": []
  },
  "11213": {
    "ID": 11213,
    "ItemMainType": "Material",
    "ItemSubType": "Eidolon",
    "InventoryDisplayTag": 1,
    "Rarity": "SuperRare",
    "ItemName": {
      "Hash": -993458947
    },
    "ItemDesc": {
      "Hash": 1254667699
    },
    "ItemBGDesc": {
      "Hash": 371857150
    },
    "ItemIconPath": "SpriteOutput/ItemIcon/11003.png",
    "ItemFigureIconPath": "SpriteOutput/ItemIcon/11003.png",
    "ItemCurrencyIconPath": "SpriteOutput/ItemIcon/11003.png",
    "ItemAvatarIconPath": "",
    "PileLimit": 999,
    "CustomDataList": [],
    "ReturnItemIDList": []
  },
  "11215": {
    "ID": 11215,
    "ItemMainType": "Material",
    "ItemSubType": "Eidolon",
    "InventoryDisplayTag": 1,
    "Rarity": "VeryRare",
    "ItemName": {
      "Hash": -186889893
    },
    "ItemDesc": {
      "Hash": 91868285
    },
    "ItemBGDesc": {
      "Hash": 371857150
    },
    "ItemIconPath": "SpriteOutput/ItemIcon/11001.png",
    "ItemFigureIconPath": "SpriteOutput/ItemIcon/11001.png",
    "ItemCurrencyIconPath": "SpriteOutput/ItemIcon/11001.png",
    "ItemAvatarIconPath": "",
    "PileLimit": 999,
    "CustomDataList": [],
    "ReturnItemIDList": []
  },
  "18001": {
    "ID": 18001,
    "ItemMainType": "Material",
    "ItemSubType": "Eidolon",
    "InventoryDisplayTag": 1,
    "Rarity": "SuperRare",
    "ItemName": {
      "Hash": 1856384293
    },
    "ItemDesc": {
      "Hash": -1595174821
    },
    "ItemBGDesc": {
      "Hash": -12061556
    },
    "ItemIconPath": "SpriteOutput/ItemIcon/18001.png",
    "ItemFigureIconPath": "SpriteOutput/ItemIcon/18001.png",
    "ItemCurrencyIconPath": "SpriteOutput/ItemIcon/18001.png",
    "ItemAvatarIconPath": "",
    "PileLimit": 999,
    "CustomDataList": [],
    "ReturnItemIDList": []
  },
  "18002": {
    "ID": 18002,
    "ItemMainType": "Material",
    "ItemSubType": "Eidolon",
    "InventoryDisplayTag": 1,
    "Rarity": "SuperRare",
    "ItemName": {
      "Hash": 1856384293
    },
    "ItemDesc": {
      "Hash": -1595174821
    },
    "ItemBGDesc": {
      "Hash": -12061556
    },
    "ItemIconPath": "SpriteOutput/ItemIcon/18001.png",
    "ItemFigureIconPath": "SpriteOutput/ItemIcon/18001.png",
    "ItemCurrencyIconPath": "SpriteOutput/ItemIcon/18001.png",
    "ItemAvatarIconPath": "",
    "PileLimit": 999,
    "CustomDataList": [],
    "ReturnItemIDList": []
  },
  "18003": {
    "ID": 18003,
    "ItemMainType": "Material",
    "ItemSubType": "Eidolon",
    "InventoryDisplayTag": 1,
    "Rarity": "SuperRare",
    "ItemName": {
      "Hash": 693584879
    },
    "ItemDesc": {
      "Hash": -432375407
    },
    "ItemBGDesc": {
      "Hash": -1174860970
    },
    "ItemIconPath": "SpriteOutput/ItemIcon/18003.png",
    "ItemFigureIconPath": "SpriteOutput/ItemIcon/18003.png",
    "ItemCurrencyIconPath": "SpriteOutput/ItemIcon/18003.png",
    "ItemAvatarIconPath": "",
    "PileLimit": 999,
    "CustomDataList": [],
    "ReturnItemIDList": []
  },
  "18004": {
    "ID": 18004,
    "ItemMainType": "Material",
    "ItemSubType": "Eidolon",
    "InventoryDisplayTag": 1,
    "Rarity": "SuperRare",
    "ItemName": {
      "Hash": 693584879
    },
    "ItemDesc": {
      "Hash": -432375407
    },
    "ItemBGDesc": {
      "Hash": -1174860970
    },
    "ItemIconPath": "SpriteOutput/ItemIcon/18003.png",
    "ItemFigureIconPath": "SpriteOutput/ItemIcon/18003.png",
    "ItemCurrencyIconPath": "SpriteOutput/ItemIcon/18003.png",
    "ItemAvatarIconPath": "",
    "PileLimit": 999,
    "CustomDataList": [],
    "ReturnItemIDList": []
  },
  "19100": {
    "ID": 19100,
    "ItemMainType": "Material",
    "ItemSubType": "Eidolon",
    "InventoryDisplayTag": 1,
    "Rarity": "SuperRare",
    "ItemName": {
      "Hash": 431462756
    },
    "ItemDesc": {
      "Hash": 1274870938
    },
    "ItemBGDesc": {
      "Hash": 371857150
    },
    "ItemIconPath": "SpriteOutput/ItemIcon/11003.png",
    "ItemFigureIconPath": "SpriteOutput/ItemIcon/11003.png",
    "ItemCurrencyIconPath": "SpriteOutput/ItemIcon/11003.png",
    "ItemAvatarIconPath": "",
    "PileLimit": 999,
    "CustomDataList": [],
    "ReturnItemIDList": []
  },
  "11302": {
    "ID": 11302,
    "ItemMainType": "Material",
    "ItemSubType": "Eidolon",
    "InventoryDisplayTag": 1,
    "Rarity": "SuperRare",
    "ItemName": {
      "Hash": 1876586908
    },
    "ItemDesc": {
      "Hash": -170253742
    },
    "ItemBGDesc": {
      "Hash": 371857150
    },
    "ItemIconPath": "SpriteOutput/ItemIcon/11003.png",
    "ItemFigureIconPath": "SpriteOutput/ItemIcon/11003.png",
    "ItemCurrencyIconPath": "SpriteOutput/ItemIcon/11003.png",
    "ItemAvatarIconPath": "",
    "PileLimit": 999,
    "CustomDataList": [],
    "ReturnItemIDList": []
  },
  "11112": {
    "ID": 11112,
    "ItemMainType": "Material",
    "ItemSubType": "Eidolon",
    "InventoryDisplayTag": 1,
    "Rarity": "SuperRare",
    "ItemName": {
      "Hash": -731336921
    },
    "ItemDesc": {
      "Hash": -1857297207
    },
    "ItemBGDesc": {
      "Hash": 371857150
    },
    "ItemIconPath": "SpriteOutput/ItemIcon/11003.png",
    "ItemFigureIconPath": "SpriteOutput/ItemIcon/11003.png",
    "ItemCurrencyIconPath": "SpriteOutput/ItemIcon/11003.png",
    "ItemAvatarIconPath": "",
    "PileLimit": 999,
    "CustomDataList": [],
    "ReturnItemIDList": []
  },
  "11217": {
    "ID": 11217,
    "ItemMainType": "Material",
    "ItemSubType": "Eidolon",
    "InventoryDisplayTag": 1,
    "Rarity": "SuperRare",
    "ItemName": {
      "Hash": 975909521
    },
    "ItemDesc": {
      "Hash": -1070931129
    },
    "ItemBGDesc": {
      "Hash": 371857150
    },
    "ItemIconPath": "SpriteOutput/ItemIcon/11003.png",
    "ItemFigureIconPath": "SpriteOutput/ItemIcon/11003.png",
    "ItemCurrencyIconPath": "SpriteOutput/ItemIcon/11003.png",
    "ItemAvatarIconPath": "",
    "PileLimit": 999,
    "CustomDataList": [],
    "ReturnItemIDList": []
  }
}