{
  "1000101": {
    "ObjectID": 1000101,
    "MissionIDList": [
      1000101
    ]
  },
  "1000300": {
    "ObjectID": 1000300,
    "MissionIDList": [
      1000300
    ]
  },
  "1000301": {
    "ObjectID": 1000301,
    "MissionIDList": [
      1000301
    ]
  },
  "1000203": {
    "ObjectID": 1000203,
    "MissionIDList": [
      1000203
    ]
  },
  "1000503": {
    "ObjectID": 1000503,
    "MissionIDList": [
      1000503
    ]
  },
  "1000302": {
    "ObjectID": 1000302,
    "MissionIDList": [
      1000302
    ]
  },
  "1000401": {
    "ObjectID": 1000401,
    "MissionIDList": [
      1000401
    ]
  },
  "1010001": {
    "ObjectID": 1010001,
    "MissionIDList": [
      1010001
    ]
  },
  "1010403": {
    "ObjectID": 1010403,
    "MissionIDList": [
      1010403
    ]
  },
  "1010101": {
    "ObjectID": 1010101,
    "MissionIDList": [
      1010101
    ]
  },
  "1010204": {
    "ObjectID": 1010204,
    "MissionIDList": [
      1010204
    ]
  },
  "1010302": {
    "ObjectID": 1010302,
    "MissionIDList": [
      1010302
    ]
  },
  "1010405": {
    "ObjectID": 1010405,
    "MissionIDList": [
      1010405
    ]
  },
  "1010502": {
    "ObjectID": 1010502,
    "MissionIDList": [
      1010502
    ]
  },
  "1010802": {
    "ObjectID": 1010802,
    "MissionIDList": [
      1010802
    ]
  },
  "1010602": {
    "ObjectID": 1010602,
    "MissionIDList": [
      1010602
    ]
  },
  "1010701": {
    "ObjectID": 1010701,
    "MissionIDList": [
      1010701
    ]
  },
  "1010901": {
    "ObjectID": 1010901,
    "MissionIDList": [
      1010901
    ]
  },
  "1011001": {
    "ObjectID": 1011001,
    "MissionIDList": [
      1011001
    ]
  },
  "1011003": {
    "ObjectID": 1011003,
    "MissionIDList": [
      1011003
    ]
  },
  "1011503": {
    "ObjectID": 1011503,
    "MissionIDList": [
      1011503
    ]
  },
  "1011102": {
    "ObjectID": 1011102,
    "MissionIDList": [
      1011102
    ]
  },
  "1011202": {
    "ObjectID": 1011202,
    "MissionIDList": [
      1011202
    ]
  },
  "1011301": {
    "ObjectID": 1011301,
    "MissionIDList": [
      1011301
    ]
  },
  "1011403": {
    "ObjectID": 1011403,
    "MissionIDList": [
      1011403
    ]
  },
  "1020101": {
    "ObjectID": 1020101,
    "MissionIDList": [
      1020101
    ]
  },
  "2020103": {
    "ObjectID": 2020103,
    "MissionIDList": [
      1020701
    ]
  },
  "1020201": {
    "ObjectID": 1020201,
    "MissionIDList": [
      1020201
    ]
  },
  "1020301": {
    "ObjectID": 1020301,
    "MissionIDList": [
      1020301
    ]
  },
  "1020501": {
    "ObjectID": 1020501,
    "MissionIDList": [
      1020501
    ]
  },
  "1020701": {
    "ObjectID": 1020701,
    "MissionIDList": [
      0
    ]
  },
  "1020702": {
    "ObjectID": 1020702,
    "MissionIDList": [
      1020702
    ]
  },
  "2020104": {
    "ObjectID": 2020104,
    "MissionIDList": [
      0
    ]
  },
  "1020801": {
    "ObjectID": 1020801,
    "MissionIDList": [
      1020801
    ]
  },
  "1021001": {
    "ObjectID": 1021001,
    "MissionIDList": [
      1021001
    ]
  },
  "1021101": {
    "ObjectID": 1021101,
    "MissionIDList": [
      1021101
    ]
  },
  "1021201": {
    "ObjectID": 1021201,
    "MissionIDList": [
      1021201
    ]
  },
  "1021501": {
    "ObjectID": 1021501,
    "MissionIDList": [
      1021501
    ]
  },
  "1021702": {
    "ObjectID": 1021702,
    "MissionIDList": [
      1021702
    ]
  }
}