{
  "1": {
    "ID": 1,
    "AbilityName": "RaidAbility_TargetCheckDie",
    "ParamList": [
      {
        "Value": 1
      }
    ],
    "TargetType": "DeadAvatarCount",
    "ParamType": "Less",
    "TargetParam1": 3,
    "HintStep": [
      0
    ],
    "IsShowProgress": 1,
    "RewardID": 139001,
    "TargetName": {
      "Hash": -26985360
    },
    "TargetNameSimple": {
      "Hash": 371857150
    }
  },
  "2": {
    "ID": 2,
    "AbilityName": "BattleEventAbility_CallRaidTimeCount",
    "ParamList": [
      {
        "Value": 2
      }
    ],
    "TargetType": "BattleRoundCount",
    "ParamType": "Less",
    "TargetParam1": 10,
    "HintStep": [
      0
    ],
    "IsShowProgress": 1,
    "RewardID": 139001,
    "TargetName": {
      "Hash": -26985359
    },
    "TargetNameSimple": {
      "Hash": 371857150
    }
  },
  "3": {
    "ID": 3,
    "AbilityName": "",
    "ParamList": [
      {
        "Value": 3
      }
    ],
    "TargetType": "ClientCount",
    "ParamType": "Less",
    "TargetParam1": 5,
    "HintStep": [
      0
    ],
    "IsShowProgress": 1,
    "RewardID": 139001,
    "TargetName": {
      "Hash": -26985358
    },
    "TargetNameSimple": {
      "Hash": 371857150
    }
  },
  "100000000": {
    "ID": 100000000,
    "AbilityName": "RaidAbility_TargetCheckDie",
    "ParamList": [
      {
        "Value": 100000000
      }
    ],
    "TargetType": "DeadAvatarCount",
    "ParamType": "LessEqual",
    "TargetParam1": 2,
    "HintStep": [
      1
    ],
    "IsShowProgress": 1,
    "RewardID": 139001,
    "TargetName": {
      "Hash": -1616851088
    },
    "TargetNameSimple": {
      "Hash": 707977170
    },
    "IsInBattle": true
  },
  "100000001": {
    "ID": 100000001,
    "AbilityName": "RaidAbility_TargetCheckDie",
    "ParamList": [
      {
        "Value": 100000001
      }
    ],
    "TargetType": "DeadAvatarCount",
    "ParamType": "LessEqual",
    "TargetParam1": 1,
    "HintStep": [],
    "IsShowProgress": 1,
    "RewardID": 139001,
    "TargetName": {
      "Hash": -1616851089
    },
    "TargetNameSimple": {
      "Hash": 707977169
    },
    "IsInBattle": true
  },
  "101000000": {
    "ID": 101000000,
    "AbilityName": "RaidAbility_TargetCheckUltraTime",
    "ParamList": [
      {
        "Value": 101000000
      }
    ],
    "TargetType": "DeadAvatarCount",
    "ParamType": "GreaterEqual",
    "TargetParam1": 3,
    "HintStep": [],
    "IsShowProgress": 1,
    "RewardID": 139001,
    "TargetName": {
      "Hash": -1616956785
    },
    "TargetNameSimple": {
      "Hash": 708010993
    },
    "IsInBattle": true
  },
  "102000000": {
    "ID": 102000000,
    "AbilityName": "",
    "ParamList": [
      {
        "Value": 102000000
      }
    ],
    "TargetType": "ClientCount",
    "ParamType": "GreaterEqual",
    "TargetParam1": 1,
    "HintStep": [],
    "RewardID": 139001,
    "TargetName": {
      "Hash": -1616779214
    },
    "TargetNameSimple": {
      "Hash": 708049044
    }
  },
  "400020211": {
    "ID": 400020211,
    "AbilityName": "BattleEventAbility_CallRaidTimeCount",
    "ParamList": [
      {
        "Value": 400020211
      }
    ],
    "TargetType": "BattleRoundCount",
    "ParamType": "Less",
    "TargetParam1": 5,
    "HintStep": [
      1,
      3
    ],
    "IsShowProgress": 1,
    "RewardID": 139001,
    "TargetName": {
      "Hash": 1113290063
    },
    "TargetNameSimple": {
      "Hash": -861732183
    },
    "IsInBattle": true
  },
  "400020212": {
    "ID": 400020212,
    "AbilityName": "BattleEventAbility_CallRaidTimeCount",
    "ParamList": [
      {
        "Value": 400020212
      }
    ],
    "TargetType": "BattleRoundCount",
    "ParamType": "Less",
    "TargetParam1": 5,
    "HintStep": [
      1,
      3
    ],
    "IsShowProgress": 1,
    "RewardID": 139001,
    "TargetName": {
      "Hash": 1113290064
    },
    "TargetNameSimple": {
      "Hash": -861732182
    },
    "IsInBattle": true
  },
  "400020213": {
    "ID": 400020213,
    "AbilityName": "BattleEventAbility_CallRaidTimeCount",
    "ParamList": [
      {
        "Value": 400020213
      }
    ],
    "TargetType": "BattleRoundCount",
    "ParamType": "Less",
    "TargetParam1": 10,
    "HintStep": [
      1,
      3,
      5,
      7,
      9
    ],
    "IsShowProgress": 1,
    "RewardID": 139001,
    "TargetName": {
      "Hash": 1113290065
    },
    "TargetNameSimple": {
      "Hash": -861732181
    },
    "IsInBattle": true
  },
  "400020230": {
    "ID": 400020230,
    "AbilityName": "",
    "ParamList": [
      {
        "Value": 400020230
      }
    ],
    "TargetType": "ClientCount",
    "ParamType": "GreaterEqual",
    "TargetParam1": 4,
    "HintStep": [
      1,
      2,
      3
    ],
    "IsShowProgress": 1,
    "RewardID": 139001,
    "TargetName": {
      "Hash": -2018877820
    },
    "TargetNameSimple": {
      "Hash": -2024531598
    }
  },
  "400020231": {
    "ID": 400020231,
    "AbilityName": "",
    "ParamList": [
      {
        "Value": 400020231
      }
    ],
    "TargetType": "ClientCount",
    "ParamType": "GreaterEqual",
    "TargetParam1": 5,
    "HintStep": [
      1,
      2,
      3,
      4
    ],
    "IsShowProgress": 1,
    "RewardID": 139001,
    "TargetName": {
      "Hash": -2018877819
    },
    "TargetNameSimple": {
      "Hash": -2024531597
    }
  },
  "401320111": {
    "ID": 401320111,
    "AbilityName": "BattleEventAbility_CallRaidTimeCount",
    "ParamList": [
      {
        "Value": 401320111
      }
    ],
    "TargetType": "BattleRoundCount",
    "ParamType": "Less",
    "TargetParam1": 8,
    "HintStep": [
      3,
      5,
      7
    ],
    "IsShowProgress": 1,
    "RewardID": 139001,
    "TargetName": {
      "Hash": -1584194260
    },
    "TargetNameSimple": {
      "Hash": -1216565222
    },
    "IsInBattle": true
  },
  "401320131": {
    "ID": 401320131,
    "AbilityName": "RaidAbility_TargetCheckRaid_M302",
    "ParamList": [
      {
        "Value": 401320131
      }
    ],
    "TargetType": "BattleRoundCount",
    "ParamType": "GreaterEqual",
    "TargetParam1": 7,
    "HintStep": [],
    "IsShowProgress": 1,
    "RewardID": 139001,
    "TargetName": {
      "Hash": 1547973622
    },
    "TargetNameSimple": {
      "Hash": -53765808
    }
  },
  "401320112": {
    "ID": 401320112,
    "AbilityName": "BattleEventAbility_CallRaidTimeCount",
    "ParamList": [
      {
        "Value": 401320112
      }
    ],
    "TargetType": "BattleRoundCount",
    "ParamType": "Less",
    "TargetParam1": 13,
    "HintStep": [
      4,
      7,
      10
    ],
    "IsShowProgress": 1,
    "RewardID": 139001,
    "TargetName": {
      "Hash": -1584194263
    },
    "TargetNameSimple": {
      "Hash": -1216565225
    },
    "IsInBattle": true
  },
  "401320132": {
    "ID": 401320132,
    "AbilityName": "RaidAbility_TargetCheckRaid_M302",
    "ParamList": [
      {
        "Value": 401320132
      }
    ],
    "TargetType": "BattleRoundCount",
    "ParamType": "GreaterEqual",
    "TargetParam1": 9,
    "HintStep": [],
    "IsShowProgress": 1,
    "RewardID": 139001,
    "TargetName": {
      "Hash": 1547973619
    },
    "TargetNameSimple": {
      "Hash": -53765811
    }
  },
  "401320113": {
    "ID": 401320113,
    "AbilityName": "BattleEventAbility_CallRaidTimeCount",
    "ParamList": [
      {
        "Value": 401320113
      }
    ],
    "TargetType": "BattleRoundCount",
    "ParamType": "Less",
    "TargetParam1": 20,
    "HintStep": [
      5,
      10,
      15
    ],
    "IsShowProgress": 1,
    "RewardID": 139001,
    "TargetName": {
      "Hash": -1584194262
    },
    "TargetNameSimple": {
      "Hash": -1216565224
    },
    "IsInBattle": true
  },
  "401320123": {
    "ID": 401320123,
    "AbilityName": "RaidAbility_TargetCheckRaid_M302",
    "ParamList": [
      {
        "Value": 401320123
      }
    ],
    "TargetType": "BattleRoundCount",
    "ParamType": "GreaterEqual",
    "TargetParam1": 10,
    "HintStep": [],
    "IsShowProgress": 1,
    "RewardID": 139001,
    "TargetName": {
      "Hash": -18110321
    },
    "TargetNameSimple": {
      "Hash": -1619849751
    }
  },
  "401320133": {
    "ID": 401320133,
    "AbilityName": "",
    "ParamList": [
      {
        "Value": 401320133
      }
    ],
    "TargetType": "ClientCount",
    "ParamType": "LessEqual",
    "TargetParam1": 2,
    "HintStep": [],
    "IsShowProgress": 1,
    "RewardID": 139001,
    "TargetName": {
      "Hash": 1547973620
    },
    "TargetNameSimple": {
      "Hash": -53765810
    }
  },
  "401310111": {
    "ID": 401310111,
    "AbilityName": "BattleEventAbility_CallRaidTimeCount",
    "ParamList": [
      {
        "Value": 401310111
      }
    ],
    "TargetType": "BattleRoundCount",
    "ParamType": "Less",
    "TargetParam1": 8,
    "HintStep": [
      1,
      3,
      5,
      7
    ],
    "IsShowProgress": 1,
    "RewardID": 139001,
    "TargetName": {
      "Hash": -1584195351
    },
    "TargetNameSimple": {
      "Hash": -1216570537
    },
    "IsInBattle": true
  },
  "401310131": {
    "ID": 401310131,
    "AbilityName": "RaidAbility_TargetCheckRaid_M301",
    "ParamList": [
      {
        "Value": 401310131
      }
    ],
    "TargetType": "BattleRoundCount",
    "ParamType": "GreaterEqual",
    "TargetParam1": 3,
    "HintStep": [
      1,
      2
    ],
    "IsShowProgress": 1,
    "RewardID": 139001,
    "TargetName": {
      "Hash": 1547972531
    },
    "TargetNameSimple": {
      "Hash": -53771123
    },
    "IsInBattle": true
  },
  "401310112": {
    "ID": 401310112,
    "AbilityName": "BattleEventAbility_CallRaidTimeCount",
    "ParamList": [
      {
        "Value": 401310112
      }
    ],
    "TargetType": "BattleRoundCount",
    "ParamType": "Less",
    "TargetParam1": 14,
    "HintStep": [
      1,
      3,
      5,
      7,
      9,
      11,
      13
    ],
    "IsShowProgress": 1,
    "RewardID": 139001,
    "TargetName": {
      "Hash": -1584195348
    },
    "TargetNameSimple": {
      "Hash": -1216570534
    },
    "IsInBattle": true
  },
  "401310132": {
    "ID": 401310132,
    "AbilityName": "RaidAbility_TargetCheckRaid_M301",
    "ParamList": [
      {
        "Value": 401310132
      }
    ],
    "TargetType": "BattleRoundCount",
    "ParamType": "GreaterEqual",
    "TargetParam1": 4,
    "HintStep": [
      1,
      2,
      3
    ],
    "IsShowProgress": 1,
    "RewardID": 139001,
    "TargetName": {
      "Hash": 1547972534
    },
    "TargetNameSimple": {
      "Hash": -53771120
    },
    "IsInBattle": true
  },
  "401310113": {
    "ID": 401310113,
    "AbilityName": "BattleEventAbility_CallRaidTimeCount",
    "ParamList": [
      {
        "Value": 401310113
      }
    ],
    "TargetType": "BattleRoundCount",
    "ParamType": "Less",
    "TargetParam1": 20,
    "HintStep": [
      1,
      3,
      5,
      7,
      9,
      11,
      13,
      15,
      17,
      19
    ],
    "IsShowProgress": 1,
    "RewardID": 139001,
    "TargetName": {
      "Hash": -1584195349
    },
    "TargetNameSimple": {
      "Hash": -1216570535
    },
    "IsInBattle": true
  },
  "401310123": {
    "ID": 401310123,
    "AbilityName": "",
    "ParamList": [
      {
        "Value": 401310123
      }
    ],
    "TargetType": "ClientCount",
    "ParamType": "Less",
    "TargetParam1": 4,
    "HintStep": [
      1,
      2,
      3
    ],
    "IsShowProgress": 1,
    "RewardID": 139001,
    "TargetName": {
      "Hash": -18111408
    },
    "TargetNameSimple": {
      "Hash": -1619855062
    }
  },
  "401310133": {
    "ID": 401310133,
    "AbilityName": "",
    "ParamList": [
      {
        "Value": 401310133
      }
    ],
    "TargetType": "KillMonster",
    "ParamType": "GreaterEqual",
    "TargetParam1": 1,
    "HintStep": [
      1
    ],
    "IsShowProgress": 1,
    "RewardID": 139001,
    "TargetName": {
      "Hash": 1547972533
    },
    "TargetNameSimple": {
      "Hash": -53771121
    }
  },
  "400021111": {
    "ID": 400021111,
    "AbilityName": "",
    "ParamList": [
      {
        "Value": 400021111
      }
    ],
    "TargetType": "ClientCount",
    "ParamType": "GreaterEqual",
    "TargetParam1": 3,
    "HintStep": [
      1,
      2,
      3
    ],
    "IsShowProgress": 1,
    "RewardID": 139001,
    "TargetName": {
      "Hash": -1635796235
    },
    "TargetNameSimple": {
      "Hash": -720569521
    }
  },
  "400021121": {
    "ID": 400021121,
    "AbilityName": "BattleEventAbility_CallRaidTimeCount",
    "ParamList": [
      {
        "Value": 400021121
      }
    ],
    "TargetType": "BattleRoundCount",
    "ParamType": "Less",
    "TargetParam1": 10,
    "HintStep": [
      1,
      3,
      5,
      7,
      9
    ],
    "IsShowProgress": 1,
    "RewardID": 139001,
    "TargetName": {
      "Hash": -2039080762
    },
    "TargetNameSimple": {
      "Hash": 845514420
    },
    "IsInBattle": true
  },
  "400021131": {
    "ID": 400021131,
    "AbilityName": "BattleEventAbility_CallRaidTimeCount",
    "ParamList": [
      {
        "Value": 400021131
      }
    ],
    "TargetType": "BattleRoundCount",
    "ParamType": "Less",
    "TargetParam1": 10,
    "HintStep": [
      1,
      3,
      5,
      7,
      9
    ],
    "IsShowProgress": 1,
    "RewardID": 139001,
    "TargetName": {
      "Hash": -472996821
    },
    "TargetNameSimple": {
      "Hash": -1883368935
    },
    "IsInBattle": true
  },
  "412210101": {
    "ID": 412210101,
    "AbilityName": "",
    "ParamList": [
      {
        "Value": 412210101
      }
    ],
    "TargetType": "ClientCount",
    "ParamType": "GreaterEqual",
    "TargetParam1": 1,
    "HintStep": [],
    "IsShowProgress": 1,
    "RewardID": 139001,
    "TargetName": {
      "Hash": -382067641
    },
    "TargetNameSimple": {
      "Hash": 1256685877
    }
  },
  "412210111": {
    "ID": 412210111,
    "AbilityName": "BattleEventAbility_CallRaidTimeCount",
    "ParamList": [
      {
        "Value": 412210111
      }
    ],
    "TargetType": "BattleRoundCount",
    "ParamType": "Less",
    "TargetParam1": 10,
    "HintStep": [
      4,
      7
    ],
    "IsShowProgress": 1,
    "RewardID": 139001,
    "TargetName": {
      "Hash": 1184016300
    },
    "TargetNameSimple": {
      "Hash": -1472197478
    },
    "IsInBattle": true
  },
  "412210112": {
    "ID": 412210112,
    "AbilityName": "BattleEventAbility_CallRaidTimeCount",
    "ParamList": [
      {
        "Value": 412210112
      }
    ],
    "TargetType": "BattleRoundCount",
    "ParamType": "Less",
    "TargetParam1": 12,
    "HintStep": [
      4,
      7,
      10
    ],
    "IsShowProgress": 1,
    "RewardID": 139001,
    "TargetName": {
      "Hash": 1184016297
    },
    "TargetNameSimple": {
      "Hash": -1472197481
    },
    "IsInBattle": true
  },
  "412210113": {
    "ID": 412210113,
    "AbilityName": "BattleEventAbility_CallRaidTimeCount",
    "ParamList": [
      {
        "Value": 412210113
      }
    ],
    "TargetType": "BattleRoundCount",
    "ParamType": "Less",
    "TargetParam1": 10,
    "HintStep": [
      4,
      7
    ],
    "IsShowProgress": 1,
    "RewardID": 139001,
    "TargetName": {
      "Hash": 1184016298
    },
    "TargetNameSimple": {
      "Hash": -1472197480
    },
    "IsInBattle": true
  },
  "442010101": {
    "ID": 442010101,
    "AbilityName": "BattleEventAbility_CallRaidTimeCount",
    "ParamList": [
      {
        "Value": 442010101
      }
    ],
    "TargetType": "BattleRoundCount",
    "ParamType": "Less",
    "TargetParam1": 15,
    "HintStep": [
      4,
      7,
      10,
      13
    ],
    "IsShowProgress": 1,
    "RewardID": 139001,
    "TargetName": {
      "Hash": -891989398
    },
    "TargetNameSimple": {
      "Hash": 1427951556
    },
    "IsInBattle": true
  },
  "442010102": {
    "ID": 442010102,
    "AbilityName": "",
    "ParamList": [
      {
        "Value": 442010102
      }
    ],
    "TargetType": "ClientCount",
    "ParamType": "LessEqual",
    "TargetParam1": 2,
    "HintStep": [],
    "IsShowProgress": 1,
    "RewardID": 139001,
    "TargetName": {
      "Hash": -891989401
    },
    "TargetNameSimple": {
      "Hash": 1427951553
    }
  },
  "442010103": {
    "ID": 442010103,
    "AbilityName": "",
    "ParamList": [
      {
        "Value": 442010103
      }
    ],
    "TargetType": "ClientCount",
    "ParamType": "LessEqual",
    "TargetParam1": 8,
    "HintStep": [
      1,
      2,
      3,
      4,
      5,
      6,
      7,
      8
    ],
    "IsShowProgress": 1,
    "RewardID": 139001,
    "TargetName": {
      "Hash": -891989400
    },
    "TargetNameSimple": {
      "Hash": 1427951554
    }
  },
  "442020101": {
    "ID": 442020101,
    "AbilityName": "RaidTarget_LessEqualTurnLimit",
    "ParamList": [
      {
        "Value": 442020101
      }
    ],
    "TargetType": "BattleRoundCount",
    "ParamType": "LessEqual",
    "TargetParam1": 10,
    "HintStep": [
      4,
      7
    ],
    "IsShowProgress": 1,
    "RewardID": 100,
    "TargetName": {
      "Hash": -891994713
    },
    "TargetNameSimple": {
      "Hash": 1427950465
    },
    "IsInBattle": true
  },
  "442020201": {
    "ID": 442020201,
    "AbilityName": "RaidTarget_LessEqualTurnLimit",
    "ParamList": [
      {
        "Value": 442020201
      }
    ],
    "TargetType": "BattleRoundCount",
    "ParamType": "LessEqual",
    "TargetParam1": 10,
    "HintStep": [
      4,
      7
    ],
    "IsShowProgress": 1,
    "RewardID": 100,
    "TargetName": {
      "Hash": -891994614
    },
    "TargetNameSimple": {
      "Hash": 1427950436
    },
    "IsInBattle": true
  },
  "442020301": {
    "ID": 442020301,
    "AbilityName": "RaidTarget_LessEqualTurnLimit",
    "ParamList": [
      {
        "Value": 442020301
      }
    ],
    "TargetType": "BattleRoundCount",
    "ParamType": "LessEqual",
    "TargetParam1": 10,
    "HintStep": [
      4,
      7
    ],
    "IsShowProgress": 1,
    "RewardID": 100,
    "TargetName": {
      "Hash": -891994647
    },
    "TargetNameSimple": {
      "Hash": 1427950531
    },
    "IsInBattle": true
  },
  "442020401": {
    "ID": 442020401,
    "AbilityName": "RaidTarget_LessEqualTurnLimit",
    "ParamList": [
      {
        "Value": 442020401
      }
    ],
    "TargetType": "BattleRoundCount",
    "ParamType": "LessEqual",
    "TargetParam1": 10,
    "HintStep": [
      4,
      7
    ],
    "IsShowProgress": 1,
    "RewardID": 100,
    "TargetName": {
      "Hash": -891994812
    },
    "TargetNameSimple": {
      "Hash": 1427950502
    },
    "IsInBattle": true
  },
  "442020102": {
    "ID": 442020102,
    "AbilityName": "RaidTarget_EnemyActionEventCount",
    "ParamList": [
      {
        "Value": 442020102
      }
    ],
    "TargetType": "BattleRoundCount",
    "ParamType": "LessEqual",
    "TargetParam1": 4,
    "HintStep": [
      1,
      2,
      3,
      4
    ],
    "IsShowProgress": 1,
    "RewardID": 100,
    "TargetName": {
      "Hash": -891994710
    },
    "TargetNameSimple": {
      "Hash": 1427950468
    },
    "IsInBattle": true
  },
  "442020202": {
    "ID": 442020202,
    "AbilityName": "RaidTarget_EnemyActionEventCount",
    "ParamList": [
      {
        "Value": 442020202
      }
    ],
    "TargetType": "BattleRoundCount",
    "ParamType": "LessEqual",
    "TargetParam1": 4,
    "HintStep": [
      1,
      2,
      3,
      4
    ],
    "IsShowProgress": 1,
    "RewardID": 100,
    "TargetName": {
      "Hash": -891994617
    },
    "TargetNameSimple": {
      "Hash": 1427950433
    },
    "IsInBattle": true
  },
  "442020302": {
    "ID": 442020302,
    "AbilityName": "RaidTarget_EnemyActionEventCount",
    "ParamList": [
      {
        "Value": 442020302
      }
    ],
    "TargetType": "BattleRoundCount",
    "ParamType": "LessEqual",
    "TargetParam1": 4,
    "HintStep": [
      1,
      2,
      3,
      4
    ],
    "IsShowProgress": 1,
    "RewardID": 100,
    "TargetName": {
      "Hash": -891994648
    },
    "TargetNameSimple": {
      "Hash": 1427950530
    },
    "IsInBattle": true
  },
  "442020402": {
    "ID": 442020402,
    "AbilityName": "RaidTarget_EnemyActionEventCount",
    "ParamList": [
      {
        "Value": 442020402
      }
    ],
    "TargetType": "BattleRoundCount",
    "ParamType": "LessEqual",
    "TargetParam1": 4,
    "HintStep": [
      1,
      2,
      3,
      4
    ],
    "IsShowProgress": 1,
    "RewardID": 100,
    "TargetName": {
      "Hash": -891994811
    },
    "TargetNameSimple": {
      "Hash": 1427950503
    },
    "IsInBattle": true
  },
  "442020103": {
    "ID": 442020103,
    "AbilityName": "RaidAbility_TargetCheckDie",
    "ParamList": [
      {
        "Value": 442020103
      }
    ],
    "TargetType": "DeadAvatarCount",
    "ParamType": "LessEqual",
    "HintStep": [],
    "IsShowProgress": 1,
    "RewardID": 100,
    "TargetName": {
      "Hash": -891994711
    },
    "TargetNameSimple": {
      "Hash": 1427950467
    },
    "IsInBattle": true
  }
}