{
  "InventoryPage": {
    "PageKey": "InventoryPage",
    "CurrencyIDList": [
      2,
      1
    ]
  },
  "SkillTreePointDetailPanel": {
    "PageKey": "SkillTreePointDetailPanel",
    "CurrencyIDList": [
      2
    ]
  },
  "SwitchAreaPage": {
    "PageKey": "SwitchAreaPage",
    "CurrencyIDList": [
      12,
      11
    ]
  },
  "MapOverviewPage": {
    "PageKey": "MapOverviewPage",
    "CurrencyIDList": [
      12,
      11
    ]
  },
  "AvatarLevelUpDialog": {
    "PageKey": "AvatarLevelUpDialog",
    "CurrencyIDList": [
      2
    ]
  },
  "AvatarPromotionDialog": {
    "PageKey": "AvatarPromotionDialog",
    "CurrencyIDList": [
      2
    ]
  },
  "Shop101Page": {
    "PageKey": "Shop101Page",
    "CurrencyIDList": [
      252
    ]
  },
  "Shop102Page": {
    "PageKey": "Shop102Page",
    "CurrencyIDList": [
      251
    ]
  },
  "Shop103Page": {
    "PageKey": "Shop103Page",
    "CurrencyIDList": [
      3
    ]
  },
  "Shop201Page": {
    "PageKey": "Shop201Page",
    "CurrencyIDList": [
      2
    ]
  },
  "Shop202Page": {
    "PageKey": "Shop202Page",
    "CurrencyIDList": [
      261
    ]
  },
  "Shop301Page": {
    "PageKey": "Shop301Page",
    "CurrencyIDList": [
      2
    ]
  },
  "Shop302Page": {
    "PageKey": "Shop302Page",
    "CurrencyIDList": [
      2
    ]
  },
  "Shop303Page": {
    "PageKey": "Shop303Page",
    "CurrencyIDList": [
      2
    ]
  },
  "Shop304Page": {
    "PageKey": "Shop304Page",
    "CurrencyIDList": [
      2
    ]
  },
  "Shop305Page": {
    "PageKey": "Shop305Page",
    "CurrencyIDList": [
      2
    ]
  },
  "Shop306Page": {
    "PageKey": "Shop306Page",
    "CurrencyIDList": [
      2
    ]
  },
  "Shop307Page": {
    "PageKey": "Shop307Page",
    "CurrencyIDList": [
      2
    ]
  },
  "Shop308Page": {
    "PageKey": "Shop308Page",
    "CurrencyIDList": [
      2
    ]
  },
  "Shop309Page": {
    "PageKey": "Shop309Page",
    "CurrencyIDList": [
      2
    ]
  },
  "Shop310Page": {
    "PageKey": "Shop310Page",
    "CurrencyIDList": [
      2
    ]
  },
  "Shop311Page": {
    "PageKey": "Shop311Page",
    "CurrencyIDList": [
      2
    ]
  },
  "Shop312Page": {
    "PageKey": "Shop312Page",
    "CurrencyIDList": [
      2
    ]
  },
  "Shop313Page": {
    "PageKey": "Shop313Page",
    "CurrencyIDList": [
      2
    ]
  },
  "Shop314Page": {
    "PageKey": "Shop314Page",
    "CurrencyIDList": [
      2
    ]
  },
  "Shop315Page": {
    "PageKey": "Shop315Page",
    "CurrencyIDList": [
      140004
    ]
  },
  "Shop316Page": {
    "PageKey": "Shop316Page",
    "CurrencyIDList": [
      2
    ]
  },
  "Shop317Page": {
    "PageKey": "Shop317Page",
    "CurrencyIDList": [
      2
    ]
  },
  "Shop318Page": {
    "PageKey": "Shop318Page",
    "CurrencyIDList": [
      2
    ]
  },
  "Shop319Page": {
    "PageKey": "Shop319Page",
    "CurrencyIDList": [
      2
    ]
  },
  "Shop320Page": {
    "PageKey": "Shop320Page",
    "CurrencyIDList": [
      281001
    ]
  },
  "Shop321Page": {
    "PageKey": "Shop321Page",
    "CurrencyIDList": [
      2
    ]
  },
  "Shop322Page": {
    "PageKey": "Shop322Page",
    "CurrencyIDList": [
      2
    ]
  },
  "Shop323Page": {
    "PageKey": "Shop323Page",
    "CurrencyIDList": [
      2
    ]
  },
  "Shop324Page": {
    "PageKey": "Shop324Page",
    "CurrencyIDList": [
      2
    ]
  },
  "Shop325Page": {
    "PageKey": "Shop325Page",
    "CurrencyIDList": [
      2
    ]
  },
  "Shop401Page": {
    "PageKey": "Shop401Page",
    "CurrencyIDList": [
      120000
    ]
  },
  "Shop402Page": {
    "PageKey": "Shop402Page",
    "CurrencyIDList": [
      120001
    ]
  },
  "Shop403Page": {
    "PageKey": "Shop403Page",
    "CurrencyIDList": [
      120002
    ]
  },
  "Shop501Page": {
    "PageKey": "Shop501Page",
    "CurrencyIDList": [
      503
    ]
  },
  "Shop504Page": {
    "PageKey": "Shop504Page",
    "CurrencyIDList": [
      501
    ]
  },
  "Shop502Page": {
    "PageKey": "Shop502Page",
    "CurrencyIDList": [
      270000
    ]
  },
  "Shop503Page": {
    "PageKey": "Shop503Page",
    "CurrencyIDList": [
      2
    ]
  },
  "Shop900Page": {
    "PageKey": "Shop900Page",
    "CurrencyIDList": [
      3,
      1
    ]
  },
  "Shop999Page": {
    "PageKey": "Shop999Page",
    "CurrencyIDList": [
      1
    ]
  },
  "EquipmentLevelUpPanel": {
    "PageKey": "EquipmentLevelUpPanel",
    "CurrencyIDList": [
      2
    ]
  },
  "EquipmentPromotionPanel": {
    "PageKey": "EquipmentPromotionPanel",
    "CurrencyIDList": [
      2
    ]
  },
  "RewardConfirmDialog": {
    "PageKey": "RewardConfirmDialog",
    "CurrencyIDList": [
      12,
      11
    ]
  },
  "ItemComposePage": {
    "PageKey": "ItemComposePage",
    "CurrencyIDList": [
      2
    ]
  },
  "MapContainerPanel": {
    "PageKey": "MapContainerPanel",
    "CurrencyIDList": [
      12,
      11
    ]
  },
  "StandardGachaPage": {
    "PageKey": "StandardGachaPage",
    "CurrencyIDList": [
      101,
      1
    ],
    "IsDetailButton": true
  },
  "CharacterGachaPage": {
    "PageKey": "CharacterGachaPage",
    "CurrencyIDList": [
      102,
      1
    ],
    "IsDetailButton": true
  },
  "LightconeGachaPage": {
    "PageKey": "LightconeGachaPage",
    "CurrencyIDList": [
      102,
      1
    ],
    "IsDetailButton": true
  },
  "RogueConfirmRecoverStaminaDialog": {
    "PageKey": "RogueConfirmRecoverStaminaDialog",
    "CurrencyIDList": [
      31,
      32
    ]
  },
  "RogueConfirmReviveAvatarDialog": {
    "PageKey": "RogueConfirmReviveAvatarDialog",
    "CurrencyIDList": [
      31
    ]
  },
  "InventoryPage_Rogue": {
    "PageKey": "InventoryPage_Rogue",
    "CurrencyIDList": [
      31
    ]
  },
  "RogueAppraisalPage": {
    "PageKey": "RogueAppraisalPage",
    "CurrencyIDList": []
  },
  "RogueSelectBuffDialog": {
    "PageKey": "RogueSelectBuffDialog",
    "CurrencyIDList": [
      31
    ]
  },
  "RechargePage": {
    "PageKey": "RechargePage",
    "CurrencyIDList": [
      3,
      1
    ],
    "IsDetailButton": true
  },
  "FarmRelicRewardDialog": {
    "PageKey": "FarmRelicRewardDialog",
    "CurrencyIDList": [
      12,
      11
    ]
  },
  "FarmRelicPage": {
    "PageKey": "FarmRelicPage",
    "CurrencyIDList": [
      12,
      11
    ]
  },
  "FarmElementPage": {
    "PageKey": "FarmElementPage",
    "CurrencyIDList": [
      12,
      11
    ]
  },
  "RogueBuffShopPage": {
    "PageKey": "RogueBuffShopPage",
    "CurrencyIDList": [
      31
    ]
  },
  "RelicUpgradePage": {
    "PageKey": "RelicUpgradePage",
    "CurrencyIDList": [
      2
    ]
  },
  "RogueMapSelectPage": {
    "PageKey": "RogueMapSelectPage",
    "CurrencyIDList": [
      32
    ]
  },
  "RogueSelectBuffPage": {
    "PageKey": "RogueSelectBuffPage",
    "CurrencyIDList": [
      31
    ]
  },
  "RogueMenuPage": {
    "PageKey": "RogueMenuPage",
    "CurrencyIDList": [
      31
    ]
  },
  "BattleBagBuyDialog": {
    "PageKey": "BattleBagBuyDialog",
    "CurrencyIDList": [
      1
    ]
  },
  "ActivityPunkLordPage": {
    "PageKey": "ActivityPunkLordPage",
    "CurrencyIDList": [
      100001
    ]
  },
  "RogueEnhanceBuffPage": {
    "PageKey": "RogueEnhanceBuffPage",
    "CurrencyIDList": [
      31
    ]
  },
  "RogueEnhanceBuffConfirmDialog": {
    "PageKey": "RogueEnhanceBuffConfirmDialog",
    "CurrencyIDList": [
      31
    ]
  },
  "BattleFarmResultPage": {
    "PageKey": "BattleFarmResultPage",
    "CurrencyIDList": [
      12,
      11
    ]
  },
  "RogueTalentPage": {
    "PageKey": "RogueTalentPage",
    "CurrencyIDList": [
      32
    ]
  },
  "RogueRandomTalkPage": {
    "PageKey": "RogueRandomTalkPage",
    "CurrencyIDList": [
      31
    ]
  },
  "RogueOptionalRewardDialog": {
    "PageKey": "RogueOptionalRewardDialog",
    "CurrencyIDList": [
      12,
      11
    ]
  },
  "RogueScoreRewardPage": {
    "PageKey": "RogueScoreRewardPage",
    "CurrencyIDList": [
      12,
      11
    ]
  },
  "RogueRevivePage": {
    "PageKey": "RogueRevivePage",
    "CurrencyIDList": [
      31
    ]
  },
  "RogueAreaDetailDialog": {
    "PageKey": "RogueAreaDetailDialog",
    "CurrencyIDList": [
      12,
      11,
      33
    ]
  },
  "RogueChestRewardDialog": {
    "PageKey": "RogueChestRewardDialog",
    "CurrencyIDList": [
      12,
      11,
      33
    ]
  },
  "RogueKeyExchangeDialog": {
    "PageKey": "RogueKeyExchangeDialog",
    "CurrencyIDList": [
      12,
      11,
      33
    ]
  },
  "HandBookRogueGuide01": {
    "PageKey": "HandBookRogueGuide01",
    "CurrencyIDList": [
      12,
      11
    ]
  },
  "HandBookRogueGuide02": {
    "PageKey": "HandBookRogueGuide02",
    "CurrencyIDList": [
      12,
      11,
      33
    ]
  },
  "HandBookGuide": {
    "PageKey": "HandBookGuide",
    "CurrencyIDList": [
      12,
      11
    ]
  },
  "MuseumPage": {
    "PageKey": "MuseumPage",
    "CurrencyIDList": [
      53
    ]
  },
  "ActivityAlleyPackMainPage": {
    "PageKey": "ActivityAlleyPackMainPage",
    "CurrencyIDList": [
      281001
    ]
  },
  "AlleyTransportMainPage": {
    "PageKey": "AlleyTransportMainPage",
    "CurrencyIDList": [
      281001
    ]
  },
  "AlleyTransportDetailPage": {
    "PageKey": "AlleyTransportDetailPage",
    "CurrencyIDList": [
      281001
    ]
  },
  "AlleyTransportConfirmDialog": {
    "PageKey": "AlleyTransportConfirmDialog",
    "CurrencyIDList": [
      281001
    ]
  },
  "AetherSpiritUpgradePage": {
    "PageKey": "AetherSpiritUpgradePage",
    "CurrencyIDList": [
      250320
    ]
  },
  "RogueMiracleShopPage": {
    "PageKey": "RogueMiracleShopPage",
    "CurrencyIDList": [
      31
    ]
  },
  "ActivityRogueEndlessPMBuffShopPage": {
    "PageKey": "ActivityRogueEndlessPMBuffShopPage",
    "CurrencyIDList": [
      281012
    ]
  },
  "ActivityRogueEndlessPMMapPage": {
    "PageKey": "ActivityRogueEndlessPMMapPage",
    "CurrencyIDList": [
      281012,
      31
    ]
  },
  "ActivityRogueEndlessMiraclePage": {
    "PageKey": "ActivityRogueEndlessMiraclePage",
    "CurrencyIDList": [
      31
    ]
  }
}