{
  "101": {
    "ChessBoardEventID": 101,
    "ChessBoardEventName": {
      "Hash": 2016380340
    },
    "ChessBoardEventDesc": {
      "Hash": 2131015386
    },
    "EventEffectType": "DestroyColList"
  },
  "102": {
    "ChessBoardEventID": 102,
    "ChessBoardEventName": {
      "Hash": 2016380341
    },
    "ChessBoardEventDesc": {
      "Hash": 2131015383
    },
    "EventEffectType": "RandomReplaceBlock"
  },
  "103": {
    "ChessBoardEventID": 103,
    "ChessBoardEventName": {
      "Hash": 2016380342
    },
    "ChessBoardEventDesc": {
      "Hash": 2131015384
    },
    "EventEffectType": "GetRogueMiracle"
  },
  "104": {
    "ChessBoardEventID": 104,
    "ChessBoardEventName": {
      "Hash": 2016380335
    },
    "ChessBoardEventDesc": {
      "Hash": 2131015381
    },
    "EventEffectType": "TriggerAreaShuffle"
  },
  "111": {
    "ChessBoardEventID": 111,
    "ChessBoardEventName": {
      "Hash": 450296399
    },
    "ChessBoardEventDesc": {
      "Hash": 564931445
    },
    "EventEffectType": "DestroyColList"
  },
  "112": {
    "ChessBoardEventID": 112,
    "ChessBoardEventName": {
      "Hash": 450296400
    },
    "ChessBoardEventDesc": {
      "Hash": 564931442
    },
    "EventEffectType": "RandomReplaceBlock"
  },
  "113": {
    "ChessBoardEventID": 113,
    "ChessBoardEventName": {
      "Hash": 450296401
    },
    "ChessBoardEventDesc": {
      "Hash": 564931443
    },
    "EventEffectType": "GetRogueMiracle"
  },
  "114": {
    "ChessBoardEventID": 114,
    "ChessBoardEventName": {
      "Hash": 450296394
    },
    "ChessBoardEventDesc": {
      "Hash": 564931440
    },
    "EventEffectType": "TriggerAreaShuffle"
  },
  "121": {
    "ChessBoardEventID": 121,
    "ChessBoardEventName": {
      "Hash": -1115787542
    },
    "ChessBoardEventDesc": {
      "Hash": -1001152496
    },
    "EventEffectType": "DestroyColList"
  },
  "122": {
    "ChessBoardEventID": 122,
    "ChessBoardEventName": {
      "Hash": -1115787541
    },
    "ChessBoardEventDesc": {
      "Hash": -1001152499
    },
    "EventEffectType": "RandomReplaceBlock"
  },
  "123": {
    "ChessBoardEventID": 123,
    "ChessBoardEventName": {
      "Hash": -1115787540
    },
    "ChessBoardEventDesc": {
      "Hash": -1001152498
    },
    "EventEffectType": "GetRogueMiracle"
  },
  "124": {
    "ChessBoardEventID": 124,
    "ChessBoardEventName": {
      "Hash": -1115787547
    },
    "ChessBoardEventDesc": {
      "Hash": -1001152501
    },
    "EventEffectType": "TriggerAreaShuffle"
  },
  "201": {
    "ChessBoardEventID": 201,
    "ChessBoardEventName": {
      "Hash": 2016380373
    },
    "ChessBoardEventDesc": {
      "Hash": 2131015287
    },
    "EventEffectType": "TriggerExtension"
  },
  "202": {
    "ChessBoardEventID": 202,
    "ChessBoardEventName": {
      "Hash": 2016380372
    },
    "ChessBoardEventDesc": {
      "Hash": 2131015290
    },
    "EventEffectType": "ReplaceBlock"
  },
  "203": {
    "ChessBoardEventID": 203,
    "ChessBoardEventName": {
      "Hash": 2016380371
    },
    "ChessBoardEventDesc": {
      "Hash": 2131015289
    },
    "EventEffectType": "ReplaceBlock"
  },
  "204": {
    "ChessBoardEventID": 204,
    "ChessBoardEventName": {
      "Hash": 2016380370
    },
    "ChessBoardEventDesc": {
      "Hash": 2131015284
    },
    "EventEffectType": "TriggerMark"
  },
  "211": {
    "ChessBoardEventID": 211,
    "ChessBoardEventName": {
      "Hash": 450296432
    },
    "ChessBoardEventDesc": {
      "Hash": 564931346
    },
    "EventEffectType": "TriggerExtension"
  },
  "212": {
    "ChessBoardEventID": 212,
    "ChessBoardEventName": {
      "Hash": 450296431
    },
    "ChessBoardEventDesc": {
      "Hash": 564931349
    },
    "EventEffectType": "ReplaceBlock"
  },
  "213": {
    "ChessBoardEventID": 213,
    "ChessBoardEventName": {
      "Hash": 450296430
    },
    "ChessBoardEventDesc": {
      "Hash": 564931348
    },
    "EventEffectType": "ReplaceBlock"
  },
  "214": {
    "ChessBoardEventID": 214,
    "ChessBoardEventName": {
      "Hash": 450296429
    },
    "ChessBoardEventDesc": {
      "Hash": 564931343
    },
    "EventEffectType": "TriggerMark"
  },
  "221": {
    "ChessBoardEventID": 221,
    "ChessBoardEventName": {
      "Hash": -1115787509
    },
    "ChessBoardEventDesc": {
      "Hash": -1001152595
    },
    "EventEffectType": "TriggerExtension"
  },
  "222": {
    "ChessBoardEventID": 222,
    "ChessBoardEventName": {
      "Hash": -1115787510
    },
    "ChessBoardEventDesc": {
      "Hash": -1001152592
    },
    "EventEffectType": "ReplaceBlock"
  },
  "223": {
    "ChessBoardEventID": 223,
    "ChessBoardEventName": {
      "Hash": -1115787511
    },
    "ChessBoardEventDesc": {
      "Hash": -1001152593
    },
    "EventEffectType": "ReplaceBlock"
  },
  "224": {
    "ChessBoardEventID": 224,
    "ChessBoardEventName": {
      "Hash": -1115787512
    },
    "ChessBoardEventDesc": {
      "Hash": -1001152598
    },
    "EventEffectType": "TriggerMark"
  },
  "1001": {
    "ChessBoardEventID": 1001,
    "ChessBoardEventName": {
      "Hash": 1879313438
    },
    "ChessBoardEventDesc": {
      "Hash": -1507273436
    },
    "EventEffectType": "GetRogueMiracle"
  },
  "1002": {
    "ChessBoardEventID": 1002,
    "ChessBoardEventName": {
      "Hash": 313229497
    },
    "ChessBoardEventDesc": {
      "Hash": 1221609919
    },
    "EventEffectType": "GetRogueMiracle"
  },
  "1003": {
    "ChessBoardEventID": 1003,
    "ChessBoardEventName": {
      "Hash": -1252854444
    },
    "ChessBoardEventDesc": {
      "Hash": -344474022
    },
    "EventEffectType": "GetRogueMiracle"
  },
  "1004": {
    "ChessBoardEventID": 1004,
    "ChessBoardEventName": {
      "Hash": 1119798551
    },
    "ChessBoardEventDesc": {
      "Hash": -1910557963
    },
    "EventEffectType": "GetRogueMiracle"
  },
  "1005": {
    "ChessBoardEventID": 1005,
    "ChessBoardEventName": {
      "Hash": -446285390
    },
    "ChessBoardEventDesc": {
      "Hash": 818325392
    },
    "EventEffectType": "GetRogueMiracle"
  },
  "1006": {
    "ChessBoardEventID": 1006,
    "ChessBoardEventName": {
      "Hash": -2012369331
    },
    "ChessBoardEventDesc": {
      "Hash": -747758549
    },
    "EventEffectType": "GetRogueMiracle"
  },
  "1007": {
    "ChessBoardEventID": 1007,
    "ChessBoardEventName": {
      "Hash": 716514024
    },
    "ChessBoardEventDesc": {
      "Hash": 1981124806
    },
    "EventEffectType": "GetRogueMiracle"
  },
  "1008": {
    "ChessBoardEventID": 1008,
    "ChessBoardEventName": {
      "Hash": -493339557
    },
    "ChessBoardEventDesc": {
      "Hash": 415040865
    },
    "EventEffectType": "GetRogueMiracle"
  },
  "1009": {
    "ChessBoardEventID": 1009,
    "ChessBoardEventName": {
      "Hash": -2059423498
    },
    "ChessBoardEventDesc": {
      "Hash": -1151043076
    },
    "EventEffectType": "GetRogueMiracle"
  },
  "1010": {
    "ChessBoardEventID": 1010,
    "ChessBoardEventName": {
      "Hash": -849569916
    },
    "ChessBoardEventDesc": {
      "Hash": 58810506
    },
    "EventEffectType": "GetRogueMiracle"
  },
  "1011": {
    "ChessBoardEventID": 1011,
    "ChessBoardEventName": {
      "Hash": 1879313439
    },
    "ChessBoardEventDesc": {
      "Hash": -1507273435
    },
    "EventEffectType": "GetRogueMiracle"
  },
  "1012": {
    "ChessBoardEventID": 1012,
    "ChessBoardEventName": {
      "Hash": 313229498
    },
    "ChessBoardEventDesc": {
      "Hash": 1221609920
    },
    "EventEffectType": "GetRogueMiracle"
  },
  "1013": {
    "ChessBoardEventID": 1013,
    "ChessBoardEventName": {
      "Hash": -1252854443
    },
    "ChessBoardEventDesc": {
      "Hash": -344474021
    },
    "EventEffectType": "GetRogueMiracle"
  },
  "1014": {
    "ChessBoardEventID": 1014,
    "ChessBoardEventName": {
      "Hash": 1119798552
    },
    "ChessBoardEventDesc": {
      "Hash": -1910557962
    },
    "EventEffectType": "GetRogueMiracle"
  },
  "1015": {
    "ChessBoardEventID": 1015,
    "ChessBoardEventName": {
      "Hash": -446285389
    },
    "ChessBoardEventDesc": {
      "Hash": 818325393
    },
    "EventEffectType": "GetRogueMiracle"
  },
  "1016": {
    "ChessBoardEventID": 1016,
    "ChessBoardEventName": {
      "Hash": -2012369330
    },
    "ChessBoardEventDesc": {
      "Hash": -747758548
    },
    "EventEffectType": "GetRogueMiracle"
  },
  "1017": {
    "ChessBoardEventID": 1017,
    "ChessBoardEventName": {
      "Hash": 716514025
    },
    "ChessBoardEventDesc": {
      "Hash": 1981124807
    },
    "EventEffectType": "GetRogueMiracle"
  },
  "1018": {
    "ChessBoardEventID": 1018,
    "ChessBoardEventName": {
      "Hash": -493339556
    },
    "ChessBoardEventDesc": {
      "Hash": 415040866
    },
    "EventEffectType": "GetRogueMiracle"
  },
  "1019": {
    "ChessBoardEventID": 1019,
    "ChessBoardEventName": {
      "Hash": -2059423497
    },
    "ChessBoardEventDesc": {
      "Hash": -1151043075
    },
    "EventEffectType": "GetRogueMiracle"
  },
  "1020": {
    "ChessBoardEventID": 1020,
    "ChessBoardEventName": {
      "Hash": -849569915
    },
    "ChessBoardEventDesc": {
      "Hash": 58810503
    },
    "EventEffectType": "GetRogueMiracle"
  },
  "1101": {
    "ChessBoardEventID": 1101,
    "ChessBoardEventName": {
      "Hash": -869772893
    },
    "ChessBoardEventDesc": {
      "Hash": 38607529
    },
    "EventEffectType": "RandomReplaceBlock"
  },
  "1102": {
    "ChessBoardEventID": 1102,
    "ChessBoardEventName": {
      "Hash": -1273057420
    },
    "ChessBoardEventDesc": {
      "Hash": -364676998
    },
    "EventEffectType": "RandomReplaceBlock"
  },
  "1103": {
    "ChessBoardEventID": 1103,
    "ChessBoardEventName": {
      "Hash": 293026521
    },
    "ChessBoardEventDesc": {
      "Hash": 1201406943
    },
    "EventEffectType": "RandomReplaceBlock"
  },
  "1104": {
    "ChessBoardEventID": 1104,
    "ChessBoardEventName": {
      "Hash": -466488366
    },
    "ChessBoardEventDesc": {
      "Hash": 798122416
    },
    "EventEffectType": "RandomReplaceBlock"
  },
  "1105": {
    "ChessBoardEventID": 1105,
    "ChessBoardEventName": {
      "Hash": 1099595575
    },
    "ChessBoardEventDesc": {
      "Hash": -1930760939
    },
    "EventEffectType": "RandomReplaceBlock"
  },
  "1106": {
    "ChessBoardEventID": 1106,
    "ChessBoardEventName": {
      "Hash": 696311048
    },
    "ChessBoardEventDesc": {
      "Hash": 1960921830
    },
    "EventEffectType": "RandomReplaceBlock"
  },
  "1107": {
    "ChessBoardEventID": 1107,
    "ChessBoardEventName": {
      "Hash": -2032572307
    },
    "ChessBoardEventDesc": {
      "Hash": -767961525
    },
    "EventEffectType": "RandomReplaceBlock"
  },
  "1108": {
    "ChessBoardEventID": 1108,
    "ChessBoardEventName": {
      "Hash": -2079626474
    },
    "ChessBoardEventDesc": {
      "Hash": -1171246052
    },
    "EventEffectType": "RandomReplaceBlock"
  },
  "1109": {
    "ChessBoardEventID": 1109,
    "ChessBoardEventName": {
      "Hash": -513542533
    },
    "ChessBoardEventDesc": {
      "Hash": 394837889
    },
    "EventEffectType": "RandomReplaceBlock"
  },
  "1110": {
    "ChessBoardEventID": 1110,
    "ChessBoardEventName": {
      "Hash": 1859110463
    },
    "ChessBoardEventDesc": {
      "Hash": -1527476411
    },
    "EventEffectType": "RandomReplaceBlock"
  },
  "1111": {
    "ChessBoardEventID": 1111,
    "ChessBoardEventName": {
      "Hash": -869772892
    },
    "ChessBoardEventDesc": {
      "Hash": 38607530
    },
    "EventEffectType": "RandomReplaceBlock"
  },
  "1112": {
    "ChessBoardEventID": 1112,
    "ChessBoardEventName": {
      "Hash": -1273057419
    },
    "ChessBoardEventDesc": {
      "Hash": -364676997
    },
    "EventEffectType": "RandomReplaceBlock"
  },
  "1113": {
    "ChessBoardEventID": 1113,
    "ChessBoardEventName": {
      "Hash": 293026522
    },
    "ChessBoardEventDesc": {
      "Hash": 1201406944
    },
    "EventEffectType": "RandomReplaceBlock"
  },
  "1114": {
    "ChessBoardEventID": 1114,
    "ChessBoardEventName": {
      "Hash": -466488365
    },
    "ChessBoardEventDesc": {
      "Hash": 798122417
    },
    "EventEffectType": "RandomReplaceBlock"
  },
  "1115": {
    "ChessBoardEventID": 1115,
    "ChessBoardEventName": {
      "Hash": 1099595576
    },
    "ChessBoardEventDesc": {
      "Hash": -1930760938
    },
    "EventEffectType": "RandomReplaceBlock"
  },
  "1116": {
    "ChessBoardEventID": 1116,
    "ChessBoardEventName": {
      "Hash": 696311049
    },
    "ChessBoardEventDesc": {
      "Hash": 1960921831
    },
    "EventEffectType": "RandomReplaceBlock"
  },
  "1117": {
    "ChessBoardEventID": 1117,
    "ChessBoardEventName": {
      "Hash": -2032572306
    },
    "ChessBoardEventDesc": {
      "Hash": -767961524
    },
    "EventEffectType": "RandomReplaceBlock"
  },
  "1118": {
    "ChessBoardEventID": 1118,
    "ChessBoardEventName": {
      "Hash": -2079626473
    },
    "ChessBoardEventDesc": {
      "Hash": -1171246051
    },
    "EventEffectType": "RandomReplaceBlock"
  },
  "1119": {
    "ChessBoardEventID": 1119,
    "ChessBoardEventName": {
      "Hash": -513542532
    },
    "ChessBoardEventDesc": {
      "Hash": 394837890
    },
    "EventEffectType": "RandomReplaceBlock"
  },
  "1120": {
    "ChessBoardEventID": 1120,
    "ChessBoardEventName": {
      "Hash": 1859110464
    },
    "ChessBoardEventDesc": {
      "Hash": -1527476414
    },
    "EventEffectType": "RandomReplaceBlock"
  },
  "1201": {
    "ChessBoardEventID": 1201,
    "ChessBoardEventName": {
      "Hash": 1596988436
    },
    "ChessBoardEventDesc": {
      "Hash": -1789598438
    },
    "EventEffectType": "TriggerAreaShuffle"
  },
  "1202": {
    "ChessBoardEventID": 1202,
    "ChessBoardEventName": {
      "Hash": 2000272963
    },
    "ChessBoardEventDesc": {
      "Hash": -1386313911
    },
    "EventEffectType": "TriggerAreaShuffle"
  },
  "1203": {
    "ChessBoardEventID": 1203,
    "ChessBoardEventName": {
      "Hash": 434189022
    },
    "ChessBoardEventDesc": {
      "Hash": 1342569444
    },
    "EventEffectType": "TriggerAreaShuffle"
  },
  "1204": {
    "ChessBoardEventID": 1204,
    "ChessBoardEventName": {
      "Hash": 837473549
    },
    "ChessBoardEventDesc": {
      "Hash": 2102084331
    },
    "EventEffectType": "TriggerAreaShuffle"
  },
  "1205": {
    "ChessBoardEventID": 1205,
    "ChessBoardEventName": {
      "Hash": -728610392
    },
    "ChessBoardEventDesc": {
      "Hash": 536000390
    },
    "EventEffectType": "TriggerAreaShuffle"
  },
  "1206": {
    "ChessBoardEventID": 1206,
    "ChessBoardEventName": {
      "Hash": -325325865
    },
    "ChessBoardEventDesc": {
      "Hash": 939284917
    },
    "EventEffectType": "TriggerAreaShuffle"
  },
  "1207": {
    "ChessBoardEventID": 1207,
    "ChessBoardEventName": {
      "Hash": -1891409806
    },
    "ChessBoardEventDesc": {
      "Hash": -626799024
    },
    "EventEffectType": "TriggerAreaShuffle"
  },
  "1208": {
    "ChessBoardEventID": 1208,
    "ChessBoardEventName": {
      "Hash": -775664559
    },
    "ChessBoardEventDesc": {
      "Hash": 132715863
    },
    "EventEffectType": "TriggerAreaShuffle"
  },
  "1209": {
    "ChessBoardEventID": 1209,
    "ChessBoardEventName": {
      "Hash": 1953218796
    },
    "ChessBoardEventDesc": {
      "Hash": -1433368078
    },
    "EventEffectType": "TriggerAreaShuffle"
  },
  "1210": {
    "ChessBoardEventID": 1210,
    "ChessBoardEventName": {
      "Hash": -1131894918
    },
    "ChessBoardEventDesc": {
      "Hash": -223514496
    },
    "EventEffectType": "TriggerAreaShuffle"
  },
  "1211": {
    "ChessBoardEventID": 1211,
    "ChessBoardEventName": {
      "Hash": 1596988437
    },
    "ChessBoardEventDesc": {
      "Hash": -1789598437
    },
    "EventEffectType": "TriggerAreaShuffle"
  },
  "1212": {
    "ChessBoardEventID": 1212,
    "ChessBoardEventName": {
      "Hash": 2000272964
    },
    "ChessBoardEventDesc": {
      "Hash": -1386313910
    },
    "EventEffectType": "TriggerAreaShuffle"
  },
  "1213": {
    "ChessBoardEventID": 1213,
    "ChessBoardEventName": {
      "Hash": 434189023
    },
    "ChessBoardEventDesc": {
      "Hash": 1342569445
    },
    "EventEffectType": "TriggerAreaShuffle"
  },
  "1214": {
    "ChessBoardEventID": 1214,
    "ChessBoardEventName": {
      "Hash": 837473550
    },
    "ChessBoardEventDesc": {
      "Hash": 2102084332
    },
    "EventEffectType": "TriggerAreaShuffle"
  },
  "1215": {
    "ChessBoardEventID": 1215,
    "ChessBoardEventName": {
      "Hash": -728610391
    },
    "ChessBoardEventDesc": {
      "Hash": 536000391
    },
    "EventEffectType": "TriggerAreaShuffle"
  },
  "1216": {
    "ChessBoardEventID": 1216,
    "ChessBoardEventName": {
      "Hash": -325325864
    },
    "ChessBoardEventDesc": {
      "Hash": 939284918
    },
    "EventEffectType": "TriggerAreaShuffle"
  },
  "1217": {
    "ChessBoardEventID": 1217,
    "ChessBoardEventName": {
      "Hash": -1891409805
    },
    "ChessBoardEventDesc": {
      "Hash": -626799023
    },
    "EventEffectType": "TriggerAreaShuffle"
  },
  "1218": {
    "ChessBoardEventID": 1218,
    "ChessBoardEventName": {
      "Hash": -775664558
    },
    "ChessBoardEventDesc": {
      "Hash": 132715864
    },
    "EventEffectType": "TriggerAreaShuffle"
  },
  "1219": {
    "ChessBoardEventID": 1219,
    "ChessBoardEventName": {
      "Hash": 1953218797
    },
    "ChessBoardEventDesc": {
      "Hash": -1433368077
    },
    "EventEffectType": "TriggerAreaShuffle"
  },
  "1220": {
    "ChessBoardEventID": 1220,
    "ChessBoardEventName": {
      "Hash": -1131894917
    },
    "ChessBoardEventDesc": {
      "Hash": -223514499
    },
    "EventEffectType": "TriggerAreaShuffle"
  },
  "2001": {
    "ChessBoardEventID": 2001,
    "ChessBoardEventName": {
      "Hash": 1879313473
    },
    "ChessBoardEventDesc": {
      "Hash": -1507273533
    },
    "EventEffectType": "ReplaceBlock"
  },
  "2002": {
    "ChessBoardEventID": 2002,
    "ChessBoardEventName": {
      "Hash": 313229532
    },
    "ChessBoardEventDesc": {
      "Hash": 1221609822
    },
    "EventEffectType": "ReplaceBlock"
  },
  "2003": {
    "ChessBoardEventID": 2003,
    "ChessBoardEventName": {
      "Hash": -1252854409
    },
    "ChessBoardEventDesc": {
      "Hash": -344474119
    },
    "EventEffectType": "ReplaceBlock"
  },
  "2004": {
    "ChessBoardEventID": 2004,
    "ChessBoardEventName": {
      "Hash": 1119798586
    },
    "ChessBoardEventDesc": {
      "Hash": -1910558060
    },
    "EventEffectType": "ReplaceBlock"
  },
  "2005": {
    "ChessBoardEventID": 2005,
    "ChessBoardEventName": {
      "Hash": -446285355
    },
    "ChessBoardEventDesc": {
      "Hash": 818325295
    },
    "EventEffectType": "ReplaceBlock"
  },
  "2006": {
    "ChessBoardEventID": 2006,
    "ChessBoardEventName": {
      "Hash": -2012369296
    },
    "ChessBoardEventDesc": {
      "Hash": -747758646
    },
    "EventEffectType": "ReplaceBlock"
  },
  "2007": {
    "ChessBoardEventID": 2007,
    "ChessBoardEventName": {
      "Hash": 716514059
    },
    "ChessBoardEventDesc": {
      "Hash": 1981124709
    },
    "EventEffectType": "ReplaceBlock"
  },
  "2008": {
    "ChessBoardEventID": 2008,
    "ChessBoardEventName": {
      "Hash": -493339522
    },
    "ChessBoardEventDesc": {
      "Hash": 415040768
    },
    "EventEffectType": "ReplaceBlock"
  },
  "2009": {
    "ChessBoardEventID": 2009,
    "ChessBoardEventName": {
      "Hash": -2059423463
    },
    "ChessBoardEventDesc": {
      "Hash": -1151043173
    },
    "EventEffectType": "ReplaceBlock"
  },
  "2010": {
    "ChessBoardEventID": 2010,
    "ChessBoardEventName": {
      "Hash": -849569883
    },
    "ChessBoardEventDesc": {
      "Hash": 58810407
    },
    "EventEffectType": "ReplaceBlock"
  },
  "2011": {
    "ChessBoardEventID": 2011,
    "ChessBoardEventName": {
      "Hash": 1879313472
    },
    "ChessBoardEventDesc": {
      "Hash": -1507273534
    },
    "EventEffectType": "ReplaceBlock"
  },
  "2012": {
    "ChessBoardEventID": 2012,
    "ChessBoardEventName": {
      "Hash": 313229531
    },
    "ChessBoardEventDesc": {
      "Hash": 1221609821
    },
    "EventEffectType": "ReplaceBlock"
  },
  "2013": {
    "ChessBoardEventID": 2013,
    "ChessBoardEventName": {
      "Hash": -1252854410
    },
    "ChessBoardEventDesc": {
      "Hash": -344474120
    },
    "EventEffectType": "ReplaceBlock"
  },
  "2014": {
    "ChessBoardEventID": 2014,
    "ChessBoardEventName": {
      "Hash": 1119798585
    },
    "ChessBoardEventDesc": {
      "Hash": -1910558061
    },
    "EventEffectType": "ReplaceBlock"
  },
  "2015": {
    "ChessBoardEventID": 2015,
    "ChessBoardEventName": {
      "Hash": -446285356
    },
    "ChessBoardEventDesc": {
      "Hash": 818325294
    },
    "EventEffectType": "ReplaceBlock"
  },
  "2016": {
    "ChessBoardEventID": 2016,
    "ChessBoardEventName": {
      "Hash": -2012369297
    },
    "ChessBoardEventDesc": {
      "Hash": -747758647
    },
    "EventEffectType": "ReplaceBlock"
  },
  "2017": {
    "ChessBoardEventID": 2017,
    "ChessBoardEventName": {
      "Hash": 716514058
    },
    "ChessBoardEventDesc": {
      "Hash": 1981124708
    },
    "EventEffectType": "ReplaceBlock"
  },
  "2018": {
    "ChessBoardEventID": 2018,
    "ChessBoardEventName": {
      "Hash": -493339523
    },
    "ChessBoardEventDesc": {
      "Hash": 415040767
    },
    "EventEffectType": "ReplaceBlock"
  },
  "2019": {
    "ChessBoardEventID": 2019,
    "ChessBoardEventName": {
      "Hash": -2059423464
    },
    "ChessBoardEventDesc": {
      "Hash": -1151043174
    },
    "EventEffectType": "ReplaceBlock"
  },
  "2020": {
    "ChessBoardEventID": 2020,
    "ChessBoardEventName": {
      "Hash": -849569884
    },
    "ChessBoardEventDesc": {
      "Hash": 58810410
    },
    "EventEffectType": "ReplaceBlock"
  },
  "2101": {
    "ChessBoardEventID": 2101,
    "ChessBoardEventName": {
      "Hash": -869772858
    },
    "ChessBoardEventDesc": {
      "Hash": 38607432
    },
    "EventEffectType": "ReplaceBlock"
  },
  "2102": {
    "ChessBoardEventID": 2102,
    "ChessBoardEventName": {
      "Hash": -1273057385
    },
    "ChessBoardEventDesc": {
      "Hash": -364677095
    },
    "EventEffectType": "ReplaceBlock"
  },
  "2103": {
    "ChessBoardEventID": 2103,
    "ChessBoardEventName": {
      "Hash": 293026556
    },
    "ChessBoardEventDesc": {
      "Hash": 1201406846
    },
    "EventEffectType": "ReplaceBlock"
  },
  "2104": {
    "ChessBoardEventID": 2104,
    "ChessBoardEventName": {
      "Hash": -466488331
    },
    "ChessBoardEventDesc": {
      "Hash": 798122319
    },
    "EventEffectType": "ReplaceBlock"
  },
  "2105": {
    "ChessBoardEventID": 2105,
    "ChessBoardEventName": {
      "Hash": 1099595610
    },
    "ChessBoardEventDesc": {
      "Hash": -1930761036
    },
    "EventEffectType": "ReplaceBlock"
  },
  "2106": {
    "ChessBoardEventID": 2106,
    "ChessBoardEventName": {
      "Hash": 696311083
    },
    "ChessBoardEventDesc": {
      "Hash": 1960921733
    },
    "EventEffectType": "ReplaceBlock"
  },
  "2107": {
    "ChessBoardEventID": 2107,
    "ChessBoardEventName": {
      "Hash": -2032572272
    },
    "ChessBoardEventDesc": {
      "Hash": -767961622
    },
    "EventEffectType": "ReplaceBlock"
  },
  "2108": {
    "ChessBoardEventID": 2108,
    "ChessBoardEventName": {
      "Hash": -2079626439
    },
    "ChessBoardEventDesc": {
      "Hash": -1171246149
    },
    "EventEffectType": "ReplaceBlock"
  },
  "2109": {
    "ChessBoardEventID": 2109,
    "ChessBoardEventName": {
      "Hash": -513542498
    },
    "ChessBoardEventDesc": {
      "Hash": 394837792
    },
    "EventEffectType": "ReplaceBlock"
  },
  "2110": {
    "ChessBoardEventID": 2110,
    "ChessBoardEventName": {
      "Hash": 1859110496
    },
    "ChessBoardEventDesc": {
      "Hash": -1527476510
    },
    "EventEffectType": "ReplaceBlock"
  },
  "2111": {
    "ChessBoardEventID": 2111,
    "ChessBoardEventName": {
      "Hash": -869772859
    },
    "ChessBoardEventDesc": {
      "Hash": 38607431
    },
    "EventEffectType": "ReplaceBlock"
  },
  "2112": {
    "ChessBoardEventID": 2112,
    "ChessBoardEventName": {
      "Hash": -1273057386
    },
    "ChessBoardEventDesc": {
      "Hash": -364677096
    },
    "EventEffectType": "ReplaceBlock"
  },
  "2113": {
    "ChessBoardEventID": 2113,
    "ChessBoardEventName": {
      "Hash": 293026555
    },
    "ChessBoardEventDesc": {
      "Hash": 1201406845
    },
    "EventEffectType": "ReplaceBlock"
  },
  "2114": {
    "ChessBoardEventID": 2114,
    "ChessBoardEventName": {
      "Hash": -466488332
    },
    "ChessBoardEventDesc": {
      "Hash": 798122318
    },
    "EventEffectType": "ReplaceBlock"
  },
  "2115": {
    "ChessBoardEventID": 2115,
    "ChessBoardEventName": {
      "Hash": 1099595609
    },
    "ChessBoardEventDesc": {
      "Hash": -1930761037
    },
    "EventEffectType": "ReplaceBlock"
  },
  "2116": {
    "ChessBoardEventID": 2116,
    "ChessBoardEventName": {
      "Hash": 696311082
    },
    "ChessBoardEventDesc": {
      "Hash": 1960921732
    },
    "EventEffectType": "ReplaceBlock"
  },
  "2117": {
    "ChessBoardEventID": 2117,
    "ChessBoardEventName": {
      "Hash": -2032572273
    },
    "ChessBoardEventDesc": {
      "Hash": -767961623
    },
    "EventEffectType": "ReplaceBlock"
  },
  "2118": {
    "ChessBoardEventID": 2118,
    "ChessBoardEventName": {
      "Hash": -2079626440
    },
    "ChessBoardEventDesc": {
      "Hash": -1171246150
    },
    "EventEffectType": "ReplaceBlock"
  },
  "2119": {
    "ChessBoardEventID": 2119,
    "ChessBoardEventName": {
      "Hash": -513542499
    },
    "ChessBoardEventDesc": {
      "Hash": 394837791
    },
    "EventEffectType": "ReplaceBlock"
  },
  "2120": {
    "ChessBoardEventID": 2120,
    "ChessBoardEventName": {
      "Hash": 1859110495
    },
    "ChessBoardEventDesc": {
      "Hash": -1527476507
    },
    "EventEffectType": "ReplaceBlock"
  },
  "2201": {
    "ChessBoardEventID": 2201,
    "ChessBoardEventName": {
      "Hash": 1596988471
    },
    "ChessBoardEventDesc": {
      "Hash": -1789598535
    },
    "EventEffectType": "TriggerMark"
  },
  "2202": {
    "ChessBoardEventID": 2202,
    "ChessBoardEventName": {
      "Hash": 2000272998
    },
    "ChessBoardEventDesc": {
      "Hash": -1386314008
    },
    "EventEffectType": "TriggerMark"
  },
  "2203": {
    "ChessBoardEventID": 2203,
    "ChessBoardEventName": {
      "Hash": 434189057
    },
    "ChessBoardEventDesc": {
      "Hash": 1342569347
    },
    "EventEffectType": "TriggerMark"
  },
  "2204": {
    "ChessBoardEventID": 2204,
    "ChessBoardEventName": {
      "Hash": 837473584
    },
    "ChessBoardEventDesc": {
      "Hash": 2102084234
    },
    "EventEffectType": "TriggerMark"
  },
  "2205": {
    "ChessBoardEventID": 2205,
    "ChessBoardEventName": {
      "Hash": -728610357
    },
    "ChessBoardEventDesc": {
      "Hash": 536000293
    },
    "EventEffectType": "TriggerMark"
  },
  "2206": {
    "ChessBoardEventID": 2206,
    "ChessBoardEventName": {
      "Hash": -325325830
    },
    "ChessBoardEventDesc": {
      "Hash": 939284820
    },
    "EventEffectType": "TriggerMark"
  },
  "2207": {
    "ChessBoardEventID": 2207,
    "ChessBoardEventName": {
      "Hash": -1891409771
    },
    "ChessBoardEventDesc": {
      "Hash": -626799121
    },
    "EventEffectType": "TriggerMark"
  },
  "2208": {
    "ChessBoardEventID": 2208,
    "ChessBoardEventName": {
      "Hash": -775664524
    },
    "ChessBoardEventDesc": {
      "Hash": 132715766
    },
    "EventEffectType": "TriggerMark"
  },
  "2209": {
    "ChessBoardEventID": 2209,
    "ChessBoardEventName": {
      "Hash": 1953218831
    },
    "ChessBoardEventDesc": {
      "Hash": -1433368175
    },
    "EventEffectType": "TriggerMark"
  },
  "2210": {
    "ChessBoardEventID": 2210,
    "ChessBoardEventName": {
      "Hash": -1131894885
    },
    "ChessBoardEventDesc": {
      "Hash": -223514595
    },
    "EventEffectType": "TriggerMark"
  },
  "2211": {
    "ChessBoardEventID": 2211,
    "ChessBoardEventName": {
      "Hash": 1596988470
    },
    "ChessBoardEventDesc": {
      "Hash": -1789598536
    },
    "EventEffectType": "TriggerMark"
  },
  "2212": {
    "ChessBoardEventID": 2212,
    "ChessBoardEventName": {
      "Hash": 2000272997
    },
    "ChessBoardEventDesc": {
      "Hash": -1386314009
    },
    "EventEffectType": "TriggerMark"
  },
  "2213": {
    "ChessBoardEventID": 2213,
    "ChessBoardEventName": {
      "Hash": 434189056
    },
    "ChessBoardEventDesc": {
      "Hash": 1342569346
    },
    "EventEffectType": "TriggerMark"
  },
  "2214": {
    "ChessBoardEventID": 2214,
    "ChessBoardEventName": {
      "Hash": 837473583
    },
    "ChessBoardEventDesc": {
      "Hash": 2102084233
    },
    "EventEffectType": "TriggerMark"
  },
  "2215": {
    "ChessBoardEventID": 2215,
    "ChessBoardEventName": {
      "Hash": -728610358
    },
    "ChessBoardEventDesc": {
      "Hash": 536000292
    },
    "EventEffectType": "TriggerMark"
  },
  "2216": {
    "ChessBoardEventID": 2216,
    "ChessBoardEventName": {
      "Hash": -325325831
    },
    "ChessBoardEventDesc": {
      "Hash": 939284819
    },
    "EventEffectType": "TriggerMark"
  },
  "2217": {
    "ChessBoardEventID": 2217,
    "ChessBoardEventName": {
      "Hash": -1891409772
    },
    "ChessBoardEventDesc": {
      "Hash": -626799122
    },
    "EventEffectType": "TriggerMark"
  },
  "2218": {
    "ChessBoardEventID": 2218,
    "ChessBoardEventName": {
      "Hash": -775664525
    },
    "ChessBoardEventDesc": {
      "Hash": 132715765
    },
    "EventEffectType": "TriggerMark"
  },
  "2219": {
    "ChessBoardEventID": 2219,
    "ChessBoardEventName": {
      "Hash": 1953218830
    },
    "ChessBoardEventDesc": {
      "Hash": -1433368176
    },
    "EventEffectType": "TriggerMark"
  },
  "2220": {
    "ChessBoardEventID": 2220,
    "ChessBoardEventName": {
      "Hash": -1131894886
    },
    "ChessBoardEventDesc": {
      "Hash": -223514592
    },
    "EventEffectType": "TriggerMark"
  }
}