{
  "300101": {
    "ID": 300101,
    "BeginTime": "2021-05-28 04:00:00",
    "EndTime": "2099-12-30 04:00:00"
  },
  "300102": {
    "ID": 300102,
    "BeginTime": "2021-05-28 04:00:00",
    "EndTime": "2099-12-30 04:00:00"
  },
  "300202": {
    "ID": 300202,
    "BeginTime": "2021-05-28 04:00:00",
    "EndTime": "2099-12-30 04:00:00"
  },
  "300301": {
    "ID": 300301,
    "BeginTime": "2021-05-28 04:00:00",
    "EndTime": "2099-12-30 04:00:00"
  },
  "300302": {
    "ID": 300302,
    "BeginTime": "2021-05-28 04:00:00",
    "EndTime": "2099-12-30 04:00:00"
  },
  "300303": {
    "ID": 300303,
    "BeginTime": "2021-05-28 04:00:00",
    "EndTime": "2099-12-30 04:00:00"
  },
  "300304": {
    "ID": 300304,
    "BeginTime": "2021-05-28 04:00:00",
    "EndTime": "2099-12-30 04:00:00"
  },
  "300305": {
    "ID": 300305,
    "BeginTime": "2021-05-28 04:00:00",
    "EndTime": "2099-12-30 04:00:00"
  },
  "300306": {
    "ID": 300306,
    "BeginTime": "2021-05-28 04:00:00",
    "EndTime": "2099-12-30 04:00:00"
  },
  "300307": {
    "ID": 300307,
    "BeginTime": "2021-05-28 04:00:00",
    "EndTime": "2099-12-30 04:00:00"
  },
  "300308": {
    "ID": 300308,
    "BeginTime": "2021-05-28 04:00:00",
    "EndTime": "2099-12-30 04:00:00"
  },
  "300309": {
    "ID": 300309,
    "BeginTime": "2021-05-28 04:00:00",
    "EndTime": "2099-12-30 04:00:00"
  },
  "300310": {
    "ID": 300310,
    "BeginTime": "2021-05-28 04:00:00",
    "EndTime": "2099-12-30 04:00:00"
  },
  "300311": {
    "ID": 300311,
    "BeginTime": "2021-05-28 04:00:00",
    "EndTime": "2099-12-30 04:00:00"
  },
  "300312": {
    "ID": 300312,
    "BeginTime": "2021-05-28 04:00:00",
    "EndTime": "2099-12-30 04:00:00"
  },
  "300313": {
    "ID": 300313,
    "BeginTime": "2021-05-28 04:00:00",
    "EndTime": "2099-12-30 04:00:00"
  },
  "300314": {
    "ID": 300314,
    "BeginTime": "2021-05-28 04:00:00",
    "EndTime": "2099-12-30 04:00:00"
  },
  "300315": {
    "ID": 300315,
    "BeginTime": "2021-05-28 04:00:00",
    "EndTime": "2099-12-30 04:00:00"
  },
  "300316": {
    "ID": 300316,
    "BeginTime": "2021-05-28 04:00:00",
    "EndTime": "2099-12-30 04:00:00"
  },
  "300317": {
    "ID": 300317,
    "BeginTime": "2021-05-28 04:00:00",
    "EndTime": "2099-12-30 04:00:00"
  },
  "300318": {
    "ID": 300318,
    "BeginTime": "2021-05-28 04:00:00",
    "EndTime": "2099-12-30 04:00:00"
  },
  "300319": {
    "ID": 300319,
    "BeginTime": "2021-05-28 04:00:00",
    "EndTime": "2099-12-30 04:00:00"
  },
  "300320": {
    "ID": 300320,
    "BeginTime": "2021-05-28 04:00:00",
    "EndTime": "2099-12-30 04:00:00"
  },
  "300321": {
    "ID": 300321,
    "BeginTime": "2021-05-28 04:00:00",
    "EndTime": "2099-12-30 04:00:00"
  },
  "300322": {
    "ID": 300322,
    "BeginTime": "2021-05-28 04:00:00",
    "EndTime": "2099-12-30 04:00:00"
  },
  "300323": {
    "ID": 300323,
    "BeginTime": "2021-05-28 04:00:00",
    "EndTime": "2099-12-30 04:00:00"
  },
  "300324": {
    "ID": 300324,
    "BeginTime": "2021-05-28 04:00:00",
    "EndTime": "2099-12-30 04:00:00"
  },
  "300325": {
    "ID": 300325,
    "BeginTime": "2021-05-28 04:00:00",
    "EndTime": "2099-12-30 04:00:00"
  },
  "300401": {
    "ID": 300401,
    "BeginTime": "2021-05-28 04:00:00",
    "EndTime": "2099-12-30 04:00:00"
  },
  "300402": {
    "ID": 300402,
    "BeginTime": "2021-05-28 04:00:00",
    "EndTime": "2099-12-30 04:00:00"
  },
  "300403": {
    "ID": 300403,
    "BeginTime": "2021-05-28 04:00:00",
    "EndTime": "2099-12-30 04:00:00"
  },
  "300501": {
    "ID": 300501,
    "BeginTime": "2021-05-28 04:00:00",
    "EndTime": "2099-12-30 04:00:00"
  },
  "300900": {
    "ID": 300900,
    "BeginTime": "2021-05-28 04:00:00",
    "EndTime": "2099-12-30 04:00:00"
  },
  "300997": {
    "ID": 300997,
    "BeginTime": "2021-05-28 04:00:00",
    "EndTime": "2099-12-30 04:00:00"
  },
  "300998": {
    "ID": 300998,
    "BeginTime": "2021-05-28 04:00:00",
    "EndTime": "2099-12-30 04:00:00"
  },
  "300999": {
    "ID": 300999,
    "BeginTime": "2021-05-28 04:00:00",
    "EndTime": "2099-12-30 04:00:00"
  },
  "301000": {
    "ID": 301000,
    "BeginTime": "2021-05-28 04:00:00",
    "EndTime": "2099-12-30 04:00:00"
  },
  "10101001": {
    "ID": 10101001,
    "BeginTime": "2021-05-28 04:00:00",
    "EndTime": "2099-12-30 04:00:00"
  },
  "10101002": {
    "ID": 10101002,
    "BeginTime": "2021-05-28 04:00:00",
    "EndTime": "2099-12-30 04:00:00"
  },
  "10101003": {
    "ID": 10101003,
    "BeginTime": "2022-04-02 04:00:00",
    "EndTime": "2099-12-30 04:00:00"
  },
  "10101004": {
    "ID": 10101004,
    "BeginTime": "2022-04-02 04:00:00",
    "EndTime": "2099-12-30 04:00:00"
  },
  "10101012": {
    "ID": 10101012,
    "BeginTime": "2021-05-28 04:00:00",
    "EndTime": "2099-12-30 04:00:00"
  },
  "10101013": {
    "ID": 10101013,
    "BeginTime": "2021-05-28 04:00:00",
    "EndTime": "2099-12-30 04:00:00"
  },
  "10101014": {
    "ID": 10101014,
    "BeginTime": "2021-05-28 04:00:00",
    "EndTime": "2099-12-30 04:00:00"
  },
  "10101015": {
    "ID": 10101015,
    "BeginTime": "2021-05-28 04:00:00",
    "EndTime": "2099-12-30 04:00:00"
  },
  "10101016": {
    "ID": 10101016,
    "BeginTime": "2021-05-28 04:00:00",
    "EndTime": "2099-12-30 04:00:00"
  },
  "10101017": {
    "ID": 10101017,
    "BeginTime": "2021-05-28 04:00:00",
    "EndTime": "2099-12-30 04:00:00"
  },
  "10101018": {
    "ID": 10101018,
    "BeginTime": "2021-05-28 04:00:00",
    "EndTime": "2099-12-30 04:00:00"
  },
  "10102001": {
    "ID": 10102001,
    "BeginTime": "2021-05-28 04:00:00",
    "EndTime": "2099-12-30 04:00:00"
  },
  "10102002": {
    "ID": 10102002,
    "BeginTime": "2021-05-28 04:00:00",
    "EndTime": "2099-12-30 04:00:00"
  },
  "10102003": {
    "ID": 10102003,
    "BeginTime": "2021-05-28 04:00:00",
    "EndTime": "2099-12-30 04:00:00"
  },
  "10102004": {
    "ID": 10102004,
    "BeginTime": "2021-05-28 04:00:00",
    "EndTime": "2099-12-30 04:00:00"
  },
  "10102005": {
    "ID": 10102005,
    "BeginTime": "2021-05-28 04:00:00",
    "EndTime": "2099-12-30 04:00:00"
  },
  "10102006": {
    "ID": 10102006,
    "BeginTime": "2021-05-28 04:00:00",
    "EndTime": "2099-12-30 04:00:00"
  },
  "10102007": {
    "ID": 10102007,
    "BeginTime": "2021-05-28 04:00:00",
    "EndTime": "2099-12-30 04:00:00"
  },
  "10102008": {
    "ID": 10102008,
    "BeginTime": "2021-05-28 04:00:00",
    "EndTime": "2099-12-30 04:00:00"
  },
  "10102009": {
    "ID": 10102009,
    "BeginTime": "2021-05-28 04:00:00",
    "EndTime": "2099-12-30 04:00:00"
  },
  "10102010": {
    "ID": 10102010,
    "BeginTime": "2021-05-28 04:00:00",
    "EndTime": "2099-12-30 04:00:00"
  },
  "10102011": {
    "ID": 10102011,
    "BeginTime": "2021-05-28 04:00:00",
    "EndTime": "2099-12-30 04:00:00"
  },
  "10102012": {
    "ID": 10102012,
    "BeginTime": "2021-05-28 04:00:00",
    "EndTime": "2099-12-30 04:00:00"
  },
  "10102013": {
    "ID": 10102013,
    "BeginTime": "2021-05-28 04:00:00",
    "EndTime": "2099-12-30 04:00:00"
  },
  "10102014": {
    "ID": 10102014,
    "BeginTime": "2021-05-28 04:00:00",
    "EndTime": "2099-12-30 04:00:00"
  },
  "10102015": {
    "ID": 10102015,
    "BeginTime": "2021-05-28 04:00:00",
    "EndTime": "2099-12-30 04:00:00"
  },
  "10102016": {
    "ID": 10102016,
    "BeginTime": "2021-05-28 04:00:00",
    "EndTime": "2099-12-30 04:00:00"
  },
  "10102017": {
    "ID": 10102017,
    "BeginTime": "2021-05-28 04:00:00",
    "EndTime": "2099-12-30 04:00:00"
  },
  "10102018": {
    "ID": 10102018,
    "BeginTime": "2021-05-28 04:00:00",
    "EndTime": "2099-12-30 04:00:00"
  },
  "10102019": {
    "ID": 10102019,
    "BeginTime": "2021-05-28 04:00:00",
    "EndTime": "2099-12-30 04:00:00"
  },
  "10102020": {
    "ID": 10102020,
    "BeginTime": "2023-07-01 04:00:00",
    "EndTime": "2099-12-30 04:00:00"
  },
  "10102021": {
    "ID": 10102021,
    "BeginTime": "2023-07-01 04:00:00",
    "EndTime": "2099-12-30 04:00:00"
  },
  "10102022": {
    "ID": 10102022,
    "BeginTime": "2023-07-01 04:00:00",
    "EndTime": "2099-12-30 04:00:00"
  },
  "10102023": {
    "ID": 10102023,
    "BeginTime": "2023-07-01 04:00:00",
    "EndTime": "2099-12-30 04:00:00"
  },
  "10102024": {
    "ID": 10102024,
    "BeginTime": "2023-07-01 04:00:00",
    "EndTime": "2099-12-30 04:00:00"
  },
  "10102025": {
    "ID": 10102025,
    "BeginTime": "2023-07-01 04:00:00",
    "EndTime": "2099-12-30 04:00:00"
  },
  "10102026": {
    "ID": 10102026,
    "BeginTime": "2023-07-01 04:00:00",
    "EndTime": "2099-12-30 04:00:00"
  },
  "10102027": {
    "ID": 10102027,
    "BeginTime": "2023-07-01 04:00:00",
    "EndTime": "2099-12-30 04:00:00"
  },
  "10102099": {
    "ID": 10102099,
    "BeginTime": "2021-05-28 04:00:00",
    "EndTime": "2099-12-30 04:00:00"
  },
  "10202001": {
    "ID": 10202001,
    "BeginTime": "2021-05-28 04:00:00",
    "EndTime": "2099-12-30 04:00:00"
  },
  "10202002": {
    "ID": 10202002,
    "BeginTime": "2021-05-28 04:00:00",
    "EndTime": "2099-12-30 04:00:00"
  },
  "10202003": {
    "ID": 10202003,
    "BeginTime": "2021-05-28 04:00:00",
    "EndTime": "2099-12-30 04:00:00"
  },
  "10202004": {
    "ID": 10202004,
    "BeginTime": "2021-05-28 04:00:00",
    "EndTime": "2099-12-30 04:00:00"
  },
  "10202005": {
    "ID": 10202005,
    "BeginTime": "2021-05-28 04:00:00",
    "EndTime": "2099-12-30 04:00:00"
  },
  "10202006": {
    "ID": 10202006,
    "BeginTime": "2021-05-28 04:00:00",
    "EndTime": "2099-12-30 04:00:00"
  },
  "10202007": {
    "ID": 10202007,
    "BeginTime": "2021-05-28 04:00:00",
    "EndTime": "2099-12-30 04:00:00"
  },
  "10301001": {
    "ID": 10301001,
    "BeginTime": "2021-05-28 04:00:00",
    "EndTime": "2099-12-30 04:00:00"
  },
  "10301002": {
    "ID": 10301002,
    "BeginTime": "2021-05-28 04:00:00",
    "EndTime": "2099-12-30 04:00:00"
  },
  "10301003": {
    "ID": 10301003,
    "BeginTime": "2021-05-28 04:00:00",
    "EndTime": "2099-12-30 04:00:00"
  },
  "10301004": {
    "ID": 10301004,
    "BeginTime": "2021-05-28 04:00:00",
    "EndTime": "2099-12-30 04:00:00"
  },
  "10301005": {
    "ID": 10301005,
    "BeginTime": "2021-05-28 04:00:00",
    "EndTime": "2099-12-30 04:00:00"
  },
  "10301006": {
    "ID": 10301006,
    "BeginTime": "2021-05-28 04:00:00",
    "EndTime": "2099-12-30 04:00:00"
  },
  "10301007": {
    "ID": 10301007,
    "BeginTime": "2021-05-28 04:00:00",
    "EndTime": "2099-12-30 04:00:00"
  },
  "10301008": {
    "ID": 10301008,
    "BeginTime": "2021-05-28 04:00:00",
    "EndTime": "2099-12-30 04:00:00"
  },
  "10302001": {
    "ID": 10302001,
    "BeginTime": "2021-05-28 04:00:00",
    "EndTime": "2099-12-30 04:00:00"
  },
  "10302002": {
    "ID": 10302002,
    "BeginTime": "2021-05-28 04:00:00",
    "EndTime": "2099-12-30 04:00:00"
  },
  "10302004": {
    "ID": 10302004,
    "BeginTime": "2021-05-28 04:00:00",
    "EndTime": "2099-12-30 04:00:00"
  },
  "10302005": {
    "ID": 10302005,
    "BeginTime": "2021-05-28 04:00:00",
    "EndTime": "2099-12-30 04:00:00"
  },
  "10302006": {
    "ID": 10302006,
    "BeginTime": "2021-05-28 04:00:00",
    "EndTime": "2099-12-30 04:00:00"
  },
  "10303001": {
    "ID": 10303001,
    "BeginTime": "2021-05-28 04:00:00",
    "EndTime": "2099-12-30 04:00:00"
  },
  "10303002": {
    "ID": 10303002,
    "BeginTime": "2021-05-28 04:00:00",
    "EndTime": "2099-12-30 04:00:00"
  },
  "10303003": {
    "ID": 10303003,
    "BeginTime": "2021-05-28 04:00:00",
    "EndTime": "2099-12-30 04:00:00"
  },
  "10303004": {
    "ID": 10303004,
    "BeginTime": "2021-05-28 04:00:00",
    "EndTime": "2099-12-30 04:00:00"
  },
  "10303005": {
    "ID": 10303005,
    "BeginTime": "2021-05-28 04:00:00",
    "EndTime": "2099-12-30 04:00:00"
  },
  "10303006": {
    "ID": 10303006,
    "BeginTime": "2021-05-28 04:00:00",
    "EndTime": "2099-12-30 04:00:00"
  },
  "10303007": {
    "ID": 10303007,
    "BeginTime": "2021-05-28 04:00:00",
    "EndTime": "2099-12-30 04:00:00"
  },
  "10303008": {
    "ID": 10303008,
    "BeginTime": "2021-05-28 04:00:00",
    "EndTime": "2099-12-30 04:00:00"
  },
  "10303009": {
    "ID": 10303009,
    "BeginTime": "2021-05-28 04:00:00",
    "EndTime": "2099-12-30 04:00:00"
  },
  "10303010": {
    "ID": 10303010,
    "BeginTime": "2021-05-28 04:00:00",
    "EndTime": "2099-12-30 04:00:00"
  },
  "10303011": {
    "ID": 10303011,
    "BeginTime": "2021-05-28 04:00:00",
    "EndTime": "2099-12-30 04:00:00"
  },
  "10303012": {
    "ID": 10303012,
    "BeginTime": "2021-05-28 04:00:00",
    "EndTime": "2099-12-30 04:00:00"
  },
  "10304001": {
    "ID": 10304001,
    "BeginTime": "2021-05-28 04:00:00",
    "EndTime": "2099-12-30 04:00:00"
  },
  "10304002": {
    "ID": 10304002,
    "BeginTime": "2021-05-28 04:00:00",
    "EndTime": "2099-12-30 04:00:00"
  },
  "10304003": {
    "ID": 10304003,
    "BeginTime": "2021-05-28 04:00:00",
    "EndTime": "2099-12-30 04:00:00"
  },
  "10304004": {
    "ID": 10304004,
    "BeginTime": "2021-05-28 04:00:00",
    "EndTime": "2099-12-30 04:00:00"
  },
  "10304005": {
    "ID": 10304005,
    "BeginTime": "2021-05-28 04:00:00",
    "EndTime": "2099-12-30 04:00:00"
  },
  "10304006": {
    "ID": 10304006,
    "BeginTime": "2021-05-28 04:00:00",
    "EndTime": "2099-12-30 04:00:00"
  },
  "10304007": {
    "ID": 10304007,
    "BeginTime": "2021-05-28 04:00:00",
    "EndTime": "2099-12-30 04:00:00"
  },
  "10304008": {
    "ID": 10304008,
    "BeginTime": "2021-05-28 04:00:00",
    "EndTime": "2099-12-30 04:00:00"
  },
  "10305001": {
    "ID": 10305001,
    "BeginTime": "2021-05-28 04:00:00",
    "EndTime": "2099-12-30 04:00:00"
  },
  "10305002": {
    "ID": 10305002,
    "BeginTime": "2021-05-28 04:00:00",
    "EndTime": "2099-12-30 04:00:00"
  },
  "10305003": {
    "ID": 10305003,
    "BeginTime": "2021-05-28 04:00:00",
    "EndTime": "2099-12-30 04:00:00"
  },
  "10305004": {
    "ID": 10305004,
    "BeginTime": "2021-05-28 04:00:00",
    "EndTime": "2099-12-30 04:00:00"
  },
  "10305005": {
    "ID": 10305005,
    "BeginTime": "2021-05-28 04:00:00",
    "EndTime": "2099-12-30 04:00:00"
  },
  "10305006": {
    "ID": 10305006,
    "BeginTime": "2021-05-28 04:00:00",
    "EndTime": "2099-12-30 04:00:00"
  },
  "10305007": {
    "ID": 10305007,
    "BeginTime": "2021-05-28 04:00:00",
    "EndTime": "2099-12-30 04:00:00"
  },
  "10305008": {
    "ID": 10305008,
    "BeginTime": "2021-05-28 04:00:00",
    "EndTime": "2099-12-30 04:00:00"
  },
  "10305009": {
    "ID": 10305009,
    "BeginTime": "2021-05-28 04:00:00",
    "EndTime": "2099-12-30 04:00:00"
  },
  "10305010": {
    "ID": 10305010,
    "BeginTime": "2021-05-28 04:00:00",
    "EndTime": "2099-12-30 04:00:00"
  },
  "10305011": {
    "ID": 10305011,
    "BeginTime": "2021-05-28 04:00:00",
    "EndTime": "2099-12-30 04:00:00"
  },
  "10305012": {
    "ID": 10305012,
    "BeginTime": "2021-05-28 04:00:00",
    "EndTime": "2099-12-30 04:00:00"
  },
  "10305013": {
    "ID": 10305013,
    "BeginTime": "2021-05-28 04:00:00",
    "EndTime": "2099-12-30 04:00:00"
  },
  "10305014": {
    "ID": 10305014,
    "BeginTime": "2021-05-28 04:00:00",
    "EndTime": "2099-12-30 04:00:00"
  },
  "10306001": {
    "ID": 10306001,
    "BeginTime": "2021-05-28 04:00:00",
    "EndTime": "2099-12-30 04:00:00"
  },
  "10306002": {
    "ID": 10306002,
    "BeginTime": "2021-05-28 04:00:00",
    "EndTime": "2099-12-30 04:00:00"
  },
  "10306003": {
    "ID": 10306003,
    "BeginTime": "2021-05-28 04:00:00",
    "EndTime": "2099-12-30 04:00:00"
  },
  "10306004": {
    "ID": 10306004,
    "BeginTime": "2021-05-28 04:00:00",
    "EndTime": "2099-12-30 04:00:00"
  },
  "10306005": {
    "ID": 10306005,
    "BeginTime": "2021-05-28 04:00:00",
    "EndTime": "2099-12-30 04:00:00"
  },
  "10306006": {
    "ID": 10306006,
    "BeginTime": "2021-05-28 04:00:00",
    "EndTime": "2099-12-30 04:00:00"
  },
  "10306007": {
    "ID": 10306007,
    "BeginTime": "2021-05-28 04:00:00",
    "EndTime": "2099-12-30 04:00:00"
  },
  "10306008": {
    "ID": 10306008,
    "BeginTime": "2021-05-28 04:00:00",
    "EndTime": "2099-12-30 04:00:00"
  },
  "10306009": {
    "ID": 10306009,
    "BeginTime": "2021-05-28 04:00:00",
    "EndTime": "2099-12-30 04:00:00"
  },
  "10306010": {
    "ID": 10306010,
    "BeginTime": "2021-05-28 04:00:00",
    "EndTime": "2099-12-30 04:00:00"
  },
  "10306011": {
    "ID": 10306011,
    "BeginTime": "2021-05-28 04:00:00",
    "EndTime": "2099-12-30 04:00:00"
  },
  "10306012": {
    "ID": 10306012,
    "BeginTime": "2021-05-28 04:00:00",
    "EndTime": "2099-12-30 04:00:00"
  },
  "10306013": {
    "ID": 10306013,
    "BeginTime": "2021-05-28 04:00:00",
    "EndTime": "2099-12-30 04:00:00"
  },
  "10306014": {
    "ID": 10306014,
    "BeginTime": "2021-05-28 04:00:00",
    "EndTime": "2099-12-30 04:00:00"
  },
  "10307001": {
    "ID": 10307001,
    "BeginTime": "2021-05-28 04:00:00",
    "EndTime": "2099-12-30 04:00:00"
  },
  "10307002": {
    "ID": 10307002,
    "BeginTime": "2021-05-28 04:00:00",
    "EndTime": "2099-12-30 04:00:00"
  },
  "10307003": {
    "ID": 10307003,
    "BeginTime": "2021-05-28 04:00:00",
    "EndTime": "2099-12-30 04:00:00"
  },
  "10307004": {
    "ID": 10307004,
    "BeginTime": "2021-05-28 04:00:00",
    "EndTime": "2099-12-30 04:00:00"
  },
  "10308001": {
    "ID": 10308001,
    "BeginTime": "2021-05-28 04:00:00",
    "EndTime": "2099-12-30 04:00:00"
  },
  "10308002": {
    "ID": 10308002,
    "BeginTime": "2021-05-28 04:00:00",
    "EndTime": "2099-12-30 04:00:00"
  },
  "10309001": {
    "ID": 10309001,
    "BeginTime": "2021-05-28 04:00:00",
    "EndTime": "2099-12-30 04:00:00"
  },
  "10309002": {
    "ID": 10309002,
    "BeginTime": "2021-05-28 04:00:00",
    "EndTime": "2099-12-30 04:00:00"
  },
  "10310001": {
    "ID": 10310001,
    "BeginTime": "2021-05-28 04:00:00",
    "EndTime": "2099-12-30 04:00:00"
  },
  "10310002": {
    "ID": 10310002,
    "BeginTime": "2021-05-28 04:00:00",
    "EndTime": "2099-12-30 04:00:00"
  },
  "10310003": {
    "ID": 10310003,
    "BeginTime": "2021-05-28 04:00:00",
    "EndTime": "2099-12-30 04:00:00"
  },
  "10310004": {
    "ID": 10310004,
    "BeginTime": "2021-05-28 04:00:00",
    "EndTime": "2099-12-30 04:00:00"
  },
  "10310005": {
    "ID": 10310005,
    "BeginTime": "2021-05-28 04:00:00",
    "EndTime": "2099-12-30 04:00:00"
  },
  "10310006": {
    "ID": 10310006,
    "BeginTime": "2021-05-28 04:00:00",
    "EndTime": "2099-12-30 04:00:00"
  },
  "10311001": {
    "ID": 10311001,
    "BeginTime": "2021-05-28 04:00:00",
    "EndTime": "2099-12-30 04:00:00"
  },
  "10311002": {
    "ID": 10311002,
    "BeginTime": "2021-05-28 04:00:00",
    "EndTime": "2099-12-30 04:00:00"
  },
  "10311003": {
    "ID": 10311003,
    "BeginTime": "2021-05-28 04:00:00",
    "EndTime": "2099-12-30 04:00:00"
  },
  "10311004": {
    "ID": 10311004,
    "BeginTime": "2021-05-28 04:00:00",
    "EndTime": "2099-12-30 04:00:00"
  },
  "10311005": {
    "ID": 10311005,
    "BeginTime": "2021-05-28 04:00:00",
    "EndTime": "2099-12-30 04:00:00"
  },
  "10311006": {
    "ID": 10311006,
    "BeginTime": "2021-05-28 04:00:00",
    "EndTime": "2099-12-30 04:00:00"
  },
  "10311007": {
    "ID": 10311007,
    "BeginTime": "2021-05-28 04:00:00",
    "EndTime": "2099-12-30 04:00:00"
  },
  "10311008": {
    "ID": 10311008,
    "BeginTime": "2021-05-28 04:00:00",
    "EndTime": "2099-12-30 04:00:00"
  },
  "10311009": {
    "ID": 10311009,
    "BeginTime": "2021-05-28 04:00:00",
    "EndTime": "2099-12-30 04:00:00"
  },
  "10311010": {
    "ID": 10311010,
    "BeginTime": "2021-05-28 04:00:00",
    "EndTime": "2099-12-30 04:00:00"
  },
  "10311011": {
    "ID": 10311011,
    "BeginTime": "2021-05-28 04:00:00",
    "EndTime": "2099-12-30 04:00:00"
  },
  "10311012": {
    "ID": 10311012,
    "BeginTime": "2021-05-28 04:00:00",
    "EndTime": "2099-12-30 04:00:00"
  },
  "10311013": {
    "ID": 10311013,
    "BeginTime": "2021-05-28 04:00:00",
    "EndTime": "2099-12-30 04:00:00"
  },
  "10311014": {
    "ID": 10311014,
    "BeginTime": "2021-05-28 04:00:00",
    "EndTime": "2099-12-30 04:00:00"
  },
  "10311015": {
    "ID": 10311015,
    "BeginTime": "2021-05-28 04:00:00",
    "EndTime": "2099-12-30 04:00:00"
  },
  "10311016": {
    "ID": 10311016,
    "BeginTime": "2021-05-28 04:00:00",
    "EndTime": "2099-12-30 04:00:00"
  },
  "10311017": {
    "ID": 10311017,
    "BeginTime": "2021-05-28 04:00:00",
    "EndTime": "2099-12-30 04:00:00"
  },
  "10311018": {
    "ID": 10311018,
    "BeginTime": "2021-05-28 04:00:00",
    "EndTime": "2099-12-30 04:00:00"
  },
  "10311019": {
    "ID": 10311019,
    "BeginTime": "2021-05-28 04:00:00",
    "EndTime": "2099-12-30 04:00:00"
  },
  "10311020": {
    "ID": 10311020,
    "BeginTime": "2021-05-28 04:00:00",
    "EndTime": "2099-12-30 04:00:00"
  },
  "10311021": {
    "ID": 10311021,
    "BeginTime": "2021-05-28 04:00:00",
    "EndTime": "2099-12-30 04:00:00"
  },
  "10311022": {
    "ID": 10311022,
    "BeginTime": "2021-05-28 04:00:00",
    "EndTime": "2099-12-30 04:00:00"
  },
  "10311023": {
    "ID": 10311023,
    "BeginTime": "2021-05-28 04:00:00",
    "EndTime": "2099-12-30 04:00:00"
  },
  "10311024": {
    "ID": 10311024,
    "BeginTime": "2021-05-28 04:00:00",
    "EndTime": "2099-12-30 04:00:00"
  },
  "10311025": {
    "ID": 10311025,
    "BeginTime": "2021-05-28 04:00:00",
    "EndTime": "2099-12-30 04:00:00"
  },
  "10311026": {
    "ID": 10311026,
    "BeginTime": "2021-05-28 04:00:00",
    "EndTime": "2099-12-30 04:00:00"
  },
  "10311027": {
    "ID": 10311027,
    "BeginTime": "2021-05-28 04:00:00",
    "EndTime": "2099-12-30 04:00:00"
  },
  "10312001": {
    "ID": 10312001,
    "BeginTime": "2021-05-28 04:00:00",
    "EndTime": "2099-12-30 04:00:00"
  },
  "10313001": {
    "ID": 10313001,
    "BeginTime": "2021-05-28 04:00:00",
    "EndTime": "2099-12-30 04:00:00"
  },
  "10313002": {
    "ID": 10313002,
    "BeginTime": "2021-05-28 04:00:00",
    "EndTime": "2099-12-30 04:00:00"
  },
  "10314001": {
    "ID": 10314001,
    "BeginTime": "2021-05-28 04:00:00",
    "EndTime": "2099-12-30 04:00:00"
  },
  "10314002": {
    "ID": 10314002,
    "BeginTime": "2021-05-28 04:00:00",
    "EndTime": "2099-12-30 04:00:00"
  },
  "10314003": {
    "ID": 10314003,
    "BeginTime": "2021-05-28 04:00:00",
    "EndTime": "2099-12-30 04:00:00"
  },
  "10314004": {
    "ID": 10314004,
    "BeginTime": "2021-05-28 04:00:00",
    "EndTime": "2099-12-30 04:00:00"
  },
  "10315001": {
    "ID": 10315001,
    "BeginTime": "2021-05-28 04:00:00",
    "EndTime": "2099-12-30 04:00:00"
  },
  "10315002": {
    "ID": 10315002,
    "BeginTime": "2021-05-28 04:00:00",
    "EndTime": "2099-12-30 04:00:00"
  },
  "10315003": {
    "ID": 10315003,
    "BeginTime": "2021-05-28 04:00:00",
    "EndTime": "2099-12-30 04:00:00"
  },
  "10316001": {
    "ID": 10316001,
    "BeginTime": "2021-05-28 04:00:00",
    "EndTime": "2099-12-30 04:00:00"
  },
  "10316002": {
    "ID": 10316002,
    "BeginTime": "2021-05-28 04:00:00",
    "EndTime": "2099-12-30 04:00:00"
  },
  "10316003": {
    "ID": 10316003,
    "BeginTime": "2021-05-28 04:00:00",
    "EndTime": "2099-12-30 04:00:00"
  },
  "10317001": {
    "ID": 10317001,
    "BeginTime": "2021-05-28 04:00:00",
    "EndTime": "2099-12-30 04:00:00"
  },
  "10317002": {
    "ID": 10317002,
    "BeginTime": "2021-05-28 04:00:00",
    "EndTime": "2099-12-30 04:00:00"
  },
  "10317003": {
    "ID": 10317003,
    "BeginTime": "2021-05-28 04:00:00",
    "EndTime": "2099-12-30 04:00:00"
  },
  "10317004": {
    "ID": 10317004,
    "BeginTime": "2021-05-28 04:00:00",
    "EndTime": "2099-12-30 04:00:00"
  },
  "10317005": {
    "ID": 10317005,
    "BeginTime": "2021-05-28 04:00:00",
    "EndTime": "2099-12-30 04:00:00"
  },
  "10318001": {
    "ID": 10318001,
    "BeginTime": "2021-05-28 04:00:00",
    "EndTime": "2099-12-30 04:00:00"
  },
  "10318002": {
    "ID": 10318002,
    "BeginTime": "2021-05-28 04:00:00",
    "EndTime": "2099-12-30 04:00:00"
  },
  "10318003": {
    "ID": 10318003,
    "BeginTime": "2021-05-28 04:00:00",
    "EndTime": "2099-12-30 04:00:00"
  },
  "10319001": {
    "ID": 10319001,
    "BeginTime": "2021-05-28 04:00:00",
    "EndTime": "2099-12-30 04:00:00"
  },
  "10319002": {
    "ID": 10319002,
    "BeginTime": "2021-05-28 04:00:00",
    "EndTime": "2099-12-30 04:00:00"
  },
  "10319003": {
    "ID": 10319003,
    "BeginTime": "2021-05-28 04:00:00",
    "EndTime": "2099-12-30 04:00:00"
  },
  "10319004": {
    "ID": 10319004,
    "BeginTime": "2021-05-28 04:00:00",
    "EndTime": "2099-12-30 04:00:00"
  },
  "10319005": {
    "ID": 10319005,
    "BeginTime": "2021-05-28 04:00:00",
    "EndTime": "2099-12-30 04:00:00"
  },
  "10319006": {
    "ID": 10319006,
    "BeginTime": "2021-05-28 04:00:00",
    "EndTime": "2099-12-30 04:00:00"
  },
  "10320001": {
    "ID": 10320001,
    "BeginTime": "2021-05-28 04:00:00",
    "EndTime": "2099-12-30 04:00:00"
  },
  "10320002": {
    "ID": 10320002,
    "BeginTime": "2021-05-28 04:00:00",
    "EndTime": "2099-12-30 04:00:00"
  },
  "10320003": {
    "ID": 10320003,
    "BeginTime": "2021-05-28 04:00:00",
    "EndTime": "2099-12-30 04:00:00"
  },
  "10320004": {
    "ID": 10320004,
    "BeginTime": "2021-05-28 04:00:00",
    "EndTime": "2099-12-30 04:00:00"
  },
  "10320005": {
    "ID": 10320005,
    "BeginTime": "2021-05-28 04:00:00",
    "EndTime": "2099-12-30 04:00:00"
  },
  "10320006": {
    "ID": 10320006,
    "BeginTime": "2021-05-28 04:00:00",
    "EndTime": "2099-12-30 04:00:00"
  },
  "10320007": {
    "ID": 10320007,
    "BeginTime": "2021-05-28 04:00:00",
    "EndTime": "2099-12-30 04:00:00"
  },
  "10320008": {
    "ID": 10320008,
    "BeginTime": "2021-05-28 04:00:00",
    "EndTime": "2099-12-30 04:00:00"
  },
  "10320009": {
    "ID": 10320009,
    "BeginTime": "2021-05-28 04:00:00",
    "EndTime": "2099-12-30 04:00:00"
  },
  "10320010": {
    "ID": 10320010,
    "BeginTime": "2021-05-28 04:00:00",
    "EndTime": "2099-12-30 04:00:00"
  },
  "10320011": {
    "ID": 10320011,
    "BeginTime": "2021-05-28 04:00:00",
    "EndTime": "2099-12-30 04:00:00"
  },
  "10321001": {
    "ID": 10321001,
    "BeginTime": "2021-05-28 04:00:00",
    "EndTime": "2099-12-30 04:00:00"
  },
  "10321002": {
    "ID": 10321002,
    "BeginTime": "2021-05-28 04:00:00",
    "EndTime": "2099-12-30 04:00:00"
  },
  "10321003": {
    "ID": 10321003,
    "BeginTime": "2021-05-28 04:00:00",
    "EndTime": "2099-12-30 04:00:00"
  },
  "10321004": {
    "ID": 10321004,
    "BeginTime": "2021-05-28 04:00:00",
    "EndTime": "2099-12-30 04:00:00"
  },
  "10321005": {
    "ID": 10321005,
    "BeginTime": "2021-05-28 04:00:00",
    "EndTime": "2099-12-30 04:00:00"
  },
  "10321006": {
    "ID": 10321006,
    "BeginTime": "2021-05-28 04:00:00",
    "EndTime": "2099-12-30 04:00:00"
  },
  "10321007": {
    "ID": 10321007,
    "BeginTime": "2021-05-28 04:00:00",
    "EndTime": "2099-12-30 04:00:00"
  },
  "10322001": {
    "ID": 10322001,
    "BeginTime": "2021-05-28 04:00:00",
    "EndTime": "2099-12-30 04:00:00"
  },
  "10322002": {
    "ID": 10322002,
    "BeginTime": "2021-05-28 04:00:00",
    "EndTime": "2099-12-30 04:00:00"
  },
  "10322003": {
    "ID": 10322003,
    "BeginTime": "2021-05-28 04:00:00",
    "EndTime": "2099-12-30 04:00:00"
  },
  "10322004": {
    "ID": 10322004,
    "BeginTime": "2021-05-28 04:00:00",
    "EndTime": "2099-12-30 04:00:00"
  },
  "10322005": {
    "ID": 10322005,
    "BeginTime": "2021-05-28 04:00:00",
    "EndTime": "2099-12-30 04:00:00"
  },
  "10323001": {
    "ID": 10323001,
    "BeginTime": "2021-05-28 04:00:00",
    "EndTime": "2099-12-30 04:00:00"
  },
  "10323002": {
    "ID": 10323002,
    "BeginTime": "2021-05-28 04:00:00",
    "EndTime": "2099-12-30 04:00:00"
  },
  "10324001": {
    "ID": 10324001,
    "BeginTime": "2021-05-28 04:00:00",
    "EndTime": "2099-12-30 04:00:00"
  },
  "10324002": {
    "ID": 10324002,
    "BeginTime": "2021-05-28 04:00:00",
    "EndTime": "2099-12-30 04:00:00"
  },
  "10325001": {
    "ID": 10325001,
    "BeginTime": "2021-05-28 04:00:00",
    "EndTime": "2099-12-30 04:00:00"
  },
  "10325002": {
    "ID": 10325002,
    "BeginTime": "2021-05-28 04:00:00",
    "EndTime": "2099-12-30 04:00:00"
  },
  "10401001": {
    "ID": 10401001,
    "BeginTime": "2021-05-28 04:00:00",
    "EndTime": "2099-12-30 04:00:00"
  },
  "10401002": {
    "ID": 10401002,
    "BeginTime": "2021-05-28 04:00:00",
    "EndTime": "2099-12-30 04:00:00"
  },
  "10401003": {
    "ID": 10401003,
    "BeginTime": "2021-05-28 04:00:00",
    "EndTime": "2099-12-30 04:00:00"
  },
  "10401004": {
    "ID": 10401004,
    "BeginTime": "2021-05-28 04:00:00",
    "EndTime": "2099-12-30 04:00:00"
  },
  "10401005": {
    "ID": 10401005,
    "BeginTime": "2021-05-28 04:00:00",
    "EndTime": "2099-12-30 04:00:00"
  },
  "10401006": {
    "ID": 10401006,
    "BeginTime": "2021-05-28 04:00:00",
    "EndTime": "2099-12-30 04:00:00"
  },
  "10401007": {
    "ID": 10401007,
    "BeginTime": "2021-05-28 04:00:00",
    "EndTime": "2099-12-30 04:00:00"
  },
  "10401008": {
    "ID": 10401008,
    "BeginTime": "2021-05-28 04:00:00",
    "EndTime": "2099-12-30 04:00:00"
  },
  "10401009": {
    "ID": 10401009,
    "BeginTime": "2021-05-28 04:00:00",
    "EndTime": "2099-12-30 04:00:00"
  },
  "10401010": {
    "ID": 10401010,
    "BeginTime": "2021-05-28 04:00:00",
    "EndTime": "2099-12-30 04:00:00"
  },
  "10401011": {
    "ID": 10401011,
    "BeginTime": "2021-05-28 04:00:00",
    "EndTime": "2099-12-30 04:00:00"
  },
  "10401012": {
    "ID": 10401012,
    "BeginTime": "2021-05-28 04:00:00",
    "EndTime": "2099-12-30 04:00:00"
  },
  "10401013": {
    "ID": 10401013,
    "BeginTime": "2021-05-28 04:00:00",
    "EndTime": "2099-12-30 04:00:00"
  },
  "10401014": {
    "ID": 10401014,
    "BeginTime": "2021-05-28 04:00:00",
    "EndTime": "2099-12-30 04:00:00"
  },
  "10401015": {
    "ID": 10401015,
    "BeginTime": "2021-05-28 04:00:00",
    "EndTime": "2099-12-30 04:00:00"
  },
  "10401016": {
    "ID": 10401016,
    "BeginTime": "2021-05-28 04:00:00",
    "EndTime": "2099-12-30 04:00:00"
  },
  "10401018": {
    "ID": 10401018,
    "BeginTime": "2021-05-28 04:00:00",
    "EndTime": "2099-12-30 04:00:00"
  },
  "10401017": {
    "ID": 10401017,
    "BeginTime": "2021-05-28 04:00:00",
    "EndTime": "2099-12-30 04:00:00"
  },
  "10402001": {
    "ID": 10402001,
    "BeginTime": "2021-05-28 04:00:00",
    "EndTime": "2099-12-30 04:00:00"
  },
  "10402002": {
    "ID": 10402002,
    "BeginTime": "2021-05-28 04:00:00",
    "EndTime": "2099-12-30 04:00:00"
  },
  "10402003": {
    "ID": 10402003,
    "BeginTime": "2021-05-28 04:00:00",
    "EndTime": "2099-12-30 04:00:00"
  },
  "10402004": {
    "ID": 10402004,
    "BeginTime": "2021-05-28 04:00:00",
    "EndTime": "2099-12-30 04:00:00"
  },
  "10402005": {
    "ID": 10402005,
    "BeginTime": "2021-05-28 04:00:00",
    "EndTime": "2099-12-30 04:00:00"
  },
  "10402006": {
    "ID": 10402006,
    "BeginTime": "2021-05-28 04:00:00",
    "EndTime": "2099-12-30 04:00:00"
  },
  "10402007": {
    "ID": 10402007,
    "BeginTime": "2021-05-28 04:00:00",
    "EndTime": "2099-12-30 04:00:00"
  },
  "10402008": {
    "ID": 10402008,
    "BeginTime": "2021-05-28 04:00:00",
    "EndTime": "2099-12-30 04:00:00"
  },
  "10402009": {
    "ID": 10402009,
    "BeginTime": "2021-05-28 04:00:00",
    "EndTime": "2099-12-30 04:00:00"
  },
  "10402010": {
    "ID": 10402010,
    "BeginTime": "2021-05-28 04:00:00",
    "EndTime": "2099-12-30 04:00:00"
  },
  "10402011": {
    "ID": 10402011,
    "BeginTime": "2021-05-28 04:00:00",
    "EndTime": "2099-12-30 04:00:00"
  },
  "10402012": {
    "ID": 10402012,
    "BeginTime": "2021-05-28 04:00:00",
    "EndTime": "2099-12-30 04:00:00"
  },
  "10402013": {
    "ID": 10402013,
    "BeginTime": "2021-05-28 04:00:00",
    "EndTime": "2099-12-30 04:00:00"
  },
  "10402014": {
    "ID": 10402014,
    "BeginTime": "2021-05-28 04:00:00",
    "EndTime": "2099-12-30 04:00:00"
  },
  "10402015": {
    "ID": 10402015,
    "BeginTime": "2021-05-28 04:00:00",
    "EndTime": "2099-12-30 04:00:00"
  },
  "10402016": {
    "ID": 10402016,
    "BeginTime": "2021-05-28 04:00:00",
    "EndTime": "2099-12-30 04:00:00"
  },
  "10402017": {
    "ID": 10402017,
    "BeginTime": "2021-05-28 04:00:00",
    "EndTime": "2099-12-30 04:00:00"
  },
  "10402018": {
    "ID": 10402018,
    "BeginTime": "2021-05-28 04:00:00",
    "EndTime": "2099-12-30 04:00:00"
  },
  "10402020": {
    "ID": 10402020,
    "BeginTime": "2021-05-28 04:00:00",
    "EndTime": "2099-12-30 04:00:00"
  },
  "10402019": {
    "ID": 10402019,
    "BeginTime": "2021-05-28 04:00:00",
    "EndTime": "2099-12-30 04:00:00"
  },
  "10403001": {
    "ID": 10403001,
    "BeginTime": "2021-05-28 04:00:00",
    "EndTime": "2099-12-30 04:00:00"
  },
  "10403002": {
    "ID": 10403002,
    "BeginTime": "2021-05-28 04:00:00",
    "EndTime": "2099-12-30 04:00:00"
  },
  "10403003": {
    "ID": 10403003,
    "BeginTime": "2021-05-28 04:00:00",
    "EndTime": "2099-12-30 04:00:00"
  },
  "10403004": {
    "ID": 10403004,
    "BeginTime": "2021-05-28 04:00:00",
    "EndTime": "2099-12-30 04:00:00"
  },
  "10403005": {
    "ID": 10403005,
    "BeginTime": "2021-05-28 04:00:00",
    "EndTime": "2099-12-30 04:00:00"
  },
  "10403006": {
    "ID": 10403006,
    "BeginTime": "2021-05-28 04:00:00",
    "EndTime": "2099-12-30 04:00:00"
  },
  "10403007": {
    "ID": 10403007,
    "BeginTime": "2021-05-28 04:00:00",
    "EndTime": "2099-12-30 04:00:00"
  },
  "10403008": {
    "ID": 10403008,
    "BeginTime": "2021-05-28 04:00:00",
    "EndTime": "2099-12-30 04:00:00"
  },
  "10403009": {
    "ID": 10403009,
    "BeginTime": "2021-05-28 04:00:00",
    "EndTime": "2099-12-30 04:00:00"
  },
  "10403017": {
    "ID": 10403017,
    "BeginTime": "2021-05-28 04:00:00",
    "EndTime": "2099-12-30 04:00:00"
  },
  "10403019": {
    "ID": 10403019,
    "BeginTime": "2021-05-28 04:00:00",
    "EndTime": "2099-12-30 04:00:00"
  },
  "10403018": {
    "ID": 10403018,
    "BeginTime": "2021-05-28 04:00:00",
    "EndTime": "2099-12-30 04:00:00"
  },
  "10501001": {
    "ID": 10501001,
    "BeginTime": "2021-05-28 04:00:00",
    "EndTime": "2099-12-30 04:00:00"
  },
  "10501002": {
    "ID": 10501002,
    "BeginTime": "2021-05-28 04:00:00",
    "EndTime": "2099-12-30 04:00:00"
  },
  "10501003": {
    "ID": 10501003,
    "BeginTime": "2021-05-28 04:00:00",
    "EndTime": "2099-12-30 04:00:00"
  },
  "10501004": {
    "ID": 10501004,
    "BeginTime": "2021-05-28 04:00:00",
    "EndTime": "2099-12-30 04:00:00"
  },
  "10501005": {
    "ID": 10501005,
    "BeginTime": "2021-05-28 04:00:00",
    "EndTime": "2099-12-30 04:00:00"
  },
  "10501006": {
    "ID": 10501006,
    "BeginTime": "2021-05-28 04:00:00",
    "EndTime": "2099-12-30 04:00:00"
  },
  "10502001": {
    "ID": 10502001,
    "BeginTime": "2021-05-28 04:00:00",
    "EndTime": "2099-12-30 04:00:00"
  },
  "10502002": {
    "ID": 10502002,
    "BeginTime": "2021-05-28 04:00:00",
    "EndTime": "2099-12-30 04:00:00"
  },
  "10502003": {
    "ID": 10502003,
    "BeginTime": "2021-05-28 04:00:00",
    "EndTime": "2099-12-30 04:00:00"
  },
  "10502004": {
    "ID": 10502004,
    "BeginTime": "2021-05-28 04:00:00",
    "EndTime": "2099-12-30 04:00:00"
  },
  "10502005": {
    "ID": 10502005,
    "BeginTime": "2021-05-28 04:00:00",
    "EndTime": "2099-12-30 04:00:00"
  },
  "10502006": {
    "ID": 10502006,
    "BeginTime": "2021-05-28 04:00:00",
    "EndTime": "2099-12-30 04:00:00"
  },
  "10502007": {
    "ID": 10502007,
    "BeginTime": "2021-05-28 04:00:00",
    "EndTime": "2099-12-30 04:00:00"
  },
  "10502008": {
    "ID": 10502008,
    "BeginTime": "2021-05-28 04:00:00",
    "EndTime": "2099-12-30 04:00:00"
  },
  "10502009": {
    "ID": 10502009,
    "BeginTime": "2021-05-28 04:00:00",
    "EndTime": "2099-12-30 04:00:00"
  },
  "10502010": {
    "ID": 10502010,
    "BeginTime": "2021-05-28 04:00:00",
    "EndTime": "2099-12-30 04:00:00"
  },
  "10502011": {
    "ID": 10502011,
    "BeginTime": "2021-05-28 04:00:00",
    "EndTime": "2099-12-30 04:00:00"
  },
  "10502012": {
    "ID": 10502012,
    "BeginTime": "2021-05-28 04:00:00",
    "EndTime": "2099-12-30 04:00:00"
  },
  "10503001": {
    "ID": 10503001,
    "BeginTime": "2021-05-28 04:00:00",
    "EndTime": "2099-12-30 04:00:00"
  },
  "10900001": {
    "ID": 10900001,
    "BeginTime": "2021-05-28 04:00:00",
    "EndTime": "2099-12-30 04:00:00"
  },
  "10900002": {
    "ID": 10900002,
    "BeginTime": "2021-05-28 04:00:00",
    "EndTime": "2099-12-30 04:00:00"
  },
  "10900003": {
    "ID": 10900003,
    "BeginTime": "2021-05-28 04:00:00",
    "EndTime": "2099-12-30 04:00:00"
  },
  "10900004": {
    "ID": 10900004,
    "BeginTime": "2023-06-06 06:30:00",
    "EndTime": "2023-07-18 15:00:00"
  },
  "10900005": {
    "ID": 10900005,
    "BeginTime": "2023-06-06 06:30:00",
    "EndTime": "2023-07-18 15:00:00"
  },
  "10900006": {
    "ID": 10900006,
    "BeginTime": "2023-06-06 06:30:00",
    "EndTime": "2023-07-18 15:00:00"
  },
  "10900007": {
    "ID": 10900007,
    "BeginTime": "2023-07-18 16:00:00",
    "EndTime": "2023-08-29 15:00:00"
  },
  "10900008": {
    "ID": 10900008,
    "BeginTime": "2023-07-18 16:00:00",
    "EndTime": "2023-08-29 15:00:00"
  },
  "10900009": {
    "ID": 10900009,
    "BeginTime": "2023-07-18 16:00:00",
    "EndTime": "2023-08-29 15:00:00"
  },
  "10900010": {
    "ID": 10900010,
    "BeginTime": "2023-08-29 17:00:00",
    "EndTime": "2023-10-10 15:00:00"
  },
  "10900011": {
    "ID": 10900011,
    "BeginTime": "2023-08-29 17:00:00",
    "EndTime": "2023-10-10 15:00:00"
  },
  "10900012": {
    "ID": 10900012,
    "BeginTime": "2023-08-29 17:00:00",
    "EndTime": "2023-10-10 15:00:00"
  },
  "10900013": {
    "ID": 10900013,
    "BeginTime": "2023-10-10 17:00:00",
    "EndTime": "2023-11-14 15:00:00"
  },
  "10900014": {
    "ID": 10900014,
    "BeginTime": "2023-10-10 17:00:00",
    "EndTime": "2023-11-14 15:00:00"
  },
  "10900015": {
    "ID": 10900015,
    "BeginTime": "2023-10-10 17:00:00",
    "EndTime": "2023-11-14 15:00:00"
  },
  "10900016": {
    "ID": 10900016,
    "BeginTime": "2023-11-14 17:00:00",
    "EndTime": "2023-12-26 15:00:00"
  },
  "10900017": {
    "ID": 10900017,
    "BeginTime": "2023-11-14 17:00:00",
    "EndTime": "2023-12-26 15:00:00"
  },
  "10900018": {
    "ID": 10900018,
    "BeginTime": "2023-11-14 17:00:00",
    "EndTime": "2023-12-26 15:00:00"
  },
  "10999001": {
    "ID": 10999001,
    "BeginTime": "2021-05-28 04:00:00",
    "EndTime": "2099-12-30 04:00:00"
  },
  "10999002": {
    "ID": 10999002,
    "BeginTime": "2021-05-28 04:00:00",
    "EndTime": "2099-12-30 04:00:00"
  },
  "11000001": {
    "ID": 11000001,
    "BeginTime": "2021-05-28 04:00:00",
    "EndTime": "2099-12-30 04:00:00"
  },
  "11000002": {
    "ID": 11000002,
    "BeginTime": "2021-05-28 04:00:00",
    "EndTime": "2099-12-30 04:00:00"
  }
}