{
  "21001801": {
    "ID": 21001801,
    "BeginTime": "2022-04-25 04:00:00",
    "EndTime": "2022-06-21 04:00:00"
  },
  "21001802": {
    "ID": 21001802,
    "BeginTime": "2022-04-25 04:00:00",
    "EndTime": "2022-06-21 04:00:00"
  },
  "21001803": {
    "ID": 21001803,
    "BeginTime": "2022-04-25 04:00:00",
    "EndTime": "2022-06-21 04:00:00"
  },
  "21001804": {
    "ID": 21001804,
    "BeginTime": "2022-04-25 04:00:00",
    "EndTime": "2022-06-21 04:00:00"
  },
  "21001901": {
    "ID": 21001901,
    "BeginTime": "2022-04-25 04:00:00",
    "EndTime": "2022-06-21 04:00:00"
  },
  "21001902": {
    "ID": 21001902,
    "BeginTime": "2022-04-25 04:00:00",
    "EndTime": "2022-06-21 04:00:00"
  },
  "21001903": {
    "ID": 21001903,
    "BeginTime": "2022-04-25 04:00:00",
    "EndTime": "2022-06-21 04:00:00"
  },
  "21001904": {
    "ID": 21001904,
    "BeginTime": "2022-04-25 04:00:00",
    "EndTime": "2022-06-21 04:00:00"
  },
  "21001905": {
    "ID": 21001905,
    "BeginTime": "2022-04-25 04:00:00",
    "EndTime": "2022-06-21 04:00:00"
  },
  "21001906": {
    "ID": 21001906,
    "BeginTime": "2022-04-25 04:00:00",
    "EndTime": "2022-06-21 04:00:00"
  },
  "21001907": {
    "ID": 21001907,
    "BeginTime": "2022-04-25 04:00:00",
    "EndTime": "2022-06-21 04:00:00"
  },
  "21001921": {
    "ID": 21001921,
    "BeginTime": "2022-04-25 04:00:00",
    "EndTime": "2022-06-21 04:00:00"
  },
  "21001922": {
    "ID": 21001922,
    "BeginTime": "2022-04-25 04:00:00",
    "EndTime": "2022-06-21 04:00:00"
  },
  "21001923": {
    "ID": 21001923,
    "BeginTime": "2022-05-29 10:00:00",
    "EndTime": "2022-06-21 04:00:00"
  },
  "21001924": {
    "ID": 21001924,
    "BeginTime": "2022-04-25 04:00:00",
    "EndTime": "2022-06-21 04:00:00"
  },
  "21001925": {
    "ID": 21001925,
    "BeginTime": "2022-04-25 04:00:00",
    "EndTime": "2022-06-21 04:00:00"
  },
  "22000001": {
    "ID": 22000001,
    "BeginTime": "2022-12-19 04:00:00",
    "EndTime": "2106-02-07 14:28:15"
  },
  "22000002": {
    "ID": 22000002,
    "BeginTime": "2022-12-19 04:00:00",
    "EndTime": "2106-02-07 14:28:15"
  },
  "22000003": {
    "ID": 22000003,
    "BeginTime": "2022-12-19 04:00:00",
    "EndTime": "2106-02-07 14:28:15"
  },
  "22000004": {
    "ID": 22000004,
    "BeginTime": "2022-12-19 04:00:00",
    "EndTime": "2106-02-07 14:28:15"
  },
  "22000101": {
    "ID": 22000101,
    "BeginTime": "2022-12-19 04:00:00",
    "EndTime": "2106-02-07 14:28:15"
  },
  "22000102": {
    "ID": 22000102,
    "BeginTime": "2023-02-06 04:00:00",
    "EndTime": "2106-02-07 14:28:15"
  },
  "22000103": {
    "ID": 22000103,
    "BeginTime": "2023-02-06 04:00:00",
    "EndTime": "2106-02-07 14:28:15"
  },
  "22000104": {
    "ID": 22000104,
    "BeginTime": "2022-12-19 04:00:00",
    "EndTime": "2106-02-07 14:28:15"
  },
  "22000105": {
    "ID": 22000105,
    "BeginTime": "2022-12-19 04:00:00",
    "EndTime": "2106-02-07 14:28:15"
  },
  "22000106": {
    "ID": 22000106,
    "BeginTime": "2022-12-19 04:00:00",
    "EndTime": "2106-02-07 14:28:15"
  },
  "22000107": {
    "ID": 22000107,
    "BeginTime": "2022-12-19 04:00:00",
    "EndTime": "2106-02-07 14:28:15"
  },
  "22000108": {
    "ID": 22000108,
    "BeginTime": "2022-12-19 04:00:00",
    "EndTime": "2106-02-07 14:28:15"
  },
  "22000201": {
    "ID": 22000201,
    "BeginTime": "2023-04-17 04:00:00",
    "EndTime": "2023-06-05 03:59:59"
  },
  "22000202": {
    "ID": 22000202,
    "BeginTime": "2023-04-17 04:00:00",
    "EndTime": "2023-06-05 03:59:59"
  },
  "22000203": {
    "ID": 22000203,
    "BeginTime": "2023-04-17 04:00:00",
    "EndTime": "2023-06-05 03:59:59"
  },
  "22000207": {
    "ID": 22000207,
    "BeginTime": "2023-04-17 04:00:00",
    "EndTime": "2023-06-05 03:59:59"
  },
  "22000208": {
    "ID": 22000208,
    "BeginTime": "2023-05-19 10:00:00",
    "EndTime": "2023-06-05 03:59:59"
  },
  "22000209": {
    "ID": 22000209,
    "BeginTime": "2023-04-17 04:00:00",
    "EndTime": "2023-06-05 03:59:59"
  },
  "22000204": {
    "ID": 22000204,
    "BeginTime": "2022-10-20 10:00:00",
    "EndTime": "2023-03-15 03:59:59"
  },
  "22000205": {
    "ID": 22000205,
    "BeginTime": "2022-10-18 10:00:00",
    "EndTime": "2023-03-15 03:59:59"
  },
  "22000206": {
    "ID": 22000206,
    "BeginTime": "2022-10-18 10:00:00",
    "EndTime": "2023-03-15 03:59:59"
  },
  "22000210": {
    "ID": 22000210,
    "BeginTime": "2023-06-05 04:00:00",
    "EndTime": "2023-06-19 03:59:59"
  },
  "22000211": {
    "ID": 22000211,
    "BeginTime": "2023-06-09 10:00:00",
    "EndTime": "2023-07-17 03:59:59"
  },
  "22000212": {
    "ID": 22000212,
    "BeginTime": "2023-06-09 10:00:00",
    "EndTime": "2023-07-17 03:59:59"
  },
  "22000213": {
    "ID": 22000213,
    "BeginTime": "2023-06-28 10:00:00",
    "EndTime": "2023-07-10 03:59:59"
  },
  "22000214": {
    "ID": 22000214,
    "BeginTime": "2023-06-19 10:00:00",
    "EndTime": "2023-07-03 03:59:59"
  },
  "22000225": {
    "ID": 22000225,
    "BeginTime": "2023-06-05 04:00:00",
    "EndTime": "2023-06-19 03:59:59"
  },
  "22000216": {
    "ID": 22000216,
    "BeginTime": "2023-06-05 04:00:00",
    "EndTime": "2023-07-17 03:59:59"
  },
  "22000217": {
    "ID": 22000217,
    "BeginTime": "2023-06-05 04:00:00",
    "EndTime": "2023-07-17 03:59:59"
  },
  "22000218": {
    "ID": 22000218,
    "BeginTime": "2023-07-17 04:00:00",
    "EndTime": "2023-08-28 03:59:59"
  },
  "22000219": {
    "ID": 22000219,
    "BeginTime": "2023-07-17 04:00:00",
    "EndTime": "2023-08-28 03:59:59"
  },
  "22000220": {
    "ID": 22000220,
    "BeginTime": "2023-07-17 04:00:00",
    "EndTime": "2023-08-28 03:59:59"
  },
  "22000221": {
    "ID": 22000221,
    "BeginTime": "2023-08-09 12:00:00",
    "EndTime": "2023-08-28 03:59:59"
  },
  "22000222": {
    "ID": 22000222,
    "BeginTime": "2023-08-09 12:00:00",
    "EndTime": "2023-08-28 03:59:59"
  },
  "22000215": {
    "ID": 22000215,
    "BeginTime": "2023-07-28 12:00:00",
    "EndTime": "2023-08-14 03:59:59"
  },
  "22000223": {
    "ID": 22000223,
    "BeginTime": "2023-07-21 12:00:00",
    "EndTime": "2023-08-07 03:59:59"
  },
  "22000224": {
    "ID": 22000224,
    "BeginTime": "2023-07-21 12:00:00",
    "EndTime": "2023-08-07 03:59:59"
  },
  "22000226": {
    "ID": 22000226,
    "BeginTime": "2023-08-28 04:00:00",
    "EndTime": "2023-10-09 03:59:59"
  },
  "22000227": {
    "ID": 22000227,
    "BeginTime": "2023-08-28 04:00:00",
    "EndTime": "2023-10-09 03:59:59"
  },
  "22000228": {
    "ID": 22000228,
    "BeginTime": "2023-08-31 12:00:00",
    "EndTime": "2023-09-18 03:59:59"
  },
  "22000229": {
    "ID": 22000229,
    "BeginTime": "2023-08-31 12:00:00",
    "EndTime": "2023-09-18 03:59:59"
  },
  "22000230": {
    "ID": 22000230,
    "BeginTime": "2023-08-31 12:00:00",
    "EndTime": "2023-09-18 03:59:59"
  },
  "22000231": {
    "ID": 22000231,
    "BeginTime": "2023-09-06 12:00:00",
    "EndTime": "2023-10-09 03:59:59"
  },
  "22000232": {
    "ID": 22000232,
    "BeginTime": "2023-09-06 12:00:00",
    "EndTime": "2023-10-09 03:59:59"
  },
  "22000233": {
    "ID": 22000233,
    "BeginTime": "2023-09-25 04:00:00",
    "EndTime": "2023-10-09 03:59:59"
  },
  "22000234": {
    "ID": 22000234,
    "BeginTime": "2023-10-09 04:00:00",
    "EndTime": "2023-11-13 03:59:59"
  },
  "22000235": {
    "ID": 22000235,
    "BeginTime": "2023-10-09 04:00:00",
    "EndTime": "2023-11-13 03:59:59"
  },
  "22000236": {
    "ID": 22000236,
    "BeginTime": "2023-10-09 04:00:00",
    "EndTime": "2023-11-13 03:59:59"
  },
  "22000237": {
    "ID": 22000237,
    "BeginTime": "2023-10-10 04:00:00",
    "EndTime": "2023-11-13 03:59:59"
  },
  "22000238": {
    "ID": 22000238,
    "BeginTime": "2023-10-10 04:00:00",
    "EndTime": "2023-11-13 03:59:59"
  },
  "22000239": {
    "ID": 22000239,
    "BeginTime": "2023-10-10 04:00:00",
    "EndTime": "2023-11-13 03:59:59"
  },
  "22000240": {
    "ID": 22000240,
    "BeginTime": "2023-10-10 04:00:00",
    "EndTime": "2023-11-13 03:59:59"
  },
  "22000241": {
    "ID": 22000241,
    "BeginTime": "2023-10-27 12:00:00",
    "EndTime": "2023-11-13 03:59:59"
  },
  "22000242": {
    "ID": 22000242,
    "BeginTime": "2023-11-13 04:00:00",
    "EndTime": "2023-12-25 03:59:59"
  },
  "22000243": {
    "ID": 22000243,
    "BeginTime": "2023-11-13 04:00:00",
    "EndTime": "2023-12-25 03:59:59"
  },
  "22000244": {
    "ID": 22000244,
    "BeginTime": "2023-11-14 04:00:00",
    "EndTime": "2023-12-25 03:59:59"
  },
  "22000245": {
    "ID": 22000245,
    "BeginTime": "2023-11-14 04:00:00",
    "EndTime": "2023-12-25 03:59:59"
  },
  "22000246": {
    "ID": 22000246,
    "BeginTime": "2023-11-14 04:00:00",
    "EndTime": "2023-12-25 03:59:59"
  },
  "22000247": {
    "ID": 22000247,
    "BeginTime": "2023-11-14 04:00:00",
    "EndTime": "2023-12-25 03:59:59"
  },
  "22000248": {
    "ID": 22000248,
    "BeginTime": "2023-12-01 12:00:00",
    "EndTime": "2023-12-11 03:59:59"
  },
  "22000249": {
    "ID": 22000249,
    "BeginTime": "2023-12-06 12:00:00",
    "EndTime": "2023-12-25 03:59:59"
  },
  "26000001": {
    "ID": 26000001,
    "BeginTime": "2022-04-25 04:00:00",
    "EndTime": "2023-06-21 04:00:00"
  },
  "26000002": {
    "ID": 26000002,
    "BeginTime": "2022-04-25 04:00:00",
    "EndTime": "2023-06-21 04:00:00"
  },
  "26000003": {
    "ID": 26000003,
    "BeginTime": "2022-04-25 04:00:00",
    "EndTime": "2023-06-21 04:00:00"
  },
  "26000004": {
    "ID": 26000004,
    "BeginTime": "2022-04-25 04:00:00",
    "EndTime": "2023-06-21 04:00:00"
  },
  "24000003": {
    "ID": 24000003,
    "BeginTime": "2022-04-25 04:00:00",
    "EndTime": "2023-06-21 04:00:00"
  },
  "23011102": {
    "ID": 23011102,
    "BeginTime": "2022-09-28 04:00:00",
    "EndTime": "2022-12-12 03:59:59"
  },
  "23011106": {
    "ID": 23011106,
    "BeginTime": "2022-09-28 04:00:00",
    "EndTime": "2022-12-12 03:59:59"
  },
  "23011109": {
    "ID": 23011109,
    "BeginTime": "2022-09-28 04:00:00",
    "EndTime": "2022-12-12 03:59:59"
  },
  "23011105": {
    "ID": 23011105,
    "BeginTime": "2022-09-28 04:00:00",
    "EndTime": "2022-12-12 03:59:59"
  },
  "23011204": {
    "ID": 23011204,
    "BeginTime": "2022-10-25 18:00:00",
    "EndTime": "2022-11-24 17:59:59"
  },
  "23011206": {
    "ID": 23011206,
    "BeginTime": "2022-10-25 18:00:00",
    "EndTime": "2022-11-24 17:59:59"
  },
  "23011103": {
    "ID": 23011103,
    "BeginTime": "2022-10-25 18:00:00",
    "EndTime": "2022-11-24 17:59:59"
  },
  "23011001": {
    "ID": 23011001,
    "BeginTime": "2022-10-25 18:00:00",
    "EndTime": "2022-11-24 17:59:59"
  },
  "27000001": {
    "ID": 27000001,
    "BeginTime": "2022-11-01 10:00:00",
    "EndTime": "2100-01-01 10:00:00"
  },
  "27000002": {
    "ID": 27000002,
    "BeginTime": "2022-11-01 10:00:00",
    "EndTime": "2100-01-01 10:00:00"
  },
  "27000003": {
    "ID": 27000003,
    "BeginTime": "2022-11-01 10:00:00",
    "EndTime": "2100-01-01 10:00:00"
  },
  "27000004": {
    "ID": 27000004,
    "BeginTime": "2022-11-01 10:00:00",
    "EndTime": "2023-03-14 10:00:00"
  },
  "27000005": {
    "ID": 27000005,
    "BeginTime": "2022-11-01 10:00:00",
    "EndTime": "2100-01-01 10:00:00"
  },
  "27000006": {
    "ID": 27000006,
    "BeginTime": "2022-11-01 10:00:00",
    "EndTime": "2100-01-01 10:00:00"
  },
  "27000007": {
    "ID": 27000007,
    "BeginTime": "2022-11-01 10:00:00",
    "EndTime": "2100-01-01 10:00:00"
  },
  "27000008": {
    "ID": 27000008,
    "BeginTime": "2022-11-01 10:00:00",
    "EndTime": "2100-01-01 10:00:00"
  },
  "27000009": {
    "ID": 27000009,
    "BeginTime": "2022-11-01 10:00:00",
    "EndTime": "2100-01-01 10:00:00"
  },
  "27000010": {
    "ID": 27000010,
    "BeginTime": "2022-11-01 10:00:00",
    "EndTime": "2100-01-01 10:00:00"
  },
  "27000011": {
    "ID": 27000011,
    "BeginTime": "2022-11-01 10:00:00",
    "EndTime": "2100-01-01 10:00:00"
  },
  "27000012": {
    "ID": 27000012,
    "BeginTime": "2022-11-01 10:00:00",
    "EndTime": "2100-01-01 10:00:00"
  },
  "27099901": {
    "ID": 27099901,
    "BeginTime": "2022-11-01 10:00:00",
    "EndTime": "2023-03-14 10:00:00"
  },
  "27099902": {
    "ID": 27099902,
    "BeginTime": "2022-11-01 10:00:00",
    "EndTime": "2023-03-14 10:00:00"
  }
}