{
  "101": {
    "WaveGroupID": 101,
    "WaveIDList": [
      10101,
      10102,
      10103,
      10104,
      10105
    ]
  },
  "102": {
    "WaveGroupID": 102,
    "WaveIDList": [
      10201,
      10202,
      10203,
      10204,
      10205
    ]
  },
  "103": {
    "WaveGroupID": 103,
    "WaveIDList": [
      10301,
      10302,
      10303,
      10304,
      10305
    ]
  },
  "104": {
    "WaveGroupID": 104,
    "WaveIDList": [
      10401,
      10402,
      10403,
      10404,
      10405
    ]
  },
  "105": {
    "WaveGroupID": 105,
    "WaveIDList": [
      10501,
      10502,
      10503,
      10504,
      10505
    ]
  },
  "106": {
    "WaveGroupID": 106,
    "WaveIDList": [
      10601,
      10602,
      10603,
      10604,
      10605
    ]
  },
  "107": {
    "WaveGroupID": 107,
    "WaveIDList": [
      10701
    ]
  },
  "108": {
    "WaveGroupID": 108,
    "WaveIDList": [
      10801
    ]
  },
  "109": {
    "WaveGroupID": 109,
    "WaveIDList": [
      10901
    ]
  },
  "110": {
    "WaveGroupID": 110,
    "WaveIDList": [
      11001
    ]
  },
  "111": {
    "WaveGroupID": 111,
    "WaveIDList": [
      11101
    ]
  },
  "112": {
    "WaveGroupID": 112,
    "WaveIDList": [
      11201
    ]
  },
  "307101": {
    "WaveGroupID": 307101,
    "WaveIDList": [
      30710101,
      30710102,
      30710103,
      30710104,
      30710105,
      30710106,
      30710107,
      30710108
    ]
  },
  "307201": {
    "WaveGroupID": 307201,
    "WaveIDList": [
      30720101,
      30720102,
      30720103,
      30720104,
      30720105,
      30720106,
      30720107,
      30720108
    ]
  },
  "307301": {
    "WaveGroupID": 307301,
    "WaveIDList": [
      30730101,
      30730102,
      30730103,
      30730104,
      30730105,
      30730106,
      30730107,
      30730108
    ]
  },
  "307401": {
    "WaveGroupID": 307401,
    "WaveIDList": [
      30740101,
      30740102,
      30740103,
      30740104,
      30740105,
      30740106,
      30740107,
      30740108
    ]
  },
  "307501": {
    "WaveGroupID": 307501,
    "WaveIDList": [
      30750101,
      30750102,
      30750103,
      30750104,
      30750105,
      30750106,
      30750107,
      30750108
    ]
  },
  "20223222": {
    "WaveGroupID": 20223222,
    "WaveIDList": [
      20223222
    ]
  },
  "44202001": {
    "WaveGroupID": 44202001,
    "WaveIDList": [
      44202001
    ]
  },
  "44202011": {
    "WaveGroupID": 44202011,
    "WaveIDList": [
      44202011
    ]
  },
  "44202021": {
    "WaveGroupID": 44202021,
    "WaveIDList": [
      44202021
    ]
  },
  "44202031": {
    "WaveGroupID": 44202031,
    "WaveIDList": [
      44202031
    ]
  }
}