{
  "599000101": {
    "TalkSentenceID": 599000101,
    "VoiceIDList": [
      502000001,
      502000002
    ]
  },
  "599000201": {
    "TalkSentenceID": 599000201,
    "VoiceIDList": [
      502000003,
      502000004
    ]
  },
  "500012101": {
    "TalkSentenceID": 500012101,
    "VoiceIDList": [
      500012101,
      500012102
    ]
  },
  "500012201": {
    "TalkSentenceID": 500012201,
    "VoiceIDList": [
      500012201,
      500012202
    ]
  },
  "500012021": {
    "TalkSentenceID": 500012021,
    "VoiceIDList": [
      500012021,
      500012022
    ]
  },
  "510010102": {
    "TalkSentenceID": 510010102,
    "VoiceIDList": [
      510010101,
      510010102
    ]
  },
  "500201301": {
    "TalkSentenceID": 500201301,
    "VoiceIDList": [
      510010101,
      510010102
    ]
  },
  "510010202": {
    "TalkSentenceID": 510010202,
    "VoiceIDList": [
      510010201,
      510010202
    ]
  },
  "510010302": {
    "TalkSentenceID": 510010302,
    "VoiceIDList": [
      510010301,
      510010302
    ]
  },
  "510010318": {
    "TalkSentenceID": 510010318,
    "VoiceIDList": [
      510010317,
      510010318
    ]
  },
  "510010402": {
    "TalkSentenceID": 510010402,
    "VoiceIDList": [
      510010401,
      510010402
    ]
  },
  "500204301": {
    "TalkSentenceID": 500204301,
    "VoiceIDList": [
      510010401,
      510010402
    ]
  },
  "510010602": {
    "TalkSentenceID": 510010602,
    "VoiceIDList": [
      510010601,
      510010602
    ]
  },
  "500010702": {
    "TalkSentenceID": 500010702,
    "VoiceIDList": [
      500010701,
      500010702
    ]
  },
  "500207101": {
    "TalkSentenceID": 500207101,
    "VoiceIDList": [
      500010701,
      500010702
    ]
  },
  "500207401": {
    "TalkSentenceID": 500207401,
    "VoiceIDList": [
      500207401,
      500207402
    ]
  },
  "500010809": {
    "TalkSentenceID": 500010809,
    "VoiceIDList": [
      500010801,
      500010802
    ]
  },
  "510010902": {
    "TalkSentenceID": 510010902,
    "VoiceIDList": [
      510010901,
      510010902
    ]
  },
  "500209401": {
    "TalkSentenceID": 500209401,
    "VoiceIDList": [
      510010901,
      510010902
    ]
  },
  "510011002": {
    "TalkSentenceID": 510011002,
    "VoiceIDList": [
      510011001,
      510011002
    ]
  },
  "510011102": {
    "TalkSentenceID": 510011102,
    "VoiceIDList": [
      510011101,
      510011102
    ]
  },
  "510011202": {
    "TalkSentenceID": 510011202,
    "VoiceIDList": [
      510011201,
      510011202
    ]
  },
  "510011302": {
    "TalkSentenceID": 510011302,
    "VoiceIDList": [
      510011301,
      510011302
    ]
  },
  "500213303": {
    "TalkSentenceID": 500213303,
    "VoiceIDList": [
      510011301,
      510011302
    ]
  },
  "500011402": {
    "TalkSentenceID": 500011402,
    "VoiceIDList": [
      500011401,
      500011402
    ]
  },
  "500214401": {
    "TalkSentenceID": 500214401,
    "VoiceIDList": [
      500011401,
      500011402
    ]
  },
  "510011502": {
    "TalkSentenceID": 510011502,
    "VoiceIDList": [
      510011501,
      510011502
    ]
  },
  "510011602": {
    "TalkSentenceID": 510011602,
    "VoiceIDList": [
      510011601,
      510011602
    ]
  },
  "500217301": {
    "TalkSentenceID": 500217301,
    "VoiceIDList": [
      500217301,
      500217302
    ]
  },
  "500218301": {
    "TalkSentenceID": 500218301,
    "VoiceIDList": [
      500218301,
      500218302
    ]
  },
  "510011902": {
    "TalkSentenceID": 510011902,
    "VoiceIDList": [
      510011901,
      510011902
    ]
  },
  "500002401": {
    "TalkSentenceID": 500002401,
    "VoiceIDList": [
      500002401,
      500002402
    ]
  },
  "500002335": {
    "TalkSentenceID": 500002335,
    "VoiceIDList": [
      500002331,
      500002332
    ]
  },
  "200074301": {
    "TalkSentenceID": 200074301,
    "VoiceIDList": [
      200074301,
      200074302
    ]
  },
  "501029129": {
    "TalkSentenceID": 501029129,
    "VoiceIDList": [
      501030001,
      501030002
    ]
  },
  "501030034": {
    "TalkSentenceID": 501030034,
    "VoiceIDList": [
      501030003,
      501030004
    ]
  },
  "501029445": {
    "TalkSentenceID": 501029445,
    "VoiceIDList": [
      501030005,
      501030006
    ]
  },
  "501029942": {
    "TalkSentenceID": 501029942,
    "VoiceIDList": [
      501030007,
      501030008
    ]
  },
  "501029237": {
    "TalkSentenceID": 501029237,
    "VoiceIDList": [
      501030009,
      501030010
    ]
  },
  "501029301": {
    "TalkSentenceID": 501029301,
    "VoiceIDList": [
      501030011,
      501030012
    ]
  },
  "501029304": {
    "TalkSentenceID": 501029304,
    "VoiceIDList": [
      501030011,
      501030012
    ]
  },
  "501030236": {
    "TalkSentenceID": 501030236,
    "VoiceIDList": [
      501030013,
      501030014
    ]
  },
  "501030333": {
    "TalkSentenceID": 501030333,
    "VoiceIDList": [
      501030015,
      501030016
    ]
  },
  "501030466": {
    "TalkSentenceID": 501030466,
    "VoiceIDList": [
      501030017,
      501030018
    ]
  },
  "501023543": {
    "TalkSentenceID": 501023543,
    "VoiceIDList": [
      501023543,
      501023544
    ]
  },
  "501023664": {
    "TalkSentenceID": 501023664,
    "VoiceIDList": [
      501030019,
      501030020
    ]
  },
  "501023750": {
    "TalkSentenceID": 501023750,
    "VoiceIDList": [
      501030021,
      501030022
    ]
  },
  "501023871": {
    "TalkSentenceID": 501023871,
    "VoiceIDList": [
      501030023,
      501030024
    ]
  },
  "501024077": {
    "TalkSentenceID": 501024077,
    "VoiceIDList": [
      501030025,
      501030026
    ]
  },
  "501024180": {
    "TalkSentenceID": 501024180,
    "VoiceIDList": [
      501030027,
      501030028
    ]
  },
  "501024272": {
    "TalkSentenceID": 501024272,
    "VoiceIDList": [
      501030029,
      501030030
    ]
  },
  "501026739": {
    "TalkSentenceID": 501026739,
    "VoiceIDList": [
      501030031,
      501030032
    ]
  },
  "501024490": {
    "TalkSentenceID": 501024490,
    "VoiceIDList": [
      501030033,
      501030034
    ]
  },
  "501026845": {
    "TalkSentenceID": 501026845,
    "VoiceIDList": [
      501030035,
      501030036
    ]
  },
  "501029701": {
    "TalkSentenceID": 501029701,
    "VoiceIDList": [
      501030037,
      501030038
    ]
  },
  "501026935": {
    "TalkSentenceID": 501026935,
    "VoiceIDList": [
      501030039,
      501030040
    ]
  },
  "501026939": {
    "TalkSentenceID": 501026939,
    "VoiceIDList": [
      501030041,
      501030042
    ]
  },
  "501027048": {
    "TalkSentenceID": 501027048,
    "VoiceIDList": [
      501030043,
      501030044
    ]
  },
  "501027142": {
    "TalkSentenceID": 501027142,
    "VoiceIDList": [
      501030045,
      501030046
    ]
  },
  "501023980": {
    "TalkSentenceID": 501023980,
    "VoiceIDList": [
      501030047,
      501030048
    ]
  },
  "501027229": {
    "TalkSentenceID": 501027229,
    "VoiceIDList": [
      501030049,
      501030050
    ]
  },
  "501027319": {
    "TalkSentenceID": 501027319,
    "VoiceIDList": [
      501030051,
      501030052
    ]
  },
  "501027427": {
    "TalkSentenceID": 501027427,
    "VoiceIDList": [
      501030053,
      501030054
    ]
  },
  "501028736": {
    "TalkSentenceID": 501028736,
    "VoiceIDList": [
      501030055,
      501030056
    ]
  },
  "501029644": {
    "TalkSentenceID": 501029644,
    "VoiceIDList": [
      501030057,
      501030058
    ]
  },
  "501029854": {
    "TalkSentenceID": 501029854,
    "VoiceIDList": [
      501030059,
      501030060
    ]
  },
  "501030527": {
    "TalkSentenceID": 501030527,
    "VoiceIDList": [
      501030061,
      501030062
    ]
  },
  "501027633": {
    "TalkSentenceID": 501027633,
    "VoiceIDList": [
      501030065,
      501030066
    ]
  },
  "501027729": {
    "TalkSentenceID": 501027729,
    "VoiceIDList": [
      501030067,
      501030068
    ]
  },
  "501027835": {
    "TalkSentenceID": 501027835,
    "VoiceIDList": [
      501030069,
      501030070
    ]
  },
  "501027943": {
    "TalkSentenceID": 501027943,
    "VoiceIDList": [
      501030071,
      501030072
    ]
  },
  "501028039": {
    "TalkSentenceID": 501028039,
    "VoiceIDList": [
      501030073,
      501030074
    ]
  },
  "501028243": {
    "TalkSentenceID": 501028243,
    "VoiceIDList": [
      501030075,
      501030076
    ]
  },
  "501028333": {
    "TalkSentenceID": 501028333,
    "VoiceIDList": [
      501030077,
      501030078
    ]
  },
  "501028863": {
    "TalkSentenceID": 501028863,
    "VoiceIDList": [
      501030079,
      501030080
    ]
  },
  "501028949": {
    "TalkSentenceID": 501028949,
    "VoiceIDList": [
      501030081,
      501030082
    ]
  },
  "501029047": {
    "TalkSentenceID": 501029047,
    "VoiceIDList": [
      501030083,
      501030084
    ]
  },
  "501028445": {
    "TalkSentenceID": 501028445,
    "VoiceIDList": [
      501030085,
      501030086
    ]
  },
  "501028536": {
    "TalkSentenceID": 501028536,
    "VoiceIDList": [
      501030087,
      501030088
    ]
  },
  "501028635": {
    "TalkSentenceID": 501028635,
    "VoiceIDList": [
      501030089
    ]
  },
  "501028651": {
    "TalkSentenceID": 501028651,
    "VoiceIDList": [
      501030090
    ]
  },
  "501030659": {
    "TalkSentenceID": 501030659,
    "VoiceIDList": [
      501030091,
      501030092
    ]
  },
  "501190301": {
    "TalkSentenceID": 501190301,
    "VoiceIDList": [
      501030093,
      501030094
    ]
  },
  "501190211": {
    "TalkSentenceID": 501190211,
    "VoiceIDList": [
      501030095,
      501030096
    ]
  },
  "501190111": {
    "TalkSentenceID": 501190111,
    "VoiceIDList": [
      501030097,
      501030098
    ]
  },
  "404003090": {
    "TalkSentenceID": 404003090,
    "VoiceIDList": [
      501030099,
      501030100
    ]
  },
  "501030948": {
    "TalkSentenceID": 501030948,
    "VoiceIDList": [
      501030101,
      501030102
    ]
  },
  "501031009": {
    "TalkSentenceID": 501031009,
    "VoiceIDList": [
      501030099,
      501030100
    ]
  },
  "502101301": {
    "TalkSentenceID": 502101301,
    "VoiceIDList": [
      502030001,
      502030002
    ]
  },
  "502102301": {
    "TalkSentenceID": 502102301,
    "VoiceIDList": [
      502030003,
      502030004
    ]
  },
  "502103301": {
    "TalkSentenceID": 502103301,
    "VoiceIDList": [
      502030005,
      502030006
    ]
  },
  "502104301": {
    "TalkSentenceID": 502104301,
    "VoiceIDList": [
      502030007,
      502030008
    ]
  },
  "502105301": {
    "TalkSentenceID": 502105301,
    "VoiceIDList": [
      502030009,
      502030010
    ]
  },
  "502106301": {
    "TalkSentenceID": 502106301,
    "VoiceIDList": [
      502030011,
      502030012
    ]
  },
  "502107301": {
    "TalkSentenceID": 502107301,
    "VoiceIDList": [
      502030013,
      502030014
    ]
  },
  "502108301": {
    "TalkSentenceID": 502108301,
    "VoiceIDList": [
      502030015,
      502030016
    ]
  },
  "502109301": {
    "TalkSentenceID": 502109301,
    "VoiceIDList": [
      502030017,
      502030018
    ]
  },
  "502110301": {
    "TalkSentenceID": 502110301,
    "VoiceIDList": [
      502030019,
      502030020
    ]
  },
  "502112301": {
    "TalkSentenceID": 502112301,
    "VoiceIDList": [
      502030021,
      502030022
    ]
  },
  "502113510": {
    "TalkSentenceID": 502113510,
    "VoiceIDList": [
      502030023,
      502030024
    ]
  },
  "502114301": {
    "TalkSentenceID": 502114301,
    "VoiceIDList": [
      502030025,
      502030026
    ]
  },
  "502115301": {
    "TalkSentenceID": 502115301,
    "VoiceIDList": [
      502030027,
      502030028
    ]
  },
  "502116301": {
    "TalkSentenceID": 502116301,
    "VoiceIDList": [
      502030029,
      502030030
    ]
  },
  "502117301": {
    "TalkSentenceID": 502117301,
    "VoiceIDList": [
      502030031,
      502030032
    ]
  },
  "502123401": {
    "TalkSentenceID": 502123401,
    "VoiceIDList": [
      502030033,
      502030034
    ]
  },
  "502119301": {
    "TalkSentenceID": 502119301,
    "VoiceIDList": [
      502030035,
      502030036
    ]
  },
  "502120301": {
    "TalkSentenceID": 502120301,
    "VoiceIDList": [
      502030037,
      502030038
    ]
  },
  "502121301": {
    "TalkSentenceID": 502121301,
    "VoiceIDList": [
      502030039,
      502030040
    ]
  },
  "502122301": {
    "TalkSentenceID": 502122301,
    "VoiceIDList": [
      502030041,
      502030042
    ]
  },
  "502013151": {
    "TalkSentenceID": 502013151,
    "VoiceIDList": [
      502030043,
      502030044
    ]
  },
  "502021101": {
    "TalkSentenceID": 502021101,
    "VoiceIDList": [
      502030045,
      502030046
    ]
  },
  "502022144": {
    "TalkSentenceID": 502022144,
    "VoiceIDList": [
      502030047,
      502030048
    ]
  },
  "502014155": {
    "TalkSentenceID": 502014155,
    "VoiceIDList": [
      502030049,
      502030050
    ]
  },
  "502015136": {
    "TalkSentenceID": 502015136,
    "VoiceIDList": [
      502030051,
      502030052
    ]
  },
  "502016137": {
    "TalkSentenceID": 502016137,
    "VoiceIDList": [
      502030053,
      502030054
    ]
  },
  "502023156": {
    "TalkSentenceID": 502023156,
    "VoiceIDList": [
      502030055,
      502030056
    ]
  },
  "502026147": {
    "TalkSentenceID": 502026147,
    "VoiceIDList": [
      502030057,
      502030058
    ]
  },
  "502024134": {
    "TalkSentenceID": 502024134,
    "VoiceIDList": [
      502030059,
      502030060
    ]
  },
  "502017153": {
    "TalkSentenceID": 502017153,
    "VoiceIDList": [
      502030061
    ]
  },
  "502017301": {
    "TalkSentenceID": 502017301,
    "VoiceIDList": [
      502030062
    ]
  },
  "502018101": {
    "TalkSentenceID": 502018101,
    "VoiceIDList": [
      502030063,
      502030064
    ]
  },
  "502019153": {
    "TalkSentenceID": 502019153,
    "VoiceIDList": [
      502030065
    ]
  },
  "502019154": {
    "TalkSentenceID": 502019154,
    "VoiceIDList": [
      502030066
    ]
  },
  "502025145": {
    "TalkSentenceID": 502025145,
    "VoiceIDList": [
      502030067,
      502030068
    ]
  },
  "502020136": {
    "TalkSentenceID": 502020136,
    "VoiceIDList": [
      502030069,
      502030070
    ]
  },
  "502032164": {
    "TalkSentenceID": 502032164,
    "VoiceIDList": [
      502030071,
      502030072
    ]
  },
  "502033151": {
    "TalkSentenceID": 502033151,
    "VoiceIDList": [
      502030073,
      502030074
    ]
  },
  "502034149": {
    "TalkSentenceID": 502034149,
    "VoiceIDList": [
      502030075,
      502030076
    ]
  },
  "502027153": {
    "TalkSentenceID": 502027153,
    "VoiceIDList": [
      502030077,
      502030078
    ]
  },
  "502028136": {
    "TalkSentenceID": 502028136,
    "VoiceIDList": [
      502030079,
      502030080
    ]
  },
  "502029143": {
    "TalkSentenceID": 502029143,
    "VoiceIDList": [
      502030081
    ]
  },
  "502029144": {
    "TalkSentenceID": 502029144,
    "VoiceIDList": [
      502030082
    ]
  },
  "502030143": {
    "TalkSentenceID": 502030143,
    "VoiceIDList": [
      502030083,
      502030084
    ]
  },
  "502031130": {
    "TalkSentenceID": 502031130,
    "VoiceIDList": [
      502030085,
      502030086
    ]
  },
  "502041202": {
    "TalkSentenceID": 502041202,
    "VoiceIDList": [
      502030087,
      502030088
    ]
  },
  "502050202": {
    "TalkSentenceID": 502050202,
    "VoiceIDList": [
      502030089,
      502030090
    ]
  },
  "502051202": {
    "TalkSentenceID": 502051202,
    "VoiceIDList": [
      502030091,
      502030092
    ]
  },
  "502042202": {
    "TalkSentenceID": 502042202,
    "VoiceIDList": [
      502030093,
      502030094
    ]
  },
  "502071302": {
    "TalkSentenceID": 502071302,
    "VoiceIDList": [
      502030095,
      502030096
    ]
  },
  "502052302": {
    "TalkSentenceID": 502052302,
    "VoiceIDList": [
      502030097,
      502030098
    ]
  },
  "502053302": {
    "TalkSentenceID": 502053302,
    "VoiceIDList": [
      502030099,
      502030100
    ]
  },
  "502054302": {
    "TalkSentenceID": 502054302,
    "VoiceIDList": [
      502030101,
      502030102
    ]
  },
  "502055402": {
    "TalkSentenceID": 502055402,
    "VoiceIDList": [
      502030103,
      502030104
    ]
  },
  "502056302": {
    "TalkSentenceID": 502056302,
    "VoiceIDList": [
      502030105,
      502030106
    ]
  },
  "502070302": {
    "TalkSentenceID": 502070302,
    "VoiceIDList": [
      502030107,
      502030108
    ]
  },
  "502064102": {
    "TalkSentenceID": 502064102,
    "VoiceIDList": [
      502030109,
      502030110
    ]
  },
  "502062202": {
    "TalkSentenceID": 502062202,
    "VoiceIDList": [
      502030111,
      502030112
    ]
  },
  "502058301": {
    "TalkSentenceID": 502058301,
    "VoiceIDList": [
      502030113,
      502030114
    ]
  },
  "502060302": {
    "TalkSentenceID": 502060302,
    "VoiceIDList": [
      502030115,
      502030116
    ]
  },
  "502061302": {
    "TalkSentenceID": 502061302,
    "VoiceIDList": [
      502030117,
      502030118
    ]
  },
  "502065102": {
    "TalkSentenceID": 502065102,
    "VoiceIDList": [
      502030119,
      502030120
    ]
  },
  "502066102": {
    "TalkSentenceID": 502066102,
    "VoiceIDList": [
      502030121,
      502030122
    ]
  },
  "502037202": {
    "TalkSentenceID": 502037202,
    "VoiceIDList": [
      502030123,
      502030124
    ]
  },
  "502038202": {
    "TalkSentenceID": 502038202,
    "VoiceIDList": [
      502030125,
      502030126
    ]
  },
  "502039202": {
    "TalkSentenceID": 502039202,
    "VoiceIDList": [
      502030127,
      502030128
    ]
  },
  "502040202": {
    "TalkSentenceID": 502040202,
    "VoiceIDList": [
      502030129,
      502030130
    ]
  },
  "502043202": {
    "TalkSentenceID": 502043202,
    "VoiceIDList": [
      502030131,
      502030132
    ]
  },
  "502044202": {
    "TalkSentenceID": 502044202,
    "VoiceIDList": [
      502030133,
      502030134
    ]
  },
  "502045202": {
    "TalkSentenceID": 502045202,
    "VoiceIDList": [
      502030135,
      502030136
    ]
  },
  "502046202": {
    "TalkSentenceID": 502046202,
    "VoiceIDList": [
      502030137,
      502030138
    ]
  },
  "502047202": {
    "TalkSentenceID": 502047202,
    "VoiceIDList": [
      502030139,
      502030140
    ]
  },
  "502048202": {
    "TalkSentenceID": 502048202,
    "VoiceIDList": [
      502030141,
      502030142
    ]
  },
  "502049202": {
    "TalkSentenceID": 502049202,
    "VoiceIDList": [
      502030143,
      502030144
    ]
  },
  "502063102": {
    "TalkSentenceID": 502063102,
    "VoiceIDList": [
      502030145,
      502030146
    ]
  },
  "502086202": {
    "TalkSentenceID": 502086202,
    "VoiceIDList": [
      502030147,
      502030148
    ]
  },
  "502087202": {
    "TalkSentenceID": 502087202,
    "VoiceIDList": [
      502030149,
      502030150
    ]
  },
  "502085102": {
    "TalkSentenceID": 502085102,
    "VoiceIDList": [
      502030151,
      502030152
    ]
  },
  "502084202": {
    "TalkSentenceID": 502084202,
    "VoiceIDList": [
      502030153,
      502030154
    ]
  },
  "502057102": {
    "TalkSentenceID": 502057102,
    "VoiceIDList": [
      502030156
    ]
  },
  "502059102": {
    "TalkSentenceID": 502059102,
    "VoiceIDList": [
      502030157,
      502030158
    ]
  },
  "502090202": {
    "TalkSentenceID": 502090202,
    "VoiceIDList": [
      502030159,
      502030160
    ]
  },
  "502088110": {
    "TalkSentenceID": 502088110,
    "VoiceIDList": [
      502030161,
      502030162
    ]
  },
  "502089202": {
    "TalkSentenceID": 502089202,
    "VoiceIDList": [
      502030163,
      502030164
    ]
  },
  "502035101": {
    "TalkSentenceID": 502035101,
    "VoiceIDList": [
      502030165,
      502030166
    ]
  },
  "502100101": {
    "TalkSentenceID": 502100101,
    "VoiceIDList": [
      502100101,
      502100102
    ]
  },
  "502100103": {
    "TalkSentenceID": 502100103,
    "VoiceIDList": [
      502100101,
      502100102
    ]
  },
  "502100341": {
    "TalkSentenceID": 502100341,
    "VoiceIDList": [
      502101170,
      502101171
    ]
  },
  "502100641": {
    "TalkSentenceID": 502100641,
    "VoiceIDList": [
      502101172,
      502101173
    ]
  },
  "502100841": {
    "TalkSentenceID": 502100841,
    "VoiceIDList": [
      502101174,
      502101175
    ]
  },
  "502101041": {
    "TalkSentenceID": 502101041,
    "VoiceIDList": [
      502101176,
      502101177
    ]
  },
  "502200401": {
    "TalkSentenceID": 502200401,
    "VoiceIDList": [
      502101178,
      502101179
    ]
  }
}