{
  "1000006": {
    "ID": 1000006,
    "PlaneID": 20001,
    "FloorID": 20001001,
    "GroupID": 53,
    "NPCConfigID": 400002,
    "RewardID": 2000047,
    "VerificationID": 1
  },
  "1000007": {
    "ID": 1000007,
    "PlaneID": 10001,
    "FloorID": 10001001,
    "GroupID": 63,
    "NPCConfigID": 400001,
    "RewardID": 2000046,
    "VerificationID": 1
  },
  "1000009": {
    "ID": 1000009,
    "PlaneID": 10201,
    "FloorID": 10201001,
    "GroupID": 21,
    "NPCConfigID": 400001,
    "RewardID": 2000268,
    "VerificationID": 1
  },
  "1000010": {
    "ID": 1000010,
    "PlaneID": 10201,
    "FloorID": 10201001,
    "GroupID": 61,
    "NPCConfigID": 400001,
    "RewardID": 2000269,
    "VerificationID": 1
  },
  "1000011": {
    "ID": 1000011,
    "PlaneID": 10201,
    "FloorID": 10201001,
    "GroupID": 20,
    "NPCConfigID": 400002,
    "RewardID": 2000270,
    "VerificationID": 1
  },
  "1000012": {
    "ID": 1000012,
    "PlaneID": 10201,
    "FloorID": 10201001,
    "GroupID": 20,
    "NPCConfigID": 400009,
    "RewardID": 2000271,
    "VerificationID": 1
  },
  "1000013": {
    "ID": 1000013,
    "PlaneID": 10201,
    "FloorID": 10201002,
    "GroupID": 13,
    "NPCConfigID": 400001,
    "RewardID": 2000272,
    "VerificationID": 1
  },
  "1000015": {
    "ID": 1000015,
    "PlaneID": 10202,
    "FloorID": 10202001,
    "GroupID": 84,
    "NPCConfigID": 400001,
    "RewardID": 2000275,
    "VerificationID": 1
  },
  "1000016": {
    "ID": 1000016,
    "PlaneID": 10101,
    "FloorID": 10101001,
    "GroupID": 15,
    "NPCConfigID": 400016,
    "RewardID": 2000277,
    "VerificationID": 1
  },
  "1000017": {
    "ID": 1000017,
    "PlaneID": 10102,
    "FloorID": 10102001,
    "GroupID": 3,
    "NPCConfigID": 400007,
    "RewardID": 2000278,
    "VerificationID": 1
  },
  "1000018": {
    "ID": 1000018,
    "PlaneID": 10101,
    "FloorID": 10101001,
    "GroupID": 15,
    "NPCConfigID": 400012,
    "RewardID": 2000279,
    "VerificationID": 1
  },
  "1000019": {
    "ID": 1000019,
    "PlaneID": 10102,
    "FloorID": 10102001,
    "GroupID": 3,
    "NPCConfigID": 400009,
    "RewardID": 2000280,
    "VerificationID": 1
  },
  "1000020": {
    "ID": 1000020,
    "PlaneID": 10102,
    "FloorID": 10102001,
    "GroupID": 3,
    "NPCConfigID": 400011,
    "RewardID": 2000281,
    "VerificationID": 1
  },
  "1000021": {
    "ID": 1000021,
    "PlaneID": 10101,
    "FloorID": 10101001,
    "GroupID": 15,
    "NPCConfigID": 400014,
    "RewardID": 2000282,
    "VerificationID": 1
  },
  "1000022": {
    "ID": 1000022,
    "PlaneID": 10101,
    "FloorID": 10101003,
    "GroupID": 3,
    "NPCConfigID": 400001,
    "RewardID": 2000283,
    "VerificationID": 1
  },
  "1000023": {
    "ID": 1000023,
    "PlaneID": 10201,
    "FloorID": 10201001,
    "GroupID": 99,
    "NPCConfigID": 400001,
    "RewardID": 2000293,
    "VerificationID": 1
  },
  "1000024": {
    "ID": 1000024,
    "PlaneID": 10101,
    "FloorID": 10101001,
    "GroupID": 15,
    "NPCConfigID": 400008,
    "RewardID": 2000169,
    "VerificationID": 1
  },
  "1000025": {
    "ID": 1000025,
    "PlaneID": 10101,
    "FloorID": 10101001,
    "GroupID": 15,
    "NPCConfigID": 400001,
    "RewardID": 2000034,
    "VerificationID": 1
  },
  "1000026": {
    "ID": 1000026,
    "PlaneID": 10101,
    "FloorID": 10101001,
    "GroupID": 15,
    "NPCConfigID": 400012,
    "RewardID": 2000045,
    "VerificationID": 1
  },
  "1000027": {
    "ID": 1000027,
    "PlaneID": 10101,
    "FloorID": 10101001,
    "GroupID": 15,
    "NPCConfigID": 400016,
    "RewardID": 2000070,
    "VerificationID": 1
  },
  "1000028": {
    "ID": 1000028,
    "PlaneID": 10102,
    "FloorID": 10102001,
    "GroupID": 3,
    "NPCConfigID": 400010,
    "RewardID": 2000019,
    "VerificationID": 1
  },
  "1000029": {
    "ID": 1000029,
    "PlaneID": 10201,
    "FloorID": 10201001,
    "GroupID": 23,
    "NPCConfigID": 400001,
    "RewardID": 2000338,
    "VerificationID": 1
  },
  "1000030": {
    "ID": 1000030,
    "PlaneID": 10101,
    "FloorID": 10101001,
    "GroupID": 15,
    "NPCConfigID": 400002,
    "RewardID": 2000342,
    "VerificationID": 1
  },
  "1000031": {
    "ID": 1000031,
    "PlaneID": 10201,
    "FloorID": 10201001,
    "GroupID": 20,
    "NPCConfigID": 400006,
    "RewardID": 2000373,
    "VerificationID": 1
  },
  "1000032": {
    "ID": 1000032,
    "PlaneID": 10202,
    "FloorID": 10202001,
    "GroupID": 43,
    "NPCConfigID": 400009,
    "RewardID": 2000374,
    "VerificationID": 1
  },
  "1000033": {
    "ID": 1000033,
    "PlaneID": 10202,
    "FloorID": 10202001,
    "GroupID": 43,
    "NPCConfigID": 400013,
    "RewardID": 2000375,
    "VerificationID": 1
  },
  "1000034": {
    "ID": 1000034,
    "PlaneID": 10202,
    "FloorID": 10202004,
    "GroupID": 280,
    "NPCConfigID": 400001,
    "RewardID": 2000376,
    "VerificationID": 1
  },
  "1000035": {
    "ID": 1000035,
    "PlaneID": 10201,
    "FloorID": 10201001,
    "GroupID": 20,
    "NPCConfigID": 400010,
    "RewardID": 2000377,
    "VerificationID": 1
  },
  "1000036": {
    "ID": 1000036,
    "PlaneID": 10202,
    "FloorID": 10202001,
    "GroupID": 15,
    "NPCConfigID": 400001,
    "RewardID": 2000382,
    "VerificationID": 1
  },
  "1000037": {
    "ID": 1000037,
    "PlaneID": 10001,
    "FloorID": 10001001,
    "GroupID": 63,
    "NPCConfigID": 400001,
    "RewardID": 2000383,
    "VerificationID": 1
  },
  "1000038": {
    "ID": 1000038,
    "PlaneID": 10202,
    "FloorID": 10202001,
    "GroupID": 32,
    "NPCConfigID": 400001,
    "RewardID": 2000384,
    "VerificationID": 1
  },
  "1000039": {
    "ID": 1000039,
    "PlaneID": 10202,
    "FloorID": 10202001,
    "GroupID": 32,
    "NPCConfigID": 400001,
    "RewardID": 2000385,
    "VerificationID": 1
  },
  "1000040": {
    "ID": 1000040,
    "PlaneID": 10202,
    "FloorID": 10202001,
    "GroupID": 32,
    "NPCConfigID": 400001,
    "RewardID": 2000386,
    "VerificationID": 1
  },
  "1000041": {
    "ID": 1000041,
    "PlaneID": 10202,
    "FloorID": 10202001,
    "GroupID": 32,
    "NPCConfigID": 400001,
    "RewardID": 2000387,
    "VerificationID": 1
  },
  "1000042": {
    "ID": 1000042,
    "PlaneID": 20222,
    "FloorID": 20222001,
    "GroupID": 36,
    "NPCConfigID": 400001,
    "RewardID": 2000483,
    "VerificationID": 1
  },
  "1000043": {
    "ID": 1000043,
    "PlaneID": 20211,
    "FloorID": 20211001,
    "GroupID": 194,
    "NPCConfigID": 400001,
    "RewardID": 2000529,
    "VerificationID": 1
  },
  "1000044": {
    "ID": 1000044,
    "PlaneID": 20221,
    "FloorID": 20221001,
    "GroupID": 178,
    "NPCConfigID": 400001,
    "RewardID": 2000530,
    "VerificationID": 1
  },
  "1000045": {
    "ID": 1000045,
    "PlaneID": 20221,
    "FloorID": 20221001,
    "GroupID": 180,
    "NPCConfigID": 400001,
    "RewardID": 2000531,
    "VerificationID": 1
  },
  "1000046": {
    "ID": 1000046,
    "PlaneID": 10202,
    "FloorID": 10202004,
    "GroupID": 152,
    "NPCConfigID": 400001,
    "RewardID": 2000532,
    "VerificationID": 1
  },
  "1000047": {
    "ID": 1000047,
    "PlaneID": 10202,
    "FloorID": 10202004,
    "GroupID": 273,
    "NPCConfigID": 400001,
    "RewardID": 2000533,
    "VerificationID": 1
  },
  "1000048": {
    "ID": 1000048,
    "PlaneID": 10201,
    "FloorID": 10201001,
    "GroupID": 184,
    "NPCConfigID": 400001,
    "RewardID": 2000543,
    "VerificationID": 1
  },
  "1000049": {
    "ID": 1000049,
    "PlaneID": 20221,
    "FloorID": 20221001,
    "GroupID": 193,
    "NPCConfigID": 400001,
    "RewardID": 2000554,
    "VerificationID": 1
  },
  "1000050": {
    "ID": 1000050,
    "PlaneID": 10202,
    "FloorID": 10202004,
    "GroupID": 225,
    "NPCConfigID": 400001,
    "RewardID": 2000559,
    "VerificationID": 1
  },
  "1000051": {
    "ID": 1000051,
    "PlaneID": 20211,
    "FloorID": 20211001,
    "GroupID": 195,
    "NPCConfigID": 400001,
    "RewardID": 2000560,
    "VerificationID": 1
  },
  "1000052": {
    "ID": 1000052,
    "PlaneID": 43103,
    "FloorID": 43103001,
    "GroupID": 10,
    "PropConfigID": 300006,
    "RewardID": 8003201,
    "VerificationID": 2
  },
  "1000053": {
    "ID": 1000053,
    "PlaneID": 43103,
    "FloorID": 43103001,
    "GroupID": 10,
    "PropConfigID": 300002,
    "RewardID": 8003202,
    "VerificationID": 2
  },
  "1000054": {
    "ID": 1000054,
    "PlaneID": 43103,
    "FloorID": 43103001,
    "GroupID": 10,
    "PropConfigID": 300004,
    "RewardID": 8003203,
    "VerificationID": 2
  },
  "1000055": {
    "ID": 1000055,
    "PlaneID": 43103,
    "FloorID": 43103001,
    "GroupID": 10,
    "PropConfigID": 300005,
    "RewardID": 8003204,
    "VerificationID": 2
  },
  "1000056": {
    "ID": 1000056,
    "PlaneID": 43103,
    "FloorID": 43103001,
    "GroupID": 10,
    "PropConfigID": 300003,
    "RewardID": 8003205,
    "VerificationID": 2
  },
  "1000057": {
    "ID": 1000057,
    "PlaneID": 43103,
    "FloorID": 43103002,
    "GroupID": 22,
    "PropConfigID": 300001,
    "RewardID": 8003211,
    "VerificationID": 2
  },
  "1000061": {
    "ID": 1000061,
    "PlaneID": 43103,
    "FloorID": 43103002,
    "GroupID": 22,
    "PropConfigID": 300005,
    "RewardID": 8003212,
    "VerificationID": 2
  },
  "1000060": {
    "ID": 1000060,
    "PlaneID": 43103,
    "FloorID": 43103002,
    "GroupID": 22,
    "PropConfigID": 300004,
    "RewardID": 8003213,
    "VerificationID": 2
  },
  "1000058": {
    "ID": 1000058,
    "PlaneID": 43103,
    "FloorID": 43103002,
    "GroupID": 22,
    "PropConfigID": 300002,
    "RewardID": 8003214,
    "VerificationID": 2
  },
  "1000059": {
    "ID": 1000059,
    "PlaneID": 43103,
    "FloorID": 43103002,
    "GroupID": 22,
    "PropConfigID": 300003,
    "RewardID": 8003215,
    "VerificationID": 2
  },
  "1000062": {
    "ID": 1000062,
    "PlaneID": 43103,
    "FloorID": 43103003,
    "GroupID": 10,
    "PropConfigID": 300001,
    "RewardID": 8003221,
    "VerificationID": 2
  },
  "1000065": {
    "ID": 1000065,
    "PlaneID": 43103,
    "FloorID": 43103003,
    "GroupID": 10,
    "PropConfigID": 300004,
    "RewardID": 8003222,
    "VerificationID": 2
  },
  "1000066": {
    "ID": 1000066,
    "PlaneID": 43103,
    "FloorID": 43103003,
    "GroupID": 10,
    "PropConfigID": 300005,
    "RewardID": 8003223,
    "VerificationID": 2
  },
  "1000064": {
    "ID": 1000064,
    "PlaneID": 43103,
    "FloorID": 43103003,
    "GroupID": 10,
    "PropConfigID": 300003,
    "RewardID": 8003224,
    "VerificationID": 2
  },
  "1000063": {
    "ID": 1000063,
    "PlaneID": 43103,
    "FloorID": 43103003,
    "GroupID": 10,
    "PropConfigID": 300002,
    "RewardID": 8003225,
    "VerificationID": 2
  },
  "1000067": {
    "ID": 1000067,
    "PlaneID": 43103,
    "FloorID": 43103004,
    "GroupID": 26,
    "PropConfigID": 300001,
    "RewardID": 8003231,
    "VerificationID": 2
  },
  "1000068": {
    "ID": 1000068,
    "PlaneID": 43103,
    "FloorID": 43103004,
    "GroupID": 26,
    "PropConfigID": 300002,
    "RewardID": 8003232,
    "VerificationID": 2
  },
  "1000069": {
    "ID": 1000069,
    "PlaneID": 43103,
    "FloorID": 43103004,
    "GroupID": 26,
    "PropConfigID": 300003,
    "RewardID": 8003233,
    "VerificationID": 2
  },
  "1000071": {
    "ID": 1000071,
    "PlaneID": 43103,
    "FloorID": 43103004,
    "GroupID": 26,
    "PropConfigID": 300005,
    "RewardID": 8003234,
    "VerificationID": 2
  },
  "1000070": {
    "ID": 1000070,
    "PlaneID": 43103,
    "FloorID": 43103004,
    "GroupID": 26,
    "PropConfigID": 300004,
    "RewardID": 8003235,
    "VerificationID": 2
  },
  "1000080": {
    "ID": 1000080,
    "PlaneID": 20223,
    "FloorID": 20223001,
    "GroupID": 133,
    "NPCConfigID": 400001,
    "RewardID": 2000625,
    "VerificationID": 1
  }
}