{
  "Bronya_00": {
    "UniqueName": "Bronya_00",
    "ActorID": "Actor_Bronya_00"
  },
  "Pela_00": {
    "UniqueName": "Pela_00",
    "ActorID": "Actor_Pela_00"
  },
  "Seele_00": {
    "UniqueName": "Seele_00",
    "ActorID": "Actor_Seele_00"
  },
  "W1_Soldier01_Axe_01": {
    "UniqueName": "W1_Soldier01_Axe_01",
    "ActorID": "Actor_W1_Soldier01_00"
  },
  "W1_Soldier01_Gun_01": {
    "UniqueName": "W1_Soldier01_Gun_01",
    "ActorID": "Actor_W1_Soldier01_00"
  },
  "W1_Soldier01_Axe_02": {
    "UniqueName": "W1_Soldier01_Axe_02",
    "ActorID": "Actor_W1_Soldier01_00"
  },
  "W1_Soldier01_Gun_02": {
    "UniqueName": "W1_Soldier01_Gun_02",
    "ActorID": "Actor_W1_Soldier01_00"
  },
  "W1_Soldier01_Axe_03": {
    "UniqueName": "W1_Soldier01_Axe_03",
    "ActorID": "Actor_W1_Soldier01_00"
  },
  "W1_Soldier01_Gun_03": {
    "UniqueName": "W1_Soldier01_Gun_03",
    "ActorID": "Actor_W1_Soldier01_00"
  },
  "W1_Soldier01_Axe_04": {
    "UniqueName": "W1_Soldier01_Axe_04",
    "ActorID": "Actor_W1_Soldier01_00"
  },
  "W1_Soldier01_Gun_04": {
    "UniqueName": "W1_Soldier01_Gun_04",
    "ActorID": "Actor_W1_Soldier01_00"
  },
  "PlayerBoy_00": {
    "UniqueName": "PlayerBoy_00",
    "ActorID": "Actor_PlayerBoy_00"
  },
  "PlayerGirl_00": {
    "UniqueName": "PlayerGirl_00",
    "ActorID": "Actor_PlayerGirl_00"
  },
  "DanHeng_00": {
    "UniqueName": "DanHeng_00",
    "ActorID": "Actor_DanHeng_00"
  },
  "Mar_7th_00": {
    "UniqueName": "Mar_7th_00",
    "ActorID": "Actor_Mar_7th_00"
  },
  "W1_Soldier01_Axe_05": {
    "UniqueName": "W1_Soldier01_Axe_05",
    "ActorID": "Actor_W1_Soldier01_00"
  },
  "W1_Soldier01_Axe_06": {
    "UniqueName": "W1_Soldier01_Axe_06",
    "ActorID": "Actor_W1_Soldier01_00"
  },
  "Sampo_00": {
    "UniqueName": "Sampo_00",
    "ActorID": "Actor_Sampo_00"
  },
  "Gepard_00": {
    "UniqueName": "Gepard_00",
    "ActorID": "Actor_Gepard_00"
  },
  "W1_Soldier01_03_01": {
    "UniqueName": "W1_Soldier01_03_01",
    "ActorID": "Actor_W1_Soldier01_03"
  },
  "W1_Soldier01_03_02": {
    "UniqueName": "W1_Soldier01_03_02",
    "ActorID": "Actor_W1_Soldier01_03"
  },
  "W1_Soldier01_03_03": {
    "UniqueName": "W1_Soldier01_03_03",
    "ActorID": "Actor_W1_Soldier01_03"
  },
  "W1_Soldier01_03_04": {
    "UniqueName": "W1_Soldier01_03_04",
    "ActorID": "Actor_W1_Soldier01_03"
  },
  "Natasha_00": {
    "UniqueName": "Natasha_00",
    "ActorID": "Actor_Natasha_00"
  },
  "Klara_00": {
    "UniqueName": "Klara_00",
    "ActorID": "Actor_Klara_00"
  },
  "Svarog_00": {
    "UniqueName": "Svarog_00",
    "ActorID": "Actor_Svarog_00"
  },
  "Silwolf_00": {
    "UniqueName": "Silwolf_00",
    "ActorID": "Actor_Silwolf_00"
  },
  "Kafka_00": {
    "UniqueName": "Kafka_00",
    "ActorID": "Actor_Kafka_00"
  },
  "AML_Minion02_00": {
    "UniqueName": "AML_Minion02_00",
    "ActorID": "Actor_AML_Minion02_00"
  },
  "AML_Minion02_01": {
    "UniqueName": "AML_Minion02_01",
    "ActorID": "Actor_AML_Minion02_00"
  },
  "AML_Minion02_02": {
    "UniqueName": "AML_Minion02_02",
    "ActorID": "Actor_AML_Minion02_00"
  },
  "AML_Minion02_03": {
    "UniqueName": "AML_Minion02_03",
    "ActorID": "Actor_AML_Minion02_00"
  },
  "W1_CocoliaP2_00": {
    "UniqueName": "W1_CocoliaP2_00",
    "ActorID": "Actor_W1_CocoliaP2_00"
  },
  "W1_Colossus_00": {
    "UniqueName": "W1_Colossus_00",
    "ActorID": "Actor_W1_Colossus_00"
  },
  "Arlan_00": {
    "UniqueName": "Arlan_00",
    "ActorID": "Actor_Arlan_00"
  },
  "AML_Elite01_00": {
    "UniqueName": "AML_Elite01_00",
    "ActorID": "Actor_AML_Elite01_00"
  },
  "Himeko_00": {
    "UniqueName": "Himeko_00",
    "ActorID": "Actor_Himeko_00"
  },
  "AML_Minion03_00": {
    "UniqueName": "AML_Minion03_00",
    "ActorID": "Actor_AML_Minion03_00"
  },
  "AML_Minion03_01": {
    "UniqueName": "AML_Minion03_01",
    "ActorID": "Actor_AML_Minion03_00"
  },
  "AML_Minion03_02": {
    "UniqueName": "AML_Minion03_02",
    "ActorID": "Actor_AML_Minion03_00"
  },
  "AML_Minion03_03": {
    "UniqueName": "AML_Minion03_03",
    "ActorID": "Actor_AML_Minion03_00"
  },
  "AML_Minion03_04": {
    "UniqueName": "AML_Minion03_04",
    "ActorID": "Actor_AML_Minion03_00"
  },
  "AML_Minion03_05": {
    "UniqueName": "AML_Minion03_05",
    "ActorID": "Actor_AML_Minion03_00"
  },
  "AML_Minion03_06": {
    "UniqueName": "AML_Minion03_06",
    "ActorID": "Actor_AML_Minion03_00"
  },
  "AML_Minion03_07": {
    "UniqueName": "AML_Minion03_07",
    "ActorID": "Actor_AML_Minion03_00"
  },
  "AML_Minion03_08": {
    "UniqueName": "AML_Minion03_08",
    "ActorID": "Actor_AML_Minion03_00"
  },
  "AML_Minion03_09": {
    "UniqueName": "AML_Minion03_09",
    "ActorID": "Actor_AML_Minion03_00"
  },
  "AML_Minion03_10": {
    "UniqueName": "AML_Minion03_10",
    "ActorID": "Actor_AML_Minion03_00"
  },
  "Asta_00": {
    "UniqueName": "Asta_00",
    "ActorID": "Actor_Asta_00"
  },
  "AML_Boss_00": {
    "UniqueName": "AML_Boss_00",
    "ActorID": "Actor_AML_Boss_00"
  },
  "Welt_00": {
    "UniqueName": "Welt_00",
    "ActorID": "Actor_Welt_00"
  },
  "Pam_00": {
    "UniqueName": "Pam_00",
    "ActorID": "Actor_Pam_00"
  },
  "Ren_00": {
    "UniqueName": "Ren_00",
    "ActorID": "Actor_Ren_00"
  },
  "JingYuan_00": {
    "UniqueName": "JingYuan_00",
    "ActorID": "Actor_JingYuan_00"
  },
  "Yanqing_00": {
    "UniqueName": "Yanqing_00",
    "ActorID": "Actor_Yanqing_00"
  },
  "W2_Knight01_01": {
    "UniqueName": "W2_Knight01_01",
    "ActorID": "Actor_W2_Knight01_00"
  },
  "W2_Knight01_02": {
    "UniqueName": "W2_Knight01_02",
    "ActorID": "Actor_W2_Knight01_00"
  },
  "QingQue_00": {
    "UniqueName": "QingQue_00",
    "ActorID": "Actor_QingQue_00"
  },
  "FuXuan_00": {
    "UniqueName": "FuXuan_00",
    "ActorID": "Actor_FuXuan_00"
  },
  "Xueyi_00": {
    "UniqueName": "Xueyi_00",
    "ActorID": "Actor_Xueyi_00"
  },
  "Kafka_01": {
    "UniqueName": "Kafka_01",
    "ActorID": "Actor_Kafka_01"
  },
  "Sushang_00": {
    "UniqueName": "Sushang_00",
    "ActorID": "Actor_Sushang_00"
  },
  "Luocha_00": {
    "UniqueName": "Luocha_00",
    "ActorID": "Actor_Luocha_00"
  },
  "W2_Xuanlu_00": {
    "UniqueName": "W2_Xuanlu_00",
    "ActorID": "Actor_W2_Xuanlu_00"
  },
  "DanHengIL_00": {
    "UniqueName": "DanHengIL_00",
    "ActorID": "Actor_DanHengIL_00"
  },
  "W2_Huanlong_00": {
    "UniqueName": "W2_Huanlong_00",
    "ActorID": "Actor_W2_Huanlong_00"
  },
  "W2_Abomi02_00": {
    "UniqueName": "W2_Abomi02_00",
    "ActorID": "Actor_W2_Abomi02_00"
  },
  "W2_Abomi04_00": {
    "UniqueName": "W2_Abomi04_00",
    "ActorID": "Actor_W2_Abomi04_00"
  },
  "W2_Abomi02_01": {
    "UniqueName": "W2_Abomi02_01",
    "ActorID": "Actor_W2_Abomi02_00"
  },
  "W2_Abomi04_01": {
    "UniqueName": "W2_Abomi04_01",
    "ActorID": "Actor_W2_Abomi04_00"
  },
  "W2_Abomi04_02": {
    "UniqueName": "W2_Abomi04_02",
    "ActorID": "Actor_W2_Abomi04_00"
  },
  "Tingyun_00": {
    "UniqueName": "Tingyun_00",
    "ActorID": "Actor_Tingyun_00"
  },
  "W2_Huanlong_02": {
    "UniqueName": "W2_Huanlong_02",
    "ActorID": "Actor_W2_Huanlong_02"
  },
  "Yukong_00": {
    "UniqueName": "Yukong_00",
    "ActorID": "Actor_Yukong_00"
  },
  "W1_Lady_01": {
    "UniqueName": "W1_Lady_01",
    "ActorID": "Actor_W1_Lady_01"
  },
  "W1_Lady_02": {
    "UniqueName": "W1_Lady_02",
    "ActorID": "Actor_W1_Lady_02"
  },
  "W1_Lady_04": {
    "UniqueName": "W1_Lady_04",
    "ActorID": "Actor_W1_Lady_04"
  },
  "W1_Lady_06": {
    "UniqueName": "W1_Lady_06",
    "ActorID": "Actor_W1_Lady_06"
  },
  "W1_Lady_16": {
    "UniqueName": "W1_Lady_16",
    "ActorID": "Actor_W1_Lady_16"
  },
  "W1_Lady_20": {
    "UniqueName": "W1_Lady_20",
    "ActorID": "Actor_W1_Lady_20"
  },
  "W1_Lady_28": {
    "UniqueName": "W1_Lady_28",
    "ActorID": "Actor_W1_Lady_28"
  },
  "W1_Lady_29": {
    "UniqueName": "W1_Lady_29",
    "ActorID": "Actor_W1_Lady_29"
  },
  "W1_Male_02": {
    "UniqueName": "W1_Male_02",
    "ActorID": "Actor_W1_Male_02"
  },
  "W1_Male_04": {
    "UniqueName": "W1_Male_04",
    "ActorID": "Actor_W1_Male_04"
  },
  "W1_Male_05": {
    "UniqueName": "W1_Male_05",
    "ActorID": "Actor_W1_Male_05"
  },
  "W1_Male_06": {
    "UniqueName": "W1_Male_06",
    "ActorID": "Actor_W1_Male_06"
  },
  "W1_Male_07": {
    "UniqueName": "W1_Male_07",
    "ActorID": "Actor_W1_Male_07"
  },
  "W1_Male_17": {
    "UniqueName": "W1_Male_17",
    "ActorID": "Actor_W1_Male_17"
  },
  "W1_Male_18": {
    "UniqueName": "W1_Male_18",
    "ActorID": "Actor_W1_Male_18"
  },
  "W1_Male_19": {
    "UniqueName": "W1_Male_19",
    "ActorID": "Actor_W1_Male_19"
  },
  "W1_Male_20": {
    "UniqueName": "W1_Male_20",
    "ActorID": "Actor_W1_Male_20"
  },
  "W1_Male_22": {
    "UniqueName": "W1_Male_22",
    "ActorID": "Actor_W1_Male_22"
  },
  "W1_Male_24": {
    "UniqueName": "W1_Male_24",
    "ActorID": "Actor_W1_Male_24"
  },
  "W1_Male_25": {
    "UniqueName": "W1_Male_25",
    "ActorID": "Actor_W1_Male_25"
  },
  "W1_Male_26": {
    "UniqueName": "W1_Male_26",
    "ActorID": "Actor_W1_Male_26"
  },
  "W1_Old_05": {
    "UniqueName": "W1_Old_05",
    "ActorID": "Actor_W1_Old_05"
  },
  "W1_Old_06": {
    "UniqueName": "W1_Old_06",
    "ActorID": "Actor_W1_Old_06"
  },
  "W1_Old_12": {
    "UniqueName": "W1_Old_12",
    "ActorID": "Actor_W1_Old_12"
  },
  "W1_Old_13": {
    "UniqueName": "W1_Old_13",
    "ActorID": "Actor_W1_Old_13"
  },
  "W1_Soldier01_01": {
    "UniqueName": "W1_Soldier01_01",
    "ActorID": "Actor_W1_Soldier01_01"
  },
  "W1_Soldier01_02": {
    "UniqueName": "W1_Soldier01_02",
    "ActorID": "Actor_W1_Soldier01_02"
  },
  "Topaz_00": {
    "UniqueName": "Topaz_00",
    "ActorID": "Actor_Topaz_00"
  },
  "Topaz_00_Pig": {
    "UniqueName": "Topaz_00_Pig",
    "ActorID": "Actor_Topaz_00_BE"
  },
  "Guinaifen_00_Puppy_00": {
    "UniqueName": "Guinaifen_00_Puppy_00",
    "ActorID": "Actor_Guinaifen_00_Puppy_Effect"
  },
  "Guinaifen_00": {
    "UniqueName": "Guinaifen_00",
    "ActorID": "Actor_Guinaifen_00"
  },
  "Guinaifen_00_Puppy_01": {
    "UniqueName": "Guinaifen_00_Puppy_01",
    "ActorID": "Actor_Guinaifen_00_Puppy_Effect"
  },
  "Guinaifen_00_Puppy_02": {
    "UniqueName": "Guinaifen_00_Puppy_02",
    "ActorID": "Actor_Guinaifen_00_Puppy_Effect"
  },
  "W1_Mecha01_01_01": {
    "UniqueName": "W1_Mecha01_01_01",
    "ActorID": "Actor_W1_Mecha01_01"
  },
  "W1_Mecha01_01_02": {
    "UniqueName": "W1_Mecha01_01_02",
    "ActorID": "Actor_W1_Mecha01_01"
  },
  "W1_Mecha01_01_03": {
    "UniqueName": "W1_Mecha01_01_03",
    "ActorID": "Actor_W1_Mecha01_01"
  },
  "W1_Mecha03_00_01": {
    "UniqueName": "W1_Mecha03_00_01",
    "ActorID": "Actor_W1_Mecha03_00"
  },
  "W1_Mecha03_00_02": {
    "UniqueName": "W1_Mecha03_00_02",
    "ActorID": "Actor_W1_Mecha03_00"
  },
  "W1_Mecha04_00_01": {
    "UniqueName": "W1_Mecha04_00_01",
    "ActorID": "Actor_W1_Mecha04_00"
  },
  "W1_Mecha04_00_02": {
    "UniqueName": "W1_Mecha04_00_02",
    "ActorID": "Actor_W1_Mecha04_00"
  },
  "W1_Male_Oleg": {
    "UniqueName": "W1_Male_Oleg",
    "ActorID": "Actor_W1_Male_Oleg"
  },
  "Luka_00": {
    "UniqueName": "Luka_00",
    "ActorID": "Actor_Luka_00"
  },
  "Hook_00": {
    "UniqueName": "Hook_00",
    "ActorID": "Actor_Hook_00"
  },
  "W1_Soldier02_01_01": {
    "UniqueName": "W1_Soldier02_01_01",
    "ActorID": "Actor_W1_Soldier02_01"
  },
  "W1_Soldier02_01_02": {
    "UniqueName": "W1_Soldier02_01_02",
    "ActorID": "Actor_W1_Soldier02_01"
  },
  "W1_Soldier02_01_03": {
    "UniqueName": "W1_Soldier02_01_03",
    "ActorID": "Actor_W1_Soldier02_01"
  },
  "W1_Soldier02_01_04": {
    "UniqueName": "W1_Soldier02_01_04",
    "ActorID": "Actor_W1_Soldier02_01"
  },
  "W1_Soldier02_01_05": {
    "UniqueName": "W1_Soldier02_01_05",
    "ActorID": "Actor_W1_Soldier02_01"
  },
  "W1_Mecha03_02_01": {
    "UniqueName": "W1_Mecha03_02_01",
    "ActorID": "Actor_W1_Mecha03_02"
  },
  "W1_Mecha03_02_02": {
    "UniqueName": "W1_Mecha03_02_02",
    "ActorID": "Actor_W1_Mecha03_02"
  },
  "W1_Mecha03_02_03": {
    "UniqueName": "W1_Mecha03_02_03",
    "ActorID": "Actor_W1_Mecha03_02"
  },
  "W1_Mecha03_02_04": {
    "UniqueName": "W1_Mecha03_02_04",
    "ActorID": "Actor_W1_Mecha03_02"
  },
  "W1_Mecha03_02_05": {
    "UniqueName": "W1_Mecha03_02_05",
    "ActorID": "Actor_W1_Mecha03_02"
  },
  "W1_Lady_13": {
    "UniqueName": "W1_Lady_13",
    "ActorID": "Actor_W1_Lady_13"
  },
  "W1_Lady_17": {
    "UniqueName": "W1_Lady_17",
    "ActorID": "Actor_W1_Lady_17"
  },
  "W1_Lady_18": {
    "UniqueName": "W1_Lady_18",
    "ActorID": "Actor_W1_Lady_18"
  },
  "W1_Lady_25": {
    "UniqueName": "W1_Lady_25",
    "ActorID": "Actor_W1_Lady_25"
  },
  "W1_Lady_28_01": {
    "UniqueName": "W1_Lady_28_01",
    "ActorID": "Actor_W1_Lady_28"
  },
  "W1_Lady_28_02": {
    "UniqueName": "W1_Lady_28_02",
    "ActorID": "Actor_W1_Lady_28"
  },
  "W1_Male_05_01": {
    "UniqueName": "W1_Male_05_01",
    "ActorID": "Actor_W1_Male_05"
  },
  "W1_Male_05_02": {
    "UniqueName": "W1_Male_05_02",
    "ActorID": "Actor_W1_Male_05"
  },
  "W1_Male_08_01": {
    "UniqueName": "W1_Male_08_01",
    "ActorID": "Actor_W1_Male_08"
  },
  "W1_Male_08_02": {
    "UniqueName": "W1_Male_08_02",
    "ActorID": "Actor_W1_Male_08"
  },
  "W1_Male_09_01": {
    "UniqueName": "W1_Male_09_01",
    "ActorID": "Actor_W1_Male_09"
  },
  "W1_Male_09_02": {
    "UniqueName": "W1_Male_09_02",
    "ActorID": "Actor_W1_Male_09"
  },
  "W1_Male_09_03": {
    "UniqueName": "W1_Male_09_03",
    "ActorID": "Actor_W1_Male_09"
  },
  "W1_Male_09_04": {
    "UniqueName": "W1_Male_09_04",
    "ActorID": "Actor_W1_Male_09"
  },
  "W1_Male_10_01": {
    "UniqueName": "W1_Male_10_01",
    "ActorID": "Actor_W1_Male_10"
  },
  "W1_Male_10_02": {
    "UniqueName": "W1_Male_10_02",
    "ActorID": "Actor_W1_Male_10"
  },
  "W1_Male_10_03": {
    "UniqueName": "W1_Male_10_03",
    "ActorID": "Actor_W1_Male_10"
  },
  "W1_Male_10_04": {
    "UniqueName": "W1_Male_10_04",
    "ActorID": "Actor_W1_Male_10"
  },
  "W1_Male_11_01": {
    "UniqueName": "W1_Male_11_01",
    "ActorID": "Actor_W1_Male_11"
  },
  "W1_Male_11_02": {
    "UniqueName": "W1_Male_11_02",
    "ActorID": "Actor_W1_Male_11"
  },
  "W1_Male_11_03": {
    "UniqueName": "W1_Male_11_03",
    "ActorID": "Actor_W1_Male_11"
  },
  "W1_Male_11_04": {
    "UniqueName": "W1_Male_11_04",
    "ActorID": "Actor_W1_Male_11"
  },
  "W1_Male_12_01": {
    "UniqueName": "W1_Male_12_01",
    "ActorID": "Actor_W1_Male_12"
  },
  "W1_Male_12_02": {
    "UniqueName": "W1_Male_12_02",
    "ActorID": "Actor_W1_Male_12"
  },
  "W1_Male_13_01": {
    "UniqueName": "W1_Male_13_01",
    "ActorID": "Actor_W1_Male_13"
  },
  "W1_Male_13_02": {
    "UniqueName": "W1_Male_13_02",
    "ActorID": "Actor_W1_Male_13"
  },
  "W1_Male_13_03": {
    "UniqueName": "W1_Male_13_03",
    "ActorID": "Actor_W1_Male_13"
  },
  "W1_Male_14_01": {
    "UniqueName": "W1_Male_14_01",
    "ActorID": "Actor_W1_Male_14"
  },
  "W1_Male_14_02": {
    "UniqueName": "W1_Male_14_02",
    "ActorID": "Actor_W1_Male_14"
  },
  "W1_Male_14_03": {
    "UniqueName": "W1_Male_14_03",
    "ActorID": "Actor_W1_Male_14"
  },
  "W1_Male_15": {
    "UniqueName": "W1_Male_15",
    "ActorID": "Actor_W1_Male_15"
  },
  "W1_Male_17_01": {
    "UniqueName": "W1_Male_17_01",
    "ActorID": "Actor_W1_Male_17"
  },
  "W1_Male_17_02": {
    "UniqueName": "W1_Male_17_02",
    "ActorID": "Actor_W1_Male_17"
  },
  "W1_Male_21": {
    "UniqueName": "W1_Male_21",
    "ActorID": "Actor_W1_Male_21"
  },
  "W1_Old_10": {
    "UniqueName": "W1_Old_10",
    "ActorID": "Actor_W1_Old_10"
  },
  "Serval_00": {
    "UniqueName": "Serval_00",
    "ActorID": "Actor_Serval_00"
  },
  "W3_Male_Giovanni": {
    "UniqueName": "W3_Male_Giovanni",
    "ActorID": "Actor_W3_Male_Giovanni"
  },
  "W1_Mecha03_01_01": {
    "UniqueName": "W1_Mecha03_01_01",
    "ActorID": "Actor_W1_Mecha03_01"
  },
  "W1_Mecha03_01_02": {
    "UniqueName": "W1_Mecha03_01_02",
    "ActorID": "Actor_W1_Mecha03_01"
  },
  "Jingliu_00": {
    "UniqueName": "Jingliu_00",
    "ActorID": "Actor_Jingliu_00"
  },
  "RobCrane_01": {
    "UniqueName": "RobCrane_01",
    "ActorID": "Actor_RobCrane_00"
  },
  "RobCrane_02": {
    "UniqueName": "RobCrane_02",
    "ActorID": "Actor_RobCrane_00"
  },
  "RobCrane_03": {
    "UniqueName": "RobCrane_03",
    "ActorID": "Actor_RobCrane_00"
  },
  "RobCrane_04": {
    "UniqueName": "RobCrane_04",
    "ActorID": "Actor_RobCrane_00"
  },
  "RobCrane_05": {
    "UniqueName": "RobCrane_05",
    "ActorID": "Actor_RobCrane_00"
  },
  "RobCrane_06": {
    "UniqueName": "RobCrane_06",
    "ActorID": "Actor_RobCrane_00"
  },
  "RobCrane_07": {
    "UniqueName": "RobCrane_07",
    "ActorID": "Actor_RobCrane_00"
  },
  "RobCrane_08": {
    "UniqueName": "RobCrane_08",
    "ActorID": "Actor_RobCrane_00"
  },
  "RobCrane_09": {
    "UniqueName": "RobCrane_09",
    "ActorID": "Actor_RobCrane_00"
  },
  "Argenti_00": {
    "UniqueName": "Argenti_00",
    "ActorID": "Actor_Argenti_00"
  },
  "DanHenglLong_00": {
    "UniqueName": "DanHenglLong_00",
    "ActorID": "Actor_DanHenglLong_00"
  },
  "PlayerBoy_01": {
    "UniqueName": "PlayerBoy_01",
    "ActorID": "Actor_PlayerBoy_00"
  },
  "PlayerGirl_01": {
    "UniqueName": "PlayerGirl_01",
    "ActorID": "Actor_PlayerGirl_00"
  },
  "W2_Valkyrie01_00_01": {
    "UniqueName": "W2_Valkyrie01_00_01",
    "ActorID": "Actor_W2_Valkyrie01_00"
  },
  "W2_Valkyrie01_00_02": {
    "UniqueName": "W2_Valkyrie01_00_02",
    "ActorID": "Actor_W2_Valkyrie01_00"
  },
  "W2_Valkyrie01_00_03": {
    "UniqueName": "W2_Valkyrie01_00_03",
    "ActorID": "Actor_W2_Valkyrie01_00"
  },
  "W2_Valkyrie01_00_04": {
    "UniqueName": "W2_Valkyrie01_00_04",
    "ActorID": "Actor_W2_Valkyrie01_00"
  },
  "W2_Valkyrie01_00_05": {
    "UniqueName": "W2_Valkyrie01_00_05",
    "ActorID": "Actor_W2_Valkyrie01_00"
  },
  "W2_Valkyrie01_00_06": {
    "UniqueName": "W2_Valkyrie01_00_06",
    "ActorID": "Actor_W2_Valkyrie01_00"
  },
  "W2_Valkyrie01_00_07": {
    "UniqueName": "W2_Valkyrie01_00_07",
    "ActorID": "Actor_W2_Valkyrie01_00"
  },
  "W2_Valkyrie01_00_08": {
    "UniqueName": "W2_Valkyrie01_00_08",
    "ActorID": "Actor_W2_Valkyrie01_00"
  },
  "W2_Valkyrie01_00_09": {
    "UniqueName": "W2_Valkyrie01_00_09",
    "ActorID": "Actor_W2_Valkyrie01_00"
  },
  "Huohuo_00": {
    "UniqueName": "Huohuo_00",
    "ActorID": "Actor_Huohuo_00"
  },
  "W1_Mecha04_01": {
    "UniqueName": "W1_Mecha04_01",
    "ActorID": "Actor_W1_Mecha04_01"
  },
  "W2_Child_15": {
    "UniqueName": "W2_Child_15",
    "ActorID": "Actor_W2_Child_15"
  },
  "TailGhost_00": {
    "UniqueName": "TailGhost_00",
    "ActorID": "Actor_TailGhost_00"
  },
  "W2_Fuyan_00": {
    "UniqueName": "W2_Fuyan_00",
    "ActorID": "Actor_W2_Fuyan_00"
  }
}