{
  "OnInitSequece": [],
  "OnStartSequece": [
    {
      "TaskList": [
        {
          "$type": "RPG.GameCore.SelectorConfig",
          "TaskList": [
            {
              "$type": "RPG.GameCore.PropStateExecute",
              "TargetType": {
                "$type": "RPG.GameCore.TargetFetchAdvPropEx"
              },
              "State": "Open",
              "Execute": [
                {
                  "$type": "RPG.GameCore.PropReqInteract",
                  "TargetType": {
                    "$type": "RPG.GameCore.TargetFetchAdvPropEx"
                  },
                  "InteractID": {
                    "IsDynamic": false,
                    "FixedValue": {
                      "Value": 1100
                    }
                  }
                }
              ]
            }
          ]
        }
      ]
    },
    {
      "TaskList": [
        {
          "$type": "RPG.GameCore.PropSetupUITrigger",
          "ColliderRelativePath": "TriggerUIBtn",
          "ButtonCallback": [
            {
              "$type": "RPG.GameCore.SelectorConfig",
              "TaskList": [
                {
                  "$type": "RPG.GameCore.PropStateExecute",
                  "TargetType": {
                    "$type": "RPG.GameCore.TargetFetchAdvPropEx"
                  },
                  "State": "Locked",
                  "Execute": [
                    {
                      "$type": "RPG.GameCore.ToastPile",
                      "DescTextID": {
                        "Hash": 1627843584
                      }
                    }
                  ]
                },
                {
                  "$type": "RPG.GameCore.PropStateExecute",
                  "TargetType": {
                    "$type": "RPG.GameCore.TargetFetchAdvPropEx"
                  },
                  "Execute": [
                    {
                      "$type": "RPG.GameCore.PropReqInteract",
                      "TargetType": {
                        "$type": "RPG.GameCore.TargetFetchAdvPropEx"
                      },
                      "InteractID": {
                        "IsDynamic": false,
                        "FixedValue": {
                          "Value": 1010
                        }
                      }
                    },
                    {
                      "$type": "RPG.GameCore.WaitSecond",
                      "WaitTime": 1
                    },
                    {
                      "$type": "RPG.GameCore.PlayScreenTransfer",
                      "Mode": "SwitchOut",
                      "CustomTime": 0.5
                    },
                    {
                      "$type": "RPG.GameCore.SwitchCharacterAnchor",
                      "IsLocalPlayer": true,
                      "CharacterUniqueName": "LocalPlayer",
                      "AreaName": {
                        "Custom": true,
                        "Key": "LevelArea"
                      },
                      "AnchorName": {
                        "Custom": true,
                        "Key": "Anchor"
                      }
                    },
                    {
                      "$type": "RPG.GameCore.PlayScreenTransfer",
                      "CustomTime": 0.5
                    },
                    {
                      "$type": "RPG.GameCore.WaitSecond",
                      "WaitTime": 1
                    },
                    {
                      "$type": "RPG.GameCore.PropReqInteract",
                      "TargetType": {
                        "$type": "RPG.GameCore.TargetFetchAdvPropEx"
                      },
                      "InteractID": {
                        "IsDynamic": false,
                        "FixedValue": {
                          "Value": 1100
                        }
                      }
                    }
                  ]
                }
              ]
            }
          ],
          "OverrideTargetTypes": [],
          "TargetType": {
            "$type": "RPG.GameCore.TargetFetchAdvPropEx"
          }
        }
      ]
    }
  ],
  "ValueSource": {
    "Values": [
      {
        "$type": "RPG.GameCore.SharedString",
        "Key": "LevelArea"
      },
      {
        "$type": "RPG.GameCore.SharedString",
        "Key": "Anchor"
      }
    ]
  }
}