{
  "OnInitSequece": [],
  "OnStartSequece": [
    {
      "TaskList": [
        {
          "$type": "RPG.GameCore.CreateProp",
          "GroupID": {
            "IsDynamic": false,
            "FixedValue": {
              "Value": 23
            }
          },
          "GroupPropID": {
            "IsDynamic": false,
            "FixedValue": {
              "Value": 300004
            }
          }
        },
        {
          "$type": "RPG.GameCore.DestroyProp",
          "TargetType": {
            "$type": "RPG.GameCore.TargetFetchAdvPropEx"
          },
          "ID": {
            "IsDynamic": false,
            "FixedValue": {
              "Value": 300004
            }
          },
          "GroupID": {
            "IsDynamic": false,
            "FixedValue": {
              "Value": 23
            }
          }
        }
      ]
    },
    {
      "TaskList": [
        {
          "$type": "RPG.GameCore.CreateProp",
          "GroupID": {
            "IsDynamic": false,
            "FixedValue": {
              "Value": 23
            }
          },
          "GroupPropID": {
            "IsDynamic": false,
            "FixedValue": {
              "Value": 300005
            }
          }
        }
      ]
    },
    {
      "Order": 1,
      "TaskList": [
        {
          "$type": "RPG.GameCore.WaitSecond",
          "WaitTime": 0.5
        },
        {
          "$type": "RPG.GameCore.PropSetupUITrigger",
          "ButtonIcon": "SpriteOutput/TalkIcon/ChatIcon.png",
          "IconType": "ChatLoopIcon",
          "ButtonText": {
            "Hash": 278713937
          },
          "ButtonCallback": [
            {
              "$type": "RPG.GameCore.TriggerCustomString",
              "CustomString": {
                "Value": "Mission_200011006_Prop_23_300005_BtnClick"
              }
            }
          ],
          "TargetType": {
            "$type": "RPG.GameCore.TargetFetchAdvPropEx",
            "FetchType": "SinglePropByPropID",
            "SinglePropID": {
              "GroupID": {
                "IsDynamic": false,
                "FixedValue": {
                  "Value": 23
                }
              },
              "ID": {
                "IsDynamic": false,
                "FixedValue": {
                  "Value": 300005
                }
              }
            }
          }
        }
      ]
    },
    {
      "TaskList": [
        {
          "$type": "RPG.GameCore.WaitCustomString",
          "CustomString": {
            "Value": "Mission_200011006_Read"
          }
        },
        {
          "$type": "RPG.GameCore.WaitSecond",
          "WaitTime": 0.5
        },
        {
          "$type": "RPG.GameCore.DestroyProp",
          "TargetType": {
            "$type": "RPG.GameCore.TargetFetchAdvPropEx"
          },
          "ID": {
            "IsDynamic": false,
            "FixedValue": {
              "Value": 300005
            }
          },
          "GroupID": {
            "IsDynamic": false,
            "FixedValue": {
              "Value": 23
            }
          }
        },
        {
          "$type": "RPG.GameCore.WaitSecond",
          "WaitTime": 0.5
        },
        {
          "$type": "RPG.GameCore.PlayMissionTalk",
          "SimpleTalkList": [
            {
              "TalkSentenceID": 200021401,
              "ProtectTime": 4
            },
            {
              "TalkSentenceID": 200021402,
              "ProtectTime": 4
            }
          ]
        },
        {
          "$type": "RPG.GameCore.FinishPerformanceMission",
          "Key": "Mission_200011006"
        }
      ]
    },
    {
      "IsLoop": true,
      "TaskList": [
        {
          "$type": "RPG.GameCore.WaitCustomString",
          "CustomString": {
            "Value": "Mission_200011006_Prop_23_300005_BtnClick"
          }
        },
        {
          "$type": "RPG.GameCore.TriggerPerformance",
          "ValueSource": {},
          "PerformanceType": "E",
          "PerformanceID": 200011006
        }
      ]
    }
  ]
}